Category,CatNumber,Avg
Farben,1,633.22
Aufwaerts zaehlen von 1,2,566.22
Tiere,3,622.22
Sportarten,4,651.78
Abwaerts zaehlen von 9,5,540.33
Abwaerts zaehlen von 9,6,589
Metalle,7,614.22
Koerperteile,8,721.11
Aufwaerts zaehlen von 1,9,518.89
Abwaerts zaehlen von 9,10,509.56
Kuechengeraete,11,652.12
Insekten,12,913.22
Abwaerts zaehlen von 9,13,555.44
Aufwaerts zaehlen von 1,14,519.67
Blumen,15,559.67
Aufwaerts zaehlen von 1,16,491.67
Aufwaerts zaehlen von 1,17,518.89
Werkzeug,18,551
Kleidungsstuecke,19,594.22
Abwaerts zaehlen von 9,20,530.67
