Category,CatNumber,Avg
Kleidungsstuecke,1,606
Aufwaerts zaehlen von 1,2,619.67
Aufwaerts zaehlen von 1,3,582
Abwaerts zaehlen von 9,4,627.89
Fische,5,646.44
Aufwaerts zaehlen von 1,6,625.22
Tiere,7,731.44
Koerperteile,8,607.22
Kosmetik,9,1433.44
Abwaerts zaehlen von 9,10,609.11
Abwaerts zaehlen von 9,11,598.22
Farben,12,687.22
Aufwaerts zaehlen von 1,13,645.44
Abwaerts zaehlen von 9,14,541.33
Spielzeug,15,1098.12
Suessigkeiten,16,831.33
Aufwaerts zaehlen von 1,17,625
Abwaerts zaehlen von 9,18,556.11
Gartengeraete,19,734.33
Sportarten,20,1009.67
