Category,CatNumber,Avg
Abwaerts zaehlen von 9,1,1131.33
Kuechengeraete,2,991.11
Aufwaerts zaehlen von 1,3,714.67
Aufwaerts zaehlen von 1,4,785.11
Abwaerts zaehlen von 9,5,731.56
Koerperteile,6,925.56
Aufwaerts zaehlen von 1,7,940.78
Abwaerts zaehlen von 9,8,819.44
Farben,9,973.78
Blumen,10,871.89
Insekten,11,963.29
Werkzeug,12,1002.44
Sportarten,13,964
Abwaerts zaehlen von 9,14,860.33
Metalle,15,940.44
Kleidungsstuecke,16,901.44
Abwaerts zaehlen von 9,17,715.33
Tiere,18,958.67
Aufwaerts zaehlen von 1,19,868.78
Aufwaerts zaehlen von 1,20,882.67
