Category,CatNumber,Avg
Aufwaerts zaehlen von 1,1,543.56
Baeume,2,583.11
Suessigkeiten,3,762.44
Lebensmittel,4,745.33
Abwaerts zaehlen von 9,5,527.33
Aufwaerts zaehlen von 1,6,545
Kosmetik,7,1142.33
Aufwaerts zaehlen von 1,8,521
Aufwaerts zaehlen von 1,9,540.78
Abwaerts zaehlen von 9,10,534.89
Berufe,11,608.78
Abwaerts zaehlen von 9,12,539.67
Spielzeug,13,915
Aufwaerts zaehlen von 1,14,562.11
Fische,15,735
Abwaerts zaehlen von 9,16,557.44
Abwaerts zaehlen von 9,17,522.56
Autoteile,18,500.67
Gartengeraete,19,509.33
Musikinstrumente,20,662.11
