Category,CatNumber,Avg
Werkzeug,1,626
Aufwaerts zaehlen von 1,2,544.44
Abwaerts zaehlen von 9,3,532.56
Aufwaerts zaehlen von 1,4,499
Autoteile,5,636.67
Musikinstrumente,6,802.62
Blumen,7,716.67
Lebensmittel,8,553.78
Baeume,9,694.44
Abwaerts zaehlen von 9,10,488.33
Aufwaerts zaehlen von 1,11,561.67
Metalle,12,719.89
Aufwaerts zaehlen von 1,13,558.89
Abwaerts zaehlen von 9,14,615.78
Abwaerts zaehlen von 9,15,547.33
Berufe,16,666.33
Abwaerts zaehlen von 9,17,531.44
Kuechengeraete,18,906.11
Aufwaerts zaehlen von 1,19,536.56
Insekten,20,918
