Category,CatNumber,Avg
Abwaerts zaehlen von 9,1,659.33
Tiere,2,520
Aufwaerts zaehlen von 1,3,504
Abwaerts zaehlen von 9,4,540.44
Suessigkeiten,5,720.89
Farben,6,500.33
Abwaerts zaehlen von 9,7,564.33
Sportarten,8,650.11
Kosmetik,9,777.12
Aufwaerts zaehlen von 1,10,515.67
Spielzeug,11,640
Aufwaerts zaehlen von 1,12,549.56
Kleidungsstuecke,13,495.89
Abwaerts zaehlen von 9,14,558.89
Abwaerts zaehlen von 9,15,545.67
Koerperteile,16,504.67
Gartengeraete,17,1070.33
Fische,18,762.22
Aufwaerts zaehlen von 1,19,533.78
Aufwaerts zaehlen von 1,20,576.67
