Category,CatNumber,Avg
Abwaerts zaehlen von 9,1,688.22
Kuechengeraete,2,853.33
Abwaerts zaehlen von 9,3,730.78
Koerperteile,4,907.78
Abwaerts zaehlen von 9,5,723.22
Aufwaerts zaehlen von 1,6,736.44
Sportarten,7,740.22
Tiere,8,840.67
Aufwaerts zaehlen von 1,9,731.89
Aufwaerts zaehlen von 1,10,719.89
Farben,11,747.89
Kleidungsstuecke,12,876.89
Abwaerts zaehlen von 9,13,716.44
Insekten,14,902.78
Abwaerts zaehlen von 9,15,784.11
Werkzeug,16,844.11
Metalle,17,876.11
Aufwaerts zaehlen von 1,18,734
Aufwaerts zaehlen von 1,19,655.56
Blumen,20,712.67
