Category,CatNumber,Avg
Aufwaerts zaehlen von 1,1,460.33
Tiere,2,477.89
Aufwaerts zaehlen von 1,3,445.44
Kosmetik,4,546.11
Spielzeug,5,552.67
Aufwaerts zaehlen von 1,6,477.11
Farben,7,488.67
Koerperteile,8,500.22
Abwaerts zaehlen von 9,9,410.56
Gartengeraete,10,722.56
Abwaerts zaehlen von 9,11,386.22
Aufwaerts zaehlen von 1,12,423.44
Abwaerts zaehlen von 9,13,432.44
Sportarten,14,447.33
Aufwaerts zaehlen von 1,15,416.11
Abwaerts zaehlen von 9,16,431.78
Fische,17,426.25
Kleidungsstuecke,18,480.78
Abwaerts zaehlen von 9,19,412.22
Suessigkeiten,20,992.56
