Category,CatNumber,Avg
Abwaerts zaehlen von 9,1,617.44
Tiere,2,811.71
Blumen,3,1326.25
Abwaerts zaehlen von 9,4,526.89
Aufwaerts zaehlen von 1,5,566.33
Insekten,6,818.29
Abwaerts zaehlen von 9,7,548.44
Abwaerts zaehlen von 9,8,573.11
Farben,9,664
Aufwaerts zaehlen von 1,10,548.89
Sportarten,11,1024
Kuechengeraete,12,772.78
Aufwaerts zaehlen von 1,13,521.33
Kleidungsstuecke,14,932.33
Werkzeug,15,1167.67
Aufwaerts zaehlen von 1,16,513.78
Metalle,17,938.12
Abwaerts zaehlen von 9,18,551
Koerperteile,19,645.78
Aufwaerts zaehlen von 1,20,566.89
