Category,CatNumber,Avg
Blumen,1,696.78
Lebensmittel,2,665.67
Kuechengeraete,3,771.67
Abwaerts zaehlen von 9,4,516.78
Aufwaerts zaehlen von 1,5,500.33
Baeume,6,733.67
Aufwaerts zaehlen von 1,7,517.89
Abwaerts zaehlen von 9,8,529
Abwaerts zaehlen von 9,9,602.89
Metalle,10,628.67
Werkzeug,11,856.33
Insekten,12,679.11
Berufe,13,821.33
Aufwaerts zaehlen von 1,14,566.22
Abwaerts zaehlen von 9,15,587.89
Autoteile,16,794.11
Musikinstrumente,17,743.44
Aufwaerts zaehlen von 1,18,656.22
Abwaerts zaehlen von 9,19,662
Aufwaerts zaehlen von 1,20,591.44
