Category,CatNumber,Avg
Werkzeug,1,1029.78
Blumen,2,781.44
Aufwaerts zaehlen von 1,3,841.22
Aufwaerts zaehlen von 1,4,813.44
Sportarten,5,1035.78
Koerperteile,6,849.33
Aufwaerts zaehlen von 1,7,607.44
Metalle,8,952.25
Abwaerts zaehlen von 9,9,848.33
Farben,10,718.56
Abwaerts zaehlen von 9,11,1038.33
Kuechengeraete,12,1260.78
Insekten,13,1087.75
Aufwaerts zaehlen von 1,14,849.44
Tiere,15,740.33
Abwaerts zaehlen von 9,16,781.67
Aufwaerts zaehlen von 1,17,774.11
Kleidungsstuecke,18,611.22
Abwaerts zaehlen von 9,19,864.22
Abwaerts zaehlen von 9,20,687
