Category,CatNumber,Avg
Baeume,1,875
Abwaerts zaehlen von 9,2,674.78
Aufwaerts zaehlen von 1,3,678.89
Aufwaerts zaehlen von 1,4,680.11
Berufe,5,667.22
Abwaerts zaehlen von 9,6,722.11
Abwaerts zaehlen von 9,7,668
Suessigkeiten,8,811.33
Musikinstrumente,9,638.11
Abwaerts zaehlen von 9,10,708.78
Fische,11,1128.22
Aufwaerts zaehlen von 1,12,588.33
Spielzeug,13,961.67
Lebensmittel,14,856.67
Kosmetik,15,643.12
Aufwaerts zaehlen von 1,16,590.89
Abwaerts zaehlen von 9,17,750.67
Aufwaerts zaehlen von 1,18,715.22
Autoteile,19,593.56
Gartengeraete,20,1389.75
