Category,CatNumber,Avg
Farben,1,755.33
Kleidungsstuecke,2,655.11
Aufwaerts zaehlen von 1,3,635.33
Kosmetik,4,907.67
Abwaerts zaehlen von 9,5,602.67
Abwaerts zaehlen von 9,6,560.78
Sportarten,7,782.44
Spielzeug,8,1036.22
Aufwaerts zaehlen von 1,9,562.33
Abwaerts zaehlen von 9,10,596.33
Suessigkeiten,11,1095.89
Koerperteile,12,666.11
Aufwaerts zaehlen von 1,13,635.44
Abwaerts zaehlen von 9,14,601.67
Gartengeraete,15,827.22
Abwaerts zaehlen von 9,16,549.22
Tiere,17,569.33
Aufwaerts zaehlen von 1,18,650.22
Aufwaerts zaehlen von 1,19,616.78
Fische,20,900
