Category,CatNumber,Avg
Aufwaerts zaehlen von 1,1,473.33
Spielzeug,2,551.22
Gartengeraete,3,642.11
Aufwaerts zaehlen von 1,4,433.67
Baeume,5,1016
Aufwaerts zaehlen von 1,6,420.44
Berufe,7,534.11
Abwaerts zaehlen von 9,8,422.33
Abwaerts zaehlen von 9,9,444.67
Musikinstrumente,10,532.56
Abwaerts zaehlen von 9,11,461.89
Aufwaerts zaehlen von 1,12,449.56
Autoteile,13,854.22
Fische,14,545.78
Suessigkeiten,15,630.71
Kosmetik,16,604
Abwaerts zaehlen von 9,17,449
Abwaerts zaehlen von 9,18,447.33
Aufwaerts zaehlen von 1,19,472.78
Lebensmittel,20,531.89
