Category,CatNumber,Avg
Koerperteile,1,585.56
Aufwaerts zaehlen von 1,2,544.67
Kuechengeraete,3,632.22
Abwaerts zaehlen von 9,4,555.89
Aufwaerts zaehlen von 1,5,476.22
Aufwaerts zaehlen von 1,6,477.89
Farben,7,580.44
Insekten,8,670.11
Tiere,9,560.67
Abwaerts zaehlen von 9,10,457
Abwaerts zaehlen von 9,11,484.11
Werkzeug,12,594.78
Sportarten,13,661.33
Kleidungsstuecke,14,599
Aufwaerts zaehlen von 1,15,465.78
Abwaerts zaehlen von 9,16,537.78
Blumen,17,681.22
Aufwaerts zaehlen von 1,18,492.78
Metalle,19,1031.67
Abwaerts zaehlen von 9,20,478.11
