Category,CatNumber,Avg
Abwaerts zaehlen von 9,1,559.11
Musikinstrumente,2,635.78
Fische,3,735.89
Abwaerts zaehlen von 9,4,516.56
Aufwaerts zaehlen von 1,5,503.44
Suessigkeiten,6,1137.44
Aufwaerts zaehlen von 1,7,495
Aufwaerts zaehlen von 1,8,502.22
Gartengeraete,9,738.44
Abwaerts zaehlen von 9,10,529
Abwaerts zaehlen von 9,11,511.78
Berufe,12,728.78
Autoteile,13,601.44
Baeume,14,687.78
Kosmetik,15,869.22
Abwaerts zaehlen von 9,16,555
Aufwaerts zaehlen von 1,17,524.89
Aufwaerts zaehlen von 1,18,514.22
Spielzeug,19,707.67
Lebensmittel,20,758.11
