Category,Correct,weiter,NR,Unintelligible,Repetitions,NR_category,Aborted,Word,Onset,Run,Subj
Abwaerts zaehlen von 9,1,,,,,,,neun,659,1,004_JE
Abwaerts zaehlen von 9,1,,,,,,,acht,613,1,004_JE
Abwaerts zaehlen von 9,1,,,,,,,sieben,642,1,004_JE
Abwaerts zaehlen von 9,1,,,,,,,sechs,601,1,004_JE
Abwaerts zaehlen von 9,1,,,,,,,fuenf,566,1,004_JE
Abwaerts zaehlen von 9,1,,,,,,,vier,551,1,004_JE
Abwaerts zaehlen von 9,1,,,,,,,drei ,481,1,004_JE
Abwaerts zaehlen von 9,1,,,,,,,zwei,525,1,004_JE
Abwaerts zaehlen von 9,1,,,,,,,eins,691,1,004_JE
Aufwaerts zaehlen von 1,1,,,,,,,eins,965,1,004_JE
Aufwaerts zaehlen von 1,1,,,,,,,zwei,493,1,004_JE
Aufwaerts zaehlen von 1,1,,,,,,,drei ,638,1,004_JE
Aufwaerts zaehlen von 1,1,,,,,,,vier,612,1,004_JE
Aufwaerts zaehlen von 1,1,,,,,,,fuenf,501,1,004_JE
Aufwaerts zaehlen von 1,1,,,,,,,sechs,397,1,004_JE
Aufwaerts zaehlen von 1,1,,,,,,,sieben,464,1,004_JE
Aufwaerts zaehlen von 1,1,,,,,,,acht,649,1,004_JE
Aufwaerts zaehlen von 1,1,,,,,,,neun,878,1,004_JE
Abwaerts zaehlen von 9,1,,,,,,,neun,1091,1,004_JE
Abwaerts zaehlen von 9,1,,,,,,,acht,589,1,004_JE
Abwaerts zaehlen von 9,1,,,,,,,sieben,534,1,004_JE
Abwaerts zaehlen von 9,1,,,,,,,sechs,656,1,004_JE
Abwaerts zaehlen von 9,1,,,,,,,fuenf,519,1,004_JE
Abwaerts zaehlen von 9,1,,,,,,,vier,461,1,004_JE
Abwaerts zaehlen von 9,1,,,,,,,drei ,601,1,004_JE
Abwaerts zaehlen von 9,1,,,,,,,zwei,406,1,004_JE
Abwaerts zaehlen von 9,1,,,,,,,eins,528,1,004_JE
Baeume,1,,,,,,,Fichte,835,1,004_JE
Baeume,1,,,,,,,Eiche,623,1,004_JE
Baeume,1,,,,,,,Kastanie,484,1,004_JE
Baeume,1,,,,,,,Buche,455,1,004_JE
Baeume,1,,,,,,,Birke,487,1,004_JE
Baeume,1,,,,,,,Tanne,484,1,004_JE
Baeume,1,,,1,,,,,504,1,004_JE
Baeume,1,,,,,,,Apfelbaum,574,1,004_JE
Baeume,1,,,,,,,Kirschbaum,461,1,004_JE
Berufe,1,,,,,,,Arzt,719,1,004_JE
Berufe,1,,,,,,,Verkaeufer,580,1,004_JE
Berufe,1,,,,,,,Bostbote,423,1,004_JE
Berufe,1,,,,,,,Friseur,580,1,004_JE
Berufe,1,,,,,,,Unternehmensberater,432,1,004_JE
Berufe,1,,,,,,,BTA,513,1,004_JE
Berufe,1,,,,,,,Lehrer,412,1,004_JE
Berufe,1,,,,,,,Gaertner,441,1,004_JE
Berufe,1,,,,,,,Bademeister,620,1,004_JE
Musikinstrumente,1,,,,,,,Geige,577,1,004_JE
Musikinstrumente,1,,,,,,,Cello,474,1,004_JE
Musikinstrumente,1,,,,,,,Klavier,545,1,004_JE
Musikinstrumente,1,,,,,,,Bratsche,687,1,004_JE
Musikinstrumente,1,,,,,,,Trompete,470,1,004_JE
Musikinstrumente,1,,,,,,,Posaune,472,1,004_JE
Musikinstrumente,1,,,,,,,Oboe,475,1,004_JE
Musikinstrumente,1,,,,,,,Fagott,594,1,004_JE
Musikinstrumente,1,,,,,,,Schlagzeug,530,1,004_JE
Abwaerts zaehlen von 9,1,,,,,,,neun,738,1,004_JE
Abwaerts zaehlen von 9,1,,,,,,,acht,586,1,004_JE
Abwaerts zaehlen von 9,1,,,,,,,sieben,470,1,004_JE
Abwaerts zaehlen von 9,1,,,,,,,sechs,403,1,004_JE
Abwaerts zaehlen von 9,1,,,,,,,fuenf,525,1,004_JE
Abwaerts zaehlen von 9,1,,,,,,,vier,842,1,004_JE
Abwaerts zaehlen von 9,1,,,,,,,drei ,656,1,004_JE
Abwaerts zaehlen von 9,1,,,,,,,zwei,438,1,004_JE
Abwaerts zaehlen von 9,1,,,,,,,eins,458,1,004_JE
Aufwaerts zaehlen von 1,1,,,,,,,eins,658,1,004_JE
Aufwaerts zaehlen von 1,1,,,,,,,zwei,609,1,004_JE
Aufwaerts zaehlen von 1,1,,,,,,,drei ,461,1,004_JE
Aufwaerts zaehlen von 1,1,,,,,,,vier,554,1,004_JE
Aufwaerts zaehlen von 1,1,,,,,,,fuenf,519,1,004_JE
Aufwaerts zaehlen von 1,1,,,,,,,sechs,443,1,004_JE
Aufwaerts zaehlen von 1,1,,,,,,,sieben,843,1,004_JE
Aufwaerts zaehlen von 1,1,,,,,,,acht,557,1,004_JE
Aufwaerts zaehlen von 1,1,,,,,,,neun,878,1,004_JE
Insekten,1,,,,,,,Biene,704,1,004_JE
Insekten,1,,,,,,,Wespe,507,1,004_JE
Insekten,1,,,,,,,Hummel,429,1,004_JE
Insekten,1,,,,,,,Borkenkaefer,707,1,004_JE
Insekten,1,,,,,,,Ameise,528,1,004_JE
Insekten,1,,,,,,,Blattlaus,568,1,004_JE
Insekten,1,,,,,,,Muecke,551,1,004_JE
Insekten,1,,,,,,,Kartoffelkaefer,438,1,004_JE
Insekten,1,,,,,,,Schmetterling,412,1,004_JE
Lebensmittel,1,,,,,,,Brot,1038,1,004_JE
Lebensmittel,1,,,1,,,,,612,1,004_JE
Lebensmittel,1,,,,,,,Kaese,597,1,004_JE
Lebensmittel,1,,,,,,,Wurst,519,1,004_JE
Lebensmittel,1,,,,,,,Eier,432,1,004_JE
Lebensmittel,1,,,,,,,Joghurt,580,1,004_JE
Lebensmittel,1,,,,,,,Butter,542,1,004_JE
Lebensmittel,1,,,,,,,Muesli,429,1,004_JE
Lebensmittel,1,,,,,,,Honig,487,1,004_JE
Abwaerts zaehlen von 9,1,,,,,,,neun,701,1,004_JE
Abwaerts zaehlen von 9,1,,,,,,,acht,577,1,004_JE
Abwaerts zaehlen von 9,1,,,,,,,sieben,394,1,004_JE
Abwaerts zaehlen von 9,1,,,,,,,sechs,397,1,004_JE
Abwaerts zaehlen von 9,1,,,,,,,fuenf,467,1,004_JE
Abwaerts zaehlen von 9,1,,,,,,,vier,539,1,004_JE
Abwaerts zaehlen von 9,1,,,,,,,drei ,472,1,004_JE
Abwaerts zaehlen von 9,1,,,,,,,zwei,412,1,004_JE
Abwaerts zaehlen von 9,1,,,,,,,eins,536,1,004_JE
Werkzeug,1,,,,,,,Hammer,528,1,004_JE
Werkzeug,1,,,,,,,Naegel,571,1,004_JE
Werkzeug,1,,,,,,,Bohrmaschine,597,1,004_JE
Werkzeug,1,,,,,,,Schleifgeraet,420,1,004_JE
Werkzeug,1,,,,,,,Kettensaege,632,1,004_JE
Werkzeug,1,,,,,,,Schraubenzieher,394,1,004_JE
Werkzeug,1,,,,,,,Stichsaege,545,1,004_JE
Werkzeug,,1,,,,,,weiter,795,1,004_JE
Werkzeug,,1,,,,,,weiter,1099,1,004_JE
Autoteile,1,,,1,,,,,861,1,004_JE
Autoteile,1,,,,,,,Windschutzscheibe,432,1,004_JE
Autoteile,1,,,,,,,Motor,496,1,004_JE
Autoteile,1,,,,,,,Zuendkerze,397,1,004_JE
Autoteile,1,,,,,,,Anlasser,455,1,004_JE
Autoteile,1,,,,,,,Auspuff,348,1,004_JE
Autoteile,1,,,,,,,Seitenspiegel,452,1,004_JE
Autoteile,,1,,,,,,weiter,777,1,004_JE
Autoteile,1,,,,,,,Autositze,365,1,004_JE
Aufwaerts zaehlen von 1,1,,,,,,,eins,1307,1,004_JE
Aufwaerts zaehlen von 1,1,,,,,,,zwei,432,1,004_JE
Aufwaerts zaehlen von 1,1,,,,,,,drei ,504,1,004_JE
Aufwaerts zaehlen von 1,1,,,,,,,vier,620,1,004_JE
Aufwaerts zaehlen von 1,1,,,,,,,fuenf,551,1,004_JE
Aufwaerts zaehlen von 1,1,,,,,,,sechs,528,1,004_JE
Aufwaerts zaehlen von 1,1,,,,,,,sieben,406,1,004_JE
Aufwaerts zaehlen von 1,1,,,,,,,acht,429,1,004_JE
Aufwaerts zaehlen von 1,1,,,,,,,neun,791,1,004_JE
Blumen,1,,,,,,,Ringelblume,678,1,004_JE
Blumen,1,,,,,,,Sonnenblume,351,1,004_JE
Blumen,1,,,,,,,Gaensebluemchen,438,1,004_JE
Blumen,1,,,,,,,Pfingstrose,655,1,004_JE
Blumen,1,,,,,,,Tulpe,412,1,004_JE
Blumen,1,,,1,,,,,426,1,004_JE
Blumen,1,,,,,,,Stiefmuetterchen,414,1,004_JE
Blumen,,1,,,,,,weiter,623,1,004_JE
Blumen,1,,,,,,,Rose,580,1,004_JE
Kuechengeraete,1,,,,,,,Mixer,867,1,004_JE
Kuechengeraete,1,,,,,,,Mikrowelle,478,1,004_JE
Kuechengeraete,1,,,,,,,Herd,426,1,004_JE
Kuechengeraete,1,,,,,,,Backofen,501,1,004_JE
Kuechengeraete,1,,,,,,,Spuelmaschine,409,1,004_JE
Kuechengeraete,1,,,,,,,Kaffeemaschine,417,1,004_JE
Kuechengeraete,1,,,,,,,Eismaschine,510,1,004_JE
Kuechengeraete,1,,,,,,,Milchschaeumer,519,1,004_JE
Kuechengeraete,1,,,,,,,Wasserkocher,429,1,004_JE
Abwaerts zaehlen von 9,1,,,,,,,neun,670,1,004_JE
Abwaerts zaehlen von 9,1,,,,,,,acht,539,1,004_JE
Abwaerts zaehlen von 9,1,,,,,,,sieben,432,1,004_JE
Abwaerts zaehlen von 9,1,,,,,,,sechs,939,1,004_JE
Abwaerts zaehlen von 9,1,,,,,,,fuenf,626,1,004_JE
Abwaerts zaehlen von 9,1,,,,,,,vier,577,1,004_JE
Abwaerts zaehlen von 9,1,,,,,,,drei ,528,1,004_JE
Abwaerts zaehlen von 9,1,,,,,,,zwei,472,1,004_JE
Abwaerts zaehlen von 9,1,,,,,,,eins,646,1,004_JE
Aufwaerts zaehlen von 1,1,,,,,,,eins,667,1,004_JE
Aufwaerts zaehlen von 1,1,,,,,,,zwei,530,1,004_JE
Aufwaerts zaehlen von 1,1,,,,,,,drei ,478,1,004_JE
Aufwaerts zaehlen von 1,1,,,,,,,vier,359,1,004_JE
Aufwaerts zaehlen von 1,1,,,,,,,fuenf,485,1,004_JE
Aufwaerts zaehlen von 1,1,,,,,,,sechs,441,1,004_JE
Aufwaerts zaehlen von 1,1,,,,,,,sieben,394,1,004_JE
Aufwaerts zaehlen von 1,1,,,,,,,acht,568,1,004_JE
Aufwaerts zaehlen von 1,1,,,,,,,neun,525,1,004_JE
Aufwaerts zaehlen von 1,1,,,,,,,eins,1388,1,004_JE
Aufwaerts zaehlen von 1,1,,,,,,,zwei,687,1,004_JE
Aufwaerts zaehlen von 1,1,,,,,,,drei ,389,1,004_JE
Aufwaerts zaehlen von 1,1,,,,,,,vier,539,1,004_JE
Aufwaerts zaehlen von 1,1,,,,,,,fuenf,536,1,004_JE
Aufwaerts zaehlen von 1,1,,,,,,,sechs,557,1,004_JE
Aufwaerts zaehlen von 1,1,,,,,,,sieben,412,1,004_JE
Aufwaerts zaehlen von 1,1,,,,,,,acht,368,1,004_JE
Aufwaerts zaehlen von 1,1,,,,,,,neun,493,1,004_JE
Metalle,1,,,,,,,Eisen,1064,1,004_JE
Metalle,1,,,,,,,Kupfer,600,1,004_JE
Metalle,1,,,1,,,,,704,1,004_JE
Metalle,1,,,,,,,Mangan,528,1,004_JE
Metalle,1,,,,,,,Nickel,684,1,004_JE
Metalle,,1,,,,,,weiter,525,1,004_JE
Metalle,1,,,,,,,Stahl,517,1,004_JE
Metalle,,1,,,,,,weiter,942,1,004_JE
Metalle,1,,,,,,,Silber,417,1,004_JE
Abwaerts zaehlen von 9,1,,,,,,,neun,674,2,004_JE
Abwaerts zaehlen von 9,1,,,,,,,acht,636,2,004_JE
Abwaerts zaehlen von 9,1,,,,,,,sieben,403,2,004_JE
Abwaerts zaehlen von 9,1,,,,,,,sechs,654,2,004_JE
Abwaerts zaehlen von 9,1,,,,,,,fuenf,525,2,004_JE
Abwaerts zaehlen von 9,1,,,,,,,vier,495,2,004_JE
Abwaerts zaehlen von 9,1,,,,,,,drei ,592,2,004_JE
Abwaerts zaehlen von 9,1,,,,,,,zwei,443,2,004_JE
Abwaerts zaehlen von 9,1,,,,,,,eins,420,2,004_JE
Kleidungsstuecke,1,,,,,,,Hose,817,2,004_JE
Kleidungsstuecke,1,,,,,,,Rock,467,2,004_JE
Kleidungsstuecke,1,,,,,,,Kleid,726,2,004_JE
Kleidungsstuecke,1,,,,,,,T-Shirt,443,2,004_JE
Kleidungsstuecke,1,,,,,,,Pullover,575,2,004_JE
Kleidungsstuecke,1,,,,,,,Shorts,715,2,004_JE
Kleidungsstuecke,1,,,,,,,Jacke,385,2,004_JE
Kleidungsstuecke,1,,,,,,,Mantel,493,2,004_JE
Kleidungsstuecke,1,,,,,,,Muetze,499,2,004_JE
Koerperteile,1,,,,,,,Haende,645,2,004_JE
Koerperteile,1,,,,,,,Fuesse,464,2,004_JE
Koerperteile,1,,,,,,,Bauch,703,2,004_JE
Koerperteile,1,,,,,,,Nase,499,2,004_JE
Koerperteile,1,,,,,,,Mund,493,2,004_JE
Koerperteile,1,,,,,,,Ohren,671,2,004_JE
Koerperteile,1,,,,,,,Kopf,449,2,004_JE
Koerperteile,1,,,,,,,Hals,513,2,004_JE
Koerperteile,1,,,,,,,Zehen,788,2,004_JE
Spielzeug,1,,,,,,,Ball,925,2,004_JE
Spielzeug,1,,,,,,,Bobbycar,551,2,004_JE
Spielzeug,1,,,,,,,Springseil,438,2,004_JE
Spielzeug,1,,,,,,,Baukloetze,464,2,004_JE
Spielzeug,1,,,,,,,Lego,473,2,004_JE
Spielzeug,1,,,,,,,Playmobil,589,2,004_JE
Spielzeug,1,,,,,,,Memory,481,2,004_JE
Spielzeug,1,,,,,,,Puppenhaus,627,2,004_JE
Spielzeug,1,,,,,,,Ritterburg,671,2,004_JE
Gartengeraete,1,,,,,,,Heckenschere,621,2,004_JE
Gartengeraete,1,,,,,,,Zange,1211,2,004_JE
Gartengeraete,1,,,,,,,Hexler,540,2,004_JE
Gartengeraete,1,,,,,,,Rasenmaeher,461,2,004_JE
Gartengeraete,1,,,,,,,Rasensprenger,702,2,004_JE
Gartengeraete,1,,,,,,,Holzsaege,452,2,004_JE
Gartengeraete,1,,,,,,,Axt,481,2,004_JE
Gartengeraete,1,,,,,,,Schaufel,423,2,004_JE
Gartengeraete,,1,,,,,,weiter,481,2,004_JE
Suessigkeiten,1,,,,,,,Schokolade,595,2,004_JE
Suessigkeiten,1,,,,,,,Bonbons,537,2,004_JE
Suessigkeiten,1,,,,,,,Kaugummi,528,2,004_JE
Suessigkeiten,1,,,,,,,Schokoweihnachtsmaenner,522,2,004_JE
Suessigkeiten,1,,,,,,,Kaubonbons,403,2,004_JE
Suessigkeiten,1,,,,,,,Waffel,633,2,004_JE
Suessigkeiten,1,,,,,,,Muesliriegel,505,2,004_JE
Suessigkeiten,1,,,,,,,gebrannte Mandeln,414,2,004_JE
Suessigkeiten,1,,,,,,,Eis,528,2,004_JE
Fische,1,,,,,,,Karpfen,680,2,004_JE
Fische,1,,,,,,,Lachs,627,2,004_JE
Fische,1,,,,,,,Thunfisch,500,2,004_JE
Fische,1,,,,,,,Pangasius,589,2,004_JE
Fische,1,,,,,,,Hecht,686,2,004_JE
Fische,1,,,1,,,,,709,2,004_JE
Fische,,1,,,,,,weiter,788,2,004_JE
Fische,1,,,,,,,Scholle,470,2,004_JE
Fische,,1,,,,,,weiter,630,2,004_JE
Aufwaerts zaehlen von 1,1,,,,,,,eins,680,2,004_JE
Aufwaerts zaehlen von 1,1,,,,,,,zwei,642,2,004_JE
Aufwaerts zaehlen von 1,1,,,,,,,drei ,613,2,004_JE
Aufwaerts zaehlen von 1,1,,,,,,,vier,569,2,004_JE
Aufwaerts zaehlen von 1,1,,,,,,,fuenf,610,2,004_JE
Aufwaerts zaehlen von 1,1,,,,,,,sechs,502,2,004_JE
Aufwaerts zaehlen von 1,1,,,,,,,sieben,689,2,004_JE
Aufwaerts zaehlen von 1,1,,,,,,,acht,560,2,004_JE
Aufwaerts zaehlen von 1,1,,,,,,,neun,516,2,004_JE
Abwaerts zaehlen von 9,1,,,,,,,neun,794,2,004_JE
Abwaerts zaehlen von 9,1,,,,,,,acht,557,2,004_JE
Abwaerts zaehlen von 9,1,,,,,,,sieben,473,2,004_JE
Abwaerts zaehlen von 9,1,,,,,,,sechs,671,2,004_JE
Abwaerts zaehlen von 9,1,,,,,,,fuenf,505,2,004_JE
Abwaerts zaehlen von 9,1,,,,,,,vier,557,2,004_JE
Abwaerts zaehlen von 9,1,,,,,,,drei ,511,2,004_JE
Abwaerts zaehlen von 9,1,,,,,,,zwei,443,2,004_JE
Abwaerts zaehlen von 9,1,,,,,,,eins,621,2,004_JE
Aufwaerts zaehlen von 1,1,,,,,,,eins,759,2,004_JE
Aufwaerts zaehlen von 1,1,,,,,,,zwei,508,2,004_JE
Aufwaerts zaehlen von 1,1,,,,,,,drei ,519,2,004_JE
Aufwaerts zaehlen von 1,1,,,,,,,vier,689,2,004_JE
Aufwaerts zaehlen von 1,1,,,,,,,fuenf,753,2,004_JE
Aufwaerts zaehlen von 1,1,,,,,,,sechs,651,2,004_JE
Aufwaerts zaehlen von 1,1,,,,,,,sieben,481,2,004_JE
Aufwaerts zaehlen von 1,1,,,,,,,acht,502,2,004_JE
Aufwaerts zaehlen von 1,1,,,,,,,neun,543,2,004_JE
Kosmetik,1,,,,,,,Lippenstift,721,2,004_JE
Kosmetik,1,,,,,,,Mascara,505,2,004_JE
Kosmetik,1,,,,,,,Kajal,496,2,004_JE
Kosmetik,1,,,,,,,Rouge,616,2,004_JE
Kosmetik,1,,,,,,,Lipgloss,511,2,004_JE
Kosmetik,1,,,,,,,Highlighter,420,2,004_JE
Kosmetik,1,,,1,,,,,522,2,004_JE
Kosmetik,1,,,,,,,Concealer,411,2,004_JE
Kosmetik,1,,,,,,,Primer,724,2,004_JE
Aufwaerts zaehlen von 1,1,,,,,,,eins,761,2,004_JE
Aufwaerts zaehlen von 1,1,,,,,,,zwei,432,2,004_JE
Aufwaerts zaehlen von 1,1,,,,,,,drei ,549,2,004_JE
Aufwaerts zaehlen von 1,1,,,,,,,vier,534,2,004_JE
Aufwaerts zaehlen von 1,1,,,,,,,fuenf,607,2,004_JE
Aufwaerts zaehlen von 1,1,,,,,,,sechs,554,2,004_JE
Aufwaerts zaehlen von 1,1,,,,,,,sieben,683,2,004_JE
Aufwaerts zaehlen von 1,1,,,,,,,acht,522,2,004_JE
Aufwaerts zaehlen von 1,1,,,,,,,neun,616,2,004_JE
Abwaerts zaehlen von 9,1,,,,,,,neun,639,2,004_JE
Abwaerts zaehlen von 9,1,,,,,,,acht,1044,2,004_JE
Abwaerts zaehlen von 9,1,,,,,,,sieben,680,2,004_JE
Abwaerts zaehlen von 9,1,,,,,,,sechs,834,2,004_JE
Abwaerts zaehlen von 9,1,,,,,,,fuenf,595,2,004_JE
Abwaerts zaehlen von 9,1,,,,,,,vier,639,2,004_JE
Abwaerts zaehlen von 9,1,,,,,,,drei ,648,2,004_JE
Abwaerts zaehlen von 9,1,,,,,,,zwei,464,2,004_JE
Abwaerts zaehlen von 9,1,,,,,,,eins,616,2,004_JE
Tiere,1,,,,,,,Hund,604,2,004_JE
Tiere,1,,,,,,,Katze,645,2,004_JE
Tiere,1,,,,,,,Loewe,864,2,004_JE
Tiere,1,,,,,,,Tiger,656,2,004_JE
Tiere,1,,,,,,,Pferd,563,2,004_JE
Tiere,1,,,,,,,Schwein,470,2,004_JE
Tiere,1,,,,,,,Kuh,534,2,004_JE
Tiere,1,,,,,,,Huhn,400,2,004_JE
Tiere,1,,,,,,,Fisch,621,2,004_JE
Abwaerts zaehlen von 9,1,,,,,,,neun,645,2,004_JE
Abwaerts zaehlen von 9,1,,,,,,,acht,566,2,004_JE
Abwaerts zaehlen von 9,1,,,,,,,sieben,543,2,004_JE
Abwaerts zaehlen von 9,1,,,,,,,sechs,484,2,004_JE
Abwaerts zaehlen von 9,1,,,,,,,fuenf,578,2,004_JE
Abwaerts zaehlen von 9,1,,,,,,,vier,549,2,004_JE
Abwaerts zaehlen von 9,1,,,,,,,drei ,651,2,004_JE
Abwaerts zaehlen von 9,1,,,,,,,zwei,461,2,004_JE
Abwaerts zaehlen von 9,1,,,,,,,eins,560,2,004_JE
Aufwaerts zaehlen von 1,1,,,,,,,eins,840,2,004_JE
Aufwaerts zaehlen von 1,1,,,,,,,zwei,455,2,004_JE
Aufwaerts zaehlen von 1,1,,,,,,,drei ,470,2,004_JE
Aufwaerts zaehlen von 1,1,,,,,,,vier,779,2,004_JE
Aufwaerts zaehlen von 1,1,,,,,,,fuenf,764,2,004_JE
Aufwaerts zaehlen von 1,1,,,,,,,sechs,554,2,004_JE
Aufwaerts zaehlen von 1,1,,,,,,,sieben,511,2,004_JE
Aufwaerts zaehlen von 1,1,,,,,,,acht,633,2,004_JE
Aufwaerts zaehlen von 1,1,,,,,,,neun,601,2,004_JE
Sportarten,1,,,1,,,,,627,2,004_JE
Sportarten,1,,,,,,,Fussball,557,2,004_JE
Sportarten,1,,,,,,,Volleyball,438,2,004_JE
Sportarten,1,,,,,,,Klettern,563,2,004_JE
Sportarten,1,,,,,,,Skifahren,470,2,004_JE
Sportarten,1,,,,,,,Snowboard,496,2,004_JE
Sportarten,1,,,1,,,,,683,2,004_JE
Sportarten,1,,,,,,,Laufen,636,2,004_JE
Sportarten,1,,,,,,,Stabhochsprung,423,2,004_JE
Aufwaerts zaehlen von 1,1,,,,,,,eins,700,2,004_JE
Aufwaerts zaehlen von 1,1,,,,,,,zwei,549,2,004_JE
Aufwaerts zaehlen von 1,1,,,,,,,drei ,505,2,004_JE
Aufwaerts zaehlen von 1,1,,,,,,,vier,601,2,004_JE
Aufwaerts zaehlen von 1,1,,,,,,,fuenf,875,2,004_JE
Aufwaerts zaehlen von 1,1,,,,,,,sechs,505,2,004_JE
Aufwaerts zaehlen von 1,1,,,,,,,sieben,546,2,004_JE
Aufwaerts zaehlen von 1,1,,,,,,,acht,563,2,004_JE
Aufwaerts zaehlen von 1,1,,,,,,,neun,537,2,004_JE
Farben,1,,,,,,,Gelb,744,2,004_JE
Farben,1,,,,,,,Gruen,586,2,004_JE
Farben,1,,,,,,,Blau,540,2,004_JE
Farben,1,,,,,,,Rot,785,2,004_JE
Farben,1,,,,,,,Orange,522,2,004_JE
Farben,1,,,,,,,Braun,686,2,004_JE
Farben,1,,,,,,,Violett,651,2,004_JE
Farben,1,,,,,,,Rosa,557,2,004_JE
Farben,1,,,,,,,Ocker,621,2,004_JE
Abwaerts zaehlen von 9,1,,,,,,,neun,788,2,004_JE
Abwaerts zaehlen von 9,1,,,,,,,acht,575,2,004_JE
Abwaerts zaehlen von 9,1,,,,,,,sieben,779,2,004_JE
Abwaerts zaehlen von 9,1,,,,,,,sechs,645,2,004_JE
Abwaerts zaehlen von 9,1,,,,,,,fuenf,586,2,004_JE
Abwaerts zaehlen von 9,1,,,,,,,vier,671,2,004_JE
Abwaerts zaehlen von 9,1,,,,,,,drei ,499,2,004_JE
Abwaerts zaehlen von 9,1,,,,,,,zwei,498,2,004_JE
Abwaerts zaehlen von 9,1,,,,,,,eins,584,2,004_JE
