Category,Correct,weiter,NR,Unintelligible,Repetitions,NR_category,Aborted,Word,Onset,Run,Subj
Abwaerts zaehlen von 9,,,1,,,1,,,,1,005_AE
Abwaerts zaehlen von 9,,,1,,,1,,,,1,005_AE
Abwaerts zaehlen von 9,,,1,,,1,,,,1,005_AE
Abwaerts zaehlen von 9,,,1,,,1,,,,1,005_AE
Abwaerts zaehlen von 9,,,1,,,1,,,,1,005_AE
Abwaerts zaehlen von 9,,,1,,,1,,,,1,005_AE
Abwaerts zaehlen von 9,,,1,,,1,,,,1,005_AE
Abwaerts zaehlen von 9,,,1,,,1,,,,1,005_AE
Abwaerts zaehlen von 9,,,1,,,1,,,,1,005_AE
Kuechengeraete,,,1,,,,,,,1,005_AE
Kuechengeraete,1,,,,,,,Sieb,743,1,005_AE
Kuechengeraete,1,,,,,,,Messer,868,1,005_AE
Kuechengeraete,1,,,,,,,Gabel,599,1,005_AE
Kuechengeraete,1,,,,,,,Topf,477,1,005_AE
Kuechengeraete,1,,,,,,,Pfanne,542,1,005_AE
Kuechengeraete,1,,,,,,,Loeffel,434,1,005_AE
Kuechengeraete,1,,,,,,,Tasse,578,1,005_AE
Kuechengeraete,,,,,,,1,Top,2569,1,005_AE
Aufwaerts zaehlen von 1,1,,,,,,,eins,1073,1,005_AE
Aufwaerts zaehlen von 1,1,,,,,,,zwei,387,1,005_AE
Aufwaerts zaehlen von 1,1,,,,,,,drei,348,1,005_AE
Aufwaerts zaehlen von 1,1,,,,,,,vier,334,1,005_AE
Aufwaerts zaehlen von 1,1,,,,,,,fuenf,441,1,005_AE
Aufwaerts zaehlen von 1,1,,,,,,,sechs,384,1,005_AE
Aufwaerts zaehlen von 1,1,,,,,,,sieben,477,1,005_AE
Aufwaerts zaehlen von 1,1,,,,,,,acht,524,1,005_AE
Aufwaerts zaehlen von 1,1,,,,,,,neun,488,1,005_AE
Aufwaerts zaehlen von 1,1,,,,,,,eins,832,1,005_AE
Aufwaerts zaehlen von 1,1,,,,,,,zwei,384,1,005_AE
Aufwaerts zaehlen von 1,1,,,,,,,drei,416,1,005_AE
Aufwaerts zaehlen von 1,1,,,,,,,vier,592,1,005_AE
Aufwaerts zaehlen von 1,1,,,,,,,fuenf,613,1,005_AE
Aufwaerts zaehlen von 1,1,,,,,,,sechs,427,1,005_AE
Aufwaerts zaehlen von 1,1,,,,,,,sieben,474,1,005_AE
Aufwaerts zaehlen von 1,1,,,,,,,acht,448,1,005_AE
Aufwaerts zaehlen von 1,1,,,,,,,neun,448,1,005_AE
Abwaerts zaehlen von 9,1,,,,,,,neun,793,1,005_AE
Abwaerts zaehlen von 9,1,,,,,,,acht,470,1,005_AE
Abwaerts zaehlen von 9,1,,,,,,,sieben,613,1,005_AE
Abwaerts zaehlen von 9,1,,,,,,,sechs,405,1,005_AE
Abwaerts zaehlen von 9,1,,,,,,,fuenf,642,1,005_AE
Abwaerts zaehlen von 9,1,,,,,,,vier,527,1,005_AE
Abwaerts zaehlen von 9,1,,,,,,,drei,470,1,005_AE
Abwaerts zaehlen von 9,1,,,,,,,zwei,491,1,005_AE
Abwaerts zaehlen von 9,1,,,,,,,eins,441,1,005_AE
Koerperteile,1,,,,,,,Kopf,1966,1,005_AE
Koerperteile,1,,,,,,,Arm,556,1,005_AE
Koerperteile,1,,,,,,,Bein,456,1,005_AE
Koerperteile,1,,,,,,,Bauch,513,1,005_AE
Koerperteile,1,,,,,,,Fuss,563,1,005_AE
Koerperteile,1,,,,,,,Wade,380,1,005_AE
Koerperteile,1,,,,,,,Hand,499,1,005_AE
Koerperteile,1,,,,,,,Hals,330,1,005_AE
Koerperteile,1,,,,,,,Ohren,434,1,005_AE
Aufwaerts zaehlen von 1,1,,,,,,,eins,750,1,005_AE
Aufwaerts zaehlen von 1,1,,,,,,,zwei,448,1,005_AE
Aufwaerts zaehlen von 1,1,,,,,,,drei,535,1,005_AE
Aufwaerts zaehlen von 1,1,,,,,,,vier,445,1,005_AE
Aufwaerts zaehlen von 1,1,,,,,,,fuenf,448,1,005_AE
Aufwaerts zaehlen von 1,1,,,,,,,sechs,405,1,005_AE
Aufwaerts zaehlen von 1,1,,,,,,,sieben,474,1,005_AE
Aufwaerts zaehlen von 1,1,,,,,,,acht,341,1,005_AE
Aufwaerts zaehlen von 1,1,,,,,,,neun,563,1,005_AE
Abwaerts zaehlen von 9,1,,,,,,,neun,807,1,005_AE
Abwaerts zaehlen von 9,,,1,,,,,,,1,005_AE
Abwaerts zaehlen von 9,1,,,,,,,sieben,477,1,005_AE
Abwaerts zaehlen von 9,1,,,,,,,sechs,423,1,005_AE
Abwaerts zaehlen von 9,1,,,,,,,fuenf,499,1,005_AE
Abwaerts zaehlen von 9,1,,,,,,,vier,542,1,005_AE
Abwaerts zaehlen von 9,1,,,,,,,drei,517,1,005_AE
Abwaerts zaehlen von 9,1,,,,,,,zwei,384,1,005_AE
Abwaerts zaehlen von 9,1,,,,,,,eins,423,1,005_AE
Farben,1,,,,,,,rot,1360,1,005_AE
Farben,1,,,,,,,gruen,452,1,005_AE
Farben,1,,,,,,,blau,420,1,005_AE
Farben,1,,,,,,,weiss,542,1,005_AE
Farben,1,,,,,,,schwarz,398,1,005_AE
Farben,1,,,,,,,rosa,348,1,005_AE
Farben,1,,,,,,,grau,326,1,005_AE
Farben,1,,,,,,,lila,452,1,005_AE
Farben,1,,,,,,,orange,413,1,005_AE
Blumen,1,,,,,,,Rose,1055,1,005_AE
Blumen,1,,,,,,,Nelke,495,1,005_AE
Blumen,1,,,,,,,Vergissmeinnicht,448,1,005_AE
Blumen,1,,,,,,,Primel,739,1,005_AE
Blumen,1,,,,,,,Narzisse,459,1,005_AE
Blumen,1,,,,,,,Maigloeckchen,517,1,005_AE
Blumen,1,,,,,,,Gummibaum,423,1,005_AE
Blumen,,1,,,,,,weiter,1191,1,005_AE
Blumen,1,,,,1,,,Nelke,506,1,005_AE
Insekten,1,,,,,,,Biene,692,1,005_AE
Insekten,1,,,,,,,Fliege,377,1,005_AE
Insekten,1,,,,,,,Hummel,309,1,005_AE
Insekten,1,,,,,,,Schmetterlinge,405,1,005_AE
Insekten,1,,,,,,,Wespe,380,1,005_AE
Insekten,1,,,,,,,Floehe,362,1,005_AE
Insekten,1,,,,,,,Laeuse,316,1,005_AE
Insekten,1,,,,1,,,Hummel,682,1,005_AE
Insekten,,1,,,,,,weiter,1711,1,005_AE
Werkzeug,1,,,,,,,Feile,732,1,005_AE
Werkzeug,1,,,,,,,Hammer,348,1,005_AE
Werkzeug,1,,,,,,,Meissel,441,1,005_AE
Werkzeug,1,,,,,,,Beil,527,1,005_AE
Werkzeug,1,,,,,,,Axt,362,1,005_AE
Werkzeug,1,,,,,,,Schraubenzieher,402,1,005_AE
Werkzeug,1,,,,,,,Saege,714,1,005_AE
Werkzeug,1,,,,,,,Inbus,811,1,005_AE
Werkzeug,1,,,,,,,Kreuzschluessel,319,1,005_AE
Sportarten,1,,,,,,,Tennis,854,1,005_AE
Sportarten,1,,,,,,,Handball,484,1,005_AE
Sportarten,1,,,,,,,Fussball,434,1,005_AE
Sportarten,1,,,,,,,Radfahren,405,1,005_AE
Sportarten,1,,,,,,,Fechten,416,1,005_AE
Sportarten,1,,,,,,,Laufen,405,1,005_AE
Sportarten,1,,,,,,,Kugelstossen,484,1,005_AE
Sportarten,1,,,,,,,Hockey,481,1,005_AE
Sportarten,1,,,,,,,Weitsprung,527,1,005_AE
Abwaerts zaehlen von 9,1,,,,,,,neun,678,1,005_AE
Abwaerts zaehlen von 9,1,,,,,,,acht,477,1,005_AE
Abwaerts zaehlen von 9,1,,,,,,,sieben,402,1,005_AE
Abwaerts zaehlen von 9,1,,,,,,,sechs,387,1,005_AE
Abwaerts zaehlen von 9,1,,,,,,,fuenf,463,1,005_AE
Abwaerts zaehlen von 9,1,,,,,,,vier,524,1,005_AE
Abwaerts zaehlen von 9,1,,,,,,,drei,474,1,005_AE
Abwaerts zaehlen von 9,1,,,,,,,zwo,413,1,005_AE
Abwaerts zaehlen von 9,1,,,,,,,eins,384,1,005_AE
Metalle,1,,,,,,,Eisen,926,1,005_AE
Metalle,1,,,,,,,Kupfer,527,1,005_AE
Metalle,1,,,,,,,Zink,629,1,005_AE
Metalle,1,,,,,,,Blei,391,1,005_AE
Metalle,1,,,,,,,Kobalt,560,1,005_AE
Metalle,1,,,,,,,Strontium,728,1,005_AE
Metalle,1,,,,,,,Antimon,477,1,005_AE
Metalle,1,,,,,,,Kadmium,775,1,005_AE
Metalle,1,,,,,,,Barium,348,1,005_AE
Kleidungsstuecke,1,,,,,,,Rock,1015,1,005_AE
Kleidungsstuecke,1,,,,,,,Bluse,445,1,005_AE
Kleidungsstuecke,1,,,,,,,Kleid,681,1,005_AE
Kleidungsstuecke,1,,,,,,,Weste,517,1,005_AE
Kleidungsstuecke,1,,,,,,,Mantel,470,1,005_AE
Kleidungsstuecke,1,,,,,,,Anzug,366,1,005_AE
Kleidungsstuecke,1,,,,,,,Schal,326,1,005_AE
Kleidungsstuecke,1,,,,,,,Muetze,377,1,005_AE
Kleidungsstuecke,1,,,,,,,Schuhe,391,1,005_AE
Abwaerts zaehlen von 9,1,,,,,,,neun,570,1,005_AE
Abwaerts zaehlen von 9,1,,,,,,,acht,362,1,005_AE
Abwaerts zaehlen von 9,1,,,,,,,sieben,344,1,005_AE
Abwaerts zaehlen von 9,1,,,,,,,sechs,362,1,005_AE
Abwaerts zaehlen von 9,1,,,,,,,fuenf,481,1,005_AE
Abwaerts zaehlen von 9,1,,,,,,,vier,463,1,005_AE
Abwaerts zaehlen von 9,1,,,,,,,drei,578,1,005_AE
Abwaerts zaehlen von 9,1,,,,,,,zwei,488,1,005_AE
Abwaerts zaehlen von 9,1,,,,,,,eins,384,1,005_AE
Tiere,1,,,,,,,Hund,1166,1,005_AE
Tiere,1,,,,,,,Katze,470,1,005_AE
Tiere,1,,,,,,,Pferd,398,1,005_AE
Tiere,1,,,,,,,Esel,373,1,005_AE
Tiere,1,,,,,,,Schwein,330,1,005_AE
Tiere,1,,,,,,,Tiger,613,1,005_AE
Tiere,1,,,,,,,Loewe,312,1,005_AE
Tiere,1,,,,,,,Giraffe,513,1,005_AE
Tiere,1,,,,,,,Fische,456,1,005_AE
Aufwaerts zaehlen von 1,1,,,,,,,eins,671,1,005_AE
Aufwaerts zaehlen von 1,1,,,,,,,zwei,377,1,005_AE
Aufwaerts zaehlen von 1,1,,,,,,,drei,326,1,005_AE
Aufwaerts zaehlen von 1,1,,,,,,,vier,527,1,005_AE
Aufwaerts zaehlen von 1,1,,,,,,,fuenf,384,1,005_AE
Aufwaerts zaehlen von 1,1,,,,,,,sechs,355,1,005_AE
Aufwaerts zaehlen von 1,1,,,,,,,sieben,477,1,005_AE
Aufwaerts zaehlen von 1,1,,,,,,,acht,574,1,005_AE
Aufwaerts zaehlen von 1,1,,,,,,,neun,542,1,005_AE
Aufwaerts zaehlen von 1,1,,,,,,,eins,750,1,005_AE
Aufwaerts zaehlen von 1,1,,,,,,,zwei,628,1,005_AE
Aufwaerts zaehlen von 1,1,,,,,,,drei,427,1,005_AE
Aufwaerts zaehlen von 1,1,,,,,,,vier,477,1,005_AE
Aufwaerts zaehlen von 1,1,,,,,,,fuenf,538,1,005_AE
Aufwaerts zaehlen von 1,1,,,,,,,sechs,334,1,005_AE
Aufwaerts zaehlen von 1,1,,,,,,,sieben,452,1,005_AE
Aufwaerts zaehlen von 1,1,,,,,,,acht,606,1,005_AE
Aufwaerts zaehlen von 1,1,,,,,,,neun,427,1,005_AE
Abwaerts zaehlen von 9,1,,,,,,,neun,879,2,005_AE
Abwaerts zaehlen von 9,1,,,,,,,acht,438,2,005_AE
Abwaerts zaehlen von 9,1,,,,,,,sieben,743,2,005_AE
Abwaerts zaehlen von 9,1,,,,,,,sechs,405,2,005_AE
Abwaerts zaehlen von 9,1,,,,,,,fuenf,434,2,005_AE
Abwaerts zaehlen von 9,1,,,,,,,vier,635,2,005_AE
Abwaerts zaehlen von 9,1,,,,,,,drei,434,2,005_AE
Abwaerts zaehlen von 9,1,,,,,,,zwei,434,2,005_AE
Abwaerts zaehlen von 9,1,,,,,,,eins,463,2,005_AE
Baeume,1,,,,,,,Tanne,1116,2,005_AE
Baeume,1,,,,,,,Fichte,484,2,005_AE
Baeume,1,,,,,,,Kiefer,463,2,005_AE
Baeume,1,,,,,,,Laerche,362,2,005_AE
Baeume,1,,,,,,,Ahorn,384,2,005_AE
Baeume,1,,,,,,,Kastanie,316,2,005_AE
Baeume,1,,,,,,,Esche,380,2,005_AE
Baeume,1,,,,,,,Buche,545,2,005_AE
Baeume,1,,,,,,,Birke,671,2,005_AE
Aufwaerts zaehlen von 1,1,,,,,,,eins,657,2,005_AE
Aufwaerts zaehlen von 1,1,,,,,,,zwei,488,2,005_AE
Aufwaerts zaehlen von 1,1,,,,,,,drei,499,2,005_AE
Aufwaerts zaehlen von 1,1,,,,,,,vier,427,2,005_AE
Aufwaerts zaehlen von 1,1,,,,,,,fuenf,549,2,005_AE
Aufwaerts zaehlen von 1,1,,,,,,,sechs,366,2,005_AE
Aufwaerts zaehlen von 1,1,,,,,,,sieben,578,2,005_AE
Aufwaerts zaehlen von 1,1,,,,,,,acht,323,2,005_AE
Aufwaerts zaehlen von 1,1,,,,,,,neun,348,2,005_AE
Musikinstrumente,1,,,,,,,Orgel,696,2,005_AE
Musikinstrumente,1,,,,,,,Klavier,474,2,005_AE
Musikinstrumente,1,,,,,,,Geige,807,2,005_AE
Musikinstrumente,1,,,,,,,Violine,578,2,005_AE
Musikinstrumente,1,,,,,,,Floete,456,2,005_AE
Musikinstrumente,1,,,,,,,Zitter,441,2,005_AE
Musikinstrumente,1,,,,,,,Bass,520,2,005_AE
Musikinstrumente,1,,,,,,,Akkordeon,592,2,005_AE
Musikinstrumente,1,,,,,,,Triangel,535,2,005_AE
Spielzeug,1,,,,,,,Ball,628,2,005_AE
Spielzeug,1,,,,,,,Puppe,491,2,005_AE
Spielzeug,1,,,,,,,Teddy,413,2,005_AE
Spielzeug,1,,,,,,,Eisenbahn,517,2,005_AE
Spielzeug,1,,,,,,,Baukloetze,459,2,005_AE
Spielzeug,1,,,,,,,Puppenstube,448,2,005_AE
Spielzeug,1,,,,,,,Springseil,341,2,005_AE
Spielzeug,1,,,,,,,Kreisel,552,2,005_AE
Spielzeug,,,1,,,,,,,2,005_AE
Aufwaerts zaehlen von 1,1,,,,,,,eins,527,2,005_AE
Aufwaerts zaehlen von 1,1,,,,,,,zwei,556,2,005_AE
Aufwaerts zaehlen von 1,1,,,,,,,drei,391,2,005_AE
Aufwaerts zaehlen von 1,1,,,,,,,vier,481,2,005_AE
Aufwaerts zaehlen von 1,1,,,,,,,fuenf,348,2,005_AE
Aufwaerts zaehlen von 1,1,,,,,,,sechs,391,2,005_AE
Aufwaerts zaehlen von 1,1,,,,,,,sieben,276,2,005_AE
Aufwaerts zaehlen von 1,1,,,,,,,acht,653,2,005_AE
Aufwaerts zaehlen von 1,1,,,,,,,neun,517,2,005_AE
Fische,1,,,,,,,Aal,653,2,005_AE
Fische,1,,,,,,,Hecht,520,2,005_AE
Fische,1,,,,,,,Karpfen,391,2,005_AE
Fische,1,,,,,,,Hai,391,2,005_AE
Fische,1,,,,,,,Rotbarsch,370,2,005_AE
Fische,1,,,,,,,Heilbutt,581,2,005_AE
Fische,1,,,,,,,Wal,441,2,005_AE
Fische,1,,,,,,,Forelle,456,2,005_AE
Fische,,1,,,,,,weiter,1141,2,005_AE
Abwaerts zaehlen von 9,1,,,,,,,neun,606,2,005_AE
Abwaerts zaehlen von 9,1,,,,,,,acht,420,2,005_AE
Abwaerts zaehlen von 9,1,,,,,,,sieben,491,2,005_AE
Abwaerts zaehlen von 9,1,,,,,,,sechs,448,2,005_AE
Abwaerts zaehlen von 9,1,,,,,,,fuenf,649,2,005_AE
Abwaerts zaehlen von 9,1,,,,,,,vier,642,2,005_AE
Abwaerts zaehlen von 9,1,,,,,,,drei,391,2,005_AE
Abwaerts zaehlen von 9,1,,,,,,,zwei,377,2,005_AE
Abwaerts zaehlen von 9,1,,,,,,,eins,391,2,005_AE
Abwaerts zaehlen von 9,1,,,,,,,neun,520,2,005_AE
Abwaerts zaehlen von 9,1,,,,,,,acht,448,2,005_AE
Abwaerts zaehlen von 9,1,,,,,,,sieben,283,2,005_AE
Abwaerts zaehlen von 9,1,,,,,,,sechs,413,2,005_AE
Abwaerts zaehlen von 9,1,,,,,,,fuenf,398,2,005_AE
Abwaerts zaehlen von 9,1,,,,,,,vier,474,2,005_AE
Abwaerts zaehlen von 9,1,,,,,,,drei,405,2,005_AE
Abwaerts zaehlen von 9,1,,,,,,,zwei,463,2,005_AE
Abwaerts zaehlen von 9,1,,,,,,,eins,380,2,005_AE
Kosmetik,,,1,,,1,,,,2,005_AE
Kosmetik,,,1,,,1,,,,2,005_AE
Kosmetik,,,1,,,1,,,,2,005_AE
Kosmetik,,,1,,,1,,,,2,005_AE
Kosmetik,,,1,,,1,,,,2,005_AE
Kosmetik,,,1,,,1,,,,2,005_AE
Kosmetik,,,1,,,1,,,,2,005_AE
Kosmetik,,,1,,,1,,,,2,005_AE
Kosmetik,,,1,,,1,,,,2,005_AE
Abwaerts zaehlen von 9,1,,,,,,,neun,807,2,005_AE
Abwaerts zaehlen von 9,1,,,,,,,acht,366,2,005_AE
Abwaerts zaehlen von 9,1,,,,,,,sieben,370,2,005_AE
Abwaerts zaehlen von 9,1,,,,,,,sechs,535,2,005_AE
Abwaerts zaehlen von 9,1,,,,,,,fuenf,341,2,005_AE
Abwaerts zaehlen von 9,1,,,,,,,vier,545,2,005_AE
Abwaerts zaehlen von 9,1,,,,,,,drei,628,2,005_AE
Abwaerts zaehlen von 9,1,,,,,,,zwei,459,2,005_AE
Abwaerts zaehlen von 9,1,,,,,,,eins,341,2,005_AE
Aufwaerts zaehlen von 1,1,,,,,,,eins,409,2,005_AE
Aufwaerts zaehlen von 1,1,,,,,,,zwei,370,2,005_AE
Aufwaerts zaehlen von 1,1,,,,,,,drei,377,2,005_AE
Aufwaerts zaehlen von 1,1,,,,,,,vier,506,2,005_AE
Aufwaerts zaehlen von 1,1,,,,,,,fuenf,405,2,005_AE
Aufwaerts zaehlen von 1,1,,,,,,,sechs,370,2,005_AE
Aufwaerts zaehlen von 1,1,,,,,,,sieben,402,2,005_AE
Aufwaerts zaehlen von 1,1,,,,,,,acht,488,2,005_AE
Aufwaerts zaehlen von 1,1,,,,,,,neun,398,2,005_AE
Autoteile,1,,,,,,,Lenkrad,1184,2,005_AE
Autoteile,1,,,,,,,Vorderrad,423,2,005_AE
Autoteile,1,,,,,,,Hinterrad,413,2,005_AE
Autoteile,1,,,,,,,Motor,370,2,005_AE
Autoteile,1,,,,,,,Kuehler,398,2,005_AE
Autoteile,1,,,,,,,Bremse,362,2,005_AE
Autoteile,1,,,,,,,Hupe,341,2,005_AE
Autoteile,1,,,,,,,Blinker,420,2,005_AE
Autoteile,1,,,,1,,,Kuehler,657,2,005_AE
Lebensmittel,1,,,,,,,Butter,517,2,005_AE
Lebensmittel,1,,,,,,,Milch,578,2,005_AE
Lebensmittel,1,,,,,,,Mehl,405,2,005_AE
Lebensmittel,1,,,,,,,Zucker,427,2,005_AE
Lebensmittel,1,,,,,,,Salz,434,2,005_AE
Lebensmittel,1,,,,,,,Brot,488,2,005_AE
Lebensmittel,1,,,,,,,Schmalz,348,2,005_AE
Lebensmittel,1,,,,,,,Pfeffer,513,2,005_AE
Lebensmittel,1,,,,1,,,Zucker,405,2,005_AE
Aufwaerts zaehlen von 1,1,,,,,,,eins,560,2,005_AE
Aufwaerts zaehlen von 1,1,,,,,,,zwei,413,2,005_AE
Aufwaerts zaehlen von 1,1,,,,,,,drei,445,2,005_AE
Aufwaerts zaehlen von 1,1,,,,,,,vier,549,2,005_AE
Aufwaerts zaehlen von 1,1,,,,,,,fuenf,413,2,005_AE
Aufwaerts zaehlen von 1,1,,,,,,,sechs,391,2,005_AE
Aufwaerts zaehlen von 1,1,,,,,,,sieben,427,2,005_AE
Aufwaerts zaehlen von 1,1,,,,,,,acht,348,2,005_AE
Aufwaerts zaehlen von 1,,,,,,,,neun,413,2,005_AE
Gartengeraete,1,,,,,,,Spaten,671,2,005_AE
Gartengeraete,1,,,,,,,Hacke,674,2,005_AE
Gartengeraete,1,,,,,,,Rechen,456,2,005_AE
Gartengeraete,1,,,,,,,Rasenmaeher,1144,2,005_AE
Gartengeraete,1,,,,,,,Baumschere,570,2,005_AE
Gartengeraete,1,,,,,,,Pflock,470,2,005_AE
Gartengeraete,,1,,,,,,weiter,495,2,005_AE
Gartengeraete,,1,,,,,,weiter,405,2,005_AE
Gartengeraete,,1,,,,,,weiter,657,2,005_AE
Abwaerts zaehlen von 9,,,1,,,1,,,,2,005_AE
Abwaerts zaehlen von 9,,,1,,,1,,,,2,005_AE
Abwaerts zaehlen von 9,,,1,,,1,,,,2,005_AE
Abwaerts zaehlen von 9,,,1,,,1,,,,2,005_AE
Abwaerts zaehlen von 9,,,1,,,1,,,,2,005_AE
Abwaerts zaehlen von 9,,,1,,,1,,,,2,005_AE
Abwaerts zaehlen von 9,,,1,,,1,,,,2,005_AE
Abwaerts zaehlen von 9,,,1,,,1,,,,2,005_AE
Abwaerts zaehlen von 9,,,1,,,1,,,,2,005_AE
Aufwaerts zaehlen von 1,1,,,,,,,eins,348,2,005_AE
Aufwaerts zaehlen von 1,1,,,,,,,zwei,384,2,005_AE
Aufwaerts zaehlen von 1,1,,,,,,,drei,341,2,005_AE
Aufwaerts zaehlen von 1,1,,,,,,,vier,764,2,005_AE
Aufwaerts zaehlen von 1,1,,,,,,,fuenf,649,2,005_AE
Aufwaerts zaehlen von 1,1,,,,,,,sechs,298,2,005_AE
Aufwaerts zaehlen von 1,1,,,,,,,sieben,427,2,005_AE
Aufwaerts zaehlen von 1,1,,,,,,,acht,427,2,005_AE
Aufwaerts zaehlen von 1,1,,,,,,,neun,441,2,005_AE
Berufe,1,,,,,,,Bauer,535,2,005_AE
Berufe,1,,,,,,,Klempner,420,2,005_AE
Berufe,1,,,,,,,Maurer,441,2,005_AE
Berufe,1,,,,,,,Tischler,470,2,005_AE
Berufe,1,,,,,,,Schreiner,391,2,005_AE
Berufe,1,,,,,,,Lehrer,563,2,005_AE
Berufe,1,,,,,,,Fliesenleger,434,2,005_AE
Berufe,1,,,,,,,Sattler,341,2,005_AE
Berufe,1,,,,,,,Schuhmacher,398,2,005_AE
Suessigkeiten,,,1,,,1,,,,2,005_AE
Suessigkeiten,,,1,,,1,,,,2,005_AE
Suessigkeiten,,,1,,,1,,,,2,005_AE
Suessigkeiten,,,1,,,1,,,,2,005_AE
Suessigkeiten,,,1,,,1,,,,2,005_AE
Suessigkeiten,,,1,,,1,,,,2,005_AE
Suessigkeiten,,,1,,,1,,,,2,005_AE
Suessigkeiten,,,1,,,1,,,,2,005_AE
Suessigkeiten,,,1,,,1,,,,2,005_AE
