Category,Correct,weiter,NR,Unintelligible,Repetitions,NR_category,Aborted,Word,Onset,Run,Subj
Werkzeug,1,,,,,,,Hammer,951,1,017_AE
Werkzeug,1,,,,,,,Meissel,886,1,017_AE
Werkzeug,1,,,,,,,Saege,951,1,017_AE
Werkzeug,1,,,,,,,Feile,1034,1,017_AE
Werkzeug,1,,,,,,,Bohrer,1070,1,017_AE
Werkzeug,,1,,,,,,weiter,1092,1,017_AE
Werkzeug,1,,,,,,,Schieblehre,1517,1,017_AE
Werkzeug,1,,,,,,,Winde,955,1,017_AE
Werkzeug,1,,,,1,,,Schieblehre,782,1,017_AE
Blumen,1,,,,,,,Aster,876,1,017_AE
Blumen,1,,,,,,,Rose,793,1,017_AE
Blumen,1,,,,,,,Annemone,674,1,017_AE
Blumen,1,,,,,,,Gerbera,775,1,017_AE
Blumen,1,,,,,,,Stiefmuetterchen,677,1,017_AE
Blumen,1,,,,,,,Winde,1330,1,017_AE
Blumen,1,,,,,,,Sonnenblume,602,1,017_AE
Blumen,1,,,,,,,Veilchen,836,1,017_AE
Blumen,1,,,,,,,Sonnenhut,1423,1,017_AE
Aufwaerts zaehlen von 1,1,,,,,,,eins,1065,1,017_AE
Aufwaerts zaehlen von 1,1,,,,,,,zwei,761,1,017_AE
Aufwaerts zaehlen von 1,1,,,,,,,drei,581,1,017_AE
Aufwaerts zaehlen von 1,1,,,,,,,vier,746,1,017_AE
Aufwaerts zaehlen von 1,1,,,,,,,fuenf,646,1,017_AE
Aufwaerts zaehlen von 1,1,,,,,,,sechs,334,1,017_AE
Aufwaerts zaehlen von 1,1,,,,,,,sieben,628,1,017_AE
Aufwaerts zaehlen von 1,1,,,,,,,acht,714,1,017_AE
Aufwaerts zaehlen von 1,1,,,,,,,neun,649,1,017_AE
Aufwaerts zaehlen von 1,1,,,,,,,eins,707,1,017_AE
Aufwaerts zaehlen von 1,1,,,,,,,zwei,603,1,017_AE
Aufwaerts zaehlen von 1,1,,,,,,,drei,653,1,017_AE
Aufwaerts zaehlen von 1,1,,,,,,,vier,563,1,017_AE
Aufwaerts zaehlen von 1,1,,,,,,,fuenf,456,1,017_AE
Aufwaerts zaehlen von 1,1,,,,,,,sechs,445,1,017_AE
Aufwaerts zaehlen von 1,1,,,,,,,sieben,520,1,017_AE
Aufwaerts zaehlen von 1,1,,,,,,,acht,517,1,017_AE
Aufwaerts zaehlen von 1,1,,,,,,,neun,606,1,017_AE
Sportarten,1,,,,,,,Schwimmen,1056,1,017_AE
Sportarten,1,,,,,,,Tanzen,1077,1,017_AE
Sportarten,1,,,,,,,Skispringen,735,1,017_AE
Sportarten,1,,,,,,,Stabhochsprung,508,1,017_AE
Sportarten,1,,,,,,,Ballweitwurf,1416,1,017_AE
Sportarten,1,,,,,,,Kugelstossen,1157,1,017_AE
Sportarten,1,,,,,,,Barrenturnen,883,1,017_AE
Sportarten,1,,,,,,,Weitsprung,760,1,017_AE
Sportarten,1,,,,,,,Hochsprung,569,1,017_AE
Koerperteile,1,,,,,,,Kopf,1333,1,017_AE
Koerperteile,1,,,,,,,Schulter,724,1,017_AE
Koerperteile,1,,,,,,,Arm,886,1,017_AE
Koerperteile,1,,,,,,,Hand,746,1,017_AE
Koerperteile,1,,,,,,,Knie,703,1,017_AE
Koerperteile,1,,,,,,,Wade,768,1,017_AE
Koerperteile,1,,,,,,,Zehe,1092,1,017_AE
Koerperteile,1,,,,,,,Bauch,1077,1,017_AE
Koerperteile,1,,,,,,,Brust,807,1,017_AE
Aufwaerts zaehlen von 1,1,,,,,,,eins,936,1,017_AE
Aufwaerts zaehlen von 1,1,,,,,,,zwei,1004,1,017_AE
Aufwaerts zaehlen von 1,1,,,,,,,drei,725,1,017_AE
Aufwaerts zaehlen von 1,1,,,,,,,vier,915,1,017_AE
Aufwaerts zaehlen von 1,1,,,,,,,fuenf,692,1,017_AE
Aufwaerts zaehlen von 1,1,,,,,,,sechs,402,1,017_AE
Aufwaerts zaehlen von 1,1,,,,,,,sieben,761,1,017_AE
Aufwaerts zaehlen von 1,1,,,,,,,acht,502,1,017_AE
Aufwaerts zaehlen von 1,1,,,,,,,neun,430,1,017_AE
Metalle,1,,,,,,,Nickel,1470,1,017_AE
Metalle,1,,,,,,,Eisen,941,1,017_AE
Metalle,1,,,,,,,Silber,1423,1,017_AE
Metalle,1,,,,,,,Gold,537,1,017_AE
Metalle,1,,,,,,,Titan,454,1,017_AE
Metalle,1,,,,,,,Kupfer,1189,1,017_AE
Metalle,1,,,,,,,Blei,1481,1,017_AE
Metalle,1,,,,,,,Zink,1755,1,017_AE
Metalle,,1,,,,,,weiter,1117,1,017_AE
Abwaerts zaehlen von 9,1,,,,,,,neun,936,1,017_AE
Abwaerts zaehlen von 9,1,,,,,,,acht,1209,1,017_AE
Abwaerts zaehlen von 9,1,,,,,,,sieben,506,1,017_AE
Abwaerts zaehlen von 9,1,,,,,,,sechs,456,1,017_AE
Abwaerts zaehlen von 9,1,,,,,,,fuenf,570,1,017_AE
Abwaerts zaehlen von 9,1,,,,,,,vier,578,1,017_AE
Abwaerts zaehlen von 9,1,,,,,,,drei,807,1,017_AE
Abwaerts zaehlen von 9,1,,,,,,,zwei,814,1,017_AE
Abwaerts zaehlen von 9,1,,,,,,,eins,398,1,017_AE
Farben,1,,,,,,,rot,1524,1,017_AE
Farben,1,,,,,,,gruen,1222,1,017_AE
Farben,1,,,,,,,gelb,962,1,017_AE
Farben,1,,,,,,,blau,807,1,017_AE
Farben,1,,,,,,,weiss,829,1,017_AE
Farben,1,,,,,,,schwarz,883,1,017_AE
Farben,1,,,,,,,lila,1445,1,017_AE
Farben,1,,,,,,,rosa,1164,1,017_AE
Farben,1,,,,,,,braun,757,1,017_AE
Abwaerts zaehlen von 9,1,,,,,,,neun,1130,1,017_AE
Abwaerts zaehlen von 9,1,,,,,,,acht,732,1,017_AE
Abwaerts zaehlen von 9,1,,,,,,,sieben,517,1,017_AE
Abwaerts zaehlen von 9,1,,,,,,,sechs,628,1,017_AE
Abwaerts zaehlen von 9,1,,,,,,,fuenf,430,1,017_AE
Abwaerts zaehlen von 9,1,,,,,,,vier,570,1,017_AE
Abwaerts zaehlen von 9,1,,,,,,,drei,778,1,017_AE
Abwaerts zaehlen von 9,1,,,,,,,zwei,542,1,017_AE
Abwaerts zaehlen von 9,1,,,,,,,eins,377,1,017_AE
Kuechengeraete,1,,,,,,,Reibe,1827,1,017_AE
Kuechengeraete,1,,,,,,,Messer,1013,1,017_AE
Kuechengeraete,1,,,,,,,Gabel,515,1,017_AE
Kuechengeraete,1,,,,,,,Schere,566,1,017_AE
Kuechengeraete,1,,,,,,,Kelle,501,1,017_AE
Kuechengeraete,1,,,,,,,Loeffel,721,1,017_AE
Kuechengeraete,1,,,,,,,Schoepfkelle,1200,1,017_AE
Kuechengeraete,1,,,,,,,Tortenpinsel,1769,1,017_AE
Kuechengeraete,1,,,,,,,Kuchenheber,2180,1,017_AE
Insekten,1,,,,,,,Ameise,1196,1,017_AE
Insekten,1,,,,,,,Milbe,1517,1,017_AE
Insekten,1,,,,,,,Biene,1146,1,017_AE
Insekten,1,,,,,,,Wespe,984,1,017_AE
Insekten,1,,,,,,,Hornisse,973,1,017_AE
Insekten,1,,,,,,,Spinne,1258,1,017_AE
Insekten,,,1,,,,,,,1,017_AE
Insekten,1,,,,,,,Kaefer,638,1,017_AE
Insekten,1,,,,,,,Tausendfuessler,688,1,017_AE
Aufwaerts zaehlen von 1,1,,,,,,,eins,707,1,017_AE
Aufwaerts zaehlen von 1,1,,,,,,,zwei,657,1,017_AE
Aufwaerts zaehlen von 1,1,,,,,,,drei,667,1,017_AE
Aufwaerts zaehlen von 1,1,,,,,,,vier,660,1,017_AE
Aufwaerts zaehlen von 1,1,,,,,,,fuenf,413,1,017_AE
Aufwaerts zaehlen von 1,1,,,,,,,sechs,527,1,017_AE
Aufwaerts zaehlen von 1,1,,,,,,,sieben,563,1,017_AE
Aufwaerts zaehlen von 1,1,,,,,,,acht,434,1,017_AE
Aufwaerts zaehlen von 1,1,,,,,,,neun,441,1,017_AE
Tiere,1,,,,,,,Fisch,1499,1,017_AE
Tiere,1,,,,,,,Katze,796,1,017_AE
Tiere,1,,,,,,,Hund,804,1,017_AE
Tiere,1,,,,,,,Maus,933,1,017_AE
Tiere,1,,,,,,,Vogel,580,1,017_AE
Tiere,1,,,,,,,Biene,1323,1,017_AE
Tiere,1,,,,,,,Ameise,1434,1,017_AE
Tiere,1,,,,,,,Ratte,1488,1,017_AE
Tiere,,,1,,,,,,,1,017_AE
Abwaerts zaehlen von 9,1,,,,,,,neun,1144,1,017_AE
Abwaerts zaehlen von 9,1,,,,,,,acht,567,1,017_AE
Abwaerts zaehlen von 9,1,,,,,,,sieben,1112,1,017_AE
Abwaerts zaehlen von 9,1,,,,,,,sechs,567,1,017_AE
Abwaerts zaehlen von 9,1,,,,,,,fuenf,438,1,017_AE
Abwaerts zaehlen von 9,1,,,,,,,vier,621,1,017_AE
Abwaerts zaehlen von 9,1,,,,,,,drei,463,1,017_AE
Abwaerts zaehlen von 9,1,,,,,,,zwei,682,1,017_AE
Abwaerts zaehlen von 9,1,,,,,,,eins,717,1,017_AE
Aufwaerts zaehlen von 1,1,,,,,,,eins,578,1,017_AE
Aufwaerts zaehlen von 1,1,,,,,,,zwei,585,1,017_AE
Aufwaerts zaehlen von 1,1,,,,,,,drei,678,1,017_AE
Aufwaerts zaehlen von 1,1,,,,,,,vier,707,1,017_AE
Aufwaerts zaehlen von 1,1,,,,,,,fuenf,441,1,017_AE
Aufwaerts zaehlen von 1,1,,,,,,,sechs,384,1,017_AE
Aufwaerts zaehlen von 1,1,,,,,,,sieben,556,1,017_AE
Aufwaerts zaehlen von 1,1,,,,,,,acht,448,1,017_AE
Aufwaerts zaehlen von 1,1,,,,,,,neun,585,1,017_AE
Kleidungsstuecke,1,,,,,,,Hut,1564,1,017_AE
Kleidungsstuecke,1,,,,,,,Muetze,998,1,017_AE
Kleidungsstuecke,1,,,,,,,Schal,1157,1,017_AE
Kleidungsstuecke,1,,,,,,,Jacke,847,1,017_AE
Kleidungsstuecke,1,,,,,,,Mantel,631,1,017_AE
Kleidungsstuecke,1,,,,,,,Bluse,858,1,017_AE
Kleidungsstuecke,1,,,,,,,Rock,710,1,017_AE
Kleidungsstuecke,1,,,,,,,Hose,840,1,017_AE
Kleidungsstuecke,1,,,,,,,Leggins,443,1,017_AE
Abwaerts zaehlen von 9,1,,,,,,,neun,664,1,017_AE
Abwaerts zaehlen von 9,1,,,,,,,acht,556,1,017_AE
Abwaerts zaehlen von 9,1,,,,,,,sieben,513,1,017_AE
Abwaerts zaehlen von 9,1,,,,,,,sechs,484,1,017_AE
Abwaerts zaehlen von 9,1,,,,,,,fuenf,524,1,017_AE
Abwaerts zaehlen von 9,1,,,,,,,vier,513,1,017_AE
Abwaerts zaehlen von 9,1,,,,,,,drei,506,1,017_AE
Abwaerts zaehlen von 9,1,,,,,,,zwei,678,1,017_AE
Abwaerts zaehlen von 9,1,,,,,,,eins,434,1,017_AE
Abwaerts zaehlen von 9,1,,,,,,,neun,843,1,017_AE
Abwaerts zaehlen von 9,1,,,,,,,acht,599,1,017_AE
Abwaerts zaehlen von 9,1,,,,,,,sieben,545,1,017_AE
Abwaerts zaehlen von 9,1,,,,,,,sechs,556,1,017_AE
Abwaerts zaehlen von 9,1,,,,,,,fuenf,445,1,017_AE
Abwaerts zaehlen von 9,1,,,,,,,vier,542,1,017_AE
Abwaerts zaehlen von 9,1,,,,,,,drei,646,1,017_AE
Abwaerts zaehlen von 9,1,,,,,,,zwei,420,1,017_AE
Abwaerts zaehlen von 9,1,,,,,,,eins,513,1,017_AE
Berufe,1,,,,,,,Anwalt,1308,2,017_AE
Berufe,1,,,,,,,Maurer,695,2,017_AE
Berufe,1,,,,,,,Maler,508,2,017_AE
Berufe,1,,,,,,,Tischler,760,2,017_AE
Berufe,1,,,,,,,Baecker,951,2,017_AE
Berufe,1,,,,1,,,Maurer,1499,2,017_AE
Berufe,1,,,,,,,Jurist,933,2,017_AE
Berufe,1,,,,,,,Bibliograph,551,2,017_AE
Berufe,1,,,,,,,Lehrer,905,2,017_AE
Abwaerts zaehlen von 9,1,,,,,,,neun,775,2,017_AE
Abwaerts zaehlen von 9,1,,,,,,,acht,987,2,017_AE
Abwaerts zaehlen von 9,1,,,,,,,sieben,789,2,017_AE
Abwaerts zaehlen von 9,1,,,,,,,sechs,627,2,017_AE
Abwaerts zaehlen von 9,1,,,,,,,fuenf,804,2,017_AE
Abwaerts zaehlen von 9,1,,,,,,,vier,559,2,017_AE
Abwaerts zaehlen von 9,1,,,,,,,drei,454,2,017_AE
Abwaerts zaehlen von 9,1,,,,,,,zwei,699,2,017_AE
Abwaerts zaehlen von 9,1,,,,,,,eins,645,2,017_AE
Abwaerts zaehlen von 9,1,,,,,,,neun,793,2,017_AE
Abwaerts zaehlen von 9,1,,,,,,,acht,584,2,017_AE
Abwaerts zaehlen von 9,1,,,,,,,sieben,490,2,017_AE
Abwaerts zaehlen von 9,1,,,,,,,sechs,472,2,017_AE
Abwaerts zaehlen von 9,1,,,,,,,fuenf,515,2,017_AE
Abwaerts zaehlen von 9,1,,,,,,,vier,771,2,017_AE
Abwaerts zaehlen von 9,1,,,,,,,drei,483,2,017_AE
Abwaerts zaehlen von 9,1,,,,,,,zwei,706,2,017_AE
Abwaerts zaehlen von 9,1,,,,,,,eins,598,2,017_AE
Fische,1,,,,,,,Stoer,1070,2,017_AE
Fische,1,,,,,,,Aal,1059,2,017_AE
Fische,1,,,,,,,Hecht,858,2,017_AE
Fische,1,,,,,,,Brassw,732,2,017_AE
Fische,1,,,,,,,Annemonenfisch,631,2,017_AE
Fische,1,,,,,,,Hai,1254,2,017_AE
Fische,1,,,,,,,Wal,1031,2,017_AE
Fische,,1,,,,,,weiter,1960,2,017_AE
Fische,,,1,,,,,,,2,017_AE
Lebensmittel,1,,,,,,,Butter,1150,2,017_AE
Lebensmittel,1,,,,,,,Quark,746,2,017_AE
Lebensmittel,1,,,,,,,Milch,847,2,017_AE
Lebensmittel,1,,,,,,,Wurst,515,2,017_AE
Lebensmittel,1,,,,,,,Kakao,562,2,017_AE
Lebensmittel,1,,,,,,,Senf,688,2,017_AE
Lebensmittel,1,,,,,,,Fisch,944,2,017_AE
Lebensmittel,1,,,,,,,Eier,489,2,017_AE
Lebensmittel,1,,,,,,,Sosse,1820,2,017_AE
Baeume,1,,,,,,,Linde,1139,2,017_AE
Baeume,1,,,,,,,Ahorn,742,2,017_AE
Baeume,1,,,,,,,Eiche,490,2,017_AE
Baeume,1,,,,,,,Buche,479,2,017_AE
Baeume,1,,,,,,,Tanne,822,2,017_AE
Baeume,1,,,,,,,Erle,443,2,017_AE
Baeume,1,,,,,,,Fichte,638,2,017_AE
Baeume,1,,,,,,,Kiefer,930,2,017_AE
Baeume,1,,,,,,,Weide,645,2,017_AE
Musikinstrumente,1,,,,,,,Floete,1604,2,017_AE
Musikinstrumente,1,,,,,,,Geige,850,2,017_AE
Musikinstrumente,1,,,,,,,Zitter,1088,2,017_AE
Musikinstrumente,1,,,,,,,Oboe,695,2,017_AE
Musikinstrumente,1,,,,,,,Gitarre,1117,2,017_AE
Musikinstrumente,,1,,,,,,weiter,1625,2,017_AE
Musikinstrumente,1,,,,,,,Mundharmonika,1539,2,017_AE
Musikinstrumente,,1,,,,,,weiter,3456,2,017_AE
Musikinstrumente,,,1,,,,,,,2,017_AE
Aufwaerts zaehlen von 1,1,,,,,,,eins,609,2,017_AE
Aufwaerts zaehlen von 1,1,,,,,,,zwei,634,2,017_AE
Aufwaerts zaehlen von 1,1,,,,,,,drei,443,2,017_AE
Aufwaerts zaehlen von 1,1,,,,,,,vier,458,2,017_AE
Aufwaerts zaehlen von 1,1,,,,,,,fuenf,656,2,017_AE
Aufwaerts zaehlen von 1,1,,,,,,,sechs,537,2,017_AE
Aufwaerts zaehlen von 1,1,,,,,,,sieben,465,2,017_AE
Aufwaerts zaehlen von 1,1,,,,,,,acht,505,2,017_AE
Aufwaerts zaehlen von 1,1,,,,,,,neun,400,2,017_AE
Autoteile,1,,,,,,,Lenkrad,1359,2,017_AE
Autoteile,1,,,,,,,Rad,2368,2,017_AE
Autoteile,1,,,,,,,Reifen,544,2,017_AE
Autoteile,1,,,,,,,Radkappe,447,2,017_AE
Autoteile,1,,,,,,,Sitz,760,2,017_AE
Autoteile,1,,,,,,,Motor,423,2,017_AE
Autoteile,1,,,,,,,Vergaser,537,2,017_AE
Autoteile,1,,,,,,,Oelschlauch,832,2,017_AE
Autoteile,1,,,,,,,Heckklappe,681,2,017_AE
Aufwaerts zaehlen von 1,1,,,,,,,eins,649,2,017_AE
Aufwaerts zaehlen von 1,1,,,,,,,zwei,685,2,017_AE
Aufwaerts zaehlen von 1,1,,,,,,,drei,580,2,017_AE
Aufwaerts zaehlen von 1,1,,,,,,,vier,407,2,017_AE
Aufwaerts zaehlen von 1,1,,,,,,,fuenf,569,2,017_AE
Aufwaerts zaehlen von 1,1,,,,,,,sechs,501,2,017_AE
Aufwaerts zaehlen von 1,1,,,,,,,sieben,768,2,017_AE
Aufwaerts zaehlen von 1,1,,,,,,,acht,468,2,017_AE
Aufwaerts zaehlen von 1,1,,,,,,,neun,638,2,017_AE
Abwaerts zaehlen von 9,1,,,,,,,neun,591,2,017_AE
Abwaerts zaehlen von 9,1,,,,,,,acht,645,2,017_AE
Abwaerts zaehlen von 9,1,,,,,,,sieben,555,2,017_AE
Abwaerts zaehlen von 9,1,,,,,,,sechs,515,2,017_AE
Abwaerts zaehlen von 9,1,,,,,,,fuenf,400,2,017_AE
Abwaerts zaehlen von 9,1,,,,,,,vier,580,2,017_AE
Abwaerts zaehlen von 9,1,,,,,,,drei,551,2,017_AE
Abwaerts zaehlen von 9,1,,,,,,,zwei,486,2,017_AE
Abwaerts zaehlen von 9,1,,,,,,,eins,544,2,017_AE
Spielzeug,1,,,,,,,Spielzeugauto,1784,2,017_AE
Spielzeug,1,,,,,,,Roller,1095,2,017_AE
Spielzeug,1,,,,,,,Puppe,941,2,017_AE
Spielzeug,1,,,,,,,Schaukelpferd,804,2,017_AE
Spielzeug,1,,,,,,,Malbild,746,2,017_AE
Spielzeug,,1,,,,,,weiter,1265,2,017_AE
Spielzeug,1,,,,,,,Fahrrad,1121,2,017_AE
Spielzeug,1,,,,,,,Tretauto,977,2,017_AE
Spielzeug,1,,,,,,,Schlitten,609,2,017_AE
Gartengeraete,1,,,,,,,Hammer,2288,2,017_AE
Gartengeraete,1,,,,,,,Besen,835,2,017_AE
Gartengeraete,1,,,,,,,Hacke,609,2,017_AE
Gartengeraete,1,,,,,,,Kratzehand,850,2,017_AE
Gartengeraete,1,,,,,,,Saege,1106,2,017_AE
Gartengeraete,,1,,,,,,weiter,1737,2,017_AE
Gartengeraete,,1,,,,,,weiter,2613,2,017_AE
Gartengeraete,,,1,,,,,,,2,017_AE
Gartengeraete,,,1,,,,,,,2,017_AE
Aufwaerts zaehlen von 1,1,,,,,,,eins,656,2,017_AE
Aufwaerts zaehlen von 1,1,,,,,,,zwei,544,2,017_AE
Aufwaerts zaehlen von 1,1,,,,,,,drei,717,2,017_AE
Aufwaerts zaehlen von 1,1,,,,,,,vier,984,2,017_AE
Aufwaerts zaehlen von 1,1,,,,,,,fuenf,537,2,017_AE
Aufwaerts zaehlen von 1,1,,,,,,,sechs,609,2,017_AE
Aufwaerts zaehlen von 1,1,,,,,,,sieben,454,2,017_AE
Aufwaerts zaehlen von 1,1,,,,,,,acht,411,2,017_AE
Aufwaerts zaehlen von 1,1,,,,,,,neun,458,2,017_AE
Aufwaerts zaehlen von 1,1,,,,,,,eins,530,2,017_AE
Aufwaerts zaehlen von 1,1,,,,,,,zwei,710,2,017_AE
Aufwaerts zaehlen von 1,1,,,,,,,drei,400,2,017_AE
Aufwaerts zaehlen von 1,1,,,,,,,vier,472,2,017_AE
Aufwaerts zaehlen von 1,1,,,,,,,fuenf,468,2,017_AE
Aufwaerts zaehlen von 1,1,,,,,,,sechs,314,2,017_AE
Aufwaerts zaehlen von 1,1,,,,,,,sieben,472,2,017_AE
Aufwaerts zaehlen von 1,1,,,,,,,acht,425,2,017_AE
Aufwaerts zaehlen von 1,1,,,,,,,neun,458,2,017_AE
Suessigkeiten,1,,,,,,,Schokolade,1769,2,017_AE
Suessigkeiten,1,,,,,,,Kakao,850,2,017_AE
Suessigkeiten,1,,,,,,,Pralinen,886,2,017_AE
Suessigkeiten,1,,,,,,,Baiser,1283,2,017_AE
Suessigkeiten,1,,,,,,,Nougat,1524,2,017_AE
Suessigkeiten,1,,,,,,,Lakritzstange,1488,2,017_AE
Suessigkeiten,,1,,,,,,weiter,1550,2,017_AE
Suessigkeiten,1,,,,,,,Nuesse,43,2,017_AE
Suessigkeiten,,1,,,,,,weiter,1074,2,017_AE
Kosmetik,1,,,,,,,Creme,2144,2,017_AE
Kosmetik,1,,,,,,,Duschbad,1009,2,017_AE
Kosmetik,1,,,,,,,Eyeliner,447,2,017_AE
Kosmetik,1,,,,,,,Mascara,768,2,017_AE
Kosmetik,1,,,,,,,Rouge,746,2,017_AE
Kosmetik,1,,,,,,,Lippenpomade,998,2,017_AE
Kosmetik,1,,,,,,,Zahnpasta,1423,2,017_AE
Kosmetik,,1,,,,,,weiter,1632,2,017_AE
Kosmetik,1,,,,1,,,Duschbad,926,2,017_AE
Abwaerts zaehlen von 9,1,,,,,,,neun,537,2,017_AE
Abwaerts zaehlen von 9,1,,,,,,,acht,447,2,017_AE
Abwaerts zaehlen von 9,1,,,,,,,sieben,645,2,017_AE
Abwaerts zaehlen von 9,1,,,,,,,sechs,346,2,017_AE
Abwaerts zaehlen von 9,1,,,,,,,fuenf,418,2,017_AE
Abwaerts zaehlen von 9,1,,,,,,,vier,587,2,017_AE
Abwaerts zaehlen von 9,1,,,,,,,drei,350,2,017_AE
Abwaerts zaehlen von 9,1,,,,,,,zwei,515,2,017_AE
Abwaerts zaehlen von 9,1,,,,,,,eins,371,2,017_AE
Aufwaerts zaehlen von 1,1,,,,,,,eins,551,2,017_AE
Aufwaerts zaehlen von 1,1,,,,,,,zwei,407,2,017_AE
Aufwaerts zaehlen von 1,1,,,,,,,drei,407,2,017_AE
Aufwaerts zaehlen von 1,1,,,,,,,vier,602,2,017_AE
Aufwaerts zaehlen von 1,1,,,,,,,fuenf,501,2,017_AE
Aufwaerts zaehlen von 1,1,,,,,,,sechs,364,2,017_AE
Aufwaerts zaehlen von 1,1,,,,,,,sieben,505,2,017_AE
Aufwaerts zaehlen von 1,1,,,,,,,acht,396,2,017_AE
Aufwaerts zaehlen von 1,1,,,,,,,neun,559,2,017_AE
Abwaerts zaehlen von 9,1,,,,,,,neun,562,2,017_AE
Abwaerts zaehlen von 9,1,,,,,,,acht,638,2,017_AE
Abwaerts zaehlen von 9,1,,,,,,,sieben,569,2,017_AE
Abwaerts zaehlen von 9,1,,,,,,,sechs,436,2,017_AE
Abwaerts zaehlen von 9,1,,,,,,,fuenf,512,2,017_AE
Abwaerts zaehlen von 9,1,,,,,,,vier,407,2,017_AE
Abwaerts zaehlen von 9,1,,,,,,,drei,580,2,017_AE
Abwaerts zaehlen von 9,1,,,,,,,zwei,465,2,017_AE
Abwaerts zaehlen von 9,1,,,,,,,eins,468,2,017_AE
