Category,Correct,weiter,NR,Unintelligible,Repetitions,NR_category,Aborted,Word,Onset,Run,Subj
Bäume,1,,,,,,,Tanne,911,1,018_JE
Bäume,1,,,,,,,Fichte,892,1,018_JE
Bäume,1,,,,,,,Esche,792,1,018_JE
Bäume,1,,,,,,,Buche,890,1,018_JE
Bäume,1,,,,,,,Ahorn,858,1,018_JE
Bäume,1,,,,,,,Eiche,858,1,018_JE
Bäume,1,,,,,,,Linde,747,1,018_JE
Bäume,1,,,,,,,Birke,1147,1,018_JE
Bäume,1,,,,,,,Kiefer,780,1,018_JE
Abwärts zählen von 9,1,,,,,,,Neun,749,1,018_JE
Abwärts zählen von 9,1,,,,,,,Acht,574,1,018_JE
Abwärts zählen von 9,1,,,,,,,Sieben,538,1,018_JE
Abwärts zählen von 9,1,,,,,,,Sechs,675,1,018_JE
Abwärts zählen von 9,1,,,,,,,Fuenf,647,1,018_JE
Abwärts zählen von 9,1,,,,,,,Vier,664,1,018_JE
Abwärts zählen von 9,1,,,,,,,Drei,680,1,018_JE
Abwärts zählen von 9,1,,,,,,,Zwei,880,1,018_JE
Abwärts zählen von 9,1,,,,,,,Eins,666,1,018_JE
Aufwärts zählen von 1,1,,,,,,,Eins,756,1,018_JE
Aufwärts zählen von 1,1,,,,,,,Zwei,467,1,018_JE
Aufwärts zählen von 1,1,,,,,,,Drei,508,1,018_JE
Aufwärts zählen von 1,1,,,,,,,Vier,914,1,018_JE
Aufwärts zählen von 1,1,,,,,,,Fuenf,767,1,018_JE
Aufwärts zählen von 1,1,,,,,,,Sechs,462,1,018_JE
Aufwärts zählen von 1,1,,,,,,,Sieben,388,1,018_JE
Aufwärts zählen von 1,1,,,,,,,Acht,703,1,018_JE
Aufwärts zählen von 1,1,,,,,,,Neun,1145,1,018_JE
Aufwärts zählen von 1,1,,,,,,,Eins,781,1,018_JE
Aufwärts zählen von 1,1,,,,,,,Zwei,451,1,018_JE
Aufwärts zählen von 1,1,,,,,,,Drei,905,1,018_JE
Aufwärts zählen von 1,1,,,,,,,Vier,779,1,018_JE
Aufwärts zählen von 1,1,,,,,,,Fuenf,584,1,018_JE
Aufwärts zählen von 1,1,,,,,,,Sechs,673,1,018_JE
Aufwärts zählen von 1,1,,,,,,,Sieben,416,1,018_JE
Aufwärts zählen von 1,1,,,,,,,Acht,639,1,018_JE
Aufwärts zählen von 1,1,,,,,,,Neun,893,1,018_JE
Berufe,1,,,,,,,Arzt,696,1,018_JE
Berufe,1,,,,,,,Sekretaer,730,1,018_JE
Berufe,1,,,,,,,Erzieher,588,1,018_JE
Berufe,1,,,,,,,Dozent,780,1,018_JE
Berufe,1,,,,,,,Forscher,539,1,018_JE
Berufe,1,,,,,,,Archaeologe,532,1,018_JE
Berufe,1,,,,,,,Sprachwissenschaftler,427,1,018_JE
Berufe,1,,,,,,,Manufakturporzellanmaler,765,1,018_JE
Berufe,1,,,,,,,Backofenbauer,948,1,018_JE
Abwärts zählen von 9,1,,,,,,,Neun,859,1,018_JE
Abwärts zählen von 9,1,,,,,,,Acht,821,1,018_JE
Abwärts zählen von 9,1,,,,,,,Sieben,793,1,018_JE
Abwärts zählen von 9,1,,,,,,,Sechs,473,1,018_JE
Abwärts zählen von 9,1,,,,,,,Fuenf,920,1,018_JE
Abwärts zählen von 9,1,,,,,,,Vier,806,1,018_JE
Abwärts zählen von 9,1,,,,,,,Drei,548,1,018_JE
Abwärts zählen von 9,1,,,,,,,Zwei,470,1,018_JE
Abwärts zählen von 9,1,,,,,,,Eins,809,1,018_JE
Abwärts zählen von 9,1,,,,,,,Neun,714,1,018_JE
Abwärts zählen von 9,1,,,,,,,Acht,636,1,018_JE
Abwärts zählen von 9,1,,,,,,,Sieben,835,1,018_JE
Abwärts zählen von 9,1,,,,,,,Sechs,817,1,018_JE
Abwärts zählen von 9,1,,,,,,,Fuenf,600,1,018_JE
Abwärts zählen von 9,1,,,,,,,Vier,572,1,018_JE
Abwärts zählen von 9,1,,,,,,,Drei,658,1,018_JE
Abwärts zählen von 9,1,,,,,,,Zwei,473,1,018_JE
Abwärts zählen von 9,1,,,,,,,Eins,707,1,018_JE
Süßigkeiten,1,,,,,,,Kaubonbon,859,1,018_JE
Süßigkeiten,1,,,,,,,Lutscher,728,1,018_JE
Süßigkeiten,1,,,,,,,Schokolade,826,1,018_JE
Süßigkeiten,1,,,,,,,Popcorn,744,1,018_JE
Süßigkeiten,1,,,,,,,Gummitiere,896,1,018_JE
Süßigkeiten,1,,,,,,,Lutschpastillen,814,1,018_JE
Süßigkeiten,1,,,,,,,Drops,1007,1,018_JE
Süßigkeiten,1,,,,,,,Riegel,824,1,018_JE
Süßigkeiten,1,,,,,,,Ueberraschungsei,604,1,018_JE
Musikinstrumente,1,,,,,,,Oboe,647,1,018_JE
Musikinstrumente,1,,,,,,,Klarinette,601,1,018_JE
Musikinstrumente,1,,,,,,,Triangel,513,1,018_JE
Musikinstrumente,1,,,,,,,Violine,478,1,018_JE
Musikinstrumente,1,,,,,,,Violoncello,804,1,018_JE
Musikinstrumente,1,,,,,,,Kontrabass,540,1,018_JE
Musikinstrumente,1,,,,,,,Schlagzeug,487,1,018_JE
Musikinstrumente,1,,,,,,,E-Gitarre,734,1,018_JE
Musikinstrumente,1,,,,,,,Bratsche,939,1,018_JE
Abwärts zählen von 9,1,,,,,,,Neun,818,1,018_JE
Abwärts zählen von 9,1,,,,,,,Acht,815,1,018_JE
Abwärts zählen von 9,1,,,,,,,Sieben,798,1,018_JE
Abwärts zählen von 9,1,,,,,,,Sechs,596,1,018_JE
Abwärts zählen von 9,1,,,,,,,Fuenf,483,1,018_JE
Abwärts zählen von 9,1,,,,,,,Vier,568,1,018_JE
Abwärts zählen von 9,1,,,,,,,Drei,928,1,018_JE
Abwärts zählen von 9,1,,,,,,,Zwei,763,1,018_JE
Abwärts zählen von 9,1,,,,,,,Eins,610,1,018_JE
Fische,1,,,,,,,Barsch,526,1,018_JE
Fische,1,,,,,,,Forelle,613,1,018_JE
Fische,1,,,,,,,Sardine,523,1,018_JE
Fische,,,,,,,,Zunder,951,1,018_JE
Fische,1,,,,,,,Haifisch,841,1,018_JE
Fische,1,,,,,,,Wal,1926,1,018_JE
Fische,1,,,,,,,Anemonenfisch,1956,1,018_JE
Fische,1,,,,,,,Kampffisch,2294,1,018_JE
Fische,1,,,,,,,Guppy,524,1,018_JE
Aufwärts zählen von 1,1,,,,,,,Eins,787,1,018_JE
Aufwärts zählen von 1,1,,,,,,,Zwei,657,1,018_JE
Aufwärts zählen von 1,1,,,,,,,Drei,542,1,018_JE
Aufwärts zählen von 1,1,,,,,,,Vier,405,1,018_JE
Aufwärts zählen von 1,1,,,,,,,Fünf,528,1,018_JE
Aufwärts zählen von 1,1,,,,,,,Sechs,857,1,018_JE
Aufwärts zählen von 1,1,,,,,,,Sieben,483,1,018_JE
Aufwärts zählen von 1,1,,,,,,,Acht,483,1,018_JE
Aufwärts zählen von 1,1,,,,,,,Neun,553,1,018_JE
Spielzeug,1,,,,,,,Holzeisenbahn,734,1,018_JE
Spielzeug,1,,,,,,,Frisbeescheibe,536,1,018_JE
Spielzeug,1,,,,,,,Actionfigur,582,1,018_JE
Spielzeug,1,,,,,,,Plastikpistole,1226,1,018_JE
Spielzeug,1,,,,,,,Ball,2222,1,018_JE
Spielzeug,1,,,,,,,Fussball,1259,1,018_JE
Spielzeug,1,,,,,,,Flummi,606,1,018_JE
Spielzeug,1,,,,,,,Murmel,671,1,018_JE
Spielzeug,1,,,,,,,Auto,819,1,018_JE
Lebensmittel,1,,,,,,,Fisch,1468,1,018_JE
Lebensmittel,1,,,,,,,Wurst,566,1,018_JE
Lebensmittel,1,,,,,,,Kaese,504,1,018_JE
Lebensmittel,1,,,,,,,Brot,863,1,018_JE
Lebensmittel,1,,,,,,,Fleisch,910,1,018_JE
Lebensmittel,1,,,,,,,Brause,845,1,018_JE
Lebensmittel,1,,,,,,,Suessigkeit,789,1,018_JE
Lebensmittel,1,,,,,,,Kuchen,911,1,018_JE
Lebensmittel,1,,,,,,,Torte,854,1,018_JE
Kosmetik,,,1,,,,,,,1,018_JE
Kosmetik,1,,,,,,,Rouge,518,1,018_JE
Kosmetik,1,,,,,,,Eyeliner,445,1,018_JE
Kosmetik,1,,,,,,,Lippenstift,623,1,018_JE
Kosmetik,1,,,,,,,Nagellack,698,1,018_JE
Kosmetik,1,,,,,,,Abschminktuch,439,1,018_JE
Kosmetik,1,,,,,,,Wattepad,603,1,018_JE
Kosmetik,1,,,,,,,Nagellackentferner,461,1,018_JE
Kosmetik,1,,,,,,,Gele,1358,1,018_JE
Aufwärts zählen von 1,1,,,,,,,Eins,576,1,018_JE
Aufwärts zählen von 1,1,,,,,,,Zwei,451,1,018_JE
Aufwärts zählen von 1,1,,,,,,,Drei,522,1,018_JE
Aufwärts zählen von 1,1,,,,,,,Vier,433,1,018_JE
Aufwärts zählen von 1,1,,,,,,,Fünf,838,1,018_JE
Aufwärts zählen von 1,1,,,,,,,Sechs,644,1,018_JE
Aufwärts zählen von 1,1,,,,,,,Sieben,436,1,018_JE
Aufwärts zählen von 1,1,,,,,,,Acht,644,1,018_JE
Aufwärts zählen von 1,1,,,,,,,Neun,774,1,018_JE
Abwärts zählen von 9,1,,,,,,,Neun,956,1,018_JE
Abwärts zählen von 9,1,,,,,,,Acht,870,1,018_JE
Abwärts zählen von 9,1,,,,,,,Sieben,927,1,018_JE
Abwärts zählen von 9,1,,,,,,,Sechs,711,1,018_JE
Abwärts zählen von 9,1,,,,,,,Fuenf,356,1,018_JE
Abwärts zählen von 9,1,,,,,,,Vier,389,1,018_JE
Abwärts zählen von 9,1,,,,,,,Drei,1000,1,018_JE
Abwärts zählen von 9,1,,,,,,,Zwei,608,1,018_JE
Abwärts zählen von 9,1,,,,,,,Eins,939,1,018_JE
Aufwärts zählen von 1,1,,,,,,,Eins,916,1,018_JE
Aufwärts zählen von 1,1,,,,,,,Zwei,748,1,018_JE
Aufwärts zählen von 1,1,,,,,,,Drei,556,1,018_JE
Aufwärts zählen von 1,1,,,,,,,Vier,1079,1,018_JE
Aufwärts zählen von 1,1,,,,,,,Fünf,344,1,018_JE
Aufwärts zählen von 1,1,,,,,,,Sechs,480,1,018_JE
Aufwärts zählen von 1,1,,,,,,,Sieben,523,1,018_JE
Aufwärts zählen von 1,1,,,,,,,Acht,797,1,018_JE
Aufwärts zählen von 1,1,,,,,,,Neun,994,1,018_JE
Autoteile,1,,,,,,,Reifen,578,1,018_JE
Autoteile,1,,,,,,,Tuer,455,1,018_JE
Autoteile,1,,,,,,,Karrosserie,606,1,018_JE
Autoteile,1,,,,,,,Stereoanlage,410,1,018_JE
Autoteile,1,,,,,,,Klimaanlage,652,1,018_JE
Autoteile,1,,,,,,,Lenkrad,946,1,018_JE
Autoteile,1,,,,,,,Pedale,529,1,018_JE
Autoteile,1,,,,,,,Gangschaltung,629,1,018_JE
Autoteile,1,,,,,,,Fenster,537,1,018_JE
Gartengeräte,1,,,,,,,Harke,755,1,018_JE
Gartengeräte,1,,,,,,,Rechen,534,1,018_JE
Gartengeräte,1,,,,,,,Giesskanne,924,1,018_JE
Gartengeräte,1,,,,,,,Schneeschieber,893,1,018_JE
Gartengeräte,1,,,,,,,Rasenmaeher,549,1,018_JE
Gartengeräte,,1,,,,,,weiter,1676,1,018_JE
Gartengeräte,1,,,,,,,Schaufel,2222,1,018_JE
Gartengeräte,,,1,,,,,,,1,018_JE
Gartengeräte,,1,,,,,,weiter,3565,1,018_JE
Abwärts zählen von 9,1,,,,,,,Neun,544,2,018_JE
Abwärts zählen von 9,1,,,,,,,Acht,566,2,018_JE
Abwärts zählen von 9,1,,,,,,,Sieben,,2,018_JE
Abwärts zählen von 9,1,,,,,,,Sechs,628,2,018_JE
Abwärts zählen von 9,1,,,,,,,Fuenf,825,2,018_JE
Abwärts zählen von 9,1,,,,,,,Vier,673,2,018_JE
Abwärts zählen von 9,1,,,,,,,Drei,764,2,018_JE
Abwärts zählen von 9,1,,,,,,,Zwei,496,2,018_JE
Abwärts zählen von 9,1,,,,,,,Eins,592,2,018_JE
Körperteile,1,,,,,,,Finger,516,2,018_JE
Körperteile,1,,,,,,,Hand,737,2,018_JE
Körperteile,1,,,,,,,Arm,525,2,018_JE
Körperteile,1,,,,,,,Bein,927,2,018_JE
Körperteile,1,,,,,,,Fuss,650,2,018_JE
Körperteile,1,,,,,,,Rueckgrat,733,2,018_JE
Körperteile,1,,,,,,,Bauch,476,2,018_JE
Körperteile,1,,,,,,,Brust,585,2,018_JE
Körperteile,1,,,,,,,Hals,845,2,018_JE
Werkzeug,1,,,,,,,Hammer,688,2,018_JE
Werkzeug,1,,,,,,,Fuchsschwanz,529,2,018_JE
Werkzeug,1,,,,,,,Nagel,561,2,018_JE
Werkzeug,1,,,,,,,Schraube,872,2,018_JE
Werkzeug,1,,,,,,,Akkuschrauber,618,2,018_JE
Werkzeug,1,,,,,,,Schraubenzieher,726,2,018_JE
Werkzeug,1,,,,,,,Bohrmaschine,568,2,018_JE
Werkzeug,,,,1,,,,,774,2,018_JE
Werkzeug,1,,,,,,,Wasserwaage,653,2,018_JE
Blumen,1,,,,,,,Orchidee,502,2,018_JE
Blumen,,,,1,,,,,672,2,018_JE
Blumen,1,,,,,,,Stiefmuetterchen,837,2,018_JE
Blumen,1,,,,,,,Primel,475,2,018_JE
Blumen,1,,,,,,,Lilie,631,2,018_JE
Blumen,1,,,,,,,Tulpe,642,2,018_JE
Blumen,1,,,,,,,Rose,523,2,018_JE
Blumen,1,,,,,,,Gaensebluemchen,487,2,018_JE
Blumen,1,,,,,,,Loewenzahn,611,2,018_JE
Aufwärts zählen von 1,1,,,,,,,Eins,527,2,018_JE
Aufwärts zählen von 1,1,,,,,,,Zwei,591,2,018_JE
Aufwärts zählen von 1,1,,,,,,,Drei,639,2,018_JE
Aufwärts zählen von 1,1,,,,,,,Vier,420,2,018_JE
Aufwärts zählen von 1,1,,,,,,,Fünf,554,2,018_JE
Aufwärts zählen von 1,1,,,,,,,Sechs,461,2,018_JE
Aufwärts zählen von 1,1,,,,,,,Sieben,856,2,018_JE
Aufwärts zählen von 1,1,,,,,,,Acht,546,2,018_JE
Aufwärts zählen von 1,1,,,,,,,Neun,425,2,018_JE
Abwärts zählen von 9,1,,,,,,,Neun,705,2,018_JE
Abwärts zählen von 9,1,,,,,,,Acht,852,2,018_JE
Abwärts zählen von 9,1,,,,,,,Sieben,822,2,018_JE
Abwärts zählen von 9,1,,,,,,,Sechs,579,2,018_JE
Abwärts zählen von 9,1,,,,,,,Fuenf,630,2,018_JE
Abwärts zählen von 9,1,,,,,,,Vier,414,2,018_JE
Abwärts zählen von 9,1,,,,,,,Drei,481,2,018_JE
Abwärts zählen von 9,1,,,,,,,Zwei,456,2,018_JE
Abwärts zählen von 9,1,,,,,,,Eins,499,2,018_JE
Küchengeräte,1,,,,,,,Mixer,550,2,018_JE
Küchengeräte,1,,,,,,,Ruehrgeraet,1149,2,018_JE
Küchengeräte,1,,,,,,,Kuechenwaage,763,2,018_JE
Küchengeräte,1,,,,,,,Kochtopf,499,2,018_JE
Küchengeräte,1,,,,,,,Pfanne,500,2,018_JE
Küchengeräte,1,,,,,,,Tiegel,440,2,018_JE
Küchengeräte,1,,,,,,,Wok,788,2,018_JE
Küchengeräte,1,,,,,,,Schuessel,509,2,018_JE
Küchengeräte,1,,,,,,,Messbecher,547,2,018_JE
Abwärts zählen von 9,1,,,,,,,Neun,828,2,018_JE
Abwärts zählen von 9,1,,,,,,,Acht,804,2,018_JE
Abwärts zählen von 9,1,,,,,,,Sieben,461,2,018_JE
Abwärts zählen von 9,1,,,,,,,Sechs,457,2,018_JE
Abwärts zählen von 9,1,,,,,,,Fuenf,832,2,018_JE
Abwärts zählen von 9,1,,,,,,,Vier,475,2,018_JE
Abwärts zählen von 9,1,,,,,,,Drei,458,2,018_JE
Abwärts zählen von 9,1,,,,,,,Zwei,622,2,018_JE
Abwärts zählen von 9,1,,,,,,,Eins,443,2,018_JE
Insekten,1,,,,,,,Ameise,466,2,018_JE
Insekten,1,,,,,,,Regenwurm,1277,2,018_JE
Insekten,1,,,,,,,Zikade,444,2,018_JE
Insekten,1,,,,,,,Maikaefer,558,2,018_JE
Insekten,1,,,,,,,Marienkaefer,600,2,018_JE
Insekten,1,,,,,,,Kellerassel,509,2,018_JE
Insekten,1,,,,,,,Heuschrecke,472,2,018_JE
Insekten,1,,,,,,,Gottesanbeterin,476,2,018_JE
Insekten,1,,,,,,,Schnecke,585,2,018_JE
Abwärts zählen von 9,1,,,,,,,Neun,677,2,018_JE
Abwärts zählen von 9,1,,,,,,,Acht,525,2,018_JE
Abwärts zählen von 9,1,,,,,,,Sieben,685,2,018_JE
Abwärts zählen von 9,1,,,,,,,Sechs,504,2,018_JE
Abwärts zählen von 9,1,,,,,,,Fuenf,554,2,018_JE
Abwärts zählen von 9,1,,,,,,,Vier,523,2,018_JE
Abwärts zählen von 9,1,,,,,,,Drei,602,2,018_JE
Abwärts zählen von 9,1,,,,,,,Zwei,428,2,018_JE
Abwärts zählen von 9,1,,,,,,,Eins,393,2,018_JE
Aufwärts zählen von 1,1,,,,,,,Eins,668,2,018_JE
Aufwärts zählen von 1,1,,,,,,,Zwei,434,2,018_JE
Aufwärts zählen von 1,1,,,,,,,Drei,546,2,018_JE
Aufwärts zählen von 1,1,,,,,,,Vier,981,2,018_JE
Aufwärts zählen von 1,1,,,,,,,Fünf,753,2,018_JE
Aufwärts zählen von 1,1,,,,,,,Sechs,920,2,018_JE
Aufwärts zählen von 1,1,,,,,,,Sieben,777,2,018_JE
Aufwärts zählen von 1,1,,,,,,,Acht,640,2,018_JE
Aufwärts zählen von 1,1,,,,,,,Neun,614,2,018_JE
Farben,1,,,,,,,Rot,547,2,018_JE
Farben,1,,,,,,,Blau,535,2,018_JE
Farben,1,,,,,,,Gelb,463,2,018_JE
Farben,1,,,,,,,Gruen,521,2,018_JE
Farben,1,,,,,,,Orange,514,2,018_JE
Farben,1,,,,,,,Violett,426,2,018_JE
Farben,1,,,,,,,Rosa,787,2,018_JE
Farben,1,,,,,,,Schwarz,369,2,018_JE
Farben,1,,,,,,,Weiss,764,2,018_JE
Sportarten,1,,,,,,,Weitwurf,663,2,018_JE
Sportarten,1,,,,,,,Speerwerfen,771,2,018_JE
Sportarten,1,,,,,,,Kugelstossen,500,2,018_JE
Sportarten,1,,,,,,,Diskuswerfen,849,2,018_JE
Sportarten,1,,,,,,,Baumstammwerfen,671,2,018_JE
Sportarten,1,,,,,,,Kampfsport,1059,2,018_JE
Sportarten,1,,,,,,,Wrestling,729,2,018_JE
Sportarten,1,,,,,,,Fussball,452,2,018_JE
Sportarten,1,,,,,,,Schwimmen,370,2,018_JE
Aufwärts zählen von 1,1,,,,,,,Eins,761,2,018_JE
Aufwärts zählen von 1,1,,,,,,,Zwei,594,2,018_JE
Aufwärts zählen von 1,1,,,,,,,Drei,1030,2,018_JE
Aufwärts zählen von 1,1,,,,,,,Vier,983,2,018_JE
Aufwärts zählen von 1,1,,,,,,,Fünf,620,2,018_JE
Aufwärts zählen von 1,1,,,,,,,Sechs,717,2,018_JE
Aufwärts zählen von 1,1,,,,,,,Sieben,488,2,018_JE
Aufwärts zählen von 1,1,,,,,,,Acht,452,2,018_JE
Aufwärts zählen von 1,1,,,,,,,Neun,614,2,018_JE
Tiere,1,,,,,,,Moewe,572,2,018_JE
Tiere,1,,,,,,,Giraffe,982,2,018_JE
Tiere,1,,,,,,,Zebra,567,2,018_JE
Tiere,1,,,,,,,Wolf,470,2,018_JE
Tiere,1,,,,,,,Tiger,627,2,018_JE
Tiere,1,,,,,,,Gepard,794,2,018_JE
Tiere,1,,,,,,,Leopard,446,2,018_JE
Tiere,,,,1,,,,,501,2,018_JE
Tiere,1,,,,,,,Elefant,574,2,018_JE
Aufwärts zählen von 1,1,,,,,,,Eins,532,2,018_JE
Aufwärts zählen von 1,1,,,,,,,Zwei,588,2,018_JE
Aufwärts zählen von 1,1,,,,,,,Drei,597,2,018_JE
Aufwärts zählen von 1,1,,,,,,,Vier,862,2,018_JE
Aufwärts zählen von 1,1,,,,,,,Fünf,743,2,018_JE
Aufwärts zählen von 1,1,,,,,,,Sechs,513,2,018_JE
Aufwärts zählen von 1,1,,,,,,,Sieben,444,2,018_JE
Aufwärts zählen von 1,1,,,,,,,Acht,433,2,018_JE
Aufwärts zählen von 1,1,,,,,,,Neun,671,2,018_JE
Kleidungsstücke,1,,,,,,,Rock,869,2,018_JE
Kleidungsstücke,1,,,,,,,Kleid,647,2,018_JE
Kleidungsstücke,1,,,,,,,Bluse,510,2,018_JE
Kleidungsstücke,1,,,,,,,Hemd,477,2,018_JE
Kleidungsstücke,1,,,,,,,Harnisch,536,2,018_JE
Kleidungsstücke,1,,,,,,,Schal,576,2,018_JE
Kleidungsstücke,1,,,,,,,Overall,851,2,018_JE
Kleidungsstücke,1,,,,,,,Jacke,642,2,018_JE
Kleidungsstücke,1,,,,,,,Weste,607,2,018_JE
Aufwärts zählen von 1,1,,,,,,,Eins,466,2,018_JE
Aufwärts zählen von 1,1,,,,,,,Zwei,495,2,018_JE
Aufwärts zählen von 1,1,,,,,,,Drei,586,2,018_JE
Aufwärts zählen von 1,1,,,,,,,Vier,577,2,018_JE
Aufwärts zählen von 1,1,,,,,,,Fünf,573,2,018_JE
Aufwärts zählen von 1,1,,,,,,,Sechs,505,2,018_JE
Aufwärts zählen von 1,1,,,,,,,Sieben,527,2,018_JE
Aufwärts zählen von 1,1,,,,,,,Acht,573,2,018_JE
Aufwärts zählen von 1,1,,,,,,,Neun,608,2,018_JE
Metalle,1,,,,,,,Eisen,592,2,018_JE
Metalle,1,,,,,,,Aluminium,784,2,018_JE
Metalle,1,,,,,,,Blei,609,2,018_JE
Metalle,1,,,,,,,Kupfer,460,2,018_JE
Metalle,1,,,,,,,Silber,645,2,018_JE
Metalle,1,,,,,,,Gold,563,2,018_JE
Metalle,1,,,,,,,Platin,761,2,018_JE
Metalle,1,,,,,,,Titan,443,2,018_JE
Metalle,,,1,,,,,,,2,018_JE
Abwärts zählen von 9,1,,,,,,,Neun,685,2,018_JE
Abwärts zählen von 9,1,,,,,,,Acht,491,2,018_JE
Abwärts zählen von 9,1,,,,,,,Sieben,796,2,018_JE
Abwärts zählen von 9,1,,,,,,,Sechs,723,2,018_JE
Abwärts zählen von 9,1,,,,,,,Fuenf,871,2,018_JE
Abwärts zählen von 9,1,,,,,,,Vier,572,2,018_JE
Abwärts zählen von 9,1,,,,,,,Drei,834,2,018_JE
Abwärts zählen von 9,1,,,,,,,Zwei,707,2,018_JE
Abwärts zählen von 9,1,,,,,,,Eins,1155,2,018_JE
