Category,Correct,weiter,NR,Unintelligible,Repetitions,NR_category,Aborted,Word,Onset,Run,Subj
Aufwaerts zaehlen von 1,1,,,,,,,eins,912,1,027_AE
Aufwaerts zaehlen von 1,1,,,,,,,zwei,663,1,027_AE
Aufwaerts zaehlen von 1,1,,,,,,,drei,559,1,027_AE
Aufwaerts zaehlen von 1,1,,,,,,,vier,566,1,027_AE
Aufwaerts zaehlen von 1,1,,,,,,,fuenf,494,1,027_AE
Aufwaerts zaehlen von 1,1,,,,,,,sechs,501,1,027_AE
Aufwaerts zaehlen von 1,1,,,,,,,sieben,450,1,027_AE
Aufwaerts zaehlen von 1,1,,,,,,,acht,634,1,027_AE
Aufwaerts zaehlen von 1,1,,,,,,,neun,840,1,027_AE
Abwaerts zaehlen von 9,1,,,,,,,neun,886,1,027_AE
Abwaerts zaehlen von 9,1,,,,,,,acht,771,1,027_AE
Abwaerts zaehlen von 9,1,,,,,,,sieben,580,1,027_AE
Abwaerts zaehlen von 9,1,,,,,,,sechs,494,1,027_AE
Abwaerts zaehlen von 9,1,,,,,,,fuenf,544,1,027_AE
Abwaerts zaehlen von 9,1,,,,,,,vier,537,1,027_AE
Abwaerts zaehlen von 9,1,,,,,,,drei,631,1,027_AE
Abwaerts zaehlen von 9,1,,,,,,,zwei,548,1,027_AE
Abwaerts zaehlen von 9,1,,,,,,,eins,699,1,027_AE
Sportarten,1,,,,,,,Schwimmen,1524,1,027_AE
Sportarten,1,,,,,,,Laufen,710,1,027_AE
Sportarten,1,,,,,,,Reiten,631,1,027_AE
Sportarten,1,,,,,,,Fechten,580,1,027_AE
Sportarten,1,,,,,,,Rudern,775,1,027_AE
Sportarten,1,,,,,,,Boxen,530,1,027_AE
Sportarten,1,,,,,,,Ringen,486,1,027_AE
Sportarten,1,,,,,,,Tennis,609,1,027_AE
Sportarten,1,,,,,,,Volleyball,537,1,027_AE
Kleidungsstuecke,1,,,,,,,Hose,1002,1,027_AE
Kleidungsstuecke,1,,,,,,,Jacke,670,1,027_AE
Kleidungsstuecke,1,,,,,,,Mantel,541,1,027_AE
Kleidungsstuecke,1,,,,,,,Muetze,595,1,027_AE
Kleidungsstuecke,1,,,,,,,Handschuhe,490,1,027_AE
Kleidungsstuecke,1,,,,,,,Schal,645,1,027_AE
Kleidungsstuecke,1,,,,,,,Hemd,515,1,027_AE
Kleidungsstuecke,1,,,,,,,Pullover,605,1,027_AE
Kleidungsstuecke,1,,,,,,,Socke,652,1,027_AE
Abwaerts zaehlen von 9,1,,,,,,,neun,1067,1,027_AE
Abwaerts zaehlen von 9,1,,,,,,,acht,688,1,027_AE
Abwaerts zaehlen von 9,1,,,,,,,sieben,548,1,027_AE
Abwaerts zaehlen von 9,1,,,,,,,sechs,609,1,027_AE
Abwaerts zaehlen von 9,1,,,,,,,fuenf,487,1,027_AE
Abwaerts zaehlen von 9,1,,,,,,,vier,458,1,027_AE
Abwaerts zaehlen von 9,1,,,,,,,drei,494,1,027_AE
Abwaerts zaehlen von 9,1,,,,,,,zwei,386,1,027_AE
Abwaerts zaehlen von 9,1,,,,,,,eins,602,1,027_AE
Abwaerts zaehlen von 9,1,,,,,,,neun,1114,1,027_AE
Abwaerts zaehlen von 9,1,,,,,,,acht,620,1,027_AE
Abwaerts zaehlen von 9,1,,,,,,,sieben,450,1,027_AE
Abwaerts zaehlen von 9,1,,,,,,,sechs,562,1,027_AE
Abwaerts zaehlen von 9,1,,,,,,,fuenf,598,1,027_AE
Abwaerts zaehlen von 9,1,,,,,,,vier,537,1,027_AE
Abwaerts zaehlen von 9,1,,,,,,,drei,609,1,027_AE
Abwaerts zaehlen von 9,1,,,,,,,zwei,447,1,027_AE
Abwaerts zaehlen von 9,1,,,,,,,eins,595,1,027_AE
Fische,1,,,,,,,Karpfen,894,1,027_AE
Fische,1,,,,,,,Schleie,717,1,027_AE
Fische,1,,,,,,,Hering,609,1,027_AE
Fische,1,,,,,,,Barsch,595,1,027_AE
Fische,1,,,,,,,Forelle,627,1,027_AE
Fische,1,,,,,,,Haifisch,804,1,027_AE
Fische,1,,,,,,,Meerbrasse,890,1,027_AE
Fische,,1,,,,,,weiter,1420,1,027_AE
Fische,,1,,,,,,weiter,959,1,027_AE
Gartengeraete,1,,,,,,,Spaten,930,1,027_AE
Gartengeraete,1,,,,,,,Rechen,674,1,027_AE
Gartengeraete,1,,,,,,,Schaufel,551,1,027_AE
Gartengeraete,1,,,,,,,Rasenmaeher,659,1,027_AE
Gartengeraete,1,,,,,,,Obstpfluecker,508,1,027_AE
Gartengeraete,1,,,,,,,Gartenschere,750,1,027_AE
Gartengeraete,1,,,,1,,,Schaufel,659,1,027_AE
Gartengeraete,,1,,,,,,weiter,2984,1,027_AE
Gartengeraete,,1,,,,,,weiter,876,1,027_AE
Abwaerts zaehlen von 9,1,,,,,,,neun,933,1,027_AE
Abwaerts zaehlen von 9,1,,,,,,,acht,501,1,027_AE
Abwaerts zaehlen von 9,1,,,,,,,sieben,573,1,027_AE
Abwaerts zaehlen von 9,1,,,,,,,sechs,508,1,027_AE
Abwaerts zaehlen von 9,1,,,,,,,fuenf,458,1,027_AE
Abwaerts zaehlen von 9,1,,,,,,,vier,494,1,027_AE
Abwaerts zaehlen von 9,1,,,,,,,drei,483,1,027_AE
Abwaerts zaehlen von 9,1,,,,,,,zwei,429,1,027_AE
Abwaerts zaehlen von 9,1,,,,,,,eins,602,1,027_AE
Suessigkeiten,1,,,,,,,Bonbon,1200,1,027_AE
Suessigkeiten,1,,,,,,,Kuchen,811,1,027_AE
Suessigkeiten,1,,,,,,,Stollen,609,1,027_AE
Suessigkeiten,1,,,,,,,Praline,667,1,027_AE
Suessigkeiten,1,,,,,,,Rosine,710,1,027_AE
Suessigkeiten,1,,,,,,,Speiseeis,706,1,027_AE
Suessigkeiten,1,,,,,,,Traubenzucker,1337,1,027_AE
Suessigkeiten,1,,,,,,,Zucker,605,1,027_AE
Suessigkeiten,1,,,,1,,,Kuchen,811,1,027_AE
Farben,1,,,,,,,schwarz,897,1,027_AE
Farben,1,,,,,,,weiss,638,1,027_AE
Farben,1,,,,,,,grau,580,1,027_AE
Farben,1,,,,,,,rot,800,1,027_AE
Farben,1,,,,,,,blau,757,1,027_AE
Farben,1,,,,,,,gelb,728,1,027_AE
Farben,1,,,,,,,gruen,551,1,027_AE
Farben,1,,,,,,,orange,645,1,027_AE
Farben,1,,,,,,,violett,814,1,027_AE
Aufwaerts zaehlen von 1,1,,,,,,,eins,811,1,027_AE
Aufwaerts zaehlen von 1,1,,,,,,,zwei,717,1,027_AE
Aufwaerts zaehlen von 1,1,,,,,,,drei,854,1,027_AE
Aufwaerts zaehlen von 1,1,,,,,,,vier,490,1,027_AE
Aufwaerts zaehlen von 1,1,,,,,,,fuenf,515,1,027_AE
Aufwaerts zaehlen von 1,1,,,,,,,sechs,490,1,027_AE
Aufwaerts zaehlen von 1,1,,,,,,,sieben,645,1,027_AE
Aufwaerts zaehlen von 1,1,,,,,,,acht,605,1,027_AE
Aufwaerts zaehlen von 1,1,,,,,,,neun,587,1,027_AE
Aufwaerts zaehlen von 1,1,,,,,,,eins,930,1,027_AE
Aufwaerts zaehlen von 1,1,,,,,,,zwei,616,1,027_AE
Aufwaerts zaehlen von 1,1,,,,,,,drei,814,1,027_AE
Aufwaerts zaehlen von 1,1,,,,,,,vier,602,1,027_AE
Aufwaerts zaehlen von 1,1,,,,,,,fuenf,609,1,027_AE
Aufwaerts zaehlen von 1,1,,,,,,,sechs,508,1,027_AE
Aufwaerts zaehlen von 1,1,,,,,,,sieben,584,1,027_AE
Aufwaerts zaehlen von 1,1,,,,,,,acht,667,1,027_AE
Aufwaerts zaehlen von 1,1,,,,,,,neun,735,1,027_AE
Tiere,1,,,,,,,Kuh,962,1,027_AE
Tiere,1,,,,,,,Schwein,559,1,027_AE
Tiere,1,,,,,,,Schaf,566,1,027_AE
Tiere,1,,,,,,,Ziege,523,1,027_AE
Tiere,1,,,,,,,Esel,515,1,027_AE
Tiere,1,,,,,,,Pferd,566,1,027_AE
Tiere,1,,,,,,,Huhn,609,1,027_AE
Tiere,1,,,,,,,Elefant,638,1,027_AE
Tiere,1,,,,,,,Tiger,861,1,027_AE
Kosmetik,1,,,,,,,Lippenstift,1222,1,027_AE
Kosmetik,1,,,,,,,Hautcreme,1016,1,027_AE
Kosmetik,1,,,,,,,Salbe,739,1,027_AE
Kosmetik,1,,,,,,,Zahncreme,440,1,027_AE
Kosmetik,1,,,,,,,Mundwasser,497,1,027_AE
Kosmetik,1,,,,,,,Hautoel,595,1,027_AE
Kosmetik,1,,,,,,,Koerperlotion,840,1,027_AE
Kosmetik,1,,,,,,,Schminke,580,1,027_AE
Kosmetik,1,,,,,,,Wimperntusche,695,1,027_AE
Aufwaerts zaehlen von 1,1,,,,,,,eins,645,1,027_AE
Aufwaerts zaehlen von 1,1,,,,,,,zwei,544,1,027_AE
Aufwaerts zaehlen von 1,1,,,,,,,drei,559,1,027_AE
Aufwaerts zaehlen von 1,1,,,,,,,vier,523,1,027_AE
Aufwaerts zaehlen von 1,1,,,,,,,fuenf,602,1,027_AE
Aufwaerts zaehlen von 1,1,,,,,,,sechs,544,1,027_AE
Aufwaerts zaehlen von 1,1,,,,,,,sieben,422,1,027_AE
Aufwaerts zaehlen von 1,1,,,,,,,acht,670,1,027_AE
Aufwaerts zaehlen von 1,1,,,,,,,neun,559,1,027_AE
Koerperteile,1,,,,,,,Bein,1099,1,027_AE
Koerperteile,1,,,,,,,Arm,724,1,027_AE
Koerperteile,1,,,,,,,Kopf,544,1,027_AE
Koerperteile,1,,,,,,,Finger,667,1,027_AE
Koerperteile,1,,,,,,,Zeh,591,1,027_AE
Koerperteile,1,,,,,,,Knie,825,1,027_AE
Koerperteile,1,,,,,,,Ellebogen,616,1,027_AE
Koerperteile,1,,,,,,,Ohr,620,1,027_AE
Koerperteile,1,,,,,,,Nase,544,1,027_AE
Spielzeug,1,,,,,,,Eisenbahn,1852,1,027_AE
Spielzeug,1,,,,,,,Ball,768,1,027_AE
Spielzeug,1,,,,,,,Kreisel,602,1,027_AE
Spielzeug,1,,,,,,,Schaukelpferd,519,1,027_AE
Spielzeug,1,,,,,,,Teddybaer,584,1,027_AE
Spielzeug,1,,,,,,,Puppe,591,1,027_AE
Spielzeug,1,,,,,,,Puppenstube,753,1,027_AE
Spielzeug,,1,,,,,,weiter,843,1,027_AE
Spielzeug,,1,,,,,,weiter,818,1,027_AE
Abwaerts zaehlen von 9,1,,,,,,,neun,796,1,027_AE
Abwaerts zaehlen von 9,1,,,,,,,acht,562,1,027_AE
Abwaerts zaehlen von 9,1,,,,,,,sieben,508,1,027_AE
Abwaerts zaehlen von 9,1,,,,,,,sechs,616,1,027_AE
Abwaerts zaehlen von 9,1,,,,,,,fuenf,811,1,027_AE
Abwaerts zaehlen von 9,1,,,,,,,vier,638,1,027_AE
Abwaerts zaehlen von 9,1,,,,,,,drei,764,1,027_AE
Abwaerts zaehlen von 9,1,,,,,,,zwei,724,1,027_AE
Abwaerts zaehlen von 9,1,,,,,,,eins,566,1,027_AE
Aufwaerts zaehlen von 1,1,,,,,,,eins,832,1,027_AE
Aufwaerts zaehlen von 1,1,,,,,,,zwei,501,1,027_AE
Aufwaerts zaehlen von 1,1,,,,,,,drei,649,1,027_AE
Aufwaerts zaehlen von 1,1,,,,,,,vier,512,1,027_AE
Aufwaerts zaehlen von 1,1,,,,,,,fuenf,753,1,027_AE
Aufwaerts zaehlen von 1,1,,,,,,,sechs,537,1,027_AE
Aufwaerts zaehlen von 1,1,,,,,,,sieben,490,1,027_AE
Aufwaerts zaehlen von 1,1,,,,,,,acht,937,1,027_AE
Aufwaerts zaehlen von 1,1,,,,,,,neun,670,1,027_AE
Aufwaerts zaehlen von 1,1,,,,,,,eins,861,2,027_AE
Aufwaerts zaehlen von 1,1,,,,,,,zwei,472,2,027_AE
Aufwaerts zaehlen von 1,1,,,,,,,drei,710,2,027_AE
Aufwaerts zaehlen von 1,1,,,,,,,vier,508,2,027_AE
Aufwaerts zaehlen von 1,1,,,,,,,fuenf,494,2,027_AE
Aufwaerts zaehlen von 1,1,,,,,,,sechs,555,2,027_AE
Aufwaerts zaehlen von 1,1,,,,,,,sieben,494,2,027_AE
Aufwaerts zaehlen von 1,1,,,,,,,acht,811,2,027_AE
Aufwaerts zaehlen von 1,1,,,,,,,neun,634,2,027_AE
Autoteile,1,,,,,,,Reifen,1474,2,027_AE
Autoteile,1,,,,,,,Rad,623,2,027_AE
Autoteile,1,,,,,,,Dach,631,2,027_AE
Autoteile,1,,,,,,,Kuehler,598,2,027_AE
Autoteile,1,,,,,,,Motor,739,2,027_AE
Autoteile,1,,,,,,,Bremse,688,2,027_AE
Autoteile,1,,,,,,,Kofferraum,555,2,027_AE
Autoteile,1,,,,,,,Sitz,512,2,027_AE
Autoteile,1,,,,,,,Lenkrad,577,2,027_AE
Aufwaerts zaehlen von 1,1,,,,,,,eins,832,2,027_AE
Aufwaerts zaehlen von 1,1,,,,,,,zwei,526,2,027_AE
Aufwaerts zaehlen von 1,1,,,,,,,drei,559,2,027_AE
Aufwaerts zaehlen von 1,1,,,,,,,vier,562,2,027_AE
Aufwaerts zaehlen von 1,1,,,,,,,fuenf,501,2,027_AE
Aufwaerts zaehlen von 1,1,,,,,,,sechs,710,2,027_AE
Aufwaerts zaehlen von 1,1,,,,,,,sieben,454,2,027_AE
Aufwaerts zaehlen von 1,1,,,,,,,acht,905,2,027_AE
Aufwaerts zaehlen von 1,1,,,,,,,neun,634,2,027_AE
Aufwaerts zaehlen von 1,1,,,,,,,eins,865,2,027_AE
Aufwaerts zaehlen von 1,1,,,,,,,zwei,476,2,027_AE
Aufwaerts zaehlen von 1,1,,,,,,,drei,530,2,027_AE
Aufwaerts zaehlen von 1,1,,,,,,,vier,732,2,027_AE
Aufwaerts zaehlen von 1,1,,,,,,,fuenf,933,2,027_AE
Aufwaerts zaehlen von 1,1,,,,,,,sechs,703,2,027_AE
Aufwaerts zaehlen von 1,1,,,,,,,sieben,609,2,027_AE
Aufwaerts zaehlen von 1,1,,,,,,,acht,814,2,027_AE
Aufwaerts zaehlen von 1,1,,,,,,,neun,627,2,027_AE
Musikinstrumente,1,,,,,,,Geige,966,2,027_AE
Musikinstrumente,1,,,,,,,Bratsche,616,2,027_AE
Musikinstrumente,1,,,,,,,Horn,555,2,027_AE
Musikinstrumente,1,,,,,,,Klarinette,710,2,027_AE
Musikinstrumente,1,,,,,,,Trompete,861,2,027_AE
Musikinstrumente,1,,,,,,,Tuba,804,2,027_AE
Musikinstrumente,1,,,,,,,Pauke,623,2,027_AE
Musikinstrumente,1,,,,,,,Harfe,667,2,027_AE
Musikinstrumente,1,,,,,,,Floete,670,2,027_AE
Abwaerts zaehlen von 9,1,,,,,,,neun,879,2,027_AE
Abwaerts zaehlen von 9,1,,,,,,,acht,595,2,027_AE
Abwaerts zaehlen von 9,1,,,,,,,sieben,496,2,027_AE
Abwaerts zaehlen von 9,1,,,,,,,sechs,631,2,027_AE
Abwaerts zaehlen von 9,1,,,,,,,fuenf,804,2,027_AE
Abwaerts zaehlen von 9,1,,,,,,,vier,645,2,027_AE
Abwaerts zaehlen von 9,1,,,,,,,drei,1049,2,027_AE
Abwaerts zaehlen von 9,1,,,,,,,zwei,609,2,027_AE
Abwaerts zaehlen von 9,1,,,,,,,eins,1027,2,027_AE
Abwaerts zaehlen von 9,1,,,,,,,neun,1020,2,027_AE
Abwaerts zaehlen von 9,1,,,,,,,acht,627,2,027_AE
Abwaerts zaehlen von 9,1,,,,,,,sieben,602,2,027_AE
Abwaerts zaehlen von 9,1,,,,,,,sechs,598,2,027_AE
Abwaerts zaehlen von 9,1,,,,,,,fuenf,858,2,027_AE
Abwaerts zaehlen von 9,1,,,,,,,vier,768,2,027_AE
Abwaerts zaehlen von 9,1,,,,,,,drei,479,2,027_AE
Abwaerts zaehlen von 9,1,,,,,,,zwei,537,2,027_AE
Abwaerts zaehlen von 9,1,,,,,,,eins,1052,2,027_AE
Lebensmittel,1,,,,,,,Brot,850,2,027_AE
Lebensmittel,1,,,,,,,Broetchen,850,2,027_AE
Lebensmittel,1,,,,,,,Kartoffel,760,2,027_AE
Lebensmittel,1,,,,,,,Erbse,486,2,027_AE
Lebensmittel,1,,,,,,,Bohne,1038,2,027_AE
Lebensmittel,1,,,,,,,Tomate,501,2,027_AE
Lebensmittel,1,,,,,,,Gurke,440,2,027_AE
Lebensmittel,1,,,,,,,Ei,587,2,027_AE
Lebensmittel,1,,,,,,,Fleisch,533,2,027_AE
Aufwaerts zaehlen von 1,1,,,,,,,eins,670,2,027_AE
Aufwaerts zaehlen von 1,1,,,,,,,zwei,609,2,027_AE
Aufwaerts zaehlen von 1,1,,,,,,,drei,533,2,027_AE
Aufwaerts zaehlen von 1,1,,,,,,,vier,551,2,027_AE
Aufwaerts zaehlen von 1,1,,,,,,,fuenf,602,2,027_AE
Aufwaerts zaehlen von 1,1,,,,,,,sechs,721,2,027_AE
Aufwaerts zaehlen von 1,1,,,,,,,sieben,672,2,027_AE
Aufwaerts zaehlen von 1,1,,,,,,,acht,1034,2,027_AE
Aufwaerts zaehlen von 1,1,,,,,,,neun,1157,2,027_AE
Blumen,1,,,,,,,Rose,1243,2,027_AE
Blumen,1,,,,,,,Glockenblume,948,2,027_AE
Blumen,1,,,,,,,Veilchen,663,2,027_AE
Blumen,1,,,,,,,Chrysantheme,634,2,027_AE
Blumen,1,,,,1,,,Glockenblume,501,2,027_AE
Blumen,,1,,,,,,weiter,533,2,027_AE
Blumen,1,,,,,,,Klee,1218,2,027_AE
Blumen,,1,,,,,,weiter,479,2,027_AE
Blumen,,1,,,,,,weiter,580,2,027_AE
Abwaerts zaehlen von 9,1,,,,,,,neun,1214,2,027_AE
Abwaerts zaehlen von 9,1,,,,,,,acht,681,2,027_AE
Abwaerts zaehlen von 9,1,,,,,,,sieben,796,2,027_AE
Abwaerts zaehlen von 9,1,,,,,,,sechs,695,2,027_AE
Abwaerts zaehlen von 9,1,,,,,,,fuenf,537,2,027_AE
Abwaerts zaehlen von 9,1,,,,,,,vier,530,2,027_AE
Abwaerts zaehlen von 9,1,,,,,,,drei,497,2,027_AE
Abwaerts zaehlen von 9,1,,,,,,,zwei,479,2,027_AE
Abwaerts zaehlen von 9,1,,,,,,,eins,760,2,027_AE
Werkzeug,1,,,,,,,Hammer,930,2,027_AE
Werkzeug,1,,,,,,,Meissel,663,2,027_AE
Werkzeug,1,,,,,,,Amboss,476,2,027_AE
Werkzeug,1,,,,,,,Axt,631,2,027_AE
Werkzeug,1,,,,,,,Saege,602,2,027_AE
Werkzeug,1,,,,,,,Bohrer,757,2,027_AE
Werkzeug,1,,,,,,,,847,2,027_AE
Werkzeug,1,,,,,,,Schere,627,2,027_AE
Werkzeug,1,,,,,,,Drehmaschine,505,2,027_AE
Insekten,1,,,,,,,Biene,1532,2,027_AE
Insekten,1,,,,,,,Muecke,1009,2,027_AE
Insekten,1,,,,,,,Falter,814,2,027_AE
Insekten,1,,,,,,,Fliege,609,2,027_AE
Insekten,1,,,,,,,Motte,789,2,027_AE
Insekten,1,,,,,,,Hummel,555,2,027_AE
Insekten,1,,,,,,,Mistkaefer,768,2,027_AE
Insekten,1,,,,,,,Blattwanze,555,2,027_AE
Insekten,,1,,,,,,weiter,764,2,027_AE
Berufe,1,,,,,,,Baecker,886,2,027_AE
Berufe,1,,,,,,,Schlosser,793,2,027_AE
Berufe,1,,,,,,,Dachdecker,789,2,027_AE
Berufe,1,,,,,,,Bauer,551,2,027_AE
Berufe,1,,,,,,,Schneider,544,2,027_AE
Berufe,1,,,,,,,Friseur,616,2,027_AE
Berufe,1,,,,,,,Mechaniker,533,2,027_AE
Berufe,,1,,,,,,weiter,890,2,027_AE
Berufe,,1,,,,,,weiter,1510,2,027_AE
Abwaerts zaehlen von 9,1,,,,,,,neun,861,2,027_AE
Abwaerts zaehlen von 9,1,,,,,,,acht,566,2,027_AE
Abwaerts zaehlen von 9,1,,,,,,,sieben,479,2,027_AE
Abwaerts zaehlen von 9,1,,,,,,,sechs,515,2,027_AE
Abwaerts zaehlen von 9,1,,,,,,,fuenf,998,2,027_AE
Abwaerts zaehlen von 9,1,,,,,,,vier,447,2,027_AE
Abwaerts zaehlen von 9,1,,,,,,,drei,854,2,027_AE
Abwaerts zaehlen von 9,1,,,,,,,zwei,573,2,027_AE
Abwaerts zaehlen von 9,1,,,,,,,eins,598,2,027_AE
Baeume,1,,,,,,,Laerche,814,2,027_AE
Baeume,1,,,,,,,Fichte,663,2,027_AE
Baeume,1,,,,,,,Birke,674,2,027_AE
Baeume,1,,,,,,,Eiche,872,2,027_AE
Baeume,1,,,,,,,Buche,1434,2,027_AE
Baeume,1,,,,,,,Wacholder,1377,2,027_AE
Baeume,1,,,,,,,Eibe,868,2,027_AE
Baeume,1,,,,,,,Kiefer,609,2,027_AE
Baeume,,1,,,,,,weiter,1164,2,027_AE
Abwaerts zaehlen von 9,1,,,,,,,neun,1056,2,027_AE
Abwaerts zaehlen von 9,1,,,,,,,acht,573,2,027_AE
Abwaerts zaehlen von 9,1,,,,,,,sieben,505,2,027_AE
Abwaerts zaehlen von 9,1,,,,,,,sechs,519,2,027_AE
Abwaerts zaehlen von 9,1,,,,,,,fuenf,814,2,027_AE
Abwaerts zaehlen von 9,1,,,,,,,vier,573,2,027_AE
Abwaerts zaehlen von 9,1,,,,,,,drei,623,2,027_AE
Abwaerts zaehlen von 9,1,,,,,,,zwei,479,2,027_AE
Abwaerts zaehlen von 9,1,,,,,,,eins,750,2,027_AE
Aufwaerts zaehlen von 1,1,,,,,,,eins,587,2,027_AE
Aufwaerts zaehlen von 1,1,,,,,,,zwei,559,2,027_AE
Aufwaerts zaehlen von 1,1,,,,,,,drei,436,2,027_AE
Aufwaerts zaehlen von 1,1,,,,,,,vier,602,2,027_AE
Aufwaerts zaehlen von 1,1,,,,,,,fuenf,548,2,027_AE
Aufwaerts zaehlen von 1,1,,,,,,,sechs,468,2,027_AE
Aufwaerts zaehlen von 1,1,,,,,,,sieben,595,2,027_AE
Aufwaerts zaehlen von 1,1,,,,,,,acht,616,2,027_AE
Aufwaerts zaehlen von 1,1,,,,,,,neun,847,2,027_AE
Metalle,1,,,,,,,Eisen ,1034,2,027_AE
Metalle,1,,,,,,,Kupfer,778,2,027_AE
Metalle,1,,,,,,,Gold,804,2,027_AE
Metalle,1,,,,,,,Silber,461,2,027_AE
Metalle,1,,,,,,,Mangan,724,2,027_AE
Metalle,1,,,,,,,Blei,537,2,027_AE
Metalle,1,,,,,,,Quecksilber,645,2,027_AE
Metalle,,1,,,,,,weiter,685,2,027_AE
Metalle,,1,,,,,,weiter,695,2,027_AE
Kuechengeraete,1,,,,,,,Loeffel,710,2,027_AE
Kuechengeraete,1,,,,,,,Kelle,858,2,027_AE
Kuechengeraete,1,,,,,,,Topf,721,2,027_AE
Kuechengeraete,1,,,,,,,Pfanne,710,2,027_AE
Kuechengeraete,1,,,,,,,Quirl,537,2,027_AE
Kuechengeraete,1,,,,,,,Messer,894,2,027_AE
Kuechengeraete,1,,,,,,,Gabel,1081,2,027_AE
Kuechengeraete,1,,,,,,,kleiner Loeffel,912,2,027_AE
Kuechengeraete,,1,,,,,,weiter,2101,2,027_AE
