Category,Correct,weiter,NR,Unintelligible,Repetitions,NR_category,Aborted,Word,Onset,Run,Subj
Bäume,1,,,,,,,Eiche,1137,1,030_JE
Bäume,1,,,,,,,Fichte,1022,1,030_JE
Bäume,1,,,,,,,Esche,764,1,030_JE
Bäume,1,,,,,,,Tanne,924,1,030_JE
Bäume,,1,,,,,,weiter,898,1,030_JE
Bäume,1,,,,,,,Lorbeer,1017,1,030_JE
Bäume,,1,,,,,,weiter,694,1,030_JE
Bäume,,1,,,,,,weiter,1400,1,030_JE
Bäume,1,,,,,,,Bambus,1061,1,030_JE
Aufwärts zählen von 1,1,,,,,,,eins,736,1,030_JE
Aufwärts zählen von 1,1,,,,,,,zwei,500,1,030_JE
Aufwärts zählen von 1,1,,,,,,,drei,778,1,030_JE
Aufwärts zählen von 1,1,,,,,,,vier,1066,1,030_JE
Aufwärts zählen von 1,1,,,,,,,fuenf,698,1,030_JE
Aufwärts zählen von 1,1,,,,,,,sechs,744,1,030_JE
Aufwärts zählen von 1,1,,,,,,,sieben,616,1,030_JE
Aufwärts zählen von 1,1,,,,,,,acht,701,1,030_JE
Aufwärts zählen von 1,1,,,,,,,neun,848,1,030_JE
Süßigkeiten,1,,,,,,,Schokolade,783,1,030_JE
Süßigkeiten,1,,,,,,,Bonbon,976,1,030_JE
Süßigkeiten,1,,,,,,,Pickups,866,1,030_JE
Süßigkeiten,1,,,,,,,Knoppers,963,1,030_JE
Süßigkeiten,1,,,,,,,Gummibärchen,986,1,030_JE
Süßigkeiten,1,,,,,,,Lakritz,668,1,030_JE
Süßigkeiten,1,,,,,,,Moncherie,783,1,030_JE
Süßigkeiten,1,,,,,,,Kados,1074,1,030_JE
Süßigkeiten,,1,,,,,,weiter,1306,1,030_JE
Abwärts zählen von 9,1,,,,,,,neun,833,1,030_JE
Abwärts zählen von 9,1,,,,,,,acht,636,1,030_JE
Abwärts zählen von 9,1,,,,,,,sieben,608,1,030_JE
Abwärts zählen von 9,1,,,,,,,sechs,656,1,030_JE
Abwärts zählen von 9,1,,,,,,,fuenf,683,1,030_JE
Abwärts zählen von 9,1,,,,,,,vier,1091,1,030_JE
Abwärts zählen von 9,1,,,,,,,drei,889,1,030_JE
Abwärts zählen von 9,1,,,,,,,zwei,708,1,030_JE
Abwärts zählen von 9,1,,,,,,,eins,773,1,030_JE
Aufwärts zählen von 1,1,,,,,,,eins,981,1,030_JE
Aufwärts zählen von 1,1,,,,,,,zwei,629,1,030_JE
Aufwärts zählen von 1,1,,,,,,,drei,711,1,030_JE
Aufwärts zählen von 1,1,,,,,,,vier,934,1,030_JE
Aufwärts zählen von 1,1,,,,,,,fuenf,1009,1,030_JE
Aufwärts zählen von 1,1,,,,,,,sechs,873,1,030_JE
Aufwärts zählen von 1,1,,,,,,,sieben,746,1,030_JE
Aufwärts zählen von 1,1,,,,,,,acht,841,1,030_JE
Aufwärts zählen von 1,1,,,,,,,neun,729,1,030_JE
Autoteile,1,1,,,,,,Lenkrad,963,1,030_JE
Autoteile,1,,,,,,,Scheiben,746,1,030_JE
Autoteile,1,,,,,,,Felgen,674,1,030_JE
Autoteile,1,,,,,,,Sitze,679,1,030_JE
Autoteile,1,,,,,,,Tuer,1321,1,030_JE
Autoteile,1,,,,,,,Motor,895,1,030_JE
Autoteile,1,,,,,,,Kofferraum,734,1,030_JE
Autoteile,,1,,,,,,weiter,1346,1,030_JE
Autoteile,1,,,,,,,Wischer,973,1,030_JE
Abwärts zählen von 9,1,,,,,,,neun,1024,1,030_JE
Abwärts zählen von 9,1,,,,,,,acht,896,1,030_JE
Abwärts zählen von 9,1,,,,,,,sieben,543,1,030_JE
Abwärts zählen von 9,1,,,,,,,sechs,649,1,030_JE
Abwärts zählen von 9,1,,,,,,,fuenf,1061,1,030_JE
Abwärts zählen von 9,1,,,,,,,vier,1023,1,030_JE
Abwärts zählen von 9,1,,,,,,,drei,1183,1,030_JE
Abwärts zählen von 9,1,,,,,,,zwei,780,1,030_JE
Abwärts zählen von 9,1,,,,,,,eins,634,1,030_JE
Fische,1,,,,,,,Karpfen,938,1,030_JE
Fische,1,,,,,,,Wal,1111,1,030_JE
Fische,1,,,,,,,Buckelwal,847,1,030_JE
Fische,1,,,,,,,Rochen,1014,1,030_JE
Fische,1,,,,,,,Kreuzfisch?,872,1,030_JE
Fische,1,,,,,,,Clownfisch,990,1,030_JE
Fische,1,,,,,,,Hai,685,1,030_JE
Fische,,1,,,,,,weiter,1027,1,030_JE
Fische,,1,,,,,,weiter,867,1,030_JE
Aufwärts zählen von 1,1,,,,,,,eins,734,1,030_JE
Aufwärts zählen von 1,1,,,,,,,zwei,714,1,030_JE
Aufwärts zählen von 1,1,,,,,,,drei,876,1,030_JE
Aufwärts zählen von 1,1,,,,,,,vier,1254,1,030_JE
Aufwärts zählen von 1,1,,,,,,,fuenf,947,1,030_JE
Aufwärts zählen von 1,1,,,,,,,sechs,748,1,030_JE
Aufwärts zählen von 1,1,,,,,,,sieben,603,1,030_JE
Aufwärts zählen von 1,1,,,,,,,acht,789,1,030_JE
Aufwärts zählen von 1,1,,,,,,,neun,776,1,030_JE
Aufwärts zählen von 1,1,,,,,,,eins,1064,1,030_JE
Aufwärts zählen von 1,1,,,,,,,zwei,661,1,030_JE
Aufwärts zählen von 1,1,,,,,,,drei,903,1,030_JE
Aufwärts zählen von 1,1,,,,,,,vier,916,1,030_JE
Aufwärts zählen von 1,1,,,,,,,fuenf,666,1,030_JE
Aufwärts zählen von 1,1,,,,,,,sechs,488,1,030_JE
Aufwärts zählen von 1,1,,,,,,,sieben,761,1,030_JE
Aufwärts zählen von 1,1,,,,,,,acht,794,1,030_JE
Aufwärts zählen von 1,1,,,,,,,neun,761,1,030_JE
Abwärts zählen von 9,1,,,,,,,neun,919,1,030_JE
Abwärts zählen von 9,1,,,,,,,acht,600,1,030_JE
Abwärts zählen von 9,1,,,,,,,sieben,570,1,030_JE
Abwärts zählen von 9,1,,,,,,,sechs,1014,1,030_JE
Abwärts zählen von 9,1,,,,,,,fuenf,1060,1,030_JE
Abwärts zählen von 9,1,,,,,,,vier,1102,1,030_JE
Abwärts zählen von 9,1,,,,,,,drei,1057,1,030_JE
Abwärts zählen von 9,1,,,,,,,zwei,818,1,030_JE
Abwärts zählen von 9,1,,,,,,,eins,1189,1,030_JE
Musikinstrumente,1,,,,,,,Gitarre,1049,1,030_JE
Musikinstrumente,1,,,,,,,Klavier,1099,1,030_JE
Musikinstrumente,1,,,,,,,Banjo,1012,1,030_JE
Musikinstrumente,1,,,,,,,Blockflöte,570,1,030_JE
Musikinstrumente,1,,,,,,,Geige,654,1,030_JE
Musikinstrumente,1,,,,,,,Cello,784,1,030_JE
Musikinstrumente,1,,,,,,,Kontrabass,1059,1,030_JE
Musikinstrumente,1,,,,,,,Saxofon,616,1,030_JE
Musikinstrumente,1,,,,,,,Tuba,716,1,030_JE
Berufe,1,,,,,,,Physiotherapeut,1100,1,030_JE
Berufe,1,,,,,,,Arzt,828,1,030_JE
Berufe,1,,,,,,,Ingenieur,610,1,030_JE
Berufe,1,,,,,,,Klempner,776,1,030_JE
Berufe,1,,,,,,,Hausmeister,943,1,030_JE
Berufe,,1,,,,,,weiter,1229,1,030_JE
Berufe,1,,,,,,,Chirurg,606,1,030_JE
Berufe,1,,,,,,,Sportler,553,1,030_JE
Berufe,,1,,,,,,weiter,1079,1,030_JE
Abwärts zählen von 9,1,,,,,,,neun,829,1,030_JE
Abwärts zählen von 9,1,,,,,,,acht,874,1,030_JE
Abwärts zählen von 9,1,,,,,,,sieben,819,1,030_JE
Abwärts zählen von 9,1,,,,,,,sechs,870,1,030_JE
Abwärts zählen von 9,1,,,,,,,fuenf,706,1,030_JE
Abwärts zählen von 9,1,,,,,,,vier,868,1,030_JE
Abwärts zählen von 9,1,,,,,,,drei,764,1,030_JE
Abwärts zählen von 9,1,,,,,,,zwei,853,1,030_JE
Abwärts zählen von 9,1,,,,,,,eins,940,1,030_JE
Abwärts zählen von 9,1,,,,,,,neun,833,1,030_JE
Abwärts zählen von 9,1,,,,,,,acht,1080,1,030_JE
Abwärts zählen von 9,1,,,,,,,sieben,979,1,030_JE
Abwärts zählen von 9,1,,,,,,,sechs,998,1,030_JE
Abwärts zählen von 9,1,,,,,,,fuenf,829,1,030_JE
Abwärts zählen von 9,1,,,,,,,vier,929,1,030_JE
Abwärts zählen von 9,1,,,,,,,drei,1028,1,030_JE
Abwärts zählen von 9,1,,,,,,,zwei,1125,1,030_JE
Abwärts zählen von 9,1,,,,,,,eins,769,1,030_JE
Lebensmittel,1,,,,,,,Brot,1370,1,030_JE
Lebensmittel,1,,,,,,,Salat,686,1,030_JE
Lebensmittel,1,,,,,,,Tomate,593,1,030_JE
Lebensmittel,1,,,,,,,Gurke,758,1,030_JE
Lebensmittel,1,,,,,,,Pilz,788,1,030_JE
Lebensmittel,1,,,,,,,Banane,1277,1,030_JE
Lebensmittel,1,,,,,,,Apfel,573,1,030_JE
Lebensmittel,1,,,,,,,Erdbeere,659,1,030_JE
Lebensmittel,1,,,,,,,?,771,1,030_JE
Gartengeräte,1,,,,,,,Rasenmäher,664,1,030_JE
Gartengeräte,1,,,,,,,Spaten,556,1,030_JE
Gartengeräte,1,,,,,,,?,659,1,030_JE
Gartengeräte,1,,,,,,,Heckenschere,846,1,030_JE
Gartengeräte,1,,,,,,,Streugerät,1146,1,030_JE
Gartengeräte,1,,,,,,,Blumentopf,943,1,030_JE
Gartengeräte,1,,,,,,,Weidezaun,1096,1,030_JE
Gartengeräte,1,,,,,,,Häcksler,808,1,030_JE
Gartengeräte,1,,,,,,,Besen,1102,1,030_JE
Spielzeug,1,,,,,,,Lego,1059,1,030_JE
Spielzeug,1,,,,,,,Playmobil,909,1,030_JE
Spielzeug,1,,,,,,,Jojo,1194,1,030_JE
Spielzeug,1,,,,,,,Matchboxautos,699,1,030_JE
Spielzeug,1,,,,,,,Basketball,1402,1,030_JE
Spielzeug,1,,,,,,,,1027,1,030_JE
Spielzeug,,1,,,,,,weiter,1913,1,030_JE
Spielzeug,1,,,,,,,Bimbo,1419,1,030_JE
Spielzeug,1,,,,,,,Gameboy,869,1,030_JE
Kosmetik,1,,,,,,,Lippenstift,1083,1,030_JE
Kosmetik,1,,,,,,,Mascara,941,1,030_JE
Kosmetik,,,,,,,,Wimperntusche,881,1,030_JE
Kosmetik,1,,,,,,,Rouge,924,1,030_JE
Kosmetik,,1,,,,,,weiter,1404,1,030_JE
Kosmetik,1,,,,,,,Düfte,1376,1,030_JE
Kosmetik,,1,,,,,,weiter,1401,1,030_JE
Kosmetik,,1,,,,,,weiter,1508,1,030_JE
Kosmetik,1,,,,,,,Abdeckstift,586,1,030_JE
Aufwärts zählen von 1,1,,,,,,,eins,1157,1,030_JE
Aufwärts zählen von 1,1,,,,,,,zwei,1128,1,030_JE
Aufwärts zählen von 1,1,,,,,,,drei,1018,1,030_JE
Aufwärts zählen von 1,1,,,,,,,vier,914,1,030_JE
Aufwärts zählen von 1,1,,,,,,,fuenf,,1,030_JE
Aufwärts zählen von 1,1,,,,,,,sechs,798,1,030_JE
Aufwärts zählen von 1,1,,,,,,,sieben,804,1,030_JE
Aufwärts zählen von 1,1,,,,,,,acht,1257,1,030_JE
Aufwärts zählen von 1,1,,,,,,,neun,753,1,030_JE
Abwärts zählen von 9,1,,,,,,,neun,776,2,030_JE
Abwärts zählen von 9,1,,,,,,,acht,623,2,030_JE
Abwärts zählen von 9,1,,,,,,,sieben,739,2,030_JE
Abwärts zählen von 9,1,,,,,,,sechs,736,2,030_JE
Abwärts zählen von 9,1,,,,,,,fuenf,900,2,030_JE
Abwärts zählen von 9,1,,,,,,,vier,658,2,030_JE
Abwärts zählen von 9,1,,,,,,,drei,571,2,030_JE
Abwärts zählen von 9,1,,,,,,,zwei,969,2,030_JE
Abwärts zählen von 9,1,,,,,,,eins,825,2,030_JE
Körperteile,1,,,,,,,Finger,1000,2,030_JE
Körperteile,1,,,,,,,Arm,969,2,030_JE
Körperteile,1,,,,,,,Hand,506,2,030_JE
Körperteile,1,,,,,,,Fuß,1273,2,030_JE
Körperteile,1,,,,,,,Bein,1114,2,030_JE
Körperteile,1,,,,,,,Kopf,810,2,030_JE
Körperteile,1,,,,,,,Nase,750,2,030_JE
Körperteile,1,,,,,,,Augen,665,2,030_JE
Körperteile,1,,,,,,,Ohren,890,2,030_JE
Abwärts zählen von 9,1,,,,,,,neun,1049,2,030_JE
Abwärts zählen von 9,1,,,,,,,acht,731,2,030_JE
Abwärts zählen von 9,1,,,,,,,sieben,1078,2,030_JE
Abwärts zählen von 9,1,,,,,,,sechs,810,2,030_JE
Abwärts zählen von 9,1,,,,,,,fuenf,709,2,030_JE
Abwärts zählen von 9,1,,,,,,,vier,830,2,030_JE
Abwärts zählen von 9,1,,,,,,,drei,622,2,030_JE
Abwärts zählen von 9,1,,,,,,,zwei,665,2,030_JE
Abwärts zählen von 9,1,,,,,,,eins,1049,2,030_JE
Aufwärts zählen von 1,1,,,,,,,eins,680,2,030_JE
Aufwärts zählen von 1,1,,,,,,,zwei,1042,2,030_JE
Aufwärts zählen von 1,1,,,,,,,drei,1338,2,030_JE
Aufwärts zählen von 1,1,,,,,,,vier,817,2,030_JE
Aufwärts zählen von 1,1,,,,,,,fuenf,1193,2,030_JE
Aufwärts zählen von 1,1,,,,,,,sechs,571,2,030_JE
Aufwärts zählen von 1,1,,,,,,,sieben,644,2,030_JE
Aufwärts zählen von 1,1,,,,,,,acht,694,2,030_JE
Aufwärts zählen von 1,1,,,,,,,neun,673,2,030_JE
Blumen,1,,,,,,,Loewenzahn,781,2,030_JE
Blumen,1,,,,,,,Nelke,750,2,030_JE
Blumen,1,,,,,,,Rose,687,2,030_JE
Blumen,1,,,,,,,Tulpe,731,2,030_JE
Blumen,1,,,,,,,Vergissmeinicht,650,2,030_JE
Blumen,1,,,,,,,Lavendel,700,2,030_JE
Blumen,1,,,,,,,Maigloeckchen,810,2,030_JE
Blumen,1,,,,,,,,962,2,030_JE
Blumen,1,,,1,,,,,,2,030_JE
Insekten,1,,,,,,,Spinne,1251,2,030_JE
Insekten,1,,,1,,,,,1000,2,030_JE
Insekten,1,,,1,,,,,1034,2,030_JE
Insekten,1,,,,,,,Wespe,1049,2,030_JE
Insekten,1,,,,,,,Biene,730,2,030_JE
Insekten,1,,,,,,,Maikaefer,1121,2,030_JE
Insekten,1,,,,,,,Zecke,1020,2,030_JE
Insekten,1,,,,,,,Hornisse,709,2,030_JE
Insekten,1,,,1,,,,,955,2,030_JE
Aufwärts zählen von 1,1,,,,,,,eins,940,2,030_JE
Aufwärts zählen von 1,1,,,,,,,zwei,810,2,030_JE
Aufwärts zählen von 1,1,,,,,,,drei,651,2,030_JE
Aufwärts zählen von 1,1,,,,,,,vier,775,2,030_JE
Aufwärts zählen von 1,1,,,,,,,fuenf,910,2,030_JE
Aufwärts zählen von 1,1,,,,,,,sechs,955,2,030_JE
Aufwärts zählen von 1,1,,,,,,,sieben,550,2,030_JE
Aufwärts zählen von 1,1,,,,,,,acht,724,2,030_JE
Aufwärts zählen von 1,1,,,,,,,neun,760,2,030_JE
Abwärts zählen von 9,1,,,,,,,neun,650,2,030_JE
Abwärts zählen von 9,1,,,,,,,acht,846,2,030_JE
Abwärts zählen von 9,1,,,,,,,sieben,723,2,030_JE
Abwärts zählen von 9,1,,,,,,,sechs,760,2,030_JE
Abwärts zählen von 9,1,,,,,,,fuenf,680,2,030_JE
Abwärts zählen von 9,1,,,,,,,vier,760,2,030_JE
Abwärts zählen von 9,1,,,,,,,drei,840,2,030_JE
Abwärts zählen von 9,1,,,,,,,zwei,658,2,030_JE
Abwärts zählen von 9,1,,,,,,,eins,760,2,030_JE
Farben,1,,,,,,,gruen,1107,2,030_JE
Farben,1,,,,,,,rot,890,2,030_JE
Farben,1,,,,,,,blau,738,2,030_JE
Farben,1,,,,,,,gelb,897,2,030_JE
Farben,1,,,,,,,orange,723,2,030_JE
Farben,1,,,,,,,lila,861,2,030_JE
Farben,1,,,,,,,tuerkis,477,2,030_JE
Farben,1,,,,,,,rosa,694,2,030_JE
Farben,1,,,,,,,grau,1056,2,030_JE
Aufwärts zählen von 1,1,,,,,,,eins,767,2,030_JE
Aufwärts zählen von 1,1,,,,,,,zwei,702,2,030_JE
Aufwärts zählen von 1,1,,,,,,,drei,550,2,030_JE
Aufwärts zählen von 1,1,,,,,,,vier,1092,2,030_JE
Aufwärts zählen von 1,1,,,,,,,fuenf,,2,030_JE
Aufwärts zählen von 1,1,,,,,,,sechs,716,2,030_JE
Aufwärts zählen von 1,1,,,,,,,sieben,890,2,030_JE
Aufwärts zählen von 1,1,,,,,,,acht,1302,2,030_JE
Aufwärts zählen von 1,1,,,,,,,neun,1027,2,030_JE
Abwärts zählen von 9,1,,,,,,,neun,1056,2,030_JE
Abwärts zählen von 9,1,,,,,,,acht,767,2,030_JE
Abwärts zählen von 9,1,,,,,,,sieben,723,2,030_JE
Abwärts zählen von 9,1,,,,,,,sechs,854,2,030_JE
Abwärts zählen von 9,1,,,,,,,fuenf,788,2,030_JE
Abwärts zählen von 9,1,,,,,,,vier,1230,2,030_JE
Abwärts zählen von 9,1,,,,,,,drei,1100,2,030_JE
Abwärts zählen von 9,1,,,,,,,zwei,673,2,030_JE
Abwärts zählen von 9,1,,,,,,,eins,629,2,030_JE
Werkzeug,1,,,,,,,Hammer,694,2,030_JE
Werkzeug,1,,,,,,,Schraubenzieher,839,2,030_JE
Werkzeug,1,,,,,,,Bauschluessel,760,2,030_JE
Werkzeug,1,,,,,,,Kantenschleifer,1143,2,030_JE
Werkzeug,1,,,,,,,Sack,810,2,030_JE
Werkzeug,1,,,,,,,Saege,839,2,030_JE
Werkzeug,1,,,,,,,Tester,1020,2,030_JE
Werkzeug,1,,,,,,,Korkenzieher,817,2,030_JE
Werkzeug,1,,,,,,,,1280,2,030_JE
Aufwärts zählen von 1,1,,,,,,,eins,860,2,030_JE
Aufwärts zählen von 1,1,,,,,,,zwei,550,2,030_JE
Aufwärts zählen von 1,1,,,,,,,drei,875,2,030_JE
Aufwärts zählen von 1,1,,,,,,,vier,637,2,030_JE
Aufwärts zählen von 1,1,,,,,,,fuenf,,2,030_JE
Aufwärts zählen von 1,1,,,,,,,sechs,774,2,030_JE
Aufwärts zählen von 1,1,,,,,,,sieben,1100,2,030_JE
Aufwärts zählen von 1,1,,,,,,,acht,600,2,030_JE
Aufwärts zählen von 1,1,,,,,,,neun,571,2,030_JE
Metalle,1,,,,,,,Gold,1613,2,030_JE
Metalle,1,,,,,,,Eisen,969,2,030_JE
Metalle,,1,,,,,,weiter,1222,2,030_JE
Metalle,1,,,,,,,Aluminium,1550,2,030_JE
Metalle,,1,,,,,,weiter,1013,2,030_JE
Metalle,,1,,,,,,weiter,1309,2,030_JE
Metalle,,1,,,,,,weiter,600,2,030_JE
Metalle,1,,,,,,,Kupfer,637,2,030_JE
Metalle,1,,,,,,,Chrom,1193,2,030_JE
Abwärts zählen von 9,1,,,,,,,neun,1114,2,030_JE
Abwärts zählen von 9,1,,,,,,,acht,1056,2,030_JE
Abwärts zählen von 9,1,,,,,,,sieben,615,2,030_JE
Abwärts zählen von 9,1,,,,,,,sechs,920,2,030_JE
Abwärts zählen von 9,1,,,,,,,fuenf,846,2,030_JE
Abwärts zählen von 9,1,,,,,,,vier,665,2,030_JE
Abwärts zählen von 9,1,,,,,,,drei,1353,2,030_JE
Abwärts zählen von 9,1,,,,,,,zwei,1439,2,030_JE
Abwärts zählen von 9,1,,,,,,,eins,723,2,030_JE
Küchengeräte,1,,,,,,,Waage,1165,2,030_JE
Küchengeräte,1,,,,,,,Topf,1396,2,030_JE
Küchengeräte,1,,,,,,,Suppenloeffel,1099,2,030_JE
Küchengeräte,1,,,,,,,,998,2,030_JE
Küchengeräte,1,,,,,,,Mixer,1193,2,030_JE
Küchengeräte,1,,,,,,,Kaffeemaschine,890,2,030_JE
Küchengeräte,1,,,,,,,Brottopf,1425,2,030_JE
Küchengeräte,1,,,,,,,,1251,2,030_JE
Küchengeräte,1,,,,,,,Waschmaschine,752,2,030_JE
Aufwärts zählen von 1,1,,,,,,,eins,861,2,030_JE
Aufwärts zählen von 1,1,,,,,,,zwei,839,2,030_JE
Aufwärts zählen von 1,1,,,,,,,drei,1000,2,030_JE
Aufwärts zählen von 1,1,,,,,,,vier,694,2,030_JE
Aufwärts zählen von 1,1,,,,,,,fuenf,730,2,030_JE
Aufwärts zählen von 1,1,,,,,,,sechs,694,2,030_JE
Aufwärts zählen von 1,1,,,,,,,sieben,700,2,030_JE
Aufwärts zählen von 1,1,,,,,,,acht,1027,2,030_JE
Aufwärts zählen von 1,1,,,,,,,neun,1100,2,030_JE
Kleidungsstücke,1,,,,,,,Hose,1056,2,030_JE
Kleidungsstücke,1,,,,,,,Socken,767,2,030_JE
Kleidungsstücke,1,,,,,,,Schuhe,665,2,030_JE
Kleidungsstücke,1,,,,,,,Unterhose,485,2,030_JE
Kleidungsstücke,1,,,,,,,T-Shirt,796,2,030_JE
Kleidungsstücke,1,,,,,,,Pulli,955,2,030_JE
Kleidungsstücke,1,,,,,,,Jacke,1020,2,030_JE
Kleidungsstücke,1,,,,,,,Muetze,976,2,030_JE
Kleidungsstücke,1,,,,,,,Handschuhe,788,2,030_JE
Tiere,1,,,,,,,Tiger,861,2,030_JE
Tiere,1,,,,,,,Loewe,839,2,030_JE
Tiere,1,,,,,,,Elefant,360,2,030_JE
Tiere,1,,,,,,,,650,2,030_JE
Tiere,1,,,,,,,Giraffe,738,2,030_JE
Tiere,1,,,,,,,Zebra,940,2,030_JE
Tiere,1,,,1,,,,,492,2,030_JE
Tiere,1,,,,,,,Krokodil,593,2,030_JE
Tiere,1,,,,,,,Katze,1982,2,030_JE
Sportarten,1,,,,,,,Fussball,571,2,030_JE
Sportarten,1,,,,,,,Handball,702,2,030_JE
Sportarten,1,,,1,,,,,694,2,030_JE
Sportarten,1,,,,,,,,926,2,030_JE
Sportarten,1,,,,,,,Fitness,846,2,030_JE
Sportarten,,1,,,,,,weiter,1107,2,030_JE
Sportarten,1,,,,,,,Football,882,2,030_JE
Sportarten,1,,,,,,,Baseball,926,2,030_JE
Sportarten,1,,,,,,,Ballett,1143,2,030_JE
