Category,Correct,weiter,NR,Unintelligible,Repetitions,NR_category,Aborted,Word,Onset,Run,Subj
Baeume,,,1,,,,,,,1,030_AE
Baeume,1,,,,,,,Esche,1600,1,030_AE
Baeume,1,,,,,,,Eiche,537,1,030_AE
Baeume,1,,,,,,,Kiefer,476,1,030_AE
Baeume,1,,,,,,,Palme,501,1,030_AE
Baeume,1,,,,,,,Kirschbaum,930,1,030_AE
Baeume,1,,,,,,,Topfpappel,1960,1,030_AE
Baeume,,1,,,,,,weiter,3121,1,030_AE
Baeume,,,1,,,,,,,1,030_AE
Aufwaerts zaehlen von 1,1,,,,,,,eins,717,1,030_AE
Aufwaerts zaehlen von 1,1,,,,,,,zwei,443,1,030_AE
Aufwaerts zaehlen von 1,1,,,,,,,drei,559,1,030_AE
Aufwaerts zaehlen von 1,1,,,,,,,vier,530,1,030_AE
Aufwaerts zaehlen von 1,1,,,,,,,fuenf,454,1,030_AE
Aufwaerts zaehlen von 1,1,,,,,,,sechs,418,1,030_AE
Aufwaerts zaehlen von 1,1,,,,,,,sieben,450,1,030_AE
Aufwaerts zaehlen von 1,1,,,,,,,acht,443,1,030_AE
Aufwaerts zaehlen von 1,1,,,,,,,neun,404,1,030_AE
Suessigkeiten,1,,,,,,,Schokolade,998,1,030_AE
Suessigkeiten,1,,,,,,,Bonbon,526,1,030_AE
Suessigkeiten,1,,,,,,,Kekse,429,1,030_AE
Suessigkeiten,1,,,,,,,Nougat,598,1,030_AE
Suessigkeiten,,,1,,,,,,,1,030_AE
Suessigkeiten,1,,,,,,,Waffel,566,1,030_AE
Suessigkeiten,1,,,,,,,Kuchen,598,1,030_AE
Suessigkeiten,1,,,,,,,Torte,710,1,030_AE
Suessigkeiten,,,1,,,,,,,1,030_AE
Abwaerts zaehlen von 9,1,,,,,,,neun,998,1,030_AE
Abwaerts zaehlen von 9,1,,,,,,,acht,414,1,030_AE
Abwaerts zaehlen von 9,1,,,,,,,sieben,346,1,030_AE
Abwaerts zaehlen von 9,1,,,,,,,sechs,382,1,030_AE
Abwaerts zaehlen von 9,1,,,,,,,fuenf,544,1,030_AE
Abwaerts zaehlen von 9,1,,,,,,,vier,458,1,030_AE
Abwaerts zaehlen von 9,1,,,,,,,drei,537,1,030_AE
Abwaerts zaehlen von 9,1,,,,,,,zwei,389,1,030_AE
Abwaerts zaehlen von 9,1,,,,,,,eins,508,1,030_AE
Aufwaerts zaehlen von 1,1,,,,,,,eins,587,1,030_AE
Aufwaerts zaehlen von 1,1,,,,,,,zwei,486,1,030_AE
Aufwaerts zaehlen von 1,1,,,,,,,drei,512,1,030_AE
Aufwaerts zaehlen von 1,1,,,,,,,vier,443,1,030_AE
Aufwaerts zaehlen von 1,1,,,,,,,fuenf,490,1,030_AE
Aufwaerts zaehlen von 1,1,,,,,,,sechs,411,1,030_AE
Aufwaerts zaehlen von 1,1,,,,,,,sieben,461,1,030_AE
Aufwaerts zaehlen von 1,1,,,,,,,acht,382,1,030_AE
Aufwaerts zaehlen von 1,1,,,,,,,neun,479,1,030_AE
Autoteile,1,,,,,,,Rad,1128,1,030_AE
Autoteile,1,,,,,,,Motor,559,1,030_AE
Autoteile,1,,,,,,,Lenkrad,465,1,030_AE
Autoteile,1,,,,,,,Getriebe,980,1,030_AE
Autoteile,1,,,,,,,Schalthebel,591,1,030_AE
Autoteile,1,,,,,,,Bremse,674,1,030_AE
Autoteile,1,,,,,,,Kupplung,602,1,030_AE
Autoteile,1,,,,,,,Scheinwerfer,508,1,030_AE
Autoteile,1,,,,,,,Spiegel,544,1,030_AE
Abwaerts zaehlen von 9,1,,,,,,,neun,569,1,030_AE
Abwaerts zaehlen von 9,1,,,,,,,acht,468,1,030_AE
Abwaerts zaehlen von 9,1,,,,,,,sieben,404,1,030_AE
Abwaerts zaehlen von 9,1,,,,,,,sechs,523,1,030_AE
Abwaerts zaehlen von 9,1,,,,,,,fuenf,440,1,030_AE
Abwaerts zaehlen von 9,1,,,,,,,vier,501,1,030_AE
Abwaerts zaehlen von 9,1,,,,,,,drei,541,1,030_AE
Abwaerts zaehlen von 9,1,,,,,,,zwei,450,1,030_AE
Abwaerts zaehlen von 9,1,,,,,,,eins,414,1,030_AE
Fische,1,,,,,,,Hai,1041,1,030_AE
Fische,1,,,,,,,Karpfen,494,1,030_AE
Fische,1,,,,,,,Forelle,501,1,030_AE
Fische,1,,,,,,,Heilbutt,638,1,030_AE
Fische,1,,,,,,,Guppy,533,1,030_AE
Fische,1,,,,,,,Zander,476,1,030_AE
Fische,,,1,,,,,,,1,030_AE
Fische,1,,,,,,,Wal,505,1,030_AE
Fische,,,1,,,,,,,1,030_AE
Aufwaerts zaehlen von 1,1,,,,,,,eins,793,1,030_AE
Aufwaerts zaehlen von 1,1,,,,,,,zwei,541,1,030_AE
Aufwaerts zaehlen von 1,1,,,,,,,drei,544,1,030_AE
Aufwaerts zaehlen von 1,1,,,,,,,vier,483,1,030_AE
Aufwaerts zaehlen von 1,1,,,,,,,fuenf,490,1,030_AE
Aufwaerts zaehlen von 1,1,,,,,,,sechs,407,1,030_AE
Aufwaerts zaehlen von 1,1,,,,,,,sieben,378,1,030_AE
Aufwaerts zaehlen von 1,1,,,,,,,acht,378,1,030_AE
Aufwaerts zaehlen von 1,1,,,,,,,neun,400,1,030_AE
Aufwaerts zaehlen von 1,1,,,,,,,eins,796,1,030_AE
Aufwaerts zaehlen von 1,1,,,,,,,zwei,559,1,030_AE
Aufwaerts zaehlen von 1,1,,,,,,,drei,548,1,030_AE
Aufwaerts zaehlen von 1,1,,,,,,,vier,573,1,030_AE
Aufwaerts zaehlen von 1,1,,,,,,,fuenf,472,1,030_AE
Aufwaerts zaehlen von 1,1,,,,,,,sechs,407,1,030_AE
Aufwaerts zaehlen von 1,1,,,,,,,sieben,559,1,030_AE
Aufwaerts zaehlen von 1,1,,,,,,,acht,425,1,030_AE
Aufwaerts zaehlen von 1,1,,,,,,,neun,393,1,030_AE
Abwaerts zaehlen von 9,1,,,,,,,neun,1092,1,030_AE
Abwaerts zaehlen von 9,1,,,,,,,acht,905,1,030_AE
Abwaerts zaehlen von 9,1,,,,,,,sieben,414,1,030_AE
Abwaerts zaehlen von 9,1,,,,,,,sechs,461,1,030_AE
Abwaerts zaehlen von 9,1,,,,,,,fuenf,396,1,030_AE
Abwaerts zaehlen von 9,1,,,,,,,vier,418,1,030_AE
Abwaerts zaehlen von 9,1,,,,,,,drei,638,1,030_AE
Abwaerts zaehlen von 9,1,,,,,,,zwei,443,1,030_AE
Abwaerts zaehlen von 9,1,,,,,,,eins,465,1,030_AE
Musikinstrumente,1,,,,,,,Klavier,1049,1,030_AE
Musikinstrumente,1,,,,,,,Geige,551,1,030_AE
Musikinstrumente,1,,,,,,,Trompete,555,1,030_AE
Musikinstrumente,1,,,,,,,Pauke,584,1,030_AE
Musikinstrumente,1,,,,,,,Triangel,638,1,030_AE
Musikinstrumente,1,,,,,,,Cello,530,1,030_AE
Musikinstrumente,1,,,,,,,Bass,577,1,030_AE
Musikinstrumente,1,,,,,,,Schlagzeug,1683,1,030_AE
Musikinstrumente,,,1,,,,,,,1,030_AE
Berufe,1,,,,,,,Klempner,1121,1,030_AE
Berufe,1,,,,,,,Taxifahrer,638,1,030_AE
Berufe,1,,,,,,,Arzt,641,1,030_AE
Berufe,1,,,,,,,Orthopaede,544,1,030_AE
Berufe,1,,,,,,,Polizist,555,1,030_AE
Berufe,1,,,,,,,Pilot,486,1,030_AE
Berufe,1,,,,,,,Dirigent,461,1,030_AE
Berufe,1,,,,,,,Musiker,533,1,030_AE
Berufe,1,,,,,,,Kapitaen,1315,1,030_AE
Abwaerts zaehlen von 9,1,,,,,,,neun,1528,1,030_AE
Abwaerts zaehlen von 9,1,,,,,,,acht,486,1,030_AE
Abwaerts zaehlen von 9,1,,,,,,,sieben,508,1,030_AE
Abwaerts zaehlen von 9,1,,,,,,,sechs,422,1,030_AE
Abwaerts zaehlen von 9,1,,,,,,,fuenf,523,1,030_AE
Abwaerts zaehlen von 9,1,,,,,,,vier,483,1,030_AE
Abwaerts zaehlen von 9,1,,,,,,,drei,508,1,030_AE
Abwaerts zaehlen von 9,1,,,,,,,zwei,472,1,030_AE
Abwaerts zaehlen von 9,1,,,,,,,eins,386,1,030_AE
Abwaerts zaehlen von 9,1,,,,,,,neun,941,1,030_AE
Abwaerts zaehlen von 9,1,,,,,,,acht,710,1,030_AE
Abwaerts zaehlen von 9,1,,,,,,,sieben,400,1,030_AE
Abwaerts zaehlen von 9,1,,,,,,,sechs,515,1,030_AE
Abwaerts zaehlen von 9,1,,,,,,,fuenf,548,1,030_AE
Abwaerts zaehlen von 9,1,,,,,,,vier,378,1,030_AE
Abwaerts zaehlen von 9,1,,,,,,,drei,476,1,030_AE
Abwaerts zaehlen von 9,1,,,,,,,zwei,386,1,030_AE
Abwaerts zaehlen von 9,1,,,,,,,eins,382,1,030_AE
Lebensmittel,,,1,,,,,,,1,030_AE
Lebensmittel,1,,,,,,,Karotte,479,1,030_AE
Lebensmittel,1,,,,,,,Nudeln,699,1,030_AE
Lebensmittel,,,1,,,,,,,1,030_AE
Lebensmittel,1,,,,,,,Ei ,1784,1,030_AE
Lebensmittel,1,,,,,,,Brot,1031,1,030_AE
Lebensmittel,1,,,,,,,Butter,695,1,030_AE
Lebensmittel,1,,,,,,,Marmelade,440,1,030_AE
Lebensmittel,1,,,,,,,Broetchen,587,1,030_AE
Gartengeraete,1,,,,,,,Spaten,710,1,030_AE
Gartengeraete,1,,,,,,,Hacke,681,1,030_AE
Gartengeraete,1,,,,,,,Rechen,512,1,030_AE
Gartengeraete,1,,,,,,,Rasenmaeher,1344,1,030_AE
Gartengeraete,1,,,,,,,Gartenschere,587,1,030_AE
Gartengeraete,1,,,,,,,Wasserschlauch,486,1,030_AE
Gartengeraete,1,,,,,,,Astsaege,2094,1,030_AE
Gartengeraete,,,1,,,,,,,1,030_AE
Gartengeraete,,,1,,,,,,,1,030_AE
Spielzeug,1,,,,,,,Trommel,1023,1,030_AE
Spielzeug,1,,,,,,,Rassel,1074,1,030_AE
Spielzeug,,,1,,,,,,,1,030_AE
Spielzeug,1,,,,,,,Auto,537,1,030_AE
Spielzeug,1,,,,,,,Schiff,616,1,030_AE
Spielzeug,1,,,,,,,Ball,501,1,030_AE
Spielzeug,1,,,,,,,Tischtennis,1521,1,030_AE
Spielzeug,1,,,,,,,Reifen,3506,1,030_AE
Spielzeug,,,1,,,,,,,1,030_AE
Kosmetik,1,,,,,,,Creme,1766,1,030_AE
Kosmetik,1,,,,,,,Lippenstift,778,1,030_AE
Kosmetik,1,,,,,,,Haarwaesche,584,1,030_AE
Kosmetik,,,1,,,,,,,1,030_AE
Kosmetik,1,,,,,,,Koerperlotion,800,1,030_AE
Kosmetik,,,1,,,,,,,1,030_AE
Kosmetik,,,1,,,,,,,1,030_AE
Kosmetik,,,,,,,1,Au,2389,1,030_AE
Kosmetik,1,,,,,,,Augenbrauenstift,551,1,030_AE
Aufwaerts zaehlen von 1,1,,,,,,,eins,768,1,030_AE
Aufwaerts zaehlen von 1,1,,,,,,,zwei,407,1,030_AE
Aufwaerts zaehlen von 1,1,,,,,,,drei,541,1,030_AE
Aufwaerts zaehlen von 1,1,,,,,,,vier,526,1,030_AE
Aufwaerts zaehlen von 1,1,,,,,,,fuenf,501,1,030_AE
Aufwaerts zaehlen von 1,1,,,,,,,sechs,414,1,030_AE
Aufwaerts zaehlen von 1,1,,,,,,,sieben,505,1,030_AE
Aufwaerts zaehlen von 1,1,,,,,,,acht,537,1,030_AE
Aufwaerts zaehlen von 1,1,,,,,,,neun,450,1,030_AE
Abwaerts zaehlen von 9,1,,,,,,,neun,566,2,030_AE
Abwaerts zaehlen von 9,1,,,,,,,acht,468,2,030_AE
Abwaerts zaehlen von 9,1,,,,,,,sieben,400,2,030_AE
Abwaerts zaehlen von 9,1,,,,,,,sechs,508,2,030_AE
Abwaerts zaehlen von 9,1,,,,,,,fuenf,450,2,030_AE
Abwaerts zaehlen von 9,1,,,,,,,vier,530,2,030_AE
Abwaerts zaehlen von 9,1,,,,,,,drei,537,2,030_AE
Abwaerts zaehlen von 9,1,,,,,,,zwei,450,2,030_AE
Abwaerts zaehlen von 9,1,,,,,,,eins,458,2,030_AE
Koerperteile,1,,,,,,,Arm,595,2,030_AE
Koerperteile,1,,,,,,,Hand,465,2,030_AE
Koerperteile,1,,,,,,,Kopf,497,2,030_AE
Koerperteile,1,,,,,,,Fuss,508,2,030_AE
Koerperteile,1,,,,,,,Beine,429,2,030_AE
Koerperteile,1,,,,,,,Auge ,519,2,030_AE
Koerperteile,1,,,,,,,Ohr,515,2,030_AE
Koerperteile,1,,,,,,,Nase,450,2,030_AE
Koerperteile,1,,,,,,,Finger,663,2,030_AE
Abwaerts zaehlen von 9,1,,,,,,,neun,573,2,030_AE
Abwaerts zaehlen von 9,1,,,,,,,acht,609,2,030_AE
Abwaerts zaehlen von 9,1,,,,,,,sieben,580,2,030_AE
Abwaerts zaehlen von 9,1,,,,,,,sechs,476,2,030_AE
Abwaerts zaehlen von 9,1,,,,,,,fuenf,486,2,030_AE
Abwaerts zaehlen von 9,1,,,,,,,vier,566,2,030_AE
Abwaerts zaehlen von 9,1,,,,,,,drei,501,2,030_AE
Abwaerts zaehlen von 9,1,,,,,,,zwei,486,2,030_AE
Abwaerts zaehlen von 9,1,,,,,,,eins,436,2,030_AE
Aufwaerts zaehlen von 1,1,,,,,,,eins,515,2,030_AE
Aufwaerts zaehlen von 1,1,,,,,,,zwei,432,2,030_AE
Aufwaerts zaehlen von 1,1,,,,,,,drei,541,2,030_AE
Aufwaerts zaehlen von 1,1,,,,,,,vier,505,2,030_AE
Aufwaerts zaehlen von 1,1,,,,,,,fuenf,494,2,030_AE
Aufwaerts zaehlen von 1,1,,,,,,,sechs,429,2,030_AE
Aufwaerts zaehlen von 1,1,,,,,,,sieben,750,2,030_AE
Aufwaerts zaehlen von 1,1,,,,,,,acht,350,2,030_AE
Aufwaerts zaehlen von 1,1,,,,,,,neun,447,2,030_AE
Blumen,1,,,,,,,Tulpe,919,2,030_AE
Blumen,1,,,,,,,Rose,591,2,030_AE
Blumen,1,,,,,,,Nelken,458,2,030_AE
Blumen,1,,,,,,,Hyazinthen,458,2,030_AE
Blumen,1,,,,,,,Gladiolen,2072,2,030_AE
Blumen,1,,,,,,,Narzissen,941,2,030_AE
Blumen,1,,,,,,,Dahlie,551,2,030_AE
Blumen,,1,,,,,,weiter,1993,2,030_AE
Blumen,,,1,,,,,,,2,030_AE
Insekten,1,,,,,,,Muecke,1265,2,030_AE
Insekten,1,,,,,,,Biene,620,2,030_AE
Insekten,1,,,,,,,Hummel,2159,2,030_AE
Insekten,,,1,,,,,,,2,030_AE
Insekten,1,,,,,,,,,2,030_AE
Insekten,1,,,,,,,Spinne,580,2,030_AE
Insekten,,,1,,,,,weiter,1780,2,030_AE
Insekten,,,1,,,,,weiter,616,2,030_AE
Insekten,,,1,,,,,weiter,623,2,030_AE
Aufwaerts zaehlen von 1,1,,,,,,,eins,768,2,030_AE
Aufwaerts zaehlen von 1,1,,,,,,,zwei,497,2,030_AE
Aufwaerts zaehlen von 1,1,,,,,,,drei,544,2,030_AE
Aufwaerts zaehlen von 1,1,,,,,,,vier,465,2,030_AE
Aufwaerts zaehlen von 1,1,,,,,,,fuenf,497,2,030_AE
Aufwaerts zaehlen von 1,1,,,,,,,sechs,342,2,030_AE
Aufwaerts zaehlen von 1,1,,,,,,,sieben,422,2,030_AE
Aufwaerts zaehlen von 1,1,,,,,,,acht,386,2,030_AE
Aufwaerts zaehlen von 1,1,,,,,,,neun,472,2,030_AE
Abwaerts zaehlen von 9,1,,,,,,,neun,739,2,030_AE
Abwaerts zaehlen von 9,1,,,,,,,acht,551,2,030_AE
Abwaerts zaehlen von 9,1,,,,,,,sieben,458,2,030_AE
Abwaerts zaehlen von 9,1,,,,,,,sechs,422,2,030_AE
Abwaerts zaehlen von 9,1,,,,,,,fuenf,443,2,030_AE
Abwaerts zaehlen von 9,1,,,,,,,vier,450,2,030_AE
Abwaerts zaehlen von 9,1,,,,,,,drei,443,2,030_AE
Abwaerts zaehlen von 9,1,,,,,,,zwei,407,2,030_AE
Abwaerts zaehlen von 9,1,,,,,,,eins,443,2,030_AE
Farben,1,,,,,,,rot,814,2,030_AE
Farben,1,,,,,,,gruen,494,2,030_AE
Farben,1,,,,,,,gelb,440,2,030_AE
Farben,1,,,,,,,blau,425,2,030_AE
Farben,1,,,,,,,weiss,396,2,030_AE
Farben,1,,,,,,,orange,638,2,030_AE
Farben,1,,,,,,,lindgruen,897,2,030_AE
Farben,1,,,,,,,ocker,490,2,030_AE
Farben,1,,,,,,,rosa,479,2,030_AE
Aufwaerts zaehlen von 1,1,,,,,,,eins,793,2,030_AE
Aufwaerts zaehlen von 1,1,,,,,,,zwei,411,2,030_AE
Aufwaerts zaehlen von 1,1,,,,,,,drei,486,2,030_AE
Aufwaerts zaehlen von 1,1,,,,,,,vier,695,2,030_AE
Aufwaerts zaehlen von 1,1,,,,,,,fuenf,501,2,030_AE
Aufwaerts zaehlen von 1,1,,,,,,,sechs,458,2,030_AE
Aufwaerts zaehlen von 1,1,,,,,,,sieben,386,2,030_AE
Aufwaerts zaehlen von 1,1,,,,,,,acht,580,2,030_AE
Aufwaerts zaehlen von 1,1,,,,,,,neun,566,2,030_AE
Abwaerts zaehlen von 9,1,,,,,,,neun,897,2,030_AE
Abwaerts zaehlen von 9,1,,,,,,,acht,479,2,030_AE
Abwaerts zaehlen von 9,1,,,,,,,sieben,414,2,030_AE
Abwaerts zaehlen von 9,1,,,,,,,sechs,342,2,030_AE
Abwaerts zaehlen von 9,1,,,,,,,fuenf,465,2,030_AE
Abwaerts zaehlen von 9,1,,,,,,,vier,541,2,030_AE
Abwaerts zaehlen von 9,1,,,,,,,drei,443,2,030_AE
Abwaerts zaehlen von 9,1,,,,,,,zwei,450,2,030_AE
Abwaerts zaehlen von 9,1,,,,,,,eins,486,2,030_AE
Werkzeug,1,,,,,,,Hammer,699,2,030_AE
Werkzeug,1,,,,,,,Meissel,432,2,030_AE
Werkzeug,1,,,,,,,Zange,537,2,030_AE
Werkzeug,1,,,,,,,Schraubenschluessel,1178,2,030_AE
Werkzeug,1,,,,,,,Schraubenzieher,840,2,030_AE
Werkzeug,1,,,,,,,Nietzange,508,2,030_AE
Werkzeug,1,,,,,,,Brecheisen,627,2,030_AE
Werkzeug,1,,,,,,,Saege,425,2,030_AE
Werkzeug,1,,,,,,,Winkelschleifer,573,2,030_AE
Aufwaerts zaehlen von 1,1,,,,,,,eins,465,2,030_AE
Aufwaerts zaehlen von 1,1,,,,,,,zwei,533,2,030_AE
Aufwaerts zaehlen von 1,1,,,,,,,drei,638,2,030_AE
Aufwaerts zaehlen von 1,1,,,,,,,vier,541,2,030_AE
Aufwaerts zaehlen von 1,1,,,,,,,fuenf,537,2,030_AE
Aufwaerts zaehlen von 1,1,,,,,,,sechs,465,2,030_AE
Aufwaerts zaehlen von 1,1,,,,,,,sieben,458,2,030_AE
Aufwaerts zaehlen von 1,1,,,,,,,acht,414,2,030_AE
Aufwaerts zaehlen von 1,1,,,,,,,neun,458,2,030_AE
Metalle,1,,,,,,,Blei,948,2,030_AE
Metalle,1,,,,,,,Quecksilber,732,2,030_AE
Metalle,1,,,,,,,Eisen,2508,2,030_AE
Metalle,1,,,,,,,Aluminium,1038,2,030_AE
Metalle,1,,,,,,,Bronze,486,2,030_AE
Metalle,1,,,,,,,Gold,548,2,030_AE
Metalle,1,,,,,,,Silber,468,2,030_AE
Metalle,,1,,,,,,weiter,1643,2,030_AE
Metalle,,1,,,,,,weiter,1366,2,030_AE
Abwaerts zaehlen von 9,1,,,,,,,neun,872,2,030_AE
Abwaerts zaehlen von 9,1,,,,,,,acht,508,2,030_AE
Abwaerts zaehlen von 9,1,,,,,,,sieben,526,2,030_AE
Abwaerts zaehlen von 9,1,,,,,,,sechs,411,2,030_AE
Abwaerts zaehlen von 9,1,,,,,,,fuenf,537,2,030_AE
Abwaerts zaehlen von 9,1,,,,,,,vier,479,2,030_AE
Abwaerts zaehlen von 9,1,,,,,,,drei,685,2,030_AE
Abwaerts zaehlen von 9,1,,,,,,,zwei,476,2,030_AE
Abwaerts zaehlen von 9,1,,,,,,,eins,411,2,030_AE
Kuechengeraete,1,,,,,,,Herd,897,2,030_AE
Kuechengeraete,1,,,,,,,Topf,577,2,030_AE
Kuechengeraete,1,,,,,,,Pfanne,609,2,030_AE
Kuechengeraete,1,,,,,,,Kaffeemaschine,533,2,030_AE
Kuechengeraete,1,,,,,,,Messer,620,2,030_AE
Kuechengeraete,1,,,,,,,Gabel,418,2,030_AE
Kuechengeraete,1,,,,,,,Loeffel,566,2,030_AE
Kuechengeraete,1,,,,,,,Mikrowelle,569,2,030_AE
Kuechengeraete,1,,,,,,,Toaster,634,2,030_AE
Aufwaerts zaehlen von 1,1,,,,,,,eins,926,2,030_AE
Aufwaerts zaehlen von 1,1,,,,,,,zwei,580,2,030_AE
Aufwaerts zaehlen von 1,1,,,,,,,drei,476,2,030_AE
Aufwaerts zaehlen von 1,1,,,,,,,vier,508,2,030_AE
Aufwaerts zaehlen von 1,1,,,,,,,fuenf,501,2,030_AE
Aufwaerts zaehlen von 1,1,,,,,,,sechs,429,2,030_AE
Aufwaerts zaehlen von 1,1,,,,,,,sieben,378,2,030_AE
Aufwaerts zaehlen von 1,1,,,,,,,acht,386,2,030_AE
Aufwaerts zaehlen von 1,1,,,,,,,neun,422,2,030_AE
Kleidungsstuecke,1,,,,,,,Hose,739,2,030_AE
Kleidungsstuecke,1,,,,,,,Jacke,515,2,030_AE
Kleidungsstuecke,1,,,,,,,Hemd,425,2,030_AE
Kleidungsstuecke,1,,,,,,,Hut,443,2,030_AE
Kleidungsstuecke,1,,,,,,,Struempfe,400,2,030_AE
Kleidungsstuecke,1,,,,,,,Schuhe,436,2,030_AE
Kleidungsstuecke,1,,,,,,,Mantel,638,2,030_AE
Kleidungsstuecke,1,,,,,,,Kleid,523,2,030_AE
Kleidungsstuecke,1,,,,,,,Rock,508,2,030_AE
Tiere,1,,,,,,,Affe,973,2,030_AE
Tiere,1,,,,,,,Hund,458,2,030_AE
Tiere,1,,,,,,,Katze,537,2,030_AE
Tiere,1,,,,,,,Schlange,458,2,030_AE
Tiere,1,,,,,,,Elefant,443,2,030_AE
Tiere,1,,,,,,,Tiger,472,2,030_AE
Tiere,1,,,,,,,Krokodil,465,2,030_AE
Tiere,1,,,,,,,Giraffe,501,2,030_AE
Tiere,1,,,,,,,Nilpferd,1351,2,030_AE
Sportarten,1,,,,,,,Fussball,1110,2,030_AE
Sportarten,1,,,,,,,Ringen,843,2,030_AE
Sportarten,1,,,,,,,Boxen,551,2,030_AE
Sportarten,1,,,,,,,Handball,760,2,030_AE
Sportarten,1,,,,,,,Schwimmen,840,2,030_AE
Sportarten,1,,,,,,,Reiten,472,2,030_AE
Sportarten,1,,,,,,,Weitwerfen,681,2,030_AE
Sportarten,1,,,,,,,Hochsprung,595,2,030_AE
Sportarten,1,,,,,,,Langstreckenlauf,450,2,030_AE
