Category,Correct,weiter,NR,Unintelligible,Repetitions,NR_category,Aborted,Word,Onset,Run,Subj
Abwaerts zaehlen von 9,1,,,,,,,acht,1510,1,031_AE
Abwaerts zaehlen von 9,1,,,,,,,sieben,796,1,031_AE
Abwaerts zaehlen von 9,1,,,,,,,sechs,659,1,031_AE
Abwaerts zaehlen von 9,1,,,,,,,fuenf,818,1,031_AE
Abwaerts zaehlen von 9,1,,,,,,,vier,591,1,031_AE
Abwaerts zaehlen von 9,1,,,,,,,drei,551,1,031_AE
Abwaerts zaehlen von 9,1,,,,,,,zwei,414,1,031_AE
Abwaerts zaehlen von 9,1,,,,,,,eins,663,1,031_AE
Abwaerts zaehlen von 9,1,,,,,,,null,717,1,031_AE
Aufwaerts zaehlen von 1,1,,,,,,,eins,998,1,031_AE
Aufwaerts zaehlen von 1,1,,,,,,,zwei,407,1,031_AE
Aufwaerts zaehlen von 1,1,,,,,,,drei,501,1,031_AE
Aufwaerts zaehlen von 1,1,,,,,,,vier,638,1,031_AE
Aufwaerts zaehlen von 1,1,,,,,,,fuenf,523,1,031_AE
Aufwaerts zaehlen von 1,1,,,,,,,sechs,458,1,031_AE
Aufwaerts zaehlen von 1,1,,,,,,,sieben,494,1,031_AE
Aufwaerts zaehlen von 1,1,,,,,,,acht,717,1,031_AE
Aufwaerts zaehlen von 1,1,,,,,,,neun,724,1,031_AE
Sportarten,1,,,,,,,Handball,883,1,031_AE
Sportarten,1,,,,,,,Leichtathletik,591,1,031_AE
Sportarten,1,,,,,,,Hochsprung,685,1,031_AE
Sportarten,1,,,,,,,Dauerlauf,623,1,031_AE
Sportarten,1,,,,,,,Schwebebalken,905,1,031_AE
Sportarten,1,,,,,,,Reck,501,1,031_AE
Sportarten,1,,,,,,,Fussball,562,1,031_AE
Sportarten,1,,,,,,,Eishockey,775,1,031_AE
Sportarten,1,,,,,,,Reiten,465,1,031_AE
Aufwaerts zaehlen von 1,1,,,,,,,eins,1056,1,031_AE
Aufwaerts zaehlen von 1,1,,,,,,,zwei,443,1,031_AE
Aufwaerts zaehlen von 1,1,,,,,,,drei,483,1,031_AE
Aufwaerts zaehlen von 1,1,,,,,,,vier,623,1,031_AE
Aufwaerts zaehlen von 1,1,,,,,,,fuenf,537,1,031_AE
Aufwaerts zaehlen von 1,1,,,,,,,sechs,432,1,031_AE
Aufwaerts zaehlen von 1,1,,,,,,,sieben,912,1,031_AE
Aufwaerts zaehlen von 1,1,,,,,,,acht,559,1,031_AE
Aufwaerts zaehlen von 1,1,,,,,,,neun,677,1,031_AE
Aufwaerts zaehlen von 1,1,,,,,,,eins,984,1,031_AE
Aufwaerts zaehlen von 1,1,,,,,,,zwei,393,1,031_AE
Aufwaerts zaehlen von 1,1,,,,,,,drei,530,1,031_AE
Aufwaerts zaehlen von 1,1,,,,,,,vier,620,1,031_AE
Aufwaerts zaehlen von 1,1,,,,,,,fuenf,620,1,031_AE
Aufwaerts zaehlen von 1,1,,,,,,,sechs,400,1,031_AE
Aufwaerts zaehlen von 1,1,,,,,,,sieben,371,1,031_AE
Aufwaerts zaehlen von 1,1,,,,,,,acht,541,1,031_AE
Aufwaerts zaehlen von 1,1,,,,,,,neun,638,1,031_AE
Fische,1,,,,,,,Karpfen,998,1,031_AE
Fische,1,,,,,,,Hai,695,1,031_AE
Fische,1,,,,,,,Flunder,623,1,031_AE
Fische,1,,,,,,,Wal,595,1,031_AE
Fische,1,,,,,,,Orca,580,1,031_AE
Fische,1,,,,,,,Skalar,659,1,031_AE
Fische,1,,,,,,,Guppy,840,1,031_AE
Fische,,1,,,,,,weiter,930,1,031_AE
Fische,1,,,,,,,Forelle,1640,1,031_AE
Spielzeug,1,,,,,,,Teddy,879,1,031_AE
Spielzeug,1,,,,,,,Puppe,883,1,031_AE
Spielzeug,1,,,,,,,Schach,717,1,031_AE
Spielzeug,1,,,,,,,Dame,912,1,031_AE
Spielzeug,1,,,,,,,Pferdchen,1070,1,031_AE
Spielzeug,1,,,,,,,Roller,688,1,031_AE
Spielzeug,1,,,,,,,Kreisel,969,1,031_AE
Spielzeug,1,,,,,,,Puppenhaus,2115,1,031_AE
Spielzeug,1,,,,,,,Ball,674,1,031_AE
Suessigkeiten,1,,,,,,,Bonbon,890,1,031_AE
Suessigkeiten,1,,,,,,,Gummibaerchen,750,1,031_AE
Suessigkeiten,1,,,,,,,Schokolade,923,1,031_AE
Suessigkeiten,1,,,,,,,Merci,541,1,031_AE
Suessigkeiten,1,,,,,,,Taler,584,1,031_AE
Suessigkeiten,1,,,,,,,Schokogeld,631,1,031_AE
Suessigkeiten,1,,,,,,,Toffeebohnen,825,1,031_AE
Suessigkeiten,1,,,,,,,Katzenzungen,501,1,031_AE
Suessigkeiten,1,,,,,,,Doughnuts,814,1,031_AE
Abwaerts zaehlen von 9,1,,,,,,,neun,933,1,031_AE
Abwaerts zaehlen von 9,1,,,,,,,acht,454,1,031_AE
Abwaerts zaehlen von 9,1,,,,,,,sieben,411,1,031_AE
Abwaerts zaehlen von 9,1,,,,,,,sechs,486,1,031_AE
Abwaerts zaehlen von 9,1,,,,,,,fuenf,562,1,031_AE
Abwaerts zaehlen von 9,1,,,,,,,vier,706,1,031_AE
Abwaerts zaehlen von 9,1,,,,,,,drei,559,1,031_AE
Abwaerts zaehlen von 9,1,,,,,,,zwei,432,1,031_AE
Abwaerts zaehlen von 9,1,,,,,,,eins,544,1,031_AE
Koerperteile,,,1,,,,,,,1,031_AE
Koerperteile,1,,,,,,,Kopf,699,1,031_AE
Koerperteile,1,,,,,,,Ohren,580,1,031_AE
Koerperteile,1,,,,,,,Schulter,418,1,031_AE
Koerperteile,1,,,,,,,Arm,526,1,031_AE
Koerperteile,1,,,,,,,Hand,659,1,031_AE
Koerperteile,1,,,,,,,Brust,587,1,031_AE
Koerperteile,1,,,,,,,Bauch,1009,1,031_AE
Koerperteile,1,,,,,,,Unterschenkel,670,1,031_AE
Abwaerts zaehlen von 9,1,,,,,,,neun,832,1,031_AE
Abwaerts zaehlen von 9,1,,,,,,,acht,476,1,031_AE
Abwaerts zaehlen von 9,1,,,,,,,sieben,389,1,031_AE
Abwaerts zaehlen von 9,1,,,,,,,sechs,483,1,031_AE
Abwaerts zaehlen von 9,1,,,,,,,fuenf,742,1,031_AE
Abwaerts zaehlen von 9,1,,,,,,,vier,876,1,031_AE
Abwaerts zaehlen von 9,1,,,,,,,drei,512,1,031_AE
Abwaerts zaehlen von 9,1,,,,,,,zwei,620,1,031_AE
Abwaerts zaehlen von 9,1,,,,,,,eins,768,1,031_AE
Aufwaerts zaehlen von 1,1,,,,,,,eins,721,1,031_AE
Aufwaerts zaehlen von 1,1,,,,,,,zwei,450,1,031_AE
Aufwaerts zaehlen von 1,1,,,,,,,drei,551,1,031_AE
Aufwaerts zaehlen von 1,1,,,,,,,vier,897,1,031_AE
Aufwaerts zaehlen von 1,1,,,,,,,fuenf,638,1,031_AE
Aufwaerts zaehlen von 1,1,,,,,,,sechs,386,1,031_AE
Aufwaerts zaehlen von 1,1,,,,,,,sieben,447,1,031_AE
Aufwaerts zaehlen von 1,1,,,,,,,acht,526,1,031_AE
Aufwaerts zaehlen von 1,1,,,,,,,neun,537,1,031_AE
Kleidungsstuecke,1,,,,,,,Hemd,1150,1,031_AE
Kleidungsstuecke,1,,,,,,,Hose,674,1,031_AE
Kleidungsstuecke,1,,,,,,,Schuhe,544,1,031_AE
Kleidungsstuecke,1,,,,,,,Pullover,573,1,031_AE
Kleidungsstuecke,1,,,,,,,Socken,746,1,031_AE
Kleidungsstuecke,1,,,,,,,Mantel,432,1,031_AE
Kleidungsstuecke,1,,,,,,,Muetze,497,1,031_AE
Kleidungsstuecke,1,,,,,,,Schal,436,1,031_AE
Kleidungsstuecke,1,,,,,,,Schluepfer,782,1,031_AE
Aufwaerts zaehlen von 1,1,,,,,,,eins,746,1,031_AE
Aufwaerts zaehlen von 1,1,,,,,,,zwei,393,1,031_AE
Aufwaerts zaehlen von 1,1,,,,,,,drei,562,1,031_AE
Aufwaerts zaehlen von 1,1,,,,,,,vier,667,1,031_AE
Aufwaerts zaehlen von 1,1,,,,,,,fuenf,505,1,031_AE
Aufwaerts zaehlen von 1,1,,,,,,,sechs,382,1,031_AE
Aufwaerts zaehlen von 1,1,,,,,,,sieben,519,1,031_AE
Aufwaerts zaehlen von 1,1,,,,,,,acht,580,1,031_AE
Aufwaerts zaehlen von 1,1,,,,,,,neun,465,1,031_AE
Abwaerts zaehlen von 9,1,,,,,,,neun,732,1,031_AE
Abwaerts zaehlen von 9,1,,,,,,,acht,476,1,031_AE
Abwaerts zaehlen von 9,1,,,,,,,sieben,357,1,031_AE
Abwaerts zaehlen von 9,1,,,,,,,sechs,407,1,031_AE
Abwaerts zaehlen von 9,1,,,,,,,fuenf,530,1,031_AE
Abwaerts zaehlen von 9,1,,,,,,,vier,652,1,031_AE
Abwaerts zaehlen von 9,1,,,,,,,drei,526,1,031_AE
Abwaerts zaehlen von 9,1,,,,,,,zwei,537,1,031_AE
Abwaerts zaehlen von 9,1,,,,,,,eins,912,1,031_AE
Abwaerts zaehlen von 9,1,,,,,,,neun,620,1,031_AE
Abwaerts zaehlen von 9,1,,,,,,,acht,580,1,031_AE
Abwaerts zaehlen von 9,1,,,,,,,sieben,411,1,031_AE
Abwaerts zaehlen von 9,1,,,,,,,sechs,432,1,031_AE
Abwaerts zaehlen von 9,1,,,,,,,fuenf,602,1,031_AE
Abwaerts zaehlen von 9,1,,,,,,,vier,631,1,031_AE
Abwaerts zaehlen von 9,1,,,,,,,drei,465,1,031_AE
Abwaerts zaehlen von 9,1,,,,,,,zwei,486,1,031_AE
Abwaerts zaehlen von 9,1,,,,,,,eins,562,1,031_AE
Gartengeraete,1,,,,,,,Schaufel,764,1,031_AE
Gartengeraete,1,,,,,,,Spaten,443,1,031_AE
Gartengeraete,1,,,,,,,Rechen,667,1,031_AE
Gartengeraete,1,,,,,,,Schere,378,1,031_AE
Gartengeraete,1,,,,,,,Hacke,577,1,031_AE
Gartengeraete,1,,,,,,,Giesskanne,458,1,031_AE
Gartengeraete,1,,,,,,,kleine Hacke,548,1,031_AE
Gartengeraete,1,,,,,,,grosse Hacke,1777,1,031_AE
Gartengeraete,1,,,,1,,,Spaten,1928,1,031_AE
Farben,1,,,,,,,rot,1092,1,031_AE
Farben,1,,,,,,,blau,609,1,031_AE
Farben,1,,,,,,,grau,728,1,031_AE
Farben,1,,,,,,,weiss,627,1,031_AE
Farben,1,,,,,,,schwarz,335,1,031_AE
Farben,1,,,,,,,braun,569,1,031_AE
Farben,1,,,,,,,gruen,508,1,031_AE
Farben,1,,,,,,,orange,616,1,031_AE
Farben,1,,,,,,,gelb,566,1,031_AE
Tiere,1,,,,,,,Katze ,919,1,031_AE
Tiere,1,,,,,,,Hund,490,1,031_AE
Tiere,1,,,,,,,Kuh,544,1,031_AE
Tiere,1,,,,,,,Schaf,602,1,031_AE
Tiere,1,,,,,,,Ziege,371,1,031_AE
Tiere,1,,,,,,,Schwein,508,1,031_AE
Tiere,1,,,,,,,Kaninchen,566,1,031_AE
Tiere,1,,,,,,,Vogel,505,1,031_AE
Tiere,1,,,,,,,Eichhoernchen,425,1,031_AE
Kosmetik,1,,,,,,,Lippenstift,937,1,031_AE
Kosmetik,1,,,,,,,Augenbrauenstift,822,1,031_AE
Kosmetik,1,,,,,,,Tagescreme,649,1,031_AE
Kosmetik,1,,,,,,,Wimperntusche,486,1,031_AE
Kosmetik,1,,,,,,,Gesichtswasser,573,1,031_AE
Kosmetik,1,,,,,,,Sanibinden,483,1,031_AE
Kosmetik,1,,,,,,,Watte,973,1,031_AE
Kosmetik,,1,,,,,,weiter,508,1,031_AE
Kosmetik,1,,,,,,,Rasierapparat,422,1,031_AE
Abwaerts zaehlen von 9,1,,,,,,,neun,858,2,031_AE
Abwaerts zaehlen von 9,1,,,,,,,acht,501,2,031_AE
Abwaerts zaehlen von 9,1,,,,,,,sieben,602,2,031_AE
Abwaerts zaehlen von 9,1,,,,,,,sechs,501,2,031_AE
Abwaerts zaehlen von 9,1,,,,,,,fuenf,548,2,031_AE
Abwaerts zaehlen von 9,1,,,,,,,vier,912,2,031_AE
Abwaerts zaehlen von 9,1,,,,,,,drei,544,2,031_AE
Abwaerts zaehlen von 9,1,,,,,,,zwei,357,2,031_AE
Abwaerts zaehlen von 9,1,,,,,,,eins,530,2,031_AE
Abwaerts zaehlen von 9,1,,,,,,,neun,602,2,031_AE
Abwaerts zaehlen von 9,1,,,,,,,acht,657,2,031_AE
Abwaerts zaehlen von 9,1,,,,,,,sieben,476,2,031_AE
Abwaerts zaehlen von 9,1,,,,,,,sechs,472,2,031_AE
Abwaerts zaehlen von 9,1,,,,,,,fuenf,501,2,031_AE
Abwaerts zaehlen von 9,1,,,,,,,vier,587,2,031_AE
Abwaerts zaehlen von 9,1,,,,,,,drei,811,2,031_AE
Abwaerts zaehlen von 9,1,,,,,,,zwei,652,2,031_AE
Abwaerts zaehlen von 9,1,,,,,,,eins,674,2,031_AE
Werkzeug,1,,,,,,,Hammer,1085,2,031_AE
Werkzeug,1,,,,,,,Nagel,796,2,031_AE
Werkzeug,1,,,,,,,Feile,688,2,031_AE
Werkzeug,1,,,,,,,Schraube,486,2,031_AE
Werkzeug,1,,,,,,,Mutter,573,2,031_AE
Werkzeug,1,,,,,,,Elektroschraube,1921,2,031_AE
Werkzeug,1,,,,,,,Bohrer,548,2,031_AE
Werkzeug,1,,,,,,,Saege,854,2,031_AE
Werkzeug,1,,,,,,,Fuchsschwanz,926,2,031_AE
Aufwaerts zaehlen von 1,1,,,,,,,eins,739,2,031_AE
Aufwaerts zaehlen von 1,1,,,,,,,zwei,486,2,031_AE
Aufwaerts zaehlen von 1,1,,,,,,,drei,649,2,031_AE
Aufwaerts zaehlen von 1,1,,,,,,,vier,760,2,031_AE
Aufwaerts zaehlen von 1,1,,,,,,,fuenf,505,2,031_AE
Aufwaerts zaehlen von 1,1,,,,,,,sechs,602,2,031_AE
Aufwaerts zaehlen von 1,1,,,,,,,sieben,501,2,031_AE
Aufwaerts zaehlen von 1,1,,,,,,,acht,724,2,031_AE
Aufwaerts zaehlen von 1,1,,,,,,,neun,573,2,031_AE
Aufwaerts zaehlen von 1,1,,,,,,,eins,573,2,031_AE
Aufwaerts zaehlen von 1,1,,,,,,,zwei,429,2,031_AE
Aufwaerts zaehlen von 1,1,,,,,,,drei,519,2,031_AE
Aufwaerts zaehlen von 1,1,,,,,,,vier,623,2,031_AE
Aufwaerts zaehlen von 1,1,,,,,,,fuenf,602,2,031_AE
Aufwaerts zaehlen von 1,1,,,,,,,sechs,422,2,031_AE
Aufwaerts zaehlen von 1,1,,,,,,,sieben,501,2,031_AE
Aufwaerts zaehlen von 1,1,,,,,,,acht,631,2,031_AE
Aufwaerts zaehlen von 1,1,,,,,,,neun,677,2,031_AE
Lebensmittel,1,,,,,,,Brot,883,2,031_AE
Lebensmittel,1,,,,,,,Broetchen,515,2,031_AE
Lebensmittel,1,,,,,,,Butter,670,2,031_AE
Lebensmittel,1,,,,,,,Camembert,505,2,031_AE
Lebensmittel,1,,,,,,,Ziegenkaese,393,2,031_AE
Lebensmittel,1,,,,,,,Leberwurst,753,2,031_AE
Lebensmittel,1,,,,,,,Jagdwurst,544,2,031_AE
Lebensmittel,1,,,,,,,Tee,559,2,031_AE
Lebensmittel,1,,,,,,,Schwarzbrot,1034,2,031_AE
Kuechengeraete,1,,,,,,,Sieb ,739,2,031_AE
Kuechengeraete,1,,,,,,,Topf,584,2,031_AE
Kuechengeraete,1,,,,,,,Kaffeemaschine,677,2,031_AE
Kuechengeraete,1,,,,,,,Muehle,800,2,031_AE
Kuechengeraete,1,,,,,,,Salzstreuer,400,2,031_AE
Kuechengeraete,1,,,,,,,Gabel,768,2,031_AE
Kuechengeraete,1,,,,,,,Messer,602,2,031_AE
Kuechengeraete,1,,,1,,,,,458,2,031_AE
Kuechengeraete,1,,,,,,,Mixer,688,2,031_AE
Fruechte,1,,,,,,,Apfel,987,2,031_AE
Fruechte,1,,,,,,,Birne,699,2,031_AE
Fruechte,1,,,,,,,Pflaume,663,2,031_AE
Fruechte,1,,,,,,,Kirsche,591,2,031_AE
Fruechte,1,,,,,,,Johannisbeere,486,2,031_AE
Fruechte,1,,,,,,,Apfelsine,1258,2,031_AE
Fruechte,1,,,,,,,Banane,854,2,031_AE
Fruechte,1,,,,,,,Weintrauben,468,2,031_AE
Fruechte,1,,,,1,,,Pflaume,1971,2,031_AE
Abwaerts zaehlen von 9,1,,,,,,,neun,670,2,031_AE
Abwaerts zaehlen von 9,1,,,,,,,acht,508,2,031_AE
Abwaerts zaehlen von 9,1,,,,,,,sieben,414,2,031_AE
Abwaerts zaehlen von 9,1,,,,,,,sechs,263,2,031_AE
Abwaerts zaehlen von 9,1,,,,,,,fuenf,519,2,031_AE
Abwaerts zaehlen von 9,1,,,,,,,vier,753,2,031_AE
Abwaerts zaehlen von 9,1,,,,,,,drei,440,2,031_AE
Abwaerts zaehlen von 9,1,,,,,,,zwei,360,2,031_AE
Abwaerts zaehlen von 9,1,,,,,,,eins,573,2,031_AE
Blumen,1,,,,,,,Rose,732,2,031_AE
Blumen,1,,,,,,,Flieder,634,2,031_AE
Blumen,1,,,,,,,Osterglocke,461,2,031_AE
Blumen,1,,,,,,,Tulpe,577,2,031_AE
Blumen,1,,,,,,,Veilchen,497,2,031_AE
Blumen,1,,,,,,,Hyazinthe,724,2,031_AE
Blumen,1,,,,,,,Alpenveilchen,739,2,031_AE
Blumen,1,,,,,,,Chrysantheme,494,2,031_AE
Blumen,1,,,,,,,Nelke,2209,2,031_AE
Aufwaerts zaehlen von 1,1,,,,,,,eins,623,2,031_AE
Aufwaerts zaehlen von 1,1,,,,,,,zwei,796,2,031_AE
Aufwaerts zaehlen von 1,1,,,,,,,drei,703,2,031_AE
Aufwaerts zaehlen von 1,1,,,,,,,vier,555,2,031_AE
Aufwaerts zaehlen von 1,1,,,,,,,fuenf,450,2,031_AE
Aufwaerts zaehlen von 1,1,,,,,,,sechs,505,2,031_AE
Aufwaerts zaehlen von 1,1,,,,,,,sieben,393,2,031_AE
Aufwaerts zaehlen von 1,1,,,,,,,acht,645,2,031_AE
Aufwaerts zaehlen von 1,1,,,,,,,neun,523,2,031_AE
Metalle,1,,,,,,,Alu,1016,2,031_AE
Metalle,1,,,,,,,Silber,378,2,031_AE
Metalle,1,,,,,,,Gold,562,2,031_AE
Metalle,1,,,,,,,Blei,732,2,031_AE
Metalle,1,,,,,,,Kupfer,573,2,031_AE
Metalle,1,,,,,,,Stahl,609,2,031_AE
Metalle,1,,,,,,,Eisenerz,483,2,031_AE
Metalle,1,,,,,,,Zinn,407,2,031_AE
Metalle,,1,,,,,,weiter,872,2,031_AE
Aufwaerts zaehlen von 1,1,,,,,,,eins,659,2,031_AE
Aufwaerts zaehlen von 1,1,,,,,,,zwei,429,2,031_AE
Aufwaerts zaehlen von 1,1,,,,,,,drei,941,2,031_AE
Aufwaerts zaehlen von 1,1,,,,,,,vier,562,2,031_AE
Aufwaerts zaehlen von 1,1,,,,,,,fuenf,512,2,031_AE
Aufwaerts zaehlen von 1,1,,,,,,,sechs,407,2,031_AE
Aufwaerts zaehlen von 1,1,,,,,,,sieben,400,2,031_AE
Aufwaerts zaehlen von 1,1,,,,,,,acht,486,2,031_AE
Aufwaerts zaehlen von 1,1,,,,,,,neun,638,2,031_AE
Abwaerts zaehlen von 9,1,,,,,,,neun,530,2,031_AE
Abwaerts zaehlen von 9,1,,,,,,,acht,649,2,031_AE
Abwaerts zaehlen von 9,1,,,,,,,sieben,422,2,031_AE
Abwaerts zaehlen von 9,1,,,,,,,sechs,422,2,031_AE
Abwaerts zaehlen von 9,1,,,,,,,,,2,031_AE
Abwaerts zaehlen von 9,1,,,,,,,vier,595,2,031_AE
Abwaerts zaehlen von 9,1,,,,,,,drei,494,2,031_AE
Abwaerts zaehlen von 9,1,,,,,,,zwei,432,2,031_AE
Abwaerts zaehlen von 9,1,,,,,,,eins,789,2,031_AE
Autoteile,1,,,,,,,Hupe,872,2,031_AE
Autoteile,1,,,,,,,Rad,653,2,031_AE
Autoteile,1,,,,,,,Lampe,580,2,031_AE
Autoteile,1,,,,,,,Blinker,638,2,031_AE
Autoteile,1,,,,,,,Motor,613,2,031_AE
Autoteile,1,,,,,,,Vergaser,638,2,031_AE
Autoteile,1,,,,,,,Auspuff,483,2,031_AE
Autoteile,1,,,,,,,Lichtmaschine,544,2,031_AE
Autoteile,1,,,,,,,Klimaanlage,537,2,031_AE
Abwaerts zaehlen von 9,1,,,,,,,neun,1114,2,031_AE
Abwaerts zaehlen von 9,1,,,,,,,acht,566,2,031_AE
Abwaerts zaehlen von 9,1,,,,,,,sieben,544,2,031_AE
Abwaerts zaehlen von 9,1,,,,,,,sechs,386,2,031_AE
Abwaerts zaehlen von 9,1,,,,,,,fuenf,562,2,031_AE
Abwaerts zaehlen von 9,1,,,,,,,vier,685,2,031_AE
Abwaerts zaehlen von 9,1,,,,,,,drei,609,2,031_AE
Abwaerts zaehlen von 9,1,,,,,,,zwei,350,2,031_AE
Abwaerts zaehlen von 9,1,,,,,,,eins,631,2,031_AE
Musikinstrumente,1,,,,,,,Geige,699,2,031_AE
Musikinstrumente,1,,,,,,,Floete,616,2,031_AE
Musikinstrumente,1,,,,,,,Trompete,436,2,031_AE
Musikinstrumente,1,,,,,,,Bratsche,681,2,031_AE
Musikinstrumente,1,,,,,,,Klavier,530,2,031_AE
Musikinstrumente,1,,,,,,,Haru,519,2,031_AE
Musikinstrumente,1,,,,,,,Triangel,555,2,031_AE
Musikinstrumente,1,,,,,,,Gitarre,512,2,031_AE
Musikinstrumente,,1,,,,,,weiter,1445,2,031_AE
Aufwaerts zaehlen von 1,1,,,,,,,eins,609,2,031_AE
Aufwaerts zaehlen von 1,1,,,,,,,zwei,404,2,031_AE
Aufwaerts zaehlen von 1,1,,,,,,,drei,501,2,031_AE
Aufwaerts zaehlen von 1,1,,,,,,,vier,587,2,031_AE
Aufwaerts zaehlen von 1,1,,,,,,,fuenf,562,2,031_AE
Aufwaerts zaehlen von 1,1,,,,,,,sechs,479,2,031_AE
Aufwaerts zaehlen von 1,1,,,,,,,sieben,328,2,031_AE
Aufwaerts zaehlen von 1,1,,,,,,,acht,515,2,031_AE
Aufwaerts zaehlen von 1,1,,,,,,,neun,465,2,031_AE
Insekten,1,,,,,,,Fliege,930,2,031_AE
Insekten,1,,,,,,,Muecke,479,2,031_AE
Insekten,1,,,,,,,Libelle,829,2,031_AE
Insekten,1,,,,,,,Wespe,1005,2,031_AE
Insekten,1,,,,,,,Kartoffelkaefer,645,2,031_AE
Insekten,1,,,,,,,Raupe,638,2,031_AE
Insekten,1,,,,,,,Schmetterling,613,2,031_AE
Insekten,1,,,,,,,Ameise,861,2,031_AE
Insekten,,1,,,,,,weiter,1229,2,031_AE
Berufe,1,,,,,,,Maurer,1229,2,031_AE
Berufe,1,,,,,,,Baecker,786,2,031_AE
Berufe,1,,,,,,,Fleischer,912,2,031_AE
Berufe,1,,,,,,,Fliessenleger,775,2,031_AE
Berufe,1,,,,,,,Klempner,980,2,031_AE
Berufe,1,,,,,,,Glaser,872,2,031_AE
Berufe,1,,,,,,,Gaertner,447,2,031_AE
Berufe,,1,,,,,,weiter,1146,2,031_AE
Berufe,1,,,,,,,Elektriker,2032,2,031_AE
