-9.005279999999998e-10,0.013172999999999999,0.0414745,0.000347969,-0.0,0.0
-0.017953900000000002,-0.0147019,0.00561477,0.00111808,-0.000288013,-0.00030963400000000004
3.3600800000000005e-06,0.010832799999999998,0.00918118,0.00157508,0.000248351,-0.00040161
0.00252063,0.0245429,-0.00229633,0.0011917,0.000440954,-0.00052326
-1.34545e-06,-0.0460173,-0.00235858,0.00251083,0.000266838,-0.00052326
0.00430628,0.0403426,0.0338236,0.00253198,0.00103628,-0.00052326
-5.3058999999999995e-05,0.0432586,0.0446309,0.00222338,0.000616551,-0.00052326
-0.000100375,-0.0129882,-0.026601299999999998,0.00183572,0.00044185199999999996,-0.00052326
0.00579237,0.0670521,0.033494499999999996,0.00158717,0.0008934619999999999,-0.00052326
-7.96758e-05,0.00338926,-0.0232046,0.00151828,0.00109934,-0.000722083
-7.937119999999997e-05,0.07238839999999999,0.0455404,0.00108356,0.00103628,-0.00052326
0.00857474,0.0299217,0.00903552,0.0016817,0.0013248200000000006,-0.000472401
0.00926824,0.0643432,0.045030900000000006,0.00106514,0.00137753,-0.0006997660000000001
-8.71881e-05,0.0890718,0.0149112,0.00112528,0.00117355,-0.000912693
0.010542000000000001,-0.00081322,0.020504400000000002,0.00106831,0.00165924,-0.000860175
0.0124352,0.0542503,0.055841199999999994,0.000729488,0.00145654,-0.00052326
0.00966143,0.0589586,0.027273900000000004,0.00144905,0.00143136,-0.00052326
0.0145702,0.0276062,0.0174358,0.00176347,0.00177198,-0.0007730309999999997
0.0100494,0.0817422,0.0272908,0.00137344,0.00133565,-0.0008302729999999998
0.007630289999999999,0.0529244,-0.012463799999999999,0.00110451,0.00172865,-0.000910514
0.0161537,0.07447949999999999,0.0251681,0.00165266,0.001616,-0.000789187
0.0243231,0.0263531,-0.054988999999999996,0.00238613,0.00113587,-0.00052326
0.024304,0.06621310000000001,-0.00190543,0.00172517,0.00130214,-0.000368683
0.024300400000000003,0.0462632,0.0210719,0.00127227,0.00126468,-0.00052326
0.0243011,0.0640997,0.0384909,0.00145849,0.00142418,-0.00044188699999999997
0.0242868,0.0948763,0.0637723,0.00110065,0.00142006,-0.00041306199999999996
0.0263603,0.03478869999999999,0.0612677,0.00151161,0.00156328,-0.00052326
0.0242893,0.08252029999999999,0.0490579,0.00099342,0.00142902,-0.00052326
0.0217288,0.08609019999999999,0.053671300000000005,0.000565299,0.00145229,-0.00043197900000000003
0.0258127,0.0423286,0.0536387,0.00109396,0.0016093,-0.00052326
0.025806299999999997,0.109773,0.053691699999999995,0.00081401,0.00162481,-0.000624291
0.00952321,0.04235119999999999,0.014774500000000001,0.00140795,0.00147599,-0.0008916210000000001
0.011743799999999999,0.067742,-0.00719806,0.00125415,0.00177209,-0.0011895
0.0139262,0.10453399999999999,0.0142246,0.0014197,0.00158397,-0.00107652
0.016259899999999997,0.07065439999999999,0.017641099999999996,0.00146046,0.00211586,-0.000968254
0.016379599999999998,0.0966094,0.0142246,0.00156891,0.00163664,-0.000643102
0.0256672,0.0390845,0.0329515,0.00119116,0.00233576,-0.000968254
0.0145989,0.127921,0.0395514,0.000686886,0.00251054,-0.000968254
0.00889343,0.0709451,0.0409647,0.000621259,0.00251054,-0.000968254
0.0256616,0.0483191,0.0357613,0.000955845,0.00251055,-0.000968254
0.0180585,0.098466,0.0376965,0.0007241119999999997,0.00234613,-0.000968254
0.0145987,0.05718380000000001,0.0412733,0.0010798200000000002,0.0022718000000000005,-0.000968254
0.0256616,0.0903954,0.0559808,0.0009208269999999999,0.00251054,-0.000968254
0.00737725,0.09188930000000001,-0.00126028,0.0011936,0.00225489,-0.00109943
0.0149149,0.07176030000000001,0.0453999,0.00102625,0.00239303,-0.000968254
0.0136497,0.10929200000000001,0.035739099999999996,0.00082325,0.00230711,-0.00127344
0.00842736,0.061233800000000005,0.018363400000000002,0.0009491419999999999,0.00217462,-0.00134563
0.00842522,0.11867899999999999,0.051241800000000004,0.00101213,0.00223606,-0.00133005
0.00170485,0.10003300000000001,0.0505769,0.0011495600000000002,0.00223606,-0.00134123
0.00355173,0.0893937,0.0487905,0.00128764,0.00246581,-0.00182487
-0.00346813,0.1362,0.0488999,0.00119798,0.00226661,-0.00170866
0.00835401,0.058376199999999996,0.040553399999999996,0.00154963,0.002639,-0.00171973
0.00840867,0.132209,0.06638480000000001,0.00157881,0.0023886999999999997,-0.00141592
0.008382149999999998,0.136518,0.08848710000000001,0.0014021000000000005,0.00253423,-0.00141592
0.017290599999999996,0.09274600000000001,0.120603,0.00204349,0.00275837,-0.00112404
0.01675,0.130119,0.120702,0.00187604,0.00260657,-0.00122371
0.012403200000000001,0.105827,0.134784,0.00205012,0.00275837,-0.0009838300000000002
0.0169758,0.12006800000000001,0.127106,0.00209787,0.00275837,-0.0010890000000000001
0.014657900000000001,0.126413,0.14960599999999996,0.00174715,0.00275837,-0.00113587
0.012215799999999999,0.130658,0.168304,0.00207545,0.00269323,-0.00107155
0.00865253,0.169424,0.12486300000000002,0.0019192,0.00275837,-0.00141592
0.00942188,0.072785,0.0571158,0.00304692,0.00256968,-0.00141592
0.0208701,0.186874,0.0210574,0.00313602,0.00275837,-0.00150453
0.00409784,0.110694,0.06856989999999999,0.00356764,0.00275837,-0.00141592
-0.00723196,0.11407,0.0704852,0.00333948,0.00275837,-0.00178341
0.00403408,0.154542,0.04456330000000001,0.00323802,0.00244658,-0.00141592
0.00962875,0.0642004,0.045898900000000006,0.00337583,0.00275837,-0.00141592
-0.00489675,0.145303,0.051845,0.00303089,0.00275838,-0.00141593
-0.00379863,0.08340639999999999,0.07081990000000002,0.00303496,0.00275838,-0.00147411
0.00353737,0.14774500000000002,0.0669656,0.00294981,0.00286294,-0.0016311
-0.00142425,0.09373089999999999,0.07005019999999999,0.0029774000000000003,0.0030338,-0.00155922
-0.000179073,0.15357499999999996,0.0972133,0.00260494,0.00303583,-0.00141593
0.000190445,0.08780119999999997,0.07430939999999997,0.00307029,0.00313604,-0.00152426
0.00953547,0.117557,0.09679960000000004,0.00307959,0.00333511,-0.00141592
0.00953098,0.140785,0.0999278,0.00291209,0.00328367,-0.00162648
-0.00336201,0.140806,0.0662225,0.00305679,0.00333511,-0.00184974
0.00953279,0.09237550000000004,0.09375800000000001,0.00324129,0.00333285,-0.00165175
0.00954162,0.128949,0.0918607,0.00325442,0.0034058,-0.00141592
-0.00351343,0.109449,0.05957769999999999,0.00275553,0.00319761,-0.00184087
0.00948781,0.16675299999999998,0.0958298,0.00322972,0.00331304,-0.00175793
0.0117727,0.107234,0.0617414,0.00362124,0.00330259,-0.00180255
0.0294476,0.13173800000000002,0.0695542,0.0032963999999999997,0.00354107,-0.000780678
0.0291586,0.158217,0.0951056,0.00320664,0.00366676,-0.00089338
0.0335091,0.11433,0.12294400000000001,0.00418368,0.00378498,-0.00131221
0.0336396,0.0984887,0.134523,0.00436694,0.00334383,-0.000999831
0.028508299999999997,0.152456,0.174871,0.00487667,0.00396017,-0.000911593
0.0336487,0.153534,0.155883,0.00433547,0.00324631,-0.000999831
0.0261796,0.169374,0.133928,0.00400033,0.00247022,-0.0012677500000000006
0.017300099999999995,0.0270762,0.048342500000000004,0.00603603,0.00318134,-0.000515931
0.00533154,0.13943599999999998,0.09997769999999999,0.00559488,0.00392794,-0.000678294
-0.00365143,0.146856,0.049726400000000004,0.00624343,0.00377912,-0.000999831
-0.0006806389999999999,0.05615740000000001,0.0336131,0.00537811,0.00435533,-0.00119182
-0.0068143,0.115729,0.0203886,0.0054309,0.00435533,-0.00164439
-0.00371884,0.0754315,0.05474880000000001,0.00478362,0.00450969,-0.00146028
-0.0017642999999999997,0.143074,0.03790519999999999,0.00469834,0.00493321,-0.00187189
-0.00861884,0.05304980000000001,0.0158797,0.00480341,0.00471238,-0.00187189
-0.00860691,0.10707699999999999,0.0415244,0.00442881,0.00467833,-0.00187189
-0.015344,0.0679317,0.00850198,0.00574317,0.00480591,-0.00187189
-0.0031289,0.131165,0.06316770000000001,0.00453169,0.00493321,-0.00187189
-0.019277799999999998,0.116131,0.0213987,0.00460054,0.00518301,-0.00198622
-0.00663315,0.0753727,0.06340900000000001,0.00444656,0.00502081,-0.0016221199999999995
0.00737233,0.10912899999999999,0.07873039999999999,0.00407855,0.00537584,-0.00192253
-0.00943667,0.13759000000000002,0.0310939,0.00420105,0.00544641,-0.00223793
-0.00532376,0.0618552,0.063104,0.00382741,0.00495375,-0.00192253
0.00736013,0.0966417,0.0863556,0.00354581,0.00537689,-0.00213182
-0.0116352,0.158057,0.06042090000000001,0.00328285,0.00536076,-0.00232393
0.00596524,0.126441,0.0321322,0.00450421,0.00523577,-0.00155418
0.0220703,0.09664550000000001,0.08167150000000001,0.00359219,0.00519132,-0.00157828
0.005862600000000001,0.11772,0.06274590000000001,0.00409859,0.00510822,-0.00185035
0.013113399999999999,0.13801300000000002,0.104012,0.00324592,0.00514889,-0.00177922
0.0138697,0.0515115,0.026442200000000003,0.00291536,0.00493937,-0.0015222
0.017525400000000003,0.10503699999999999,0.0826309,0.00284675,0.00509648,-0.00192253
0.013648500000000001,0.12201600000000005,0.108356,0.00196722,0.00506209,-0.00192253
0.01593,0.13331500000000002,0.104349,0.00191145,0.00517476,-0.00192253
0.027258799999999996,0.126445,0.1481,0.00129159,0.00506026,-0.00179393
0.0272197,0.113738,0.144295,0.00137607,0.00523149,-0.00184186
0.0272411,0.144354,0.14915599999999998,0.000976069,0.00511893,-0.00192253
0.0272411,0.14688800000000002,0.1475,0.000896746,0.00511893,-0.00192253
0.027259500000000002,0.13125599999999998,0.17946899999999996,0.00121832,0.00503395,-0.00192253
0.030617400000000003,0.14091900000000002,0.165493,0.00146055,0.00517949,-0.00192253
0.011632799999999999,0.116151,0.08234429999999998,0.00273596,0.00474228,-0.00206639
0.023114,0.170164,0.06482669999999999,0.00335687,0.00447117,-0.00192253
0.016218,0.135035,0.0693681,0.00233937,0.00452892,-0.00192253
0.023060900000000002,0.171138,0.107012,0.00202635,0.004968,-0.00174934
0.0293278,0.146448,0.121233,0.00214481,0.00484467,-0.00180309
0.0231079,0.11041600000000001,0.0635868,0.00280293,0.00426325,-0.00185632
0.036505300000000004,0.155648,0.12356800000000001,0.00209201,0.0044143,-0.00173652
0.0303591,0.145016,0.123377,0.00272611,0.0044143,-0.00192253
0.0302926,0.1414,0.11913800000000001,0.00238681,0.00476808,-0.00192253
0.030278199999999998,0.20243599999999998,0.159597,0.00204502,0.0050571999999999995,-0.00168116
0.023741099999999998,0.16406800000000002,0.17597000000000002,0.00323634,0.0046534,-0.00192253
0.030292000000000003,0.190169,0.192355,0.00221084,0.00485265,-0.00192253
0.024829,0.152444,0.155527,0.00299726,0.00477578,-0.00192253
0.033298400000000006,0.170328,0.15563,0.00238659,0.00518972,-0.00192253
0.030158499999999998,0.171963,0.13605799999999998,0.00236504,0.00515293,-0.0021948000000000002
0.0301613,0.128695,0.157149,0.00284844,0.00514777,-0.0023294
0.0300557,0.190493,0.13609300000000002,0.00257618,0.00538083,-0.00261736
0.0301485,0.136918,0.136121,0.00233773,0.00490836,-0.00254223
0.030091900000000005,0.21460500000000002,0.133075,0.00199301,0.00540947,-0.00230855
0.03383630000000001,0.15578399999999998,0.11551600000000001,0.00277927,0.00538318,-0.00236526
0.0371791,0.147063,0.131997,0.00291928,0.00524163,-0.00231046
0.0414575,0.21896500000000002,0.129555,0.00215037,0.00508941,-0.00206566
0.052677800000000004,0.14841500000000002,0.14588799999999996,0.00262199,0.00484606,-0.00182081
0.044267,0.205875,0.14468399999999998,0.00255004,0.004372399999999999,-0.00147504
0.0507187,0.197271,0.162481,0.00253808,0.00420063,-0.00147504
0.0457237,0.17685,0.176398,0.00269607,0.00432566,-0.00178707
0.0381468,0.212729,0.20067000000000002,0.00210282,0.00442706,-0.00186678
0.0448905,0.193794,0.219363,0.00237501,0.00432527,-0.00185624
0.045513599999999994,0.202655,0.236783,0.00256857,0.00451542,-0.00179349
0.04115030000000001,0.232118,0.20136700000000002,0.00321566,0.00451951,-0.00195628
0.0290106,0.15116500000000002,0.0955653,0.00387211,0.00422841,-0.00191161
0.0317851,0.19967200000000002,0.0818403,0.00291214,0.00447962,-0.00214561
0.028004700000000004,0.179037,0.0422829,0.00408327,0.00447962,-0.00200804
0.031240800000000003,0.152168,0.134987,0.00342752,0.00447962,-0.00200804
0.0277822,0.19771,0.13565700000000006,0.00262327,0.00481184,-0.00200804
0.020540400000000004,0.164363,0.116237,0.00280856,0.00469403,-0.00210754
0.0378336,0.179111,0.146011,0.00283684,0.00498579,-0.00215888
0.031833099999999996,0.20269700000000002,0.155069,0.00275481,0.0049636,-0.00221673
0.0264344,0.169272,0.09880290000000004,0.00280165,0.00478034,-0.00223694
0.0427875,0.18999100000000002,0.13739500000000002,0.00265265,0.00493558,-0.00225843
0.0291453,0.159106,0.09554190000000004,0.00277069,0.00472122,-0.00200804
0.0382559,0.176094,0.11542100000000001,0.00280155,0.00485967,-0.00227515
0.0313818,0.189298,0.07714789999999999,0.00294533,0.00472122,-0.00253019
0.0428585,0.143307,0.07760559999999997,0.00303107,0.00472122,-0.00200804
0.0428375,0.193338,0.0617404,0.00312319,0.00472122,-0.00213616
0.0453324,0.0448893,0.0435826,0.00311247,0.00429577,-0.00163216
0.0428584,0.153718,0.0567264,0.00257485,0.00434046,-0.0025050000000000003
0.0504114,0.0588822,0.042465300000000004,0.00317812,0.0046363,-0.00200804
0.0597719,0.150653,0.0368976,0.00234779,0.00497833,-0.00258622
0.06892260000000001,0.09995110000000001,0.009820410000000005,0.00192259,0.00452249,-0.00200804
0.07449029999999998,0.10062,0.0226597,0.0020706,0.00459547,-0.00200804
0.06892000000000001,0.13208499999999998,0.08511039999999999,0.00190009,0.00459547,-0.00200804
0.07984619999999999,0.17169,0.075723,0.0016709,0.00459547,-0.00200804
0.08564729999999998,0.170733,0.100274,0.00131689,0.00487312,-0.00200804
0.0689188,0.15176099999999998,0.117247,0.00150952,0.00472924,-0.00200804
0.077605,0.169377,0.107609,0.00156721,0.00478628,-0.00200804
0.07402269999999997,0.16711199999999998,0.131386,0.0015661,0.00498686,-0.00200804
0.0713903,0.151687,0.166183,0.00150952,0.00484651,-0.00200804
0.0779841,0.176087,0.14622099999999996,0.0013334200000000005,0.00520369,-0.00166383
0.07655449999999997,0.154923,0.0831023,0.00234613,0.00471389,-0.00200804
0.06742680000000001,0.147221,0.0348121,0.00228805,0.00446352,-0.00209054
0.0654879,0.239407,0.069511,0.00176232,0.0047109,-0.00200804
0.077812,0.133838,0.104056,0.00200408,0.00449246,-0.0014466
0.088215,0.212123,0.110181,0.00170878,0.00452291,-0.00161663
0.0827595,0.149886,0.08785130000000001,0.00195217,0.00430457,-0.0015195199999999995
0.08267310000000001,0.33007800000000004,0.173431,0.00145275,0.00484015,-0.00136301
0.0573825,0.180729,0.06685239999999999,0.00181453,0.00477854,-0.00119573
0.0642227,0.0824416,0.08861389999999998,0.0020116,0.00479905,-0.00097477
0.0641272,0.15140499999999998,0.11383399999999999,0.00150912,0.00518978,-0.00113607
0.0409673,0.212058,0.107454,0.00179294,0.005065999999999999,-0.00124954
0.0533623,0.129923,0.13016200000000006,0.00179484,0.00518978,-0.0010870500000000002
0.044186199999999995,0.208409,0.161736,0.00164776,0.00518978,-0.00117202
0.044218099999999996,0.219966,0.14361600000000002,0.00155068,0.00499529,-0.00126857
0.057814,0.185301,0.181569,0.00207338,0.00534852,-0.00127533
0.0442676,0.225814,0.14824400000000001,0.00191042,0.00472117,-0.0013853
0.059675900000000004,0.177568,0.156211,0.00241994,0.00518978,-0.00097477
0.048515300000000004,0.22815,0.137508,0.00191728,0.00452132,-0.00097477
0.053636300000000005,0.1741,0.147651,0.00222977,0.00452132,-0.00097477
0.06422430000000001,0.24071199999999998,0.12387999999999999,0.00188274,0.00501431,-0.000974771
0.0519117,0.14918599999999999,0.11638699999999999,0.0022456,0.0049046,-0.00117976
0.0558183,0.15490299999999999,0.159893,0.00224184,0.00493406,-0.000974771
0.0712211,0.128197,0.10396099999999998,0.00460751,0.00526729,-0.0007855619999999997
0.07130539999999999,0.258469,0.0759182,0.00220658,0.0048456,-0.0007398679999999998
0.0713027,0.17130599999999999,0.138928,0.0028120999999999997,0.0048456,-0.0007320989999999999
0.051180199999999995,0.164027,-0.08207939999999997,0.00244335,0.00504967,-0.00118265
0.0548387,0.212747,-0.0512133,0.00329326,0.00375193,-0.000974771
0.0712,0.176516,0.00369942,0.00294366,0.00418345,-0.000905883
0.0711551,0.179343,0.0106027,0.00241051,0.00440235,-0.000974771
0.0659971,0.230075,-0.00351747,0.00190182,0.00426089,-0.000974771
0.061867,0.149974,-0.0498154,0.00306213,0.00439081,-0.00121027
0.071146,0.22249699999999997,-0.044526800000000005,0.00249019,0.00436306,-0.000974771
0.0572816,0.180799,-0.0313151,0.00248434,0.0043826,-0.00111416
0.07110880000000001,0.140283,-0.0035928000000000006,0.00297987,0.00465593,-0.00111389
0.0710985,0.23976,-0.00350012,0.00227814,0.00479726,-0.000974771
0.07111160000000001,0.168526,0.00424772,0.00260392,0.00444966,-0.00105081
0.08203309999999997,0.19356600000000002,0.033097,0.00255261,0.004476600000000001,-0.000974771
0.077769,0.252757,0.0129077,0.00312237,0.00408653,-0.000974771
0.0737083,0.216723,0.0614955,0.00267829,0.00456721,-0.000974771
0.0693234,0.26709,0.0122786,0.00242459,0.00483928,-0.0009747719999999999
0.073725,0.171927,0.0282866,0.00249281,0.0050008000000000006,-0.0009747719999999999
0.0707701,0.237853,0.0218731,0.00200255,0.00494022,-0.0010758
0.0637041,0.179596,0.0151381,0.0027528,0.00478217,-0.00122652
0.0707432,0.178633,0.011652500000000001,0.00273002,0.0050008000000000006,-0.00127127
0.053748699999999996,0.26318600000000003,0.0116493,0.00250115,0.00473077,-0.00136993
0.0655119,0.157777,-0.00135475,0.00249277,0.0050008000000000006,-0.00119627
0.06417719999999999,0.20477,-0.00886158,0.00250745,0.00488381,-0.00131915
0.0593861,0.198399,0.029671,0.00274329,0.0050008000000000006,-0.00170934
0.059372,0.285167,-0.0108364,0.00263328,0.0050008000000000006,-0.00166712
0.054465,0.238379,-0.00973876,0.00240277,0.0050008000000000006,-0.0013980100000000005
0.056317099999999995,0.184152,0.012001399999999999,0.00254744,0.00493357,-0.00168245
0.0669758,0.188969,0.0196083,0.00297081,0.00503097,-0.00182751
0.0594345,0.23466399999999998,0.02554,0.00274761,0.00471538,-0.00173015
0.059523599999999996,0.23584000000000002,0.0490991,0.00272858,0.004550899999999999,-0.0013980100000000005
0.06660930000000001,0.22005500000000003,-0.0145201,0.00198738,0.00439906,-0.00151912
0.059517499999999994,0.219029,-0.061093299999999996,0.00317865,0.00439906,-0.0013980100000000005
0.0595615,0.237087,-0.0169684,0.00212635,0.00439906,-0.00106137
0.062926,0.220154,0.00921071,0.00267011,0.00484091,-0.000939321
0.06705989999999999,0.241615,-0.019843200000000002,0.00215575,0.00503615,-0.00116648
0.0594975,0.24223699999999998,-0.05217080000000001,0.00247254,0.00495615,-0.00123289
0.059463,0.18216300000000002,-0.054698000000000004,0.00310808,0.00491333,-0.0013980100000000005
0.051975099999999996,0.21236,-0.08233559999999998,0.00291799,0.00487105,-0.001398
0.0594665,0.14338499999999998,-0.0781918,0.00331934,0.00497295,-0.001398
0.0594663,0.206515,-0.05078030000000001,0.00288664,0.00503615,-0.001398
0.044271899999999996,0.191082,-0.06297180000000001,0.00302623,0.00503615,-0.00156246
0.0594635,0.19102,-0.03932940000000001,0.00255307,0.00533909,-0.001398
0.0636135,0.19725499999999999,-0.0339815,0.00256425,0.00550298,-0.00155823
0.0594175,0.180096,-0.07071530000000001,0.0025513000000000003,0.00521741,-0.00166035
0.0645455,0.20893,-0.0364305,0.00234372,0.00565325,-0.00155896
0.0636594,0.215335,-0.0406093,0.00235321,0.00551754,-0.00169894
0.0736862,0.184376,-0.0418805,0.00264961,0.00557782,-0.00182471
0.0719568,0.234488,-0.0808445,0.00239854,0.00557734,-0.00183933
0.0681221,0.173482,-0.0634769,0.00310861,0.00551698,-0.00174208
0.0820633,0.22056900000000002,-0.0663565,0.00285473,0.00587857,-0.00180668
0.0820032,0.173203,-0.08002460000000002,0.00237575,0.0056949,-0.00195508
0.08403660000000002,0.237567,-0.0680928,0.00210643,0.00606698,-0.00196501
0.0762985,0.193175,-0.10185599999999999,0.00267914,0.0057265,-0.00184725
0.0875515,0.15547,-0.0339265,0.00250562,0.00595788,-0.00211374
0.08930439999999999,0.233877,-0.0491316,0.00186044,0.00610925,-0.00184724
0.0819451,0.147643,-0.08776119999999997,0.00288727,0.00562818,-0.00176546
0.0963437,0.199525,-0.027211900000000004,0.00226248,0.00617202,-0.00205901
0.09236110000000002,0.216725,-0.0235137,0.00230992,0.00612692,-0.00198507
0.0939449,0.24846999999999997,0.00127446,0.00193717,0.00586826,-0.00199775
0.09557570000000004,0.261129,0.00138152,0.0013562400000000005,0.00586826,-0.00184725
0.101954,0.22262800000000002,0.029169,0.00179591,0.00594345,-0.00201017
0.0944672,0.24806599999999998,0.026276799999999996,0.00152267,0.00616413,-0.00207839
0.0924685,0.245119,0.037086,0.00124659,0.00637635,-0.00218925
0.08793049999999998,0.20757899999999999,0.0556523,0.00169568,0.00628777,-0.00209286
0.0949969,0.250398,0.049708499999999996,0.00132193,0.00635118,-0.00210768
0.07995679999999998,0.219852,0.00140547,0.00173045,0.00593383,-0.00230917
0.0838883,0.19614,-0.0633355,0.00296585,0.00585705,-0.00219309
0.0879577,0.272996,-0.06321639999999999,0.00254448,0.0060137,-0.00184725
0.08791669999999999,0.195411,-0.010517499999999999,0.00238349,0.00640204,-0.00203523
0.0859336,0.271024,0.00462427,0.00207629,0.00628777,-0.00195337
0.07408669999999999,0.180492,-0.016541,0.0013884600000000006,0.00563853,-0.00184725
0.0706383,0.330102,0.0511913,0.00173218,0.00609392,-0.00184725
0.07064839999999999,0.182774,0.0497184,0.00218103,0.0063311999999999995,-0.00162864
0.08163249999999997,0.24419699999999997,0.0635012,0.0017139,0.00642868,-0.00184725
0.0781925,0.24420999999999998,0.060858,0.00180049,0.0061747,-0.00184725
0.07984339999999998,0.206058,0.0871571,0.00238029,0.00636678,-0.00184725
0.0785913,0.270951,0.0940615,0.00182324,0.0065339,-0.00173966
0.0706267,0.27819699999999997,0.06437799999999999,0.00203221,0.00617471,-0.00184725
0.0911795,0.206773,0.10951500000000002,0.00282036,0.00653393,-0.00184725
0.0955413,0.301458,0.0772877,0.00244637,0.00636478,-0.00166711
0.0955271,0.246752,0.111044,0.00270291,0.006349100000000001,-0.00170388
0.0954373,0.30190900000000004,0.101962,0.00231239,0.0065812,-0.00184725
0.0885429,0.262613,0.094359,0.00220782,0.00649448,-0.00184725
0.08498909999999997,0.262705,0.12458499999999999,0.00235536,0.00652247,-0.00228936
0.0952544,0.268953,0.12363199999999999,0.00255509,0.00679092,-0.00243882
0.09524850000000004,0.24408400000000002,0.07852399999999997,0.00220782,0.00685316,-0.00224803
0.09895269999999999,0.330178,0.12218599999999999,0.00232282,0.00702321,-0.00200525
0.09516519999999999,0.266973,0.163363,0.00283931,0.00692327,-0.00227814
0.0947863,0.352756,0.186731,0.00241799,0.007594209999999999,-0.00266803
0.09499099999999999,0.262716,0.30954499999999996,0.00334682,0.00701263,-0.00276767
0.09945119999999999,0.33388,0.282496,0.00266061,0.00682912,-0.00287126
0.105736,0.270696,0.332015,0.00336877,0.00681042,-0.00276165
0.10723800000000001,0.323277,0.34541900000000003,0.00293785,0.00721207,-0.00282007
0.112246,0.339395,0.352993,0.00298406,0.00721207,-0.00279186
0.112246,0.33675,0.352871,0.00353758,0.00721207,-0.00277554
0.09483319999999999,0.336764,0.26264899999999997,0.00361686,0.00682841,-0.00335721
0.105526,0.308051,0.170431,0.00431893,0.00619058,-0.00330301
0.09386760000000001,0.307948,0.18393800000000002,0.00390068,0.00690687,-0.00337979
0.10229500000000001,0.31545300000000004,0.252577,0.00382511,0.0071115,-0.00334552
0.1112,0.32958200000000004,0.24945900000000001,0.00396476,0.00678968,-0.00289196
0.115776,0.325832,0.29110199999999997,0.00446395,0.00678968,-0.00289196
0.117273,0.34792199999999995,0.286562,0.00430356,0.00702488,-0.00289196
0.109953,0.30048400000000003,0.27970300000000003,0.00454993,0.00711774,-0.00331632
0.112595,0.33921999999999997,0.29989099999999996,0.00412451,0.0073235,-0.00312682
0.10403299999999999,0.334443,0.306985,0.0049222,0.00699464,-0.0035277
0.100995,0.345833,0.360259,0.00505335,0.00729826,-0.00332249
0.0937447,0.373591,0.303747,0.00429978,0.00712605,-0.00349613
0.10865999999999999,0.328705,0.340238,0.0045652,0.00757242,-0.00332249
0.103302,0.457099,0.322952,0.00385857,0.007470519999999999,-0.00373281
0.102894,0.337461,0.283352,0.00411604,0.00678968,-0.00374196
0.131868,0.252326,0.338092,0.00468791,0.00700012,-0.00332249
0.12103399999999999,0.291564,0.394405,0.00507026,0.00678968,-0.00332249
0.115533,0.349146,0.439924,0.00547966,0.00678968,-0.00378847
0.11489300000000001,0.43877200000000005,0.366244,0.00501878,0.007093899999999999,-0.00402544
0.109757,0.41083100000000006,0.365096,0.00487351,0.00722291,-0.0039415
0.10965,0.388123,0.394751,0.00592247,0.00727309,-0.00417715
0.109734,0.440877,0.41458500000000004,0.00524555,0.007289529999999998,-0.00377959
0.08692379999999998,0.370257,0.32757800000000004,0.00545527,0.00639675,-0.00366405
0.0660354,0.318319,0.24006100000000002,0.00451804,0.00611026,-0.00367122
0.0715777,0.279011,0.23612600000000003,0.00511603,0.00611567,-0.00370093
0.0634595,0.295261,0.314712,0.00490757,0.006240399999999999,-0.00377959
0.0633592,0.341686,0.339976,0.00464778,0.0064158999999999996,-0.00377959
0.0555394,0.331086,0.40007,0.00518561,0.00638288,-0.00377959
0.0488264,0.362571,0.42173599999999994,0.00512761,0.00634238,-0.00377959
0.0494815,0.381941,0.37540500000000004,0.00528135,0.00637614,-0.00394692
0.0560197,0.31705,0.389529,0.00590249,0.00645214,-0.00377959
0.0536687,0.372504,0.39497600000000005,0.005418600000000001,0.00650473,-0.00401872
0.0632331,0.31964699999999996,0.375517,0.00509375,0.00668535,-0.00377959
0.0629151,0.414321,0.373598,0.00466141,0.007031399999999999,-0.00422649
0.047065800000000005,0.312161,0.356161,0.00499198,0.00657872,-0.0043076
0.05788530000000001,0.33778600000000003,0.42203599999999997,0.00474371,0.00719545,-0.0043076
0.0656953,0.400039,0.39164299999999996,0.00398553,0.00736794,-0.0043076
0.0486207,0.298601,0.41488400000000003,0.00506877,0.007260319999999998,-0.00472952
0.0568884,0.359139,0.44038299999999997,0.00416668,0.00750013,-0.00480536
0.046926499999999996,0.31516,0.404015,0.00436018,0.00640844,-0.00466138
0.053859199999999996,0.371194,0.46432299999999993,0.00469052,0.007244999999999999,-0.00442677
0.0581784,0.42228999999999994,0.44793299999999997,0.00397641,0.007447800000000001,-0.00472024
0.038989300000000005,0.377146,0.426509,0.00402204,0.00709057,-0.0048429
0.0407573,0.33256199999999997,0.48321499999999995,0.00388314,0.0074883,-0.00464519
0.0407537,0.377345,0.46206099999999994,0.00342165,0.00755093,-0.0045615000000000005
0.0407851,0.3097,0.465729,0.00368048,0.007525399999999998,-0.00439653
0.0405356,0.36750700000000003,0.48940500000000003,0.00386355,0.0079786,-0.00437826
0.049876800000000006,0.273744,0.463388,0.00336378,0.007782300000000001,-0.00384718
0.0463773,0.37161700000000003,0.513378,0.00325934,0.0082146,-0.00398519
0.044908699999999996,0.29452,0.469711,0.00288354,0.007757349999999999,-0.00391533
0.08247749999999998,0.155558,0.43125,0.00246731,0.00682727,-0.00138882
0.050912099999999995,0.15623800000000002,0.473667,0.00356677,0.00701973,-0.0023474
0.0297337,0.208954,0.5012989999999999,0.00377133,0.00750168,-0.00348103
0.026296100000000003,0.21585500000000002,0.48458100000000004,0.00393228,0.00760317,-0.0036674999999999998
0.0220076,0.194969,0.48453599999999997,0.00375554,0.00730384,-0.0036674999999999998
0.028294200000000002,0.20958600000000002,0.439695,0.00276708,0.00697432,-0.00334305
0.04257059999999999,0.161081,0.475817,0.00236844,0.00723459,-0.00291664
0.0220459,0.05616569999999999,0.383736,0.00158398,0.0079792,-0.00240366
0.00261149,0.033935900000000005,0.316688,0.00245015,0.00819893,-0.00305679
-0.0276535,0.116087,0.24460300000000001,0.00503762,0.00708885,-0.00401183
-0.0181086,0.185059,0.28028000000000003,0.00265328,0.0073825,-0.00416841
-0.0270572,0.205587,0.306066,0.00264695,0.0074896,-0.00454428
-0.0219495,0.0962744,0.309158,0.00236264,0.00753221,-0.00423114
-0.0317252,0.182701,0.36344699999999996,0.00137527,0.00814918,-0.0048743
-0.036079,0.141848,0.299029,0.00178951,0.00740162,-0.00474313
-0.024041,0.137625,0.285448,0.00119901,0.00770072,-0.00493619
-0.033588,0.120298,0.285533,0.0005675119999999999,0.00734254,-0.00520432
-0.009965570000000005,0.170414,0.335074,0.00012187600000000001,0.008261809999999998,-0.00515866
-0.00234471,0.21703499999999998,0.335177,-0.000506055,0.00828126,-0.00543403
-0.00228901,0.142861,0.305845,-0.000272536,0.00828687,-0.00512303
0.010024600000000002,0.189186,0.356743,-0.000226103,0.00828274,-0.0052058
-0.00835553,0.237209,0.331124,-0.000194667,0.00823241,-0.0052058
0.0111944,0.14203,0.298155,-8.39464e-05,0.008039549999999998,-0.0052058
0.0162803,0.19833900000000002,0.339543,-0.000234915,0.00793255,-0.0052058
0.011637,0.156307,0.252581,0.0008147929999999999,0.007652349999999999,-0.0048536000000000004
0.015005700000000002,0.23089,0.35193800000000003,-0.000141414,0.00836738,-0.0052058
0.0159362,0.169321,0.285184,0.00037624,0.00773536,-0.0051516
0.0204191,0.21534299999999998,0.340541,-0.00012571200000000002,0.00787371,-0.00544319
0.015704099999999995,0.225254,0.357182,-0.0007037889999999999,0.00828274,-0.0055317
0.029958999999999996,0.149369,0.315787,1.91504e-05,0.0076861,-0.00514866
0.0282753,0.2374,0.374019,0.000285987,0.00801363,-0.00529657
0.0211096,0.231235,0.387365,-0.000282542,0.00820391,-0.00546696
0.025312599999999998,0.212455,0.40067600000000003,-0.000322499,0.0082736,-0.0052058
0.027873099999999998,0.25101599999999996,0.48549,-0.0009991239999999999,0.007881839999999998,-0.00502388
0.016082299999999997,0.281729,0.46727299999999994,-0.00148814,0.00768295,-0.00470821
0.0159966,0.263046,0.473566,-0.00219663,0.00785382,-0.00459674
0.0127041,0.25637600000000005,0.487304,-0.00210722,0.00785487,-0.00453855
0.0109869,0.277659,0.508532,-0.00221135,0.00804913,-0.00467592
0.0101738,0.312523,0.494088,-0.00262319,0.007994809999999998,-0.00490202
0.010502899999999999,0.22157399999999997,0.40741,-0.00135108,0.0077786999999999995,-0.00507686
0.0189458,0.285478,0.42832600000000004,-0.00200329,0.00827064,-0.00547991
-0.000369943,0.248994,0.376569,-0.00130931,0.0080268,-0.00564092
0.018679400000000002,0.214664,0.407071,-0.0012043,0.00768295,-0.00551147
0.0161876,0.27484400000000003,0.400091,-0.00166716,0.00789304,-0.00575906
0.00641112,0.247292,0.363561,-0.00123246,0.00796872,-0.00578885
0.0158727,0.246452,0.42237299999999994,-0.00175296,0.008295719999999998,-0.00583342
0.0199471,0.267577,0.340924,-0.00130313,0.00801599,-0.0057728
0.012980799999999999,0.180063,0.353122,-0.00134389,0.00768295,-0.00575044
0.00178496,0.256322,0.30743400000000004,0.000136509,0.00745669,-0.00591542
0.00658852,0.200188,0.302129,-0.00108367,0.00768295,-0.0058977
0.00648985,0.266459,0.324408,-0.0014207,0.00768295,-0.00637209
0.00675453,0.182822,0.29134699999999997,-0.0007704589999999999,0.007246019999999999,-0.00583314
0.022446599999999997,0.22951999999999997,0.336873,-0.00159909,0.00806019,-0.00581531
0.0186399,0.232337,0.30244299999999996,-0.00193383,0.00792288,-0.00633168
0.0430459,0.16858099999999998,0.30033699999999997,-0.00159109,0.00768295,-0.00442288
0.10371099999999998,-0.039635500000000004,0.220323,-0.00298817,0.00632134,0.000539711
0.06769119999999999,0.00175609,0.248888,-0.00183582,0.00684713,-0.00104689
0.06790639999999999,-0.0805412,0.14408800000000002,-0.00286708,0.00543165,-0.0009683
0.09110080000000001,-0.13438699999999998,0.11404500000000001,-0.00227123,0.0046587,-0.000221972
0.09102080000000001,-0.198142,0.11382,-0.00266294,0.00426962,9.669049999999999e-05
0.10662200000000001,-0.22117399999999998,0.0909054,-0.0027706999999999996,0.00438317,0.000502504
0.11866800000000001,-0.225123,0.060842099999999996,-0.00266598,0.0040512000000000005,0.000761485
0.11813499999999999,-0.24671500000000002,-0.00826613,-0.00250433,0.00393255,0.00135152
0.11951500000000001,-0.39431900000000003,-0.0905447,-0.00251381,0.00330397,0.00251852
0.109872,-0.474131,-0.18423,-0.00288255,0.00273843,0.00339719
0.0695654,-0.263475,-0.251374,-0.00323557,0.00319151,0.00247924
0.0915046,-0.342082,-0.244917,-0.00377003,0.0029823000000000002,0.00311627
0.104269,-0.328744,-0.234659,-0.00473465,0.00257353,0.00320801
0.06872560000000001,-0.16344,-0.295042,-0.00315018,0.00231861,0.00187309
0.0471983,-0.229857,-0.180598,-0.00202598,0.002832,0.00145026
0.036761,-0.00405497,-0.0983329,-0.0021068000000000003,0.00405007,-6.82606e-05
0.030777,-0.20584299999999997,-0.182613,-0.0022129000000000003,0.00420286,-0.00037218099999999997
0.0489163,-0.043429199999999994,-0.12907000000000002,-0.00232055,0.00405007,-0.00105786
0.0491847,-0.033967000000000004,-0.0658429,-0.00241657,0.00464284,-0.0012205
0.0389507,-0.08909079999999997,-0.116389,-0.00321356,0.00443455,-0.00157725
0.0387232,0.007581949999999999,-0.0569638,-0.00312043,0.00447105,-0.00147092
0.0289598,-0.026298400000000003,-0.10418,-0.00304371,0.00404957,-0.00173414
0.037498500000000004,0.0113951,-0.13417,-0.00426847,0.00405967,-0.00227015
0.0374756,0.160655,-0.06350639999999999,-0.00528371,0.00501876,-0.00249365
0.032218000000000004,0.027059500000000004,-0.12729300000000002,-0.00447952,0.00413615,-0.00260522
0.0374722,0.101583,-0.017174099999999998,-0.00497434,0.00489288,-0.00302539
0.0333619,0.110704,-0.0254167,-0.0055088,0.00506882,-0.00311695
0.0264879,0.0127535,-0.0647187,-0.004989199999999999,0.00461942,-0.00311695
0.0417395,0.0806553,-0.0125331,-0.00503296,0.00530183,-0.00311695
0.0395509,0.04814469999999999,0.006713899999999999,-0.00406986,0.00489203,-0.00311695
0.032549400000000006,0.10631700000000001,0.023351300000000002,-0.00482633,0.00530384,-0.00347845
0.0317419,0.103399,0.0022236,-0.00407586,0.00489203,-0.0035754
0.0418105,0.110351,0.060201599999999994,-0.00439868,0.00489203,-0.0035754
0.0418105,0.12459100000000001,0.027691900000000005,-0.00466241,0.00489203,-0.0035754
0.0570048,0.126192,0.0719458,-0.00438628,0.00482221,-0.0035754
0.057813800000000005,0.156529,0.11516900000000001,-0.00436297,0.00472207,-0.00343091
0.07672799999999999,0.236958,0.182366,-0.00380884,0.00511467,-0.00372088
0.08199969999999998,0.198409,0.259355,-0.00390716,0.00477413,-0.00401141
0.07924780000000001,0.239621,0.258434,-0.00404363,0.00487377,-0.00411124
0.08272189999999999,0.210821,0.253031,-0.00413681,0.00472842,-0.00376242
0.08256430000000001,0.19737000000000002,0.267487,-0.00415646,0.0047168999999999996,-0.00384034
0.07997999999999998,0.214232,0.262577,-0.00417341,0.00458191,-0.0035754
0.08816399999999999,0.22210100000000002,0.247114,-0.00396982,0.00487393,-0.0039716000000000005
0.0803018,0.259882,0.19025,-0.00365535,0.00438948,-0.00413626
0.08873660000000001,0.166527,0.179079,-0.00359255,0.00449358,-0.0035754
0.101296,0.237146,0.232319,-0.00357617,0.00500463,-0.00395707
0.09834119999999999,0.164154,0.188554,-0.00279983,0.00451722,-0.00406389
0.14953,0.0255049,0.145974,-0.00467924,0.00441411,-0.0007244860000000001
0.131364,0.06879310000000001,0.148071,-0.00300026,0.00402602,-0.00215754
0.108896,0.0637462,0.111627,-0.00311864,0.0035415999999999998,-0.0028531999999999997
0.108322,0.19126300000000002,0.114072,-0.00235626,0.00346534,-0.00302246
0.104479,0.156502,0.115139,-0.00246098,0.00306381,-0.00320721
0.10886400000000002,0.23681100000000002,0.157048,-0.00339212,0.00350789,-0.00363524
0.0989944,0.209718,0.0965845,-0.00256457,0.00321067,-0.00377999
0.100037,0.208898,0.143294,-0.00287347,0.00350789,-0.00400252
0.104219,0.205131,0.10413,-0.00263597,0.00350789,-0.00440111
0.10653599999999999,0.193554,0.10173,-0.00305375,0.00368771,-0.00431407
0.10875599999999999,0.189104,0.0572582,-0.00313231,0.00350789,-0.00426994
0.115148,0.199209,0.08707869999999998,-0.00346239,0.00378881,-0.0043694
0.122148,0.256855,0.0860335,-0.00346239,0.00383383,-0.00426994
0.11517500000000006,0.149517,0.0266222,-0.00230496,0.00353581,-0.00426994
0.115102,0.240912,0.08012739999999999,-0.00347136,0.00353581,-0.00471886
0.12303800000000001,0.303544,0.0926712,-0.00426896,0.00396619,-0.00471887
0.1151,0.179115,0.0488855,-0.00376276,0.00372238,-0.00459491
0.10585,0.269009,0.106762,-0.00408188,0.00414374,-0.00471887
0.09551760000000001,0.257229,0.148316,-0.00414619,0.00438281,-0.004903899999999999
0.07961189999999999,0.22889400000000001,0.207198,-0.00488436,0.00445005,-0.0050198
0.08533860000000001,0.237589,0.222671,-0.00488631,0.00457855,-0.00471887
0.0988321,0.257332,0.214777,-0.00518018,0.00457855,-0.00504269
0.088615,0.257139,0.23415300000000003,-0.00535873,0.0047644,-0.00486022
0.0847877,0.246423,0.265931,-0.00491841,0.00478056,-0.00471887
0.08186439999999999,0.285912,0.248788,-0.00525393,0.00501305,-0.00471887
0.08177469999999999,0.254575,0.248808,-0.00536841,0.00525772,-0.00490779
0.08179749999999998,0.275525,0.193899,-0.00520905,0.00504317,-0.00545658
0.106494,0.255732,0.187677,-0.00494801,0.00540746,-0.00526055
0.103075,0.258883,0.167402,-0.00489446,0.00534927,-0.00518448
0.105601,0.306492,0.188836,-0.00529824,0.00571868,-0.00471887
0.09762860000000001,0.235806,0.174061,-0.00476554,0.00531799,-0.00526928
0.11141300000000001,0.24798499999999998,0.191512,-0.00463324,0.00596717,-0.00525692
0.12099700000000001,0.321842,0.190768,-0.00513246,0.00655015,-0.00545037
0.10844000000000001,0.268326,0.190889,-0.00531287,0.00568715,-0.00561595
0.121768,0.24185,0.215792,-0.00458078,0.00585733,-0.00547625
0.11807999999999999,0.323776,0.217648,-0.00515276,0.00623711,-0.00573853
0.10705,0.26896,0.155133,-0.00451448,0.005527399999999999,-0.00582492
0.128359,0.331331,0.237066,-0.00537435,0.00606404,-0.0055442
0.111511,0.323164,0.132704,-0.0048051000000000005,0.00566824,-0.00549867
0.134252,0.235848,0.187069,-0.00502408,0.00620942,-0.00515013
0.136884,0.306783,0.187177,-0.00553275,0.00634589,-0.00561682
0.12642500000000004,0.226345,0.119503,-0.00403649,0.00582807,-0.00556314
0.1317,0.302262,0.168933,-0.00509753,0.00589804,-0.00559203
0.133163,0.328955,0.17993,-0.00558825,0.00586455,-0.00567383
0.171273,0.269753,0.16104200000000002,-0.00612991,0.00612981,-0.00365632
0.208998,0.229514,0.133429,-0.00620491,0.00585303,-0.0019444000000000002
0.24307800000000002,0.051016900000000004,0.00283785,-0.00640329,0.00444519,-0.00022097599999999998
0.298202,-0.100424,-0.0691557,-0.00643079,0.00275535,0.00212661
0.308804,-0.038499599999999995,0.00258577,-0.00390131,0.00208626,0.00156219
0.298483,-0.012009100000000005,-0.00191014,-0.00218828,0.00235028,0.00059495
0.252979,-0.00446201,-0.120689,-0.00347275,0.00189498,0.000589984
0.184449,0.0973368,-0.0451169,-0.00294966,0.00263071,-0.000859313
0.177786,0.0704824,-0.0755966,-0.00301162,0.00256002,-0.00145071
0.172684,0.114123,-0.00473455,-0.00190366,0.0028845,-0.00157788
0.16625,0.113407,-0.00883794,-0.00299686,0.00310681,-0.00176044
0.18548499999999998,0.0457036,-0.055856899999999994,-0.00415159,0.00416133,-0.00176044
0.166873,-0.368962,-0.00726337,-0.0035228,0.00305297,0.00106586
0.129525,-0.539478,-0.0447926,-0.000631811,0.00310558,0.0013298
0.09668969999999999,-0.274391,0.126717,0.001232,0.00244246,-0.00125033
0.126633,-0.157497,0.26398499999999997,0.00185823,0.00254609,-0.00143975
0.07463459999999998,0.0790533,0.263102,-0.0007790619999999999,0.00490556,-0.00287519
0.040911800000000005,0.0740982,0.262957,-0.00199724,0.00478174,-0.00351246
0.09475080000000001,0.0683462,0.30938899999999997,-0.00314724,0.00508582,-0.0020741
0.08870019999999999,0.138363,0.28486100000000003,-0.00204602,0.00511567,-0.00351276
0.09751189999999998,0.170715,0.287848,-0.00263526,0.00501152,-0.00403847
0.09767730000000001,0.21564,0.280736,-0.00263933,0.00535452,-0.0048538999999999995
0.100505,0.191119,0.2829,-0.00378268,0.00528787,-0.00502793
0.122028,0.246275,0.407647,-0.00529376,0.00655547,-0.00544816
0.180227,0.10754100000000001,0.41300299999999995,-0.00466153,0.006495100000000001,-0.00355421
0.15987300000000002,0.11823,0.35179099999999996,-0.00418501,0.00583037,-0.00375024
0.11783199999999999,0.12706800000000001,0.30399299999999996,-0.004287399999999999,0.00573858,-0.00440595
0.103769,0.197757,0.405427,-0.00477966,0.00591004,-0.0043132
0.117192,0.144745,0.46060200000000007,-0.00516616,0.00665255,-0.00362947
0.12419000000000001,0.0246957,0.639374,-0.00347063,0.00705525,-0.00209293
0.133375,0.020028,0.504977,-0.0031369,0.007535339999999998,-0.00148433
0.11715900000000005,0.107254,0.425857,-0.00277428,0.00643877,-0.00238222
0.148831,0.00477578,0.38256399999999996,-0.00254208,0.00643877,-0.0008689689999999999
0.148586,-0.0763538,0.35785100000000003,-0.00208038,0.00595269,-0.00038079300000000004
0.13761099999999998,-0.108652,0.34779299999999996,-0.00301899,0.00595269,-0.000691219
0.14355199999999999,-0.1312,0.313783,-0.00281758,0.00625888,-0.0009673339999999999
0.152582,-0.08651599999999998,0.28324,-0.00248887,0.00640854,-0.000919415
0.151124,-0.0144167,0.28316399999999997,-0.00301767,0.00658311,-0.00131584
0.158089,0.0246118,0.283206,-0.00270493,0.00640053,-0.0015662
0.14052699999999999,0.042568699999999994,0.22449499999999997,-0.00535978,0.00614739,-0.00112655
0.09542010000000001,0.152223,0.24125,-0.00432826,0.00587327,-0.00262928
0.0876798,0.119626,0.30780799999999997,-0.00381839,0.00595269,-0.00350289
0.0993114,0.236749,0.369764,-0.00692727,0.00621013,-0.00343495
0.12268,0.0974161,0.32770900000000003,-0.005215600000000001,0.00644699,-0.00311999
0.146348,0.151365,0.33971399999999996,-0.00589179,0.00662606,-0.00244654
0.12901300000000002,0.13103900000000002,0.293257,-0.00592764,0.00595269,-0.00288679
0.14968199999999998,0.12088099999999999,0.318292,-0.00680324,0.00652731,-0.00233187
0.124116,0.28734,0.35343800000000003,-0.0075811,0.007558559999999998,-0.00322145
0.14124500000000004,0.119099,0.218642,-0.00646664,0.00694594,-0.00296719
0.159614,0.0570326,0.215651,-0.00543314,0.00654247,-0.00283563
0.142981,0.0661809,0.0936565,-0.0068842,0.00644324,-0.00306518
0.133166,0.193901,0.182348,-0.00676504,0.00618288,-0.00348056
0.150528,0.17955199999999996,0.0712186,-0.0060165,0.00643864,-0.00381171
0.145949,0.155953,0.0393298,-0.00614614,0.00591139,-0.00309659
0.133165,0.263615,0.115343,-0.00579482,0.00617625,-0.00348056
0.109054,0.2771,0.0372454,-0.00498988,0.00555784,-0.00462096
0.115951,0.274834,0.0470772,-0.0056975,0.00561457,-0.00458326
0.115543,0.298977,0.151507,-0.00557916,0.00624725,-0.00554462
0.106795,0.266732,0.0908187,-0.0057942,0.0054916,-0.00572432
0.117855,0.294064,0.0919793,-0.00529406,0.00616194,-0.00592796
0.0947045,0.258876,0.11144100000000001,-0.00516683,0.00600756,-0.00621949
0.123524,0.250799,0.193921,-0.006273699999999999,0.00652218,-0.00522007
0.13490700000000005,0.17593599999999998,0.198758,-0.00556948,0.0060397,-0.00358115
0.104154,0.327926,0.226727,-0.00535439,0.00537782,-0.0041181
0.101872,0.31879,0.241298,-0.00585549,0.00552699,-0.00411809
0.08986779999999997,0.335271,0.263117,-0.00585549,0.00557093,-0.00397304
0.0867416,0.319132,0.329324,-0.00524621,0.0060882,-0.0041181
0.12589800000000004,0.22874299999999997,0.670948,-0.00574549,0.00765576,-0.00303387
0.0947814,0.166915,0.525081,-0.00576111,0.00704203,-0.00224892
0.0675911,0.154401,0.389579,-0.00462313,0.00635892,-0.00191387
0.0316334,0.228944,0.23887399999999998,-0.00333996,0.00585509,-0.00282724
0.013822799999999998,0.17410699999999998,0.169559,-0.00147939,0.0052382,-0.0042818000000000005
0.020263200000000002,0.32522199999999996,0.184748,-0.00157509,0.00599217,-0.00494694
0.0135229,0.224937,0.19324000000000002,-0.00227841,0.00589166,-0.00494694
0.0500587,0.24713600000000002,0.22089899999999998,-0.00375644,0.00671176,-0.00426132
0.06798810000000001,0.250931,0.282873,-0.00295955,0.00750164,-0.00494694
0.05349740000000001,0.133089,0.0795942,-0.00136027,0.00651807,-0.00494694
0.0553842,0.260569,0.08853579999999997,-0.00246432,0.00654871,-0.00480873
0.0494529,0.202763,0.062414,-0.00197676,0.00607597,-0.0050466
0.05965790000000001,0.297229,0.1325,-0.00175711,0.00611226,-0.00534996
0.0681652,0.342884,0.171623,-0.00295839,0.00673457,-0.00542404
0.10909200000000001,0.20878899999999997,0.11011199999999999,-0.00343055,0.00625046,-0.00434756
0.126556,0.17724899999999996,0.104593,-0.00322949,0.00567363,-0.00295921
0.118253,0.196687,0.09753930000000001,-0.00243692,0.00522458,-0.00325878
0.09562250000000004,0.175808,0.0289124,-0.00175189,0.00417121,-0.00342826
0.10492,0.24278899999999998,0.048844599999999995,-0.00313589,0.00431721,-0.00310753
0.0834314,0.16381300000000001,0.0007709819999999999,-0.00217641,0.00366702,-0.00342827
0.0852866,0.297336,0.0804031,-0.00333211,0.00413723,-0.00317338
0.0923688,0.163384,0.00850303,-0.00224013,0.00422022,-0.00329795
0.0916482,0.223138,0.048086699999999996,-0.00254811,0.00422022,-0.00388485
0.06738710000000002,0.351817,0.113516,-0.00130058,0.00451288,-0.00523636
0.061746,0.30192199999999997,0.0975272,-0.00142975,0.004838800000000001,-0.00565797
0.0689055,0.313384,0.050713699999999994,-0.00159594,0.00474914,-0.0046882
