-0.00197633,0.0332944,-0.008775919999999998,-8.178640000000001e-05,8.84427e-05,-8.27181e-25
0.00741943,0.011412100000000001,-0.0391963,0.00112038,-7.42668e-05,-0.00010373700000000004
0.0197227,0.00817734,0.00494088,0.000465372,-0.000635195,0.000250772
0.0111008,0.0335144,0.0229457,-3.667e-05,-0.00032984,0.000414198
0.017125999999999995,0.06238,0.020133900000000003,-0.00043563099999999996,-0.0005551309999999999,0.0004947469999999999
0.00554325,0.008181239999999998,0.0311118,-0.000268454,-0.000575882,7.19561e-05
0.008125499999999999,0.0507176,0.016575200000000002,-0.0008525989999999999,-0.000248004,0.0
0.0204014,0.0271986,0.031052499999999997,-0.0008691299999999998,-0.0007623289999999997,0.000175206
0.0130311,0.044226,0.0548716,-0.0013434400000000006,-0.000587537,0.000448628
0.035533499999999996,0.024993599999999998,0.00708226,-0.00134266,-0.0007623289999999997,0.0006063980000000001
0.028504200000000004,0.0200799,0.028912599999999997,-0.00108294,-0.0007623289999999997,0.000676842
0.034792800000000006,0.0109347,-0.00388039,-0.00139352,-0.00135043,0.00068918
0.0203611,0.010975,0.018886299999999998,-0.00117544,-0.000957575,0.000421608
0.0284443,0.048929,-0.00762112,-0.00213876,-0.000699857,0.000639066
0.020318,-0.00513817,0.00165086,-0.00193404,-0.000676892,0.000624735
0.022778299999999998,0.0401358,0.0162303,-0.00226656,-0.000525858,0.000454453
0.0342174,0.000327751,-0.031620499999999996,-0.00202298,-0.000392582,0.000559395
0.0187697,-0.009183630000000002,-0.022744900000000002,-0.00231315,-0.000525858,0.000434404
0.0259429,0.0147086,-0.00284261,-0.00186535,-0.000189746,0.0
0.037796699999999996,-0.040265800000000004,-0.0222104,-0.00152835,-0.000360097,0.00034203
0.0154704,0.052395800000000006,0.0314481,-0.0019718,-0.000231135,0.00010659100000000001
0.0294676,-0.013568299999999998,-0.034231,-0.00103897,-0.000712956,0.000267259
0.0215227,0.027646499999999997,0.0241071,-0.00212776,-0.000648711,0.000419861
0.0221342,-0.00841876,0.00759082,-0.00211822,-0.000419165,0.00041044300000000003
0.0182768,-0.00519485,-0.00535019,-0.00247686,-0.000419165,0.000293224
0.0139965,0.020649599999999997,-0.00428631,-0.0024222,-0.000419165,0.000355193
0.025814099999999996,0.00447129,0.0149387,-0.00235333,-0.000307515,0.000238914
0.0285,-0.00186008,0.00754492,-0.00251695,-0.00028834900000000003,0.00028501
0.0204658,0.0346089,0.0168785,-0.00263525,-0.000205627,0.000399585
0.014156899999999998,-0.008518009999999998,0.0366635,-0.00263888,-0.000112281,0.000299442
0.0232907,0.0125021,0.020288099999999996,-0.00248775,3.74214e-05,0.000164629
0.0350361,-0.00859824,-0.0298363,-0.00103357,-0.00016485,0.0
0.0278496,0.051000800000000006,0.00503308,-0.00182227,-0.00010133299999999999,0.0
0.0350582,0.0295709,-0.000751452,-0.00196203,-0.000142165,9.70167e-05
0.0350318,-0.0262538,0.0005762359999999999,-0.00169419,-0.00036958900000000003,0.0
0.0276573,0.0637078,-0.00202964,-0.0014392500000000006,-0.000348183,0.00021940299999999999
0.0390921,-0.00367415,0.022231599999999997,-0.000984537,-5.4729700000000006e-05,0.0
0.026717,0.105404,0.0281959,-0.00145927,-0.00010449100000000004,0.0
0.029685800000000002,0.023596900000000004,0.008817399999999998,-0.00148706,7.258829999999997e-05,0.00017592200000000001
0.0166836,-0.0203715,0.028187900000000002,-0.00147532,0.000102151,0.0
0.031764999999999995,0.046523699999999994,0.0538327,-0.00183856,-1.2544300000000001e-05,0.000360681
0.040958800000000004,0.0114566,0.042181800000000005,-0.00210354,0.00032806,0.000376298
0.028299599999999998,0.119314,0.082358,-0.00198762,-0.00010874100000000001,0.0006570219999999999
0.0372291,0.016635299999999995,0.061606799999999996,-0.00194741,-0.00024792200000000003,0.000483556
0.0257642,0.0471892,0.0660883,-0.00228925,-0.00018287299999999998,0.0005302130000000001
0.0380907,0.0723585,0.0680326,-0.00228925,-0.000132936,0.000561615
0.0328261,-0.008594599999999999,0.0809415,-0.00237204,-0.000503115,0.000229175
0.0295177,0.0622945,0.0786743,-0.00216818,-2.41635e-05,0.000231105
0.0381094,0.0651843,0.08100359999999998,-0.00233799,1.93241e-05,0.000414046
0.040664599999999995,0.021531400000000003,0.0991285,-0.00236997,1.08589e-05,0.0006015819999999999
0.041523199999999996,0.0440889,0.0943263,-0.00189886,-3.1924299999999995e-05,0.000662678
0.0315284,0.0328525,0.06662489999999999,-0.00216479,-0.00040078900000000003,0.000598452
0.03418,0.03905209999999999,0.0583692,-0.00254433,-0.00021624,0.000786005
0.0326776,0.0689045,0.0809508,-0.00250456,-0.000385541,0.0008050839999999999
0.0238528,0.057312699999999994,0.07462680000000001,-0.00280045,-0.000383405,0.0007643459999999997
0.024425799999999998,0.05504780000000001,0.0748765,-0.00307112,-0.000452794,0.000953815
0.0235227,0.055092999999999996,0.07893960000000001,-0.00275803,-0.000359751,0.0006708339999999999
0.0279517,0.017628399999999995,0.08092639999999998,-0.00231276,-0.0008406039999999999,0.000839529
0.0371147,0.0778703,0.08728089999999998,-0.00280128,-0.00073941,0.0008861309999999999
0.0370654,0.0244574,0.10335599999999999,-0.00299708,-0.000739411,0.00113076
0.0371277,0.07859239999999999,0.106648,-0.00282158,-0.000739411,0.00101185
0.022617599999999998,0.054758900000000006,0.106877,-0.00229549,-0.00131691,0.000533238
0.012171800000000005,0.13266,0.106984,-0.00270571,-0.00116595,0.000504565
0.025592900000000002,0.07628799999999998,0.101898,-0.00247813,-0.00120437,0.0008026329999999998
0.032788,0.00360608,0.100922,-0.00287878,-0.00114932,0.0009712260000000001
0.0261203,0.08238480000000001,0.130226,-0.00289986,-0.00121812,0.0011821
0.0245237,0.0177241,0.128185,-0.00260157,-0.00131691,0.000807575
0.0385087,0.079195,0.131,-0.00251504,-0.00131691,0.0007704910000000001
0.038510699999999995,0.0648662,0.130986,-0.00269234,-0.00153692,0.00104145
0.035261400000000005,0.113203,0.139869,-0.00282182,-0.0017385999999999999,0.00117157
0.0385758,0.07909429999999999,0.174611,-0.00254438,-0.00157488,0.00123032
0.0385163,0.15784600000000001,0.19515,-0.0031049,-0.00131691,0.00117157
0.0470809,0.0810747,0.17469200000000001,-0.00301817,-0.00131691,0.00117157
0.054600800000000005,0.0331689,0.184024,-0.00276291,-0.00131691,0.00117157
0.0460392,0.126778,0.20139,-0.00343027,-0.00131691,0.00117157
0.054600800000000005,0.0606753,0.21825100000000003,-0.00267666,-0.00131691,0.00117157
0.040977,0.0247271,0.182395,-0.00198549,-0.000875441,0.0007122389999999999
0.0464223,0.13418600000000006,0.201753,-0.00256302,-0.00116569,0.000785068
0.0524146,0.0668871,0.168724,-0.00240333,-0.000744532,0.0007122389999999999
0.045404,0.145209,0.207919,-0.00294418,-0.000604974,0.0007122389999999999
0.0426816,0.113245,0.193686,-0.00255395,-0.000643899,0.000648424
0.0426346,0.06341810000000002,0.20113499999999998,-0.00281883,-0.000443065,0.00045603099999999997
0.042571,0.0530461,0.185806,-0.00343677,-0.00019487400000000002,0.00051464
0.0480504,0.122324,0.18246400000000002,-0.00182844,-0.000526539,0.000376861
0.0514877,0.07450289999999997,0.19017,-0.00212661,-0.00060127,0.000487219
0.053079999999999995,0.132441,0.183425,-0.00236059,-0.000524674,0.000312004
0.0403036,0.11591099999999999,0.17918399999999998,-0.00236059,-0.00044453300000000005,0.000312004
0.0429608,0.0922707,0.17918,-0.00228031,-0.00042310199999999996,0.000312004
0.0411161,0.09815800000000001,0.19184,-0.00265725,-0.000499753,0.000312004
0.0400871,0.12347000000000001,0.19575599999999999,-0.00278253,-0.000342134,0.000116074
0.0573526,0.0984439,0.224425,-0.00179002,-0.000526958,6.13996e-05
0.0475557,0.07891569999999999,0.184091,-0.00186701,-0.00095604,0.000121239
0.052933100000000004,0.1324,0.182133,-0.00148176,-0.00119307,0.000312004
0.0446259,0.102671,0.199214,-0.00199369,-0.000764534,0.000169972
0.039303500000000005,0.164095,0.177954,-0.00251607,-0.000662642,0.000455021
0.054867,0.037041000000000004,0.177458,-0.00197086,-0.000777129,0.0005053519999999999
0.045831800000000006,0.12045299999999999,0.20651999999999998,-0.00254505,-0.0006387259999999999,0.000656747
0.0580743,0.06474770000000002,0.187974,-0.00219078,-0.000691557,0.000312004
0.056520400000000005,0.106722,0.187996,-0.00212126,-0.000567452,0.00017674299999999998
0.0653403,0.137219,0.214959,-0.00249097,-0.00054251,0.000456965
0.0519038,0.09225,0.2311,-0.0024066999999999995,-0.000635059,0.000312004
0.0408603,0.17840799999999998,0.246486,-0.00295915,-0.0007473489999999999,0.000312004
0.0608044,0.0989914,0.20644400000000002,-0.00271795,-0.000739422,0.000312004
0.0517654,0.0587038,0.195453,-0.00286729,-0.000659163,0.000118605
0.0607455,0.154504,0.198913,-0.00314,-0.000543823,0.000230904
0.0586675,0.08680509999999997,0.190117,-0.0025479,-0.000576515,-1.7001300000000003e-05
0.0607625,0.0273673,0.16917000000000001,-0.00179764,-0.000640576,-0.000105277
0.056152999999999995,0.116916,0.194411,-0.00268252,-0.000629801,1.76211e-05
0.0559031,0.103049,0.20133800000000002,-0.0020849,-0.000865442,3.36541e-05
0.05581900000000001,0.12517600000000004,0.20441900000000002,-0.00268252,-0.0005308930000000001,6.262540000000002e-05
0.055913,0.106575,0.170441,-0.00153631,-0.000865442,0.000131881
0.06834019999999999,0.158905,0.176404,-0.00216908,-0.00033484199999999996,-0.000105277
0.068186,0.0840995,0.144316,-0.00111909,-0.000539678,-0.000105277
0.0743987,0.0851672,0.204652,-0.00235305,-0.000128878,-0.000105277
0.059862,0.091676,0.22615100000000002,-0.00273973,-9.373649999999999e-05,-0.000105277
0.0466344,0.141016,0.242725,-0.00265208,-3.61468e-05,-0.000105277
0.0499538,0.125,0.229537,-0.00300534,0.000221221,-0.000212615
0.05743480000000001,0.0982527,0.233161,-0.00304774,0.00022280799999999999,-0.00041179300000000003
0.051329099999999996,0.140561,0.23316199999999998,-0.00350634,0.000218907,-0.000496712
0.057442200000000006,0.11109100000000001,0.21773800000000001,-0.00320773,0.000157452,-0.000566995
0.08135919999999999,0.111381,0.234219,-0.00212424,0.000201322,-0.0001322
0.08461649999999997,0.09184099999999999,0.224584,-0.00222123,0.00036321300000000003,-0.000566995
0.07525479999999997,0.08477279999999998,0.163206,-0.00186345,0.000359905,-0.00042492
0.06702639999999999,0.10598800000000001,0.176154,-0.00292972,0.000131817,-0.000382364
0.0669924,0.139904,0.22346100000000002,-0.00298151,0.000248443,-0.00022668400000000003
0.08517969999999997,0.06447040000000001,0.251629,-0.00244907,-0.000277109,-8.7026e-05
0.07429019999999999,0.106553,0.24862399999999998,-0.00298151,1.30674e-05,5.3925e-05
0.0953793,0.0618734,0.262544,-0.00346475,1.30674e-05,0.00026411
0.08403979999999997,0.0689076,0.22122600000000003,-0.0031181,1.30674e-05,0.000283561
0.07711279999999998,0.130026,0.217191,-0.0039254,1.30674e-05,0.00017073700000000002
0.083481,0.08587280000000001,0.19858900000000002,-0.00346564,1.30674e-05,0.00044269199999999996
0.0831341,0.118843,0.220428,-0.00398414,0.00013508200000000002,0.000255709
0.10082999999999999,0.0637865,0.200206,-0.00372194,0.000409627,0.000181853
0.0650875,0.017638099999999997,0.0906385,-0.00323836,0.000273526,-0.000566995
0.05915890000000001,0.113225,0.120045,-0.00401435,-0.000437424,-0.000178728
0.0630886,0.028505400000000004,0.12474600000000001,-0.00348128,-0.000146704,-0.000260812
0.0679987,0.0732883,0.108027,-0.00338738,-6.27576e-05,-0.000118652
0.0679872,0.038586800000000004,0.155504,-0.00377007,-0.000174109,0.00010036100000000001
0.067986,0.0685334,0.162313,-0.00424674,7.409839999999998e-05,-0.000164256
0.0680188,0.0330794,0.13740500000000005,-0.00377408,-4.795350000000001e-06,-0.000114085
0.0679396,0.00931922,0.0897974,-0.00345435,0.000200268,-2.6338800000000003e-05
0.06793210000000001,0.0126704,0.0977722,-0.00372275,0.000428035,1.3655899999999999e-05
0.06795060000000001,0.06659889999999999,0.0820737,-0.00404707,0.00035391199999999995,-0.000566995
0.0679682,0.06661460000000001,0.0906248,-0.00380368,0.00030696200000000003,-0.000437599
0.0680245,0.0600053,0.11197599999999999,-0.003994,-1.1798e-05,-0.00036925699999999995
0.06795549999999999,0.105352,0.11830299999999999,-0.00409313,0.000402025,-0.000566995
0.0679152,0.0665147,0.128338,-0.00455046,0.00061887,-0.000566995
0.0701808,0.044581300000000004,0.13686500000000001,-0.00455046,0.00033565099999999996,-0.000901247
0.0679294,0.06648689999999999,0.12390599999999999,-0.00493252,0.000506364,-0.000977996
0.067953,0.025115900000000004,0.132247,-0.00385765,0.000397844,-0.000977996
0.0803373,0.0373371,0.157317,-0.00397085,9.908930000000001e-05,-0.000977996
0.07647360000000002,0.0348313,0.17835399999999998,-0.00408971,0.000160481,-0.00109943
0.07778319999999997,0.07782039999999997,0.142853,-0.00411574,0.000400959,-0.000977996
0.06644589999999999,0.030786599999999997,0.18253699999999998,-0.00429452,0.000506364,-0.000977996
0.06644589999999999,0.11177100000000001,0.190166,-0.00450344,0.000506364,-0.000977996
0.0844931,0.0244334,0.18399100000000002,-0.00400269,-3.35079e-05,-0.000977996
0.0843855,0.0745466,0.19771,-0.004384399999999999,0.000506364,-0.000977996
0.07588389999999999,0.09546929999999999,0.191048,-0.00472652,0.000336075,-0.000977996
0.08448759999999997,0.0318738,0.181357,-0.00421216,2.69648e-05,-0.000977996
0.0843575,0.00343424,0.17421099999999998,-0.00354446,0.000569546,-0.000977996
0.0843555,0.042649400000000004,0.137071,-0.00408354,0.000540236,-0.000977996
0.0842378,0.06569,0.151377,-0.00372874,0.00102074,-0.00108994
0.08227539999999998,0.106047,0.18623800000000001,-0.00370142,0.000613294,-0.0007920669999999999
0.07921569999999999,0.08402619999999998,0.21361599999999997,-0.00408354,0.00104913,-0.0009110030000000001
0.08428939999999999,0.12281099999999999,0.22589,-0.00434542,0.000812861,-0.000977996
0.0842784,0.0406419,0.23061399999999999,-0.00388449,0.00084083,-0.000853605
0.08429219999999997,0.097604,0.217677,-0.00412327,0.000825179,-0.0008061369999999997
0.08424249999999997,0.036317800000000004,0.187112,-0.00355166,0.000999729,-0.000977996
0.0732675,0.0889733,0.171034,-0.00343111,0.00110929,-0.000977996
0.08431319999999999,0.07939299999999999,0.187095,-0.00334522,0.000708752,-0.000599301
0.077226,0.045630800000000006,0.194321,-0.00329258,0.00104238,-0.0006640760000000001
0.0650418,0.06460050000000002,0.21343,-0.00367238,0.00106029,-0.000977996
0.0566857,0.125614,0.241225,-0.00413184,0.000908625,-0.00123524
0.06467060000000001,0.11652100000000006,0.249297,-0.00420527,0.00104231,-0.0012719500000000006
0.0693287,0.0916475,0.257861,-0.00385836,0.00104231,-0.00112527
0.080988,0.10943599999999999,0.24436999999999998,-0.00422519,0.00104231,-0.000977996
0.0810695,0.11861300000000001,0.268079,-0.00442489,0.000825608,-0.000854446
0.0948692,0.07155560000000001,0.274002,-0.00449354,0.0009892030000000001,-0.000977996
0.103701,0.122829,0.282069,-0.00479121,0.000878752,-0.000977996
0.10604000000000001,0.08192109999999997,0.253211,-0.0035183999999999997,0.00094566,-0.000977997
0.09863889999999999,0.0943108,0.22999,-0.00382587,0.0009389460000000001,-0.00116848
0.09387410000000002,0.090994,0.234434,-0.00391042,0.00104111,-0.0013110900000000006
0.08663639999999999,0.041598,0.185726,-0.00324938,0.0007819239999999999,-0.00122314
0.08659639999999999,0.08022439999999999,0.224475,-0.00303464,0.0008656659999999999,-0.00113659
0.104726,0.061243200000000005,0.224492,-0.00346441,0.00126975,-0.00106789
0.104742,0.11794600000000001,0.248575,-0.0037371,0.00120411,-0.000977996
0.104691,0.0982517,0.196892,-0.00351569,0.00125107,-0.0006503069999999999
0.0847335,0.0111745,0.217011,-0.00324025,0.0010385,-0.0010557000000000001
0.09043,0.119564,0.234395,-0.00405782,0.0010385,-0.000877982
0.0956715,0.06410419999999999,0.219005,-0.00398616,0.000455445,-0.000897786
0.08772979999999997,0.0639883,0.22115900000000002,-0.00434009,0.0007630249999999999,-0.0008759129999999998
0.08686789999999997,0.08402189999999997,0.23989699999999997,-0.00434009,0.000648793,-0.000977996
0.0884596,0.0794861,0.21609899999999999,-0.004251,0.00045190599999999997,-0.000977996
0.0812933,0.0515638,0.202824,-0.00461717,0.000606518,-0.0011076800000000002
0.08570479999999997,0.054307299999999996,0.164657,-0.00378649,0.000591257,-0.000977996
0.0810696,0.03113,0.15697,-0.00402924,0.00040312800000000005,-0.000977996
0.086375,0.0599104,0.1606,-0.00381181,0.000574904,-0.0008676939999999999
0.0882197,0.00752983,0.16531400000000002,-0.00378933,0.000639611,-0.000977996
0.0717233,0.103942,0.190169,-0.00439551,0.000886948,-0.00140615
0.100614,0.0346115,0.129915,-0.00344357,0.00097861,-0.00113658
0.0805386,0.0607687,0.18822,-0.00388646,0.0006773539999999999,-0.00112039
0.08061239999999999,0.0680814,0.20534499999999997,-0.00434742,0.00043782,-0.000987656
0.08368760000000001,0.0488686,0.19977,-0.00481128,0.000610712,-0.00110923
0.0846989,0.106242,0.199863,-0.00532813,0.000520666,-0.00110954
0.08561839999999997,0.058640599999999994,0.21175700000000003,-0.00527147,0.000299906,-0.0012050999999999997
0.08511359999999997,0.037076599999999994,0.18848099999999998,-0.00547501,0.000295602,-0.00140615
0.0729073,0.0915586,0.19463699999999998,-0.00551556,0.000496924,-0.00140615
0.0821468,0.042662900000000004,0.21178699999999998,-0.00564962,0.000512311,-0.00130859
0.08930159999999998,0.0635307,0.22500799999999999,-0.00588,0.000555932,-0.00125518
0.100052,0.0666607,0.257569,-0.00486792,0.00055294,-0.00107839
0.0894313,0.0596534,0.240157,-0.00474533,0.000309664,-0.00140615
0.0900712,0.112642,0.21473899999999999,-0.00505815,0.00019807400000000001,-0.00140615
0.0869618,0.060714699999999996,0.241792,-0.0049718,0.000314094,-0.00140615
0.08107559999999997,0.106143,0.24498699999999998,-0.0051966,0.00056631,-0.00140615
0.0901455,0.0311087,0.244498,-0.00521016,0.000231085,-0.00133905
0.101892,0.0359658,0.259942,-0.00490941,0.000343775,-0.00140615
0.101774,0.07503129999999998,0.211548,-0.00542757,0.000807069,-0.00140615
0.0958255,0.100194,0.211585,-0.00550582,0.0009053910000000001,-0.00140615
0.101855,0.0904495,0.233479,-0.00492145,0.000851478,-0.00140615
0.101845,0.0524726,0.301702,-0.00541467,0.0009270319999999999,-0.00140615
0.101745,0.12487899999999999,0.284977,-0.00600039,0.00114421,-0.0012663
0.0967503,0.11258199999999999,0.251051,-0.00596557,0.0005039819999999999,-0.00124715
0.101908,-0.00169629,0.262866,-0.00497185,0.000519191,-0.00140615
0.0952738,0.07185510000000002,0.244668,-0.00483826,0.0007269069999999999,-0.0012125800000000006
0.0826241,0.06677489999999998,0.20879499999999998,-0.00474357,0.000607634,-0.00140615
0.0825695,0.08008139999999997,0.22015700000000002,-0.00494538,0.0008341359999999998,-0.00140615
0.0824672,0.0857049,0.22957600000000003,-0.00489193,0.0011597100000000006,-0.00140615
0.08238229999999999,0.12774100000000002,0.24948499999999998,-0.00517118,0.00138686,-0.00140615
0.0988996,0.0554381,0.266111,-0.00525477,0.00116193,-0.00124912
0.095178,0.0603327,0.248088,-0.00574828,0.00123076,-0.00120517
0.09928010000000001,0.0650768,0.288808,-0.0059246,0.0010205,-0.00126252
0.0931579,0.101267,0.280119,-0.00593595,0.00094591,-0.00154439
0.09447180000000001,0.0669544,0.2647,-0.00591937,0.00119069,-0.00140615
0.09482439999999999,0.0660942,0.289493,-0.00575799,0.0012448400000000005,-0.00167133
0.0844603,0.115282,0.315542,-0.00584372,0.00123325,-0.00140615
0.0912818,0.0699268,0.339317,-0.00661092,0.0014037600000000006,-0.00153646
0.09473,0.123271,0.33501,-0.00681144,0.0013923500000000005,-0.00140615
0.087879,0.07766089999999999,0.33150300000000005,-0.00652806,0.00136585,-0.00145695
0.08366060000000002,0.0957664,0.31942600000000004,-0.00556508,0.00123483,-0.0016298999999999999
0.08362899999999998,0.0566697,0.293498,-0.00489123,0.000795803,-0.0012845
0.07798109999999997,0.08383459999999998,0.312724,-0.005425,0.000565275,-0.0009289119999999999
0.0981319,0.041786699999999996,0.315879,-0.004894,-0.000117308,-0.0007167460000000001
0.0954699,0.08477809999999998,0.315904,-0.00577192,0.000696648,-0.0008299069999999997
0.09576160000000002,0.0405429,0.287995,-0.00516373,-7.33949e-05,-0.000289683
0.10595399999999999,0.0402005,0.34666399999999997,-0.00597703,0.00019071599999999998,-0.000289683
0.101971,0.11096800000000001,0.33243,-0.00598358,0.00046854300000000003,-0.000289683
0.11858900000000001,0.0299128,0.31254899999999997,-0.00539599,0.000154392,-1.6497399999999996e-05
0.103153,0.0440634,0.325858,-0.00558108,0.000474415,-3.022e-05
0.09944770000000004,0.09900189999999999,0.314189,-0.00632846,0.000412835,-2.50366e-05
0.10497100000000001,0.0678021,0.292525,-0.00549196,-0.000115639,0.000131533
0.104459,0.08263919999999997,0.24720799999999998,-0.00564965,3.43058e-05,0.000151817
0.114271,-0.000274996,0.236483,-0.00593896,-0.00044050000000000003,0.00039797199999999996
0.10984000000000001,-0.008007139999999998,0.24722399999999997,-0.00560609,0.000252554,0.000262948
0.105983,0.0471602,0.201322,-0.00505273,-0.000181169,0.000129271
0.09273880000000001,0.015134,0.176767,-0.00587389,-0.00017737299999999998,-0.000289684
0.106975,-0.0066423,0.193906,-0.00641591,-0.00017737299999999998,1.7195399999999998e-05
0.108833,-0.022093900000000003,0.185505,-0.0065033999999999995,-0.00023324900000000002,4.6561000000000004e-05
0.10281400000000002,0.0401726,0.220771,-0.00740169,-0.000334198,-0.000115599
0.11713299999999999,-0.015795,0.205413,-0.00666047,-0.000390525,0.00037966800000000005
0.101302,-0.017669299999999995,0.173048,-0.00636717,3.6101599999999995e-06,8.046609999999999e-05
0.0911773,-0.0232709,0.177093,-0.00645578,-0.000549385,-0.000289684
0.09117360000000001,0.00455098,0.153516,-0.00630969,-0.000549385,-0.00019585299999999998
0.0992898,-0.033868,0.146108,-0.006651300000000001,-0.000111676,-0.000401455
0.09504270000000001,-0.032931800000000004,0.152436,-0.007369279999999998,-0.000111676,-0.000522049
0.0846496,-0.012804399999999999,0.169208,-0.00820933,-0.000111676,-0.0005395069999999999
0.09011849999999999,-0.0283935,0.196653,-0.008648869999999998,-8.83162e-06,-0.000655668
0.08661369999999999,-0.0308368,0.19952899999999998,-0.00906244,-2.4285999999999998e-05,-0.000728273
0.08061169999999998,-0.0295305,0.197326,-0.00883451,-0.000309347,-0.0007240660000000001
0.0867643,-0.031152499999999996,0.207717,-0.00733714,-0.000451316,-0.000590384
0.07320739999999999,-0.06866019999999999,0.20785399999999998,-0.00648446,-0.000789175,-0.000859575
0.07991579999999998,0.012541900000000005,0.191548,-0.00665518,-0.0007919049999999998,-0.000289684
0.0799425,-0.0497082,0.18176900000000001,-0.00670502,-0.000836928,-0.000289684
0.0798547,0.012777600000000002,0.180646,-0.00695228,-0.000622035,-7.13241e-05
0.0924681,-0.029722500000000002,0.20970999999999998,-0.00626403,-0.0007455489999999998,-1.07298e-05
0.0957749,0.0101669,0.236537,-0.00696127,-0.000552001,0.000200447
0.0986327,-0.031973,0.231469,-0.00630619,-0.00043979800000000003,0.000104669
0.09876360000000001,-0.00249567,0.23395300000000002,-0.00653513,-0.0008405869999999997,0.000200765
0.0885192,0.051228499999999996,0.25841,-0.00630619,-0.0009228210000000002,0.000301962
0.09431089999999999,-0.04145069999999999,0.256024,-0.00637271,-0.0010138800000000002,0.000444876
0.0885219,0.0176978,0.269854,-0.007253929999999999,-0.0010391100000000002,0.000472066
0.10279400000000001,-0.0012913,0.255763,-0.00655472,-0.000565231,0.000341208
0.08912250000000001,-0.0241535,0.24622199999999997,-0.00642777,-0.00113147,-9.043580000000001e-06
0.10625899999999999,-0.0127929,0.21906399999999998,-0.00547991,-0.00107776,-0.000289684
0.09220969999999999,-0.00542324,0.208275,-0.00563193,-0.000886649,-0.000289684
0.07960069999999997,0.059153599999999994,0.23855,-0.0061365000000000005,-0.00147043,-0.000133798
0.101094,0.0488227,0.25654,-0.00674689,-0.0012503,-0.000289684
0.0988505,-0.0351568,0.261849,-0.00688175,-0.00138258,-0.000231143
0.101712,0.0496166,0.265201,-0.00679285,-0.00098844,-0.000289684
0.105565,-0.0379442,0.233904,-0.00593173,-0.00149854,-0.000289685
0.09960980000000001,-0.022519400000000002,0.23959499999999997,-0.00625858,-0.00149854,-0.000289685
0.09952780000000004,0.0354279,0.23485100000000003,-0.0067773,-0.0012907900000000006,-0.000289685
0.0940568,0.030500599999999996,0.256339,-0.00748515,-0.0007066269999999999,-0.000513688
0.0992787,0.0221332,0.28936,-0.00731486,-0.000674436,-0.000716737
0.099256,0.08252369999999999,0.306079,-0.00740678,-0.000573065,-0.0009143619999999999
0.092731,0.0157961,0.289461,-0.00727196,-0.000291429,-0.00102539
0.0992557,0.0059627,0.2845,-0.00741461,-0.00050956,-0.00110302
0.09018939999999999,0.027946199999999997,0.28941500000000003,-0.00751035,-0.00048187800000000004,-0.00115337
0.09070399999999999,-0.0064513999999999995,0.28941100000000003,-0.007244499999999999,-0.0007084869999999999,-0.00116413
0.097259,0.000879384,0.276704,-0.00685695,-0.00102688,-0.00104123
0.097287,0.0168431,0.271889,-0.00608801,-0.00105346,-0.00116015
0.0915399,0.0107389,0.23178,-0.0056308,-0.0013681600000000006,-0.000742936
0.08197769999999999,0.044474099999999996,0.241772,-0.00665646,-0.0010192,-0.00104423
0.0934475,0.00460433,0.212325,-0.00659997,-0.00116382,-0.0007429369999999999
0.0775682,0.07574810000000001,0.245464,-0.00706333,-0.000792396,-0.0008922410000000001
0.0727237,0.0711414,0.264019,-0.00664115,-0.0009737210000000001,-0.00100807
0.0935015,-0.0330348,0.242456,-0.00583138,-0.00135054,-0.000635795
0.08243889999999998,0.0106235,0.257031,-0.00496453,-0.00143613,-0.0007429369999999999
0.0850852,0.07770019999999997,0.27572800000000003,-0.005715100000000001,-0.00163429,-0.000592102
0.0892477,0.014516299999999998,0.318202,-0.00561554,-0.00139066,-0.000435141
0.09346900000000001,0.0715107,0.305282,-0.00562411,-0.00128182,-0.000483146
0.10430299999999999,0.0288197,0.312929,-0.00613203,-0.000809603,-0.0005008419999999999
0.0941972,0.10828399999999999,0.291976,-0.00644237,-0.00111076,-0.000583421
0.095572,0.0250622,0.336584,-0.00628235,-0.00128182,-0.0007429369999999999
0.08053719999999999,0.0499839,0.36395500000000003,-0.006572800000000001,-0.00128182,-0.000803223
0.07745929999999998,0.11226900000000001,0.397836,-0.0061524,-0.00140999,-0.00036134599999999997
0.064584,0.018525599999999996,0.385867,-0.00621457,-0.00143271,-0.00020888299999999999
0.0558317,0.105501,0.373859,-0.00641201,-0.001439,-0.000671645
0.0648165,0.05900419999999999,0.397831,-0.00606992,-0.00183378,-0.0007429379999999997
0.06489400000000001,0.0379259,0.35691799999999996,-0.00610416,-0.00202328,-0.0007429379999999997
0.0706492,0.051261900000000006,0.35385500000000003,-0.00591254,-0.00192826,-0.0007429379999999997
0.07026780000000002,0.115534,0.351056,-0.005783699999999999,-0.00166918,-0.0008095039999999997
0.0719673,0.0685067,0.357027,-0.00601763,-0.00143408,-0.0007429379999999997
0.0662453,0.0704138,0.399379,-0.00591077,-0.0013435700000000005,-0.0007429379999999997
0.0639005,0.11231400000000001,0.422235,-0.00648144,-0.00187386,-0.000642334
0.0675094,0.07894679999999997,0.43040100000000003,-0.00648543,-0.00198932,-0.000622473
0.0671544,0.07682119999999999,0.44526000000000004,-0.00668681,-0.00188254,-0.0007429379999999997
0.0774978,0.10248800000000001,0.48021400000000003,-0.007258889999999999,-0.00225903,-0.00034501400000000004
0.0896591,0.0573507,0.466634,-0.00606747,-0.00197953,-0.000473286
0.107075,0.0675333,0.533828,-0.00657269,-0.00184977,-0.00026414
0.115542,0.09871139999999999,0.43686899999999995,-0.00620268,-0.00217475,-0.000126999
0.11026,0.0587904,0.44946800000000003,-0.00581542,-0.00207509,-2.9441399999999997e-06
0.119414,0.152223,0.45323,-0.00613683,-0.00146502,-0.000123724
0.116599,0.084708,0.467941,-0.00568382,-0.00218976,-0.00022657900000000003
0.114607,0.113053,0.475355,-0.00612116,-0.00157472,-0.00011594100000000001
0.11445,0.152097,0.489048,-0.00598707,-0.0014051300000000005,-0.000122101
0.119707,0.0815966,0.521159,-0.00552558,-0.00190548,-0.000138351
0.11986300000000001,0.0819243,0.510266,-0.004726,-0.00217096,-9.94192e-05
0.12321199999999999,0.157496,0.5313060000000001,-0.00445462,-0.00268151,0.00019626799999999999
0.126698,0.127162,0.520404,-0.00491115,-0.00228924,-0.00011486399999999999
0.12070999999999998,0.176733,0.54182,-0.00548439,-0.00267539,0.00019626799999999999
0.13445,0.11248499999999999,0.547268,-0.00526386,-0.00308395,0.0005005459999999999
0.135951,0.12996300000000002,0.554496,-0.00552381,-0.00242938,0.00032623099999999996
0.149659,0.104422,0.551575,-0.00507391,-0.00285894,0.00019626799999999999
0.149087,0.09767719999999999,0.5313760000000001,-0.00483276,-0.00297132,0.00019626799999999999
0.15606,0.149323,0.5313640000000001,-0.00483276,-0.00302552,0.00019626799999999999
0.16511199999999998,0.11886300000000001,0.559563,-0.00561602,-0.00331765,0.00019626799999999999
0.159888,0.164327,0.567731,-0.00636519,-0.00304719,0.00038647599999999996
0.170086,0.13481600000000002,0.5811689999999999,-0.00580367,-0.00345049,0.0004699
0.157367,0.13477,0.5481010000000001,-0.00585542,-0.00278072,0.0005160519999999999
0.148858,0.11006099999999999,0.484721,-0.00542552,-0.0031127,0.00019626799999999999
0.150274,0.134405,0.48925100000000005,-0.00571738,-0.00320214,0.00019626799999999999
0.144448,0.163625,0.5063340000000001,-0.00624058,-0.00266223,0.00019626799999999999
0.148704,0.0965929,0.543666,-0.0061496,-0.00274981,0.00019626799999999999
0.13456700000000002,0.121424,0.543535,-0.00627342,-0.00331385,0.00019626799999999999
0.138141,0.11601199999999999,0.543524,-0.00662796,-0.00340207,0.0005603569999999999
0.136292,0.105126,0.5435369999999999,-0.00662796,-0.0033402,0.000544881
0.155756,0.12717400000000004,0.553507,-0.00657567,-0.00309533,0.00043708800000000003
0.166358,0.10591600000000001,0.577429,-0.00541683,-0.00337857,0.00037178199999999997
0.15213,0.129211,0.519282,-0.00649376,-0.00337857,0.000564288
0.133139,0.170047,0.519083,-0.00663397,-0.00323211,0.000379463
0.141509,0.0856128,0.527712,-0.00664609,-0.00344053,0.000272142
0.142237,0.173174,0.55199,-0.00692739,-0.00306199,0.00019626799999999999
0.14821099999999998,0.107307,0.5797680000000001,-0.00643069,-0.00342208,0.00019626799999999999
0.141158,0.10463900000000001,0.578018,-0.00643069,-0.00305552,0.000123834
0.139716,0.12184,0.591134,-0.00642112,-0.00369739,0.00019626799999999999
0.14109600000000005,0.0908525,0.570325,-0.005474100000000001,-0.00315256,0.00019626799999999999
0.15756900000000001,0.20959499999999998,0.643516,-0.00652244,-0.00289065,0.000396268
0.164003,0.12338199999999999,0.668894,-0.00680286,-0.00321259,0.000373786
0.169822,0.20524099999999998,0.701601,-0.00719045,-0.00349639,0.00041685400000000003
0.164008,0.209002,0.658068,-0.00792933,-0.00328949,0.000395667
0.168159,0.0999941,0.674271,-0.00727088,-0.0029855999999999997,0.000253445
0.168702,0.151108,0.6834319999999999,-0.0075661,-0.00290058,0.00019626799999999999
0.162774,0.12481199999999999,0.708073,-0.00719082,-0.00360645,0.00019626799999999999
0.163758,0.195449,0.7343699999999999,-0.00717121,-0.00370324,0.00059898
0.175503,0.120021,0.696295,-0.00642923,-0.00384006,0.000570879
0.16374,0.173322,0.705443,-0.00674727,-0.00380793,0.0005081080000000001
0.16675,0.262223,0.71872,-0.00747434,-0.00420302,0.000326978
0.172458,0.13281500000000002,0.677793,-0.00660068,-0.00438389,0.00019626799999999999
0.16373,0.172172,0.686305,-0.00724905,-0.00445008,0.000466795
0.164489,0.172048,0.7429719999999999,-0.00744181,-0.00449487,0.000390204
0.15817,0.171619,0.720104,-0.0080561,-0.004488300000000001,0.00019626900000000003
0.167006,0.19024100000000002,0.720198,-0.00864348,-0.00426113,0.00019626799999999999
0.17245,0.15351199999999998,0.705789,-0.00864348,-0.00437138,0.000324145
0.171727,0.19123099999999998,0.703489,-0.00845893,-0.0044916,0.00038226199999999997
0.168844,0.20761999999999997,0.748104,-0.00845214,-0.00427392,0.000510358
0.18575899999999998,0.17005599999999998,0.789737,-0.008454869999999998,-0.00424555,0.000695214
0.175075,0.20754099999999998,0.794222,-0.00815218,-0.00406551,0.00019626799999999999
0.182969,0.147325,0.717274,-0.00646521,-0.00397181,0.000467827
0.176698,0.207738,0.736122,-0.00681779,-0.00446228,0.000493437
0.17694200000000002,0.211123,0.71743,-0.007642409999999999,-0.004345300000000001,0.000678415
0.171499,0.15440799999999996,0.723956,-0.007824519999999998,-0.00403766,0.00029874700000000003
0.17092099999999996,0.238835,0.728785,-0.008391189999999998,-0.00407354,0.00019626799999999999
0.177152,0.14236500000000002,0.721528,-0.007679199999999998,-0.0038878999999999997,0.00019626799999999999
0.174508,0.185584,0.728871,-0.00722229,-0.00395284,0.00019626900000000003
0.171216,0.19900299999999999,0.690312,-0.00690295,-0.0042718,0.000284921
0.16022,0.164047,0.702746,-0.00738824,-0.00415136,0.00019626900000000003
0.16295199999999999,0.215915,0.700037,-0.007695849999999998,-0.00430157,0.00019626900000000003
0.174021,0.161914,0.73407,-0.00774824,-0.00425354,0.00019626900000000003
0.187186,0.245506,0.7158899999999999,-0.00768014,-0.00410684,0.00032010000000000003
0.193117,0.15225999999999998,0.7214659999999999,-0.007251559999999998,-0.00420248,0.000249156
0.17294699999999996,0.242929,0.719722,-0.007625909999999999,-0.00435455,0.000492258
0.19375599999999998,0.169458,0.7373529999999999,-0.007592019999999999,-0.00458999,0.00019626900000000003
0.18829,0.12497200000000006,0.71983,-0.00738105,-0.00413484,0.000285351
0.18821500000000002,0.20848699999999998,0.7417599999999999,-0.007565100000000001,-0.00391708,0.00019626900000000003
0.18478499999999998,0.189416,0.776857,-0.00768818,-0.00442734,0.00019626900000000003
0.18698199999999998,0.186201,0.774031,-0.00783705,-0.00468982,0.000290762
0.200988,0.21184899999999998,0.7812,-0.00744647,-0.00453908,0.000268621
0.203572,0.14393,0.739804,-0.00608027,-0.00453645,-0.00013187600000000004
0.191582,0.22077199999999997,0.745637,-0.00667748,-0.00462455,0.00019626900000000003
0.1863,0.209254,0.740023,-0.00698449,-0.00461867,0.00019626900000000003
0.17999300000000001,0.255472,0.768456,-0.00682038,-0.00472919,0.00019626900000000003
0.177806,0.194223,0.7917699999999999,-0.00708734,-0.00462425,0.00019626900000000003
0.179998,0.21626599999999999,0.773127,-0.00726496,-0.00503537,0.00019626900000000003
0.18093499999999998,0.223014,0.808604,-0.00788783,-0.00512091,0.0005989459999999999
0.187004,0.169208,0.817421,-0.00744094,-0.00519155,0.00019626900000000003
0.16992199999999996,0.23174299999999998,0.8027880000000001,-0.00814826,-0.00518254,0.0006033130000000001
0.18145799999999998,0.155915,0.8303299999999999,-0.00703179,-0.00474895,0.00019626900000000003
0.174736,0.197732,0.7844259999999998,-0.00639004,-0.00476195,0.00019626900000000003
0.179319,0.24951399999999999,0.8090649999999999,-0.00668108,-0.00454062,0.00019626900000000003
0.181343,0.169431,0.79985,-0.00621432,-0.00569238,0.00025922
0.174922,0.17649600000000001,0.8392659999999998,-0.00578555,-0.00527298,0.00019626900000000003
0.17194500000000001,0.250542,0.8432950000000001,-0.00668974,-0.00522392,0.000286885
0.182105,0.18187799999999998,0.815592,-0.00544816,-0.005780899999999999,0.00019626799999999999
0.170953,0.22002800000000003,0.8635629999999999,-0.00691374,-0.00491834,0.000484728
0.189199,0.153698,0.8453139999999999,-0.00644262,-0.005689100000000001,0.00019626900000000003
0.179137,0.222162,0.892497,-0.00699251,-0.00576767,0.0005502999999999999
0.173172,0.23643899999999998,0.8701689999999999,-0.00707729,-0.00548313,0.00067845
0.173837,0.193426,0.827675,-0.00687559,-0.00599817,0.00106195
0.17713299999999998,0.149618,0.876374,-0.00663482,-0.00577557,0.00127686
0.18063900000000002,0.17952,0.835442,-0.00661711,-0.0059613,0.00100663
0.165946,0.147162,0.8354019999999999,-0.007190600000000001,-0.00641952,0.000538384
0.165,0.235673,0.8354030000000001,-0.00642722,-0.00570217,0.0004888890000000001
0.181199,0.21607300000000002,0.810702,-0.00570853,-0.00675971,0.0009315980000000001
0.164129,0.254655,0.816237,-0.00596252,-0.00611234,0.0008362739999999999
0.163278,0.28688,0.8843189999999999,-0.00713609,-0.00618743,0.0010712400000000002
0.19684300000000002,0.209431,0.8528479999999999,-0.00885554,-0.00625244,0.00121209
0.173737,0.12541300000000002,0.7011729999999999,-0.00711901,-0.00606934,0.000887023
0.191416,0.134451,0.606046,-0.006645600000000001,-0.00630795,0.00143508
0.181348,0.141897,0.606088,-0.00643688,-0.00606346,0.00145822
0.16075799999999998,0.0885307,0.531728,-0.00606582,-0.00588179,0.0009039470000000002
0.166152,0.168515,0.566771,-0.00670371,-0.00577679,0.0007338339999999999
0.163895,0.162394,0.5687260000000001,-0.00681755,-0.00539537,0.0007338339999999999
0.172942,0.15648199999999998,0.585059,-0.00663521,-0.00579738,0.00044787300000000005
0.169812,0.222982,0.600186,-0.00682657,-0.00552718,0.00053436
0.17587,0.143278,0.643883,-0.00655589,-0.00594387,0.000417082
0.17284000000000002,0.200639,0.60075,-0.00683914,-0.00558877,0.00032749
0.188721,0.12927,0.609403,-0.00611545,-0.00518765,0.00013985200000000002
0.20727800000000002,0.121019,0.654165,-0.00542418,-0.006201399999999999,-6.209810000000001e-05
0.20055499999999998,0.19783199999999998,0.6620229999999999,-0.00607172,-0.00591484,-0.00011817
0.202604,0.14533,0.637104,-0.00558021,-0.00654787,-0.00011817
0.197509,0.133104,0.6722229999999999,-0.00576474,-0.00622748,-0.000238713
0.19096400000000002,0.168405,0.6507029999999999,-0.00536963,-0.00632761,-0.00021216
0.202678,0.14591300000000001,0.6661729999999999,-0.00481868,-0.00676352,-0.00036708
0.197097,0.24184699999999998,0.727075,-0.00518975,-0.00670027,-0.00011817
0.20369,0.175143,0.713054,-0.00539717,-0.00664518,4.82741e-05
0.200223,0.217081,0.736135,-0.00545899,-0.00643175,-0.00011817
0.199398,0.211153,0.714061,-0.00624574,-0.00694523,0.00041809400000000004
0.196184,0.15791,0.753104,-0.00609078,-0.00705625,0.00024365400000000002
0.202575,0.198528,0.702946,-0.00585276,-0.00698211,0.000257636
0.20266900000000002,0.158949,0.7488909999999999,-0.00604254,-0.00676577,0.00031122400000000003
0.21164000000000002,0.166237,0.7084739999999999,-0.00560545,-0.00673336,0.00048077
0.20938,0.120349,0.708433,-0.00494135,-0.00675837,0.000352485
0.19530899999999998,0.21939699999999998,0.708565,-0.00550089,-0.00639248,0.00036812
0.215121,0.159056,0.708435,-0.00591322,-0.00712849,0.000644864
0.205182,0.18548199999999998,0.703276,-0.00617527,-0.00658255,0.000221472
0.191528,0.21199899999999997,0.6950350000000001,-0.00634895,-0.00650202,0.000126198
0.20549699999999999,0.144299,0.662682,-0.00582561,-0.00696023,0.00044661900000000004
0.200167,0.16331199999999998,0.6802090000000001,-0.00607083,-0.00663542,0.000353077
0.190896,0.148621,0.6609470000000001,-0.00502248,-0.00677895,8.309119999999998e-05
0.194623,0.232777,0.655116,-0.00596236,-0.00635368,-0.00011817
0.200462,0.16305,0.69752,-0.00550922,-0.00627973,-2.38967e-05
0.20740999999999998,0.258295,0.686966,-0.00601625,-0.00628476,0.000158032
0.223206,0.14953,0.7258399999999999,-0.00613172,-0.00667445,-0.00011817
0.220833,0.190136,0.7113010000000001,-0.00661765,-0.00648895,-0.00011817
0.224208,0.19508,0.711216,-0.00656189,-0.00668918,-0.00011817
0.231521,0.168531,0.7357739999999999,-0.00603102,-0.00685814,-0.00011817
0.225477,0.158082,0.6862729999999999,-0.00559136,-0.00674228,-0.00020014099999999998
0.22643200000000002,0.21812600000000001,0.703581,-0.005305300000000001,-0.00626726,-0.000416079
0.233694,0.19736700000000001,0.700778,-0.00515991,-0.00634655,-0.00031738700000000003
0.227277,0.24719899999999997,0.721821,-0.00573218,-0.00633316,-0.00011817
0.241804,0.212434,0.769004,-0.005293600000000001,-0.00667403,-0.00011817
0.23875900000000003,0.19153399999999998,0.7906889999999999,-0.00595333,-0.00688739,-0.00011817
0.23996900000000002,0.23000900000000002,0.748997,-0.00589823,-0.00723992,-0.00011817
0.24589499999999997,0.181603,0.729639,-0.0053302,-0.00683742,-0.000308367
0.251487,0.166154,0.7550409999999999,-0.00536922,-0.00696239,-0.00011817
0.254662,0.235744,0.743171,-0.00544157,-0.00679429,-0.00011817
0.25562399999999996,0.17356400000000002,0.795027,-0.00561912,-0.006852,6.45168e-05
0.252698,0.193957,0.8149770000000001,-0.00548352,-0.00715192,-0.00011817
0.253407,0.218808,0.8046479999999999,-0.00536209,-0.00713708,0.00028035099999999997
0.245448,0.26243299999999997,0.8263590000000001,-0.00532837,-0.00664407,0.00016536
0.25150900000000004,0.28681799999999996,0.8601579999999999,-0.00473748,-0.00659488,0.000143775
0.25707399999999997,0.183429,0.7947029999999999,-0.00442764,-0.00711485,-0.00011817
0.248446,0.235866,0.808365,-0.00518934,-0.00690299,-0.00011817
0.255591,0.194589,0.781576,-0.00489629,-0.00771506,-0.00011817
0.24313,0.20159100000000002,0.8261589999999999,-0.00435557,-0.00798916,-0.00011817
0.24944499999999997,0.239558,0.858051,-0.00435711,-0.00770386,-5.40225e-05
0.24825999999999998,0.174229,0.913063,-0.00434712,-0.00760825,-3.42692e-05
0.247869,0.240352,0.8634739999999999,-0.00430966,-0.00725928,-0.00011817
0.24879099999999998,0.209135,0.88087,-0.00452678,-0.007705779999999998,-0.00011817
0.247104,0.26831900000000003,0.8870819999999999,-0.00485358,-0.00694467,-0.00011817
0.24981599999999998,0.240999,0.9107940000000002,-0.00470403,-0.00705871,-0.00011817
0.24423699999999998,0.24094899999999997,0.8774860000000001,-0.00436515,-0.00753793,-0.00028846
0.235692,0.263006,0.846935,-0.00421494,-0.00684833,-0.00011817
0.252789,0.208445,0.870128,-0.00345457,-0.00727986,-0.00011817
0.25349099999999997,0.218018,0.8552809999999998,-0.00378655,-0.00674081,-0.000249904
0.248998,0.239101,0.8662340000000001,-0.00311012,-0.00664117,-0.00011817
0.264581,0.210662,0.876743,-0.00352956,-0.00692697,-0.000492413
0.25553899999999996,0.28793,0.8930829999999998,-0.00390456,-0.00658536,-0.00030639
0.260243,0.198048,0.866836,-0.00389128,-0.0070093,-0.000347331
0.246785,0.210315,0.839191,-0.00335591,-0.00685135,-0.000536272
0.251365,0.343826,0.900595,-0.00415332,-0.00642461,-0.000536272
0.273692,0.21663000000000002,0.881402,-0.00327225,-0.007361269999999999,8.21016e-06
0.264953,0.236663,0.9135409999999999,-0.00383153,-0.00711843,2.9516900000000002e-05
0.262009,0.23585,0.8283629999999998,-0.00423167,-0.00728323,5.53013e-05
0.25821900000000003,0.252933,0.867925,-0.0038518000000000003,-0.00758213,-0.00012734
0.264216,0.256755,0.8513389999999998,-0.00378691,-0.0073036,0.00013405
0.263079,0.25698499999999996,0.9125209999999999,-0.00349565,-0.00739962,0.000287934
0.271681,0.275225,0.9079200000000001,-0.00333128,-0.00737155,-4.2261999999999996e-05
0.266257,0.184513,0.8936159999999999,-0.00276299,-0.00720357,-0.000248545
0.252008,0.265689,0.936467,-0.00307166,-0.00741566,-0.000313257
0.258365,0.227483,0.9279290000000001,-0.00294958,-0.007645309999999998,-0.000333635
0.2591,0.24148899999999998,0.975817,-0.00341609,-0.007429919999999999,-0.000536272
0.26077100000000003,0.302228,0.9976950000000002,-0.00375418,-0.0069957,-0.000536272
0.261881,0.216319,0.9120229999999999,-0.00359704,-0.00759907,-0.000314341
0.259483,0.251161,0.9578700000000002,-0.00271288,-0.00746302,-0.00022971599999999998
0.273362,0.23081500000000002,0.9280860000000001,-0.00253486,-0.00797955,-0.00037019099999999997
0.261912,0.23246,0.9416979999999999,-0.00231624,-0.00771677,-0.000536272
0.258877,0.318577,0.976493,-0.00266918,-0.00731338,-0.000337346
0.26750300000000005,0.25490300000000005,0.9675520000000001,-0.00214302,-0.00729866,-0.000536272
0.25754,0.345381,0.9911780000000001,-0.00295721,-0.00670714,-0.000260878
0.264809,0.236663,1.0157100000000001,-0.00236853,-0.00685692,-0.000536272
0.273564,0.328355,1.03958,-0.00315815,-0.00683537,-0.000536272
0.272951,0.205042,0.980633,-0.00202056,-0.00687793,-0.0006238659999999999
0.275987,0.27910300000000005,0.9724,-0.00235404,-0.006615100000000001,-0.000951695
0.271217,0.24729099999999998,0.958678,-0.00173104,-0.00696905,-0.000830633
0.268901,0.23887399999999998,0.89086,-0.00143736,-0.00715099,-0.0009662850000000002
0.264824,0.275081,0.9180159999999999,-0.00118745,-0.00696905,-0.0010607000000000001
0.271754,0.23851599999999998,0.895165,-0.000550161,-0.00696905,-0.0008760769999999997
0.255725,0.24810100000000002,0.889648,-0.000642125,-0.00696905,-0.0010607000000000001
0.267648,0.29517,0.923824,-0.0008751409999999999,-0.007300499999999999,-0.0010607000000000001
0.267407,0.262901,0.944556,-0.00127219,-0.00719199,-0.0006812789999999999
0.26972399999999996,0.286174,0.94005,-0.000762565,-0.00681692,-0.0007540060000000001
0.26436,0.232902,0.965471,-0.000145034,-0.007635379999999998,-0.000879896
0.255536,0.284659,0.912618,-0.000882501,-0.00703584,-0.000944215
0.279088,0.223832,0.8877879999999999,-0.000655344,-0.00716351,-0.00041549199999999994
0.26251199999999997,0.28137199999999996,0.916185,-0.000980392,-0.0072867,-0.00037959800000000003
0.258297,0.27084400000000003,0.9133460000000002,-0.0007935819999999999,-0.007443189999999999,-2.3669699999999998e-05
0.259175,0.219757,0.916054,-0.0008513649999999998,-0.00769387,-0.000292008
0.253942,0.329719,0.9458479999999999,-0.0013981000000000006,-0.0072867,-0.000612781
0.267479,0.253458,0.9108930000000001,-0.0008369019999999999,-0.00763676,-0.000368759
0.268019,0.240479,0.937491,-0.000979117,-0.00769301,-0.000498272
0.254302,0.310192,0.927117,-0.00155006,-0.007210679999999999,-0.0008234759999999999
0.26969,0.244065,0.8880790000000001,-0.00178578,-0.00706302,-4.06621e-05
0.273452,0.139059,0.776366,-0.00112267,-0.00677476,-4.06621e-05
0.265007,0.246324,0.722016,-0.0013922000000000001,-0.00699998,-4.06621e-05
0.277814,0.175201,0.7767969999999998,-0.00048447400000000004,-0.00786506,-4.06621e-05
0.251848,0.230818,0.7278679999999998,-0.000227359,-0.00752544,-0.000481755
0.25685399999999997,0.18932100000000002,0.715495,-0.0007170360000000001,-0.00734435,-0.000481755
0.261969,0.234837,0.8215020000000001,-0.00071384,-0.00807328,-0.0005573490000000001
0.261815,0.280105,0.8026989999999999,-0.00138528,-0.00849627,-0.00067759
0.269608,0.251793,0.817103,-0.0022146,-0.00840184,-0.00101813
0.27315100000000003,0.23175300000000001,0.8160069999999999,-0.00202594,-0.00826577,-0.00112676
0.270808,0.264781,0.816048,-0.00249037,-0.00825819,-0.00110824
0.276672,0.20841700000000002,0.8155939999999999,-0.00219598,-0.008470979999999998,-0.00112701
0.27311399999999997,0.203259,0.807344,-0.0019537,-0.00858877,-0.001004
0.285677,0.230344,0.818125,-0.000799241,-0.008867309999999998,-0.0007747460000000001
0.29729,0.22568200000000002,0.8388129999999999,-0.000650454,-0.00879787,-0.00110409
0.292875,0.230383,0.8390809999999999,-0.000650454,-0.008797859999999998,-0.000544155
0.286504,0.163964,0.794347,0.00023610099999999998,-0.00879787,-0.0008440810000000001
0.276855,0.260089,0.807999,-0.000156225,-0.00833847,-0.0009869
0.280396,0.198073,0.7713879999999999,-0.000156225,-0.00923728,-0.000628595
0.274417,0.24490900000000002,0.782203,-0.0006138690000000001,-0.009158500000000002,-0.000578314
0.284581,0.196953,0.7228069999999999,-0.00022591200000000001,-0.00920531,-0.000430782
0.26971100000000003,0.228397,0.7458829999999999,0.00020716099999999998,-0.008974799999999998,-0.000894096
0.254838,0.246112,0.725535,-6.43908e-05,-0.00859078,-0.000907632
0.253246,0.164278,0.704522,0.00108127,-0.00889224,-0.00016591400000000002
0.250758,0.16718,0.7225659999999999,0.000443,-0.00862379,-0.000446974
0.256319,0.19443,0.74005,0.000587671,-0.00938141,-0.000762011
0.276144,0.179594,0.697512,0.0009433460000000001,-0.00959862,-0.000260656
0.27986500000000003,0.153746,0.7465109999999999,0.000709454,-0.00933337,-0.000260656
0.274068,0.268702,0.786884,0.0006350069999999999,-0.00890901,-0.000260656
0.280927,0.184224,0.799927,-0.000318776,-0.00947449,-0.000260656
0.276744,0.218234,0.776112,-0.00037557599999999997,-0.00920664,-0.000260656
0.284918,0.213653,0.8259129999999999,-0.00037557599999999997,-0.00954912,-0.000260656
0.29073499999999997,0.172768,0.809559,-0.000520788,-0.00986388,-0.000504923
0.292757,0.15449200000000002,0.7601259999999999,0.00016571099999999997,-0.0099059,-0.000721891
0.26708200000000004,0.183848,0.693347,0.0012071400000000006,-0.00917363,-0.000943642
