-0.00964278,-0.030942,0.00840099,0.000164686,1.33498e-05,-0.0006265
-0.0250605,-0.08571720000000001,-0.0667307,0.00040197,-0.00026828700000000003,-0.000651295
-0.0337441,-0.087268,-0.0913452,0.00124041,-0.000450602,-0.000431745
-0.00696861,-0.09331389999999999,-0.133479,0.00230592,-0.0006890160000000001,-0.000431745
-0.01119,-0.158675,-0.099878,0.00324041,-0.000481906,-0.0001388
-0.0161412,-0.045717,-0.05846180000000001,0.00387722,-0.000593589,-0.000634489
-0.027103500000000003,-0.20119,-0.158915,0.00324041,-0.000313385,-0.00010001799999999999
-0.0270411,-0.183108,-0.16483499999999998,0.00406512,0.000155075,0.000609761
-0.0239185,-0.0709284,-0.13058800000000004,0.00377099,-0.000198774,0.000371849
-0.042099300000000006,-0.192556,-0.20285899999999998,0.00339856,4.37123e-05,0.00098855
-0.021674000000000002,-0.07837529999999998,-0.041441000000000006,0.00299704,0.000396146,0.000203207
-0.0290877,-0.06664340000000002,-0.047742599999999996,0.00297741,2.95984e-05,-0.000612298
-0.020781599999999997,-0.149345,-0.09806619999999999,0.00306906,0.000298952,-0.00040967300000000005
-0.0293116,0.00660931,-0.0172318,0.00208064,0.000412316,-0.0009113319999999999
-0.0271883,-0.216768,-0.0750495,0.00223192,0.000410218,-0.0008447389999999997
-0.029355900000000004,0.028160700000000004,0.007591129999999998,0.00231955,0.000429322,-0.00107839
-0.00883789,-0.171059,-0.0256877,0.00231955,0.0008530449999999998,-0.0011627
-0.0115559,0.00870342,0.090722,0.00134,0.000995617,-0.00168348
-0.00186297,-0.032935400000000004,0.122019,0.0010926000000000002,0.00113792,-0.00207825
0.0153685,-0.08995089999999999,0.070078,-9.621540000000001e-05,0.0015579,-0.00166818
0.0132813,0.0385907,0.232292,0.0006549230000000001,0.00203859,-0.00214312
0.026707099999999998,-0.07072569999999999,0.174486,-0.0007153289999999999,0.00159435,-0.00249323
0.00585602,-0.0545264,0.039715600000000004,0.00464783,0.00167749,-4.81767e-05
0.012151100000000001,0.137126,0.038598099999999996,0.00819207,0.00158175,0.00110239
0.022506400000000003,-0.255875,-0.031278,0.007962679999999998,0.00131019,0.000370669
0.0212187,-0.07886189999999998,-0.013985299999999997,0.00755109,0.0008381439999999998,0.000526917
0.0422213,-0.0147717,0.0704224,0.007523949999999999,0.000396659,0.0006860719999999999
0.040390300000000004,0.022022,0.0768781,0.00690109,0.000409331,0.0006860719999999999
0.0336863,0.0401927,0.0842793,0.00608815,0.00036135199999999995,0.000621067
0.027792400000000002,0.0725843,0.11518099999999999,0.00559162,0.000218818,0.00056421
0.0427025,0.095062,0.17663799999999996,0.00378935,0.0009352789999999999,-0.00045297699999999997
0.013827500000000001,-0.0228988,0.053172500000000004,0.00246199,0.000944396,-0.00110157
0.017346599999999997,0.0390285,0.11414,0.00331697,0.00106785,-0.00123359
0.034593,-0.117836,0.024298900000000002,0.00373913,0.0013078600000000005,-0.00123359
0.0289423,-0.0137332,0.158378,0.00371428,0.00117187,-0.00123359
0.033626199999999995,-0.041737699999999996,0.0959663,0.00479643,0.00127177,-0.00153015
0.0178879,-0.050681199999999996,0.121137,0.00458704,0.000733191,-0.00123359
0.0320648,0.0462324,0.14461300000000002,0.00473326,0.00111781,-0.00163686
0.0297824,0.011853299999999999,0.11556099999999998,0.00425512,0.00102969,-0.00123359
0.029259500000000004,0.124004,0.144567,0.00430848,0.0012908,-0.00133013
0.0286661,0.111726,0.193687,0.00398153,0.00131451,-0.00165292
0.035574400000000006,0.0455579,0.0964663,0.00386404,0.00131451,-0.00140293
0.022209599999999996,0.145039,0.195642,0.00408451,0.00131451,-0.00123359
0.0182537,-0.0348219,0.0851849,0.00384628,0.000840786,-0.00123359
0.0182236,0.114026,0.178152,0.00418803,0.000840786,-0.00148515
0.0360875,0.0400418,0.19082000000000002,0.00437309,0.00078792,-0.0015969
0.025947900000000003,-0.017526199999999995,0.09416569999999999,0.00493238,0.000560076,-0.00123359
0.0370066,0.169369,0.228629,0.0049994,0.00037919,-0.00118232
0.0415783,0.0433792,0.148029,0.00560559,0.000206136,-0.0016455999999999999
0.0392827,-0.023413200000000002,0.14804,0.00496469,0.00037919,-0.00166503
0.0234915,0.102627,0.199936,0.00565244,0.000108384,-0.00173359
0.0194842,-0.0380776,0.05371519999999999,0.00853238,0.00037919,-0.00123359
-0.0115759,-0.185628,-0.295621,0.00265568,0.0021644000000000004,-0.000294124
0.019150599999999997,-0.00203971,-0.0641142,0.0009972289999999999,0.00157244,-0.0009333290000000002
0.0366276,-0.0139344,-0.06409909999999999,0.0009972289999999999,0.00188432,-0.00123359
0.0443276,0.038946499999999995,0.019082299999999996,0.00096098,0.00186718,-0.00183107
0.0664203,0.0164781,0.042424,0.0011326900000000002,0.0019788,-0.00242872
0.0645555,0.0087098,0.121077,0.00104098,0.0018327000000000003,-0.0029484000000000003
0.08682149999999997,-0.05726669999999999,0.0954954,0.00117864,0.00157244,-0.00313506
0.06992860000000001,-0.00103215,0.14663099999999998,0.0007259569999999997,0.00129451,-0.0033287
0.07173330000000001,-0.0225418,0.104975,0.00019067799999999998,0.00208972,-0.00393158
0.0473963,-0.112097,0.033404199999999995,0.00166287,0.00203167,-0.00337126
0.060211400000000005,0.0625528,0.127694,0.00223497,0.0011280900000000002,-0.00350989
0.06379030000000001,-0.0715224,0.00157636,0.00368369,0.00106112,-0.00298801
0.0652701,0.0849646,0.174125,0.00234448,0.00130723,-0.00293453
0.068784,0.0252426,0.13732,0.00327073,0.000862056,-0.00324014
0.030104000000000002,0.00240561,0.0796453,0.00333705,0.000635677,-0.00222616
0.05941669999999999,0.107099,0.22800399999999998,0.00353808,0.0008161559999999997,-0.00279665
0.07321849999999999,0.0277493,0.18191500000000002,0.00292361,0.000597934,-0.00294292
0.06304080000000001,0.00967268,0.163237,0.00216713,0.0008161569999999998,-0.00247222
0.0731807,0.11490299999999999,0.21941100000000002,0.00233862,0.0007051410000000001,-0.00315979
0.0655282,-0.014219399999999998,0.172545,0.00183931,0.00040715300000000005,-0.00341305
0.07108810000000002,0.0195847,0.18138800000000002,0.00203529,0.000330396,-0.00284467
0.0630758,0.09702430000000001,0.201372,0.00208498,0.000717757,-0.00341046
0.0661236,-0.000234163,0.189449,0.00253656,0.00061984,-0.00321296
0.0692328,0.13186199999999998,0.261791,0.00262979,0.000714934,-0.00304263
0.0635626,0.0018170999999999999,0.202236,0.00288063,0.000330396,-0.00287547
0.053963,0.146322,0.249004,0.00294668,0.000330396,-0.00281127
0.06478160000000001,0.043545,0.20665799999999998,0.00351449,0.000477728,-0.00291838
0.0517067,0.0927159,0.251812,0.00320951,0.000330396,-0.00242198
0.0411458,-0.051407900000000006,0.009313610000000005,0.00508473,0.000180437,-0.00152914
0.0147909,-0.30593200000000004,-0.326823,0.00968415,0.0009449660000000002,-0.00149622
0.015423099999999999,-0.0109014,-0.007784359999999999,0.00583565,0.000637214,-0.00209358
0.029469299999999997,-0.09403520000000004,0.0318099,0.00560923,0.00111358,-0.00209358
0.041005599999999996,0.0680432,0.13313599999999998,0.0055244,0.000629715,-0.00226551
0.040983099999999995,-0.0294086,0.130807,0.00500364,0.0009180319999999999,-0.00229105
0.0292401,0.0744962,0.15024200000000001,0.00500364,0.000629715,-0.00237235
0.0387741,-0.0387619,0.12845499999999999,0.00462396,0.0008594539999999997,-0.00232183
0.0439273,0.055857500000000004,0.1823,0.00449765,0.000629715,-0.00209358
0.04869280000000001,0.00695882,0.162723,0.00293907,0.0008871919999999998,-0.00285232
0.03585,-0.0166373,0.127128,0.0014015999999999998,0.0009377840000000002,-0.00316252
0.0226548,-0.079881,0.0424416,0.00187568,0.0009401230000000001,-0.00283687
0.0229043,-0.0249593,0.0301091,0.00243675,0.00048966,-0.0031044
0.008128059999999998,-0.177464,-0.0253334,0.00256262,-1.2171400000000002e-05,-0.0021357
0.00653688,-0.036652699999999996,0.0371719,0.00224069,-0.00035622599999999996,-0.00266857
0.0173009,-0.16497799999999999,-0.034373400000000005,0.00286242,-9.20257e-06,-0.00254965
0.017265400000000004,-0.017256999999999998,0.0522643,0.00180996,-0.000266822,-0.00263561
0.0247477,-0.0401324,0.05955800000000001,0.00214004,-0.000850521,-0.00313121
0.0172595,-0.13234,0.0063813,0.00327141,-0.000292725,-0.00296545
0.0270067,0.0431215,0.158313,0.00303512,-0.000553806,-0.00347388
0.0250359,-0.08514349999999997,0.0527899,0.00277375,-0.000502511,-0.00347388
0.0101409,-0.0397906,0.103947,0.0021919,-0.000606152,-0.00347388
0.0351772,-0.056607500000000005,0.08670889999999999,0.00211295,-0.000887328,-0.00367477
0.035345800000000004,0.0598368,0.200836,0.000801128,-0.000557138,-0.00413888
0.0459834,0.13686199999999998,0.21518,0.000581587,-1.01058e-05,-0.00472731
0.0459464,-0.07330259999999998,0.123019,0.000145694,0.000366012,-0.00455931
0.032563299999999996,-0.08988419999999997,0.203579,0.0005270580000000001,-0.000260966,-0.00405395
0.06694889999999999,-0.0123387,0.296227,3.75696e-05,-0.00029678,-0.00439318
0.07711569999999998,-0.07968609999999997,0.16750299999999999,0.00021386299999999998,-6.28793e-05,-0.00416144
0.06717100000000001,0.054369799999999996,0.266914,0.000355416,-6.28793e-05,-0.00381808
0.0832942,-0.05666659999999999,0.141673,-0.00110435,-6.93482e-05,-0.00402058
0.0211912,-0.0788809,0.0214618,0.00298432,-0.000472912,-0.00174055
0.04289419999999999,-0.0308337,0.0647735,0.00458521,-0.000708642,-0.00132912
0.042924199999999996,0.06263819999999999,0.166328,0.00443298,-0.00103882,-0.0011405
0.063997,-0.0386429,0.17669299999999996,0.00405201,-0.00105254,-0.0007435849999999997
0.0698868,0.0543822,0.189967,0.0030621,-0.00126109,-0.0011405
0.0837471,-0.053489800000000004,0.168234,0.0029275,-0.00146149,-0.00171796
0.0742411,0.022736199999999998,0.204881,0.00234114,-0.0010167,-0.00202738
0.0707462,-0.026920599999999996,0.201181,0.00221912,-0.00126109,-0.00210446
0.0737502,0.0242296,0.255782,0.000354757,-0.00128063,-0.00283703
0.057227,-0.0875663,0.0837586,-0.00041296,-0.00056972,-0.0037931999999999996
0.0444212,0.0157097,0.18373,1.0319100000000001e-05,-0.0007569159999999997,-0.00393997
0.057814300000000006,-0.111324,0.08147280000000001,0.00140944,-0.000544804,-0.0037931999999999996
0.040898000000000004,0.023023599999999998,0.17639200000000002,0.0011832000000000001,-0.0007740069999999997,-0.0037931999999999996
0.0526808,-0.0760315,0.12126600000000001,0.0011237999999999999,-0.000478601,-0.00343376
0.0472114,0.06542680000000001,0.219748,0.00145861,-0.000734431,-0.0038845999999999998
0.058174000000000003,0.022385299999999997,0.201322,0.0012450999999999999,-0.0009117330000000001,-0.00365284
0.0519851,-0.00613013,0.139454,0.00131224,-0.000415599,-0.00366913
0.055024,0.0754714,0.245741,0.00142095,-0.0005579080000000001,-0.00349028
0.0604115,-0.0177537,0.20661999999999997,0.0010555,-0.0005200890000000001,-0.00369568
0.0501498,-0.00101416,0.199907,0.00232235,-0.0012277700000000006,-0.00356259
0.05826619999999999,0.15745599999999998,0.301241,0.0014945099999999995,-0.00104442,-0.00315521
0.0583,-0.0458744,0.179205,0.00184446,-0.000883965,-0.00313312
0.0582249,0.130694,0.305775,0.00240473,-0.00088139,-0.00326417
0.05812280000000001,0.0451966,0.25875,0.00176187,-0.000419925,-0.00344661
0.06250639999999999,0.06415499999999999,0.334634,0.00176187,-0.000789746,-0.0031564
0.074784,0.09026189999999999,0.268808,0.00291355,-0.000814385,-0.0031772
0.0705214,0.0635668,0.268805,0.00250495,-0.00114279,-0.00340057
0.0621841,0.16095,0.34487199999999996,0.00264447,-0.000746345,-0.00355285
0.062229099999999996,0.0427947,0.27925500000000003,0.00264447,-0.000971838,-0.00355285
0.0453608,0.04288309999999999,0.143758,0.00342927,-0.0008553159999999997,-0.00243725
0.0741243,0.08887169999999997,0.181872,0.00294224,-0.00044641300000000005,-0.00306881
0.0763366,-0.08389869999999999,0.18596400000000002,0.00407326,-0.000168435,-0.00341648
0.0881824,0.038975800000000005,0.312707,0.0019260999999999998,-0.00042598800000000003,-0.00344922
0.100881,0.06403150000000002,0.317334,0.00112974,-0.000286911,-0.00372457
0.0880137,0.06167280000000001,0.335783,0.00094175,-0.000315256,-0.00433968
0.0920942,0.15820599999999999,0.381915,0.000236877,-0.000635742,-0.0047526
0.08476669999999999,0.08246599999999997,0.353136,0.000206619,-0.000289759,-0.00465388
0.08459619999999997,0.174102,0.39160500000000004,-0.000451768,2.9131799999999998e-06,-0.00493127
0.0846023,0.0545784,0.33131700000000003,-0.0009048680000000001,0.00011535700000000001,-0.005611100000000001
0.056585,0.0256243,0.247718,-0.00055154,-0.00017340200000000002,-0.00469913
0.062177800000000005,0.10326600000000001,0.30838699999999997,-0.000349468,-0.000105689,-0.00527769
0.07311249999999997,-0.014685399999999998,0.29586799999999996,-0.000350746,-5.13642e-05,-0.00486188
0.06639310000000001,0.0890831,0.32124899999999995,0.000180288,-0.00017340200000000002,-0.00524539
0.06333220000000002,-0.070483,0.278285,0.000125575,-2.2837800000000004e-05,-0.00524539
0.0793297,0.0458566,0.31211500000000003,0.00220676,-0.00017340200000000002,-0.00480449
0.0663942,-0.0192399,0.20562800000000003,-0.000251191,-0.000106015,-0.00486769
0.0617174,0.150257,0.352206,0.000166945,-0.00038953,-0.00587854
0.06858049999999999,0.029100499999999998,0.252258,0.00153493,-0.000687349,-0.00565088
0.0665089,0.08910179999999998,0.323849,0.00190157,-0.00062696,-0.005353
0.0738749,0.0935451,0.337789,0.00166127,-0.000795536,-0.00555673
0.076491,0.0355121,0.315496,0.00166127,-0.000409376,-0.00528967
0.09207610000000001,0.148533,0.392935,0.00115731,-0.000795536,-0.00539091
0.0962178,0.0429909,0.37854099999999996,0.0006061780000000001,-0.00113158,-0.00574057
0.09950850000000004,0.058280200000000004,0.378577,0.000715933,-0.000690645,-0.00525458
0.10559500000000001,0.137037,0.403982,0.00113132,-0.00091249,-0.00512006
0.11121400000000001,-0.0131921,0.33719699999999997,0.00193445,-0.0011779300000000006,-0.00512007
0.11633800000000001,0.030940600000000002,0.395244,0.00140416,-0.0005914890000000001,-0.00528088
0.11117300000000001,0.11980199999999999,0.48636,0.00140416,-0.0011779300000000006,-0.00570335
0.0924942,0.0248486,0.35923299999999997,0.00140416,-0.000687584,-0.00519698
0.0795928,-0.0453695,0.24703000000000003,0.00471933,-0.0009245880000000001,-0.00438318
0.060190499999999994,-0.198428,-0.0908885,0.00516741,-0.00046209800000000003,-0.00309981
0.0844178,0.0826563,0.23139200000000001,0.00286634,0.000600714,-0.00362423
0.0905066,0.0332431,0.285139,0.00341569,8.576209999999999e-05,-0.00321997
0.09742669999999999,0.158686,0.337679,0.00286634,-0.000216879,-0.00321997
0.115712,0.019568000000000002,0.317419,0.00221648,-0.000702375,-0.00341892
0.12555500000000006,0.08475839999999997,0.34641500000000003,0.00122666,-0.00102818,-0.00372464
0.117897,-0.0161223,0.315521,0.0010021000000000001,-0.00102818,-0.00446123
0.12719,0.09344569999999999,0.39711199999999997,-0.000199902,-0.00102818,-0.00446123
0.12695,-0.0649997,0.232479,-5.6937e-05,-4.7521599999999996e-05,-0.00493619
0.110982,0.11989100000000001,0.354898,0.0007979089999999999,-0.00015886899999999999,-0.00446123
0.122971,-0.0203736,0.268244,0.0007979089999999999,-0.00032365599999999997,-0.00475302
0.137478,0.11383599999999999,0.40173400000000004,-7.61288e-05,-0.0008354309999999998,-0.00486389
0.141289,0.112231,0.429721,0.000700989,-0.0004920009999999999,-0.0052799
0.153669,0.0650942,0.340142,0.00109181,-0.00016102,-0.00537681
0.152794,0.13546200000000005,0.403999,0.000296476,-0.000323048,-0.00516884
0.153332,0.10088899999999999,0.37738299999999997,0.000379034,-0.00046531599999999996,-0.0052799
0.13966099999999998,0.0752633,0.377391,0.000487071,-0.00050414,-0.00496259
0.151195,0.197981,0.46351099999999995,0.000200378,-0.000588003,-0.00535933
0.151507,0.04415530000000001,0.37336199999999997,0.000981825,-0.00101111,-0.0052799
0.148644,0.156915,0.446941,0.00162876,-0.000687259,-0.00495311
0.155447,0.148523,0.491205,0.00197447,-0.00101111,-0.00562768
0.15576500000000001,0.075287,0.39631500000000003,0.00230607,-0.0011762700000000005,-0.00494286
0.15423299999999998,0.204769,0.466686,0.00286532,-0.000572307,-0.00487396
0.162097,0.051570500000000005,0.37465,0.00308238,-0.000511893,-0.00487866
0.147729,0.154725,0.43486099999999994,0.00259274,-0.000348614,-0.00473046
0.15832099999999996,0.141422,0.453921,0.00334679,-0.000183847,-0.0050299
0.14315000000000005,0.120798,0.437488,0.00359125,-0.000280347,-0.00499645
0.14546199999999998,0.180842,0.46084899999999995,0.00323588,-6.129229999999999e-05,-0.00552064
0.0998472,-0.08324019999999999,0.057523300000000006,0.00481691,-0.000106897,-0.00422585
0.08795189999999999,-0.00915258,0.145739,0.00397692,0.00138924,-0.00396587
0.110425,0.20623400000000003,0.300412,0.0035,0.0008286169999999999,-0.00383771
0.102385,0.03949930000000001,0.278113,0.00366402,4.35429e-05,-0.00382685
0.08046699999999997,0.179332,0.31842800000000004,0.00276893,-0.000144955,-0.00402286
0.0803469,0.065653,0.32038,0.00292735,0.00010659999999999999,-0.00438881
0.0928164,0.200853,0.376882,0.00335214,0.00033288199999999995,-0.00433584
0.0988444,0.103683,0.36949699999999996,0.00224549,0.000630967,-0.0049991
0.0987946,0.22194899999999998,0.39157800000000004,0.00131642,0.0006388440000000001,-0.00514632
0.09893880000000001,0.14306300000000002,0.395586,0.0008138539999999999,0.00024354200000000002,-0.00547865
0.0937489,-0.0708218,0.061051,0.00246195,0.000336509,-0.00568053
0.0931922,0.0802521,0.206364,0.00205817,0.000177363,-0.00609007
0.09540100000000004,-0.113794,0.111678,0.0021796999999999997,-7.56689e-05,-0.00599882
0.0935937,0.0478732,0.234587,0.00224426,0.000199558,-0.00617333
0.10834300000000001,-0.046636500000000004,0.165785,0.00261582,0.000125208,-0.00636042
0.0824638,-0.100395,0.165939,0.00199251,-0.00035347199999999997,-0.00525304
0.0952128,0.05137130000000001,0.248007,0.00256473,-0.000582932,-0.00584162
0.0973802,-0.0349582,0.164968,0.00212844,-0.000537959,-0.00579328
0.101623,-0.0756006,0.148964,0.00195163,0.000171647,-0.00556795
0.10167899999999999,0.00513478,0.167192,0.00209488,5.70268e-05,-0.00623582
0.116889,-0.044681099999999994,0.218979,0.0019531,0.000101861,-0.00657365
0.13066100000000005,0.0123522,0.24288200000000001,0.0020735,0.00047244699999999997,-0.006747199999999999
0.125608,-0.173296,0.109231,0.00258997,0.000297351,-0.00620235
0.116645,0.0188528,0.26811999999999997,0.0027506,2.1382199999999997e-05,-0.00630265
0.140174,-0.0474569,0.197653,0.00327373,0.000178243,-0.00605731
0.146752,-0.076653,0.23598899999999998,0.00295248,0.00036154599999999997,-0.00575538
0.151649,-0.0662155,0.176858,0.00335125,0.00016681899999999996,-0.00641343
0.153469,-0.11396800000000006,0.186129,0.00279886,1.75445e-05,-0.00605774
0.16827899999999998,-0.00440281,0.23209000000000002,0.00207325,-0.000195898,-0.00583427
0.17913900000000002,-0.0839137,0.174875,0.00235718,2.59017e-05,-0.00594779
0.15595499999999998,-0.108481,0.16454100000000002,0.00363494,0.000456119,-0.00511044
0.10821900000000001,-0.0603937,0.00593541,0.00709735,-9.302569999999999e-05,-0.00286597
0.141261,0.055115199999999996,0.22253699999999998,0.007568489999999998,-0.000509574,-0.00261752
0.159019,0.00712115,0.218942,0.0077398,-0.000449212,-0.00261752
0.1635,0.0998245,0.302008,0.00702669,-0.000634498,-0.00267139
0.169218,0.0449542,0.26262399999999997,0.0073683,-0.00062073,-0.00302998
0.17443,0.07865909999999998,0.293172,0.00611765,-0.00039345199999999997,-0.00304843
0.168849,0.16800199999999998,0.348234,0.00565316,-0.000449212,-0.00314289
0.177076,0.095934,0.327415,0.00536399,-0.00010292899999999999,-0.00326006
0.166551,0.150609,0.34771799999999997,0.00424527,-0.000356133,-0.00455325
0.148697,-0.136262,0.05843290000000001,0.00260283,0.000766728,-0.00507832
0.153645,0.09885830000000001,0.295804,0.00211765,0.000562131,-0.00515833
0.166512,-0.146066,0.165052,0.00376641,0.00130709,-0.00513882
0.16556099999999999,-0.0971807,0.299477,0.00405028,0.00175564,-0.00548247
0.187076,-0.0820246,0.262482,0.00451434,0.00140298,-0.00586796
0.166166,-0.202173,0.147412,0.00379415,0.0007877579999999997,-0.00577657
0.16347,0.013943899999999999,0.31943,0.00192624,0.000697224,-0.00698348
0.18691,-0.141234,0.16243,0.0019590999999999996,0.00088712,-0.007216079999999999
0.17188299999999998,-0.0712875,0.310052,0.000567915,0.00055405,-0.007501029999999999
0.229035,-0.0968946,0.27977199999999997,6.702e-05,0.000611798,-0.00893094
0.27271999999999996,-0.234519,0.14106800000000005,-0.000464334,0.00176549,-0.008713969999999998
0.274723,-0.017253499999999998,0.383096,-0.00108979,0.0022726999999999995,-0.00930275
0.297145,-0.17538099999999998,0.333323,-0.00218469,0.00212167,-0.010524700000000001
0.291505,-0.309249,0.199972,-0.0013165,0.00263103,-0.00993325
0.294174,-0.14069700000000002,0.44000900000000004,-0.0020333,0.00218048,-0.010329399999999999
0.314277,-0.34177399999999997,0.1185,-0.000958002,0.0014287,-0.010329399999999999
0.292043,-0.11730499999999999,0.35994899999999996,-0.000535056,0.0014287,-0.00969251
0.339493,-0.17169500000000001,0.294236,-0.0008812079999999998,0.0016078,-0.010884200000000002
0.340863,-0.239315,0.208919,0.00143863,0.00113117,-0.00928539
0.382754,-0.324178,0.10261400000000001,0.00191394,0.00133597,-0.00933254
0.256973,-0.106421,0.0654828,0.00589885,0.0017492999999999999,-0.00608133
0.214785,-0.179489,0.054216099999999996,0.00907994,0.00131281,-0.00482407
0.23973200000000003,0.027877,0.21254699999999999,0.00844079,0.000282952,-0.00399031
0.25612399999999996,-0.119224,0.20438499999999998,0.00780603,4.0266100000000004e-05,-0.00377728
0.268489,0.00569392,0.253449,0.00767854,0.00021919999999999996,-0.00399031
0.27571599999999996,-0.100027,0.276592,0.00678435,-0.00015536,-0.00399031
0.27828400000000003,-0.0225947,0.282525,0.00656238,-0.0005867019999999999,-0.00433178
0.286994,-0.059493,0.29931199999999997,0.0062951,-0.000509926,-0.00501418
0.302123,-0.035711599999999996,0.305578,0.00600627,-0.0005867019999999999,-0.00563907
0.280965,-0.174111,0.148991,0.00439512,4.3245600000000005e-05,-0.00621696
0.247429,-0.13807100000000005,0.151644,0.0041499,0.000459337,-0.00592156
0.276014,-0.150977,0.126698,0.00409236,-0.000123066,-0.00660867
0.292608,-0.166416,0.165417,0.00437317,0.000719421,-0.00662953
0.303487,0.00742272,0.261893,0.00516524,0.00143738,-0.00703508
0.274663,-0.21588800000000002,0.174745,0.00384185,0.0011683100000000005,-0.007282409999999999
0.328027,-0.015000200000000002,0.334167,0.00391778,0.00171919,-0.00839452
0.35939,-0.061290599999999994,0.368429,0.00292667,0.0011683100000000005,-0.0080776
0.363555,-0.24636,0.11009400000000001,0.00269588,0.00168392,-0.0080776
0.338413,-0.041037699999999996,0.330497,0.00132665,0.00222169,-0.00850175
0.341346,-0.250106,0.12625,0.00362999,0.00221812,-0.00850175
0.320325,-0.145296,0.26843,0.00362728,0.00233612,-0.00890741
0.347035,-0.13653800000000002,0.277833,0.0026898000000000004,0.00263057,-0.00874922
0.37199299999999996,-0.243483,0.199936,0.00297319,0.00250202,-0.00866505
0.360244,-0.19734300000000002,0.273217,0.00280729,0.00256737,-0.008122789999999998
0.397281,-0.13777999999999999,0.398495,0.00101166,0.00288828,-0.00896383
0.41282700000000006,-0.115829,0.44636499999999996,0.000823991,0.00256737,-0.00914693
0.436555,-0.115106,0.382175,0.000904869,0.00256737,-0.00915613
0.45521000000000006,-0.160138,0.373896,0.000493992,0.00295861,-0.00874247
0.45415500000000003,-0.153251,0.35493600000000003,0.0007884399999999997,0.00290328,-0.00861444
0.42384799999999995,-0.17329,0.27179699999999996,0.00127909,0.00202377,-0.00874247
0.30861900000000003,0.202593,0.305729,0.0112943,0.00291182,-0.00527131
0.260062,-0.508758,0.1135,0.00470846,0.00173392,-0.00571021
0.12400499999999999,-0.404443,0.173328,-0.00516611,0.00359837,-0.00420907
0.055646,-0.232021,0.0723293,0.00119947,0.000830698,-0.00250031
0.08467999999999999,-0.206186,-0.0100536,0.00172829,0.0014597499999999995,-0.00276366
0.0894225,-0.0918572,0.111293,0.000743488,0.00131146,-0.00324326
0.10464000000000001,-0.0015035,0.18676099999999998,0.000748918,0.000386365,-0.00399766
0.10091,-0.032144900000000004,0.15931900000000002,0.00138223,0.000263573,-0.00519117
0.110616,-0.133747,0.101347,0.00127045,0.000977939,-0.00663668
0.138014,-0.0451149,0.0679193,0.00117756,0.000786903,-0.00705512
0.158297,-0.264531,0.0418161,0.00202515,0.0008899989999999999,-0.00672153
0.196638,-0.23645,0.16128399999999998,0.00125392,0.0008899989999999999,-0.00790504
0.22023299999999998,-0.355716,0.051267099999999996,0.00179511,0.0009981,-0.00839222
0.23174,-0.222152,0.172535,0.00166429,0.00156282,-0.00839222
0.25127,-0.276365,0.0742812,0.00218145,0.00149521,-0.00905071
0.22624299999999997,-0.164522,0.149362,0.00133417,0.00190743,-0.00882869
0.279048,-0.0343546,0.251277,0.00165418,0.00179074,-0.00999839
0.26897,-0.1723,0.190116,0.00183726,0.00201293,-0.00925122
0.290193,-0.205925,0.195925,0.00285569,0.0019430999999999997,-0.009517900000000001
0.315415,-0.22762800000000002,0.170553,0.00286306,0.00245733,-0.00902311
0.299679,-0.280663,0.158242,0.00414655,0.00222888,-0.00902311
0.326517,-0.106689,0.346439,0.00284232,0.00245141,-0.00902311
0.331831,-0.132898,0.265735,0.00216781,0.00269558,-0.00923862
0.34755199999999997,-0.16081899999999996,0.271654,0.00207756,0.00291033,-0.0095993
0.34097,-0.17902499999999996,0.30219,0.00217753,0.00283809,-0.00934921
0.347464,-0.150343,0.31909499999999996,0.0014390999999999998,0.00318223,-0.00935279
0.335827,-0.24477600000000002,0.08778909999999998,0.0018978999999999999,0.00275939,-0.00975738
0.304494,-0.172628,0.21031,0.00235902,0.00229846,-0.009871220000000005
0.315488,-0.106608,0.232359,0.00211656,0.00234115,-0.00997797
0.300213,-0.0334283,0.278699,0.00180997,0.00234115,-0.010079600000000001
0.21024600000000002,-0.30199000000000004,0.0010428,0.00356594,0.00154926,-0.008688279999999998
0.238729,-0.17363599999999998,0.08024159999999997,0.00476894,0.00220179,-0.00896905
0.25351399999999996,-0.010158499999999999,0.161521,0.00186022,0.00216951,-0.00878988
0.264194,-0.0970648,0.174324,0.0014687,0.00207966,-0.00928095
0.27146,-0.018245599999999997,0.19955699999999998,0.00041470300000000004,0.00225602,-0.00928095
0.262033,-0.0282172,0.19509300000000002,0.000612019,0.00227821,-0.009803000000000001
0.264171,-0.0204837,0.256272,-0.000542352,0.00230404,-0.010332
0.26406199999999996,-0.05896180000000001,0.22291799999999998,-0.00027669799999999997,0.00280525,-0.010752500000000002
0.264179,-0.0936593,0.209983,-0.0009376950000000002,0.00257454,-0.0110193
0.23967600000000003,-0.0896898,0.152077,-0.000712564,0.00317075,-0.009936950000000005
0.260601,-0.0492985,0.176099,-0.000222803,0.00262742,-0.0104189
0.238837,-0.041839499999999995,0.19625599999999999,0.000198127,0.0026902,-0.00986257
0.25705300000000003,0.037242800000000006,0.196088,0.00025405,0.00289583,-0.0101041
0.266366,-0.08138539999999997,0.15301099999999998,0.0009136630000000002,0.00349367,-0.00972703
0.256062,0.00711673,0.22766399999999998,0.00018192299999999999,0.003045,-0.00936985
0.267217,-0.0386596,0.171897,0.00114392,0.00324166,-0.00925965
0.254469,0.0301704,0.234965,0.00113519,0.00301235,-0.00937474
0.26802800000000004,0.0260316,0.204751,0.00102258,0.00307826,-0.00963975
0.28068699999999996,-0.038393300000000005,0.173324,0.00136748,0.00341183,-0.00899521
0.274111,-0.0593455,0.203207,0.0012319000000000002,0.00315748,-0.00905706
0.27978200000000003,-0.0022355,0.32105500000000003,0.00101476,0.0036691000000000002,-0.00934762
0.280491,-0.037615800000000005,0.22266,0.000645101,0.00278338,-0.009198520000000002
0.21583899999999998,-0.06026669999999999,0.122268,0.00156571,0.00248824,-0.00806772
0.21176599999999998,-0.012262799999999999,0.13666,0.00241516,0.00252118,-0.0083332
0.242944,-0.046369,0.21584899999999999,0.00267461,0.00340957,-0.0087606
0.257377,0.0792361,0.233856,0.00226582,0.00321396,-0.00878679
0.268617,-0.09439760000000001,0.12552700000000006,0.0024601,0.00305323,-0.00905315
0.261194,-0.155231,0.11638399999999999,0.0031004,0.00318304,-0.00960238
0.23746399999999998,-0.0907704,0.09299539999999999,0.00302621,0.00357961,-0.008601899999999999
0.19796,-0.150284,0.0855515,0.00509907,0.00297663,-0.00812612
0.24041500000000002,0.0407717,0.195223,0.00300374,0.00336587,-0.008590500000000001
0.254236,-0.0433955,0.220798,0.00226896,0.00330376,-0.00915021
0.24809,0.11100299999999999,0.24029899999999998,0.00178424,0.00378198,-0.00952706
0.255206,-0.0433237,0.237132,0.00199398,0.00358378,-0.00960456
0.25959,0.107846,0.285531,0.000978643,0.00362111,-0.010004899999999999
0.265814,-0.00519911,0.26900999999999997,0.00051176,0.00408559,-0.010004899999999999
0.265196,0.0432231,0.255372,0.000501354,0.00383183,-0.010004899999999999
0.267459,-0.012512400000000005,0.27801,-0.00073954,0.00372706,-0.010182799999999999
0.247932,-0.08347180000000001,0.169369,-0.0006992639999999999,0.00448922,-0.0103155
0.203576,0.0588476,0.242446,-0.000295902,0.00452045,-0.00987921
0.24020500000000003,0.000305587,0.20284100000000002,5.9043400000000005e-05,0.00489052,-0.010238400000000002
0.24503699999999998,-0.0182232,0.25695100000000004,3.04034e-05,0.00455307,-0.0101284
0.25472100000000003,0.047752499999999996,0.29636399999999996,-0.00019218599999999998,0.00435077,-0.0100947
0.24743,-0.00618624,0.219496,0.00044584199999999995,0.00455697,-0.00977336
0.24651900000000002,0.07074710000000001,0.288838,0.000572012,0.00459229,-0.00919906
0.26765300000000003,0.00921531,0.259702,9.861e-05,0.00404359,-0.0090319
0.257159,0.0485286,0.285439,-0.00032141200000000003,0.00395375,-0.008637769999999998
0.266497,0.059833000000000004,0.25190999999999997,0.00034199400000000003,0.00367304,-0.0090319
0.262282,0.0301112,0.261773,0.000273373,0.00402118,-0.00897478
0.27731100000000003,0.0698426,0.311073,-2.72946e-05,0.00399616,-0.0090319
0.28470100000000004,-0.045387199999999996,0.22683899999999999,-0.00036102300000000003,0.00382427,-0.0090319
0.293171,0.101967,0.296308,0.000140139,0.00382426,-0.0090319
0.290698,-0.0117832,0.20319500000000001,0.00103657,0.00454645,-0.009150499999999999
0.281667,-0.0366864,0.28503,0.00130742,0.00481698,-0.00943878
0.295948,0.008967200000000002,0.254863,0.00158965,0.00484214,-0.00943877
0.269371,-0.0200333,0.184599,0.00254884,0.0048611,-0.00943878
0.284042,0.046785,0.224227,0.00125406,0.00450252,-0.00975559
0.280547,0.0210433,0.17711300000000002,0.0015424000000000002,0.00423576,-0.00943878
0.217322,-0.0552254,0.0325034,0.00115947,0.00370375,-0.008660209999999998
0.198524,0.0836581,0.0372556,0.0016074000000000001,0.00354881,-0.008133889999999998
0.217153,-0.141756,0.101465,0.00238174,0.00354881,-0.00866419
0.24599000000000001,0.0881573,0.19711199999999998,0.00162465,0.00365192,-0.008837279999999998
0.250044,-0.056014,0.205427,0.00130665,0.00351384,-0.008837279999999998
0.261401,0.0199872,0.21032199999999998,0.000710409,0.00378068,-0.00906642
0.26944,0.042744599999999994,0.251172,0.000382106,0.00428818,-0.00900119
0.273509,0.0203583,0.25958200000000003,-9.769e-05,0.00428818,-0.00915759
0.264216,0.094283,0.271127,-0.000175102,0.00435944,-0.00905252
0.27565500000000004,0.0818562,0.29377600000000004,-0.0008380889999999997,0.00485126,-0.00979873
0.270885,-0.0431785,0.14905099999999996,8.880669999999997e-05,0.0056795000000000005,-0.0103216
0.26255100000000003,0.0340716,0.245507,-0.00136696,0.00629126,-0.009737740000000005
0.268085,-0.000410854,0.232675,-0.00124425,0.00547833,-0.0104429
0.26879200000000003,-0.137659,0.204961,-0.00218172,0.00527832,-0.0101677
0.267813,0.049844900000000004,0.302004,-0.00243256,0.00608139,-0.0107857
0.272122,-0.108271,0.209744,-0.00209467,0.00555676,-0.0111145
0.27467199999999997,0.0445939,0.322347,-0.00350101,0.00602661,-0.011704
0.284173,-0.09248700000000004,0.251278,-0.00258466,0.00648295,-0.0112022
0.28888,0.0954363,0.383874,-0.00329281,0.00709578,-0.011115
0.32246199999999997,0.0167155,0.347384,-0.00316411,0.007366809999999999,-0.011455700000000001
0.303554,-0.05652000000000001,0.322966,-0.00362509,0.00731268,-0.011183499999999999
0.311259,0.131991,0.452215,-0.00303464,0.00791531,-0.011698600000000005
0.348665,-0.11994800000000005,0.315564,-0.00157738,0.00708697,-0.011904600000000001
0.335362,0.06610160000000001,0.490043,-0.00346788,0.007876559999999998,-0.0122266
0.366182,-0.12886,0.337304,-0.00189817,0.00706795,-0.012321299999999999
0.357394,-0.0189062,0.4442,-0.00276566,0.0074753,-0.0119569
0.359462,0.0645287,0.49211099999999997,-0.00309851,0.00841558,-0.012811800000000005
0.346167,-0.123476,0.3132,-0.00210995,0.00683647,-0.012867000000000005
0.347573,0.0529025,0.550035,-0.00184437,0.00761967,-0.013296299999999999
0.362601,0.11120799999999999,0.605205,-0.00295464,0.00828479,-0.013799299999999999
0.320387,-0.032966300000000004,0.43146899999999994,-0.00264292,0.007425379999999999,-0.0118214
0.17147300000000001,-0.023105599999999997,0.26124200000000003,0.00196825,0.00483502,-0.00874566
0.20263599999999998,0.327744,0.374473,0.00302226,0.00507188,-0.00885032
0.18670799999999999,-0.09174689999999999,0.18751400000000001,0.00345876,0.00375279,-0.00904609
0.20866500000000002,-0.023001900000000002,0.29176199999999997,0.00416838,0.00376418,-0.00840478
0.234435,0.00709337,0.367127,0.00391599,0.00323382,-0.008984899999999999
0.24533899999999997,0.07213489999999999,0.427496,0.00318836,0.00255797,-0.00930313
0.257286,0.12138099999999999,0.436058,0.00228586,0.00331516,-0.00947926
0.256502,0.157059,0.49363500000000005,0.0019795999999999998,0.00356131,-0.00995496
0.261121,0.157082,0.466743,0.00160761,0.00386876,-0.010705
0.235843,-0.230923,0.017305599999999997,0.00203182,0.0053251,-0.0110089
0.239813,-0.0796153,0.18068800000000002,0.00172298,0.00518126,-0.011139200000000002
0.22720100000000001,-0.261401,0.14032,0.00285947,0.00445761,-0.0112762
0.244272,-0.124649,0.245619,0.00199567,0.00420195,-0.011933
0.24056100000000002,-0.35846500000000003,-0.00936108,0.00371312,0.00468189,-0.011933
0.226463,-0.19597699999999998,0.13267400000000001,0.00246467,0.00420993,-0.0115002
0.256471,-0.181151,0.162787,0.0013119500000000005,0.00432324,-0.012688600000000001
0.24936799999999998,-0.163217,0.163635,0.0013119500000000005,0.00428815,-0.0122616
0.234395,-0.0605914,0.21778499999999998,0.00232638,0.0036662,-0.0122845
0.249178,-0.169352,0.181258,0.00199732,0.00401115,-0.011783600000000005
0.243956,-0.00393017,0.256694,0.00232995,0.00415358,-0.0127854
0.27320300000000003,-0.140978,0.308884,0.000437235,0.00401115,-0.013465800000000005
0.30665,0.0909197,0.453153,-0.000199738,0.00532751,-0.0150518
0.315891,-0.104649,0.35730700000000004,0.000804707,0.00472466,-0.0154489
0.31801799999999997,-0.18065599999999998,0.357215,0.000912159,0.00402455,-0.014795600000000002
0.342889,-0.071616,0.521011,0.000240598,0.00425036,-0.0154537
0.374646,-0.040235599999999996,0.559747,-0.000269056,0.00449395,-0.0160549
0.366654,-0.1421,0.278147,-0.000851133,0.00447564,-0.0145614
0.356906,0.11003900000000001,0.532655,-0.000576376,0.00475472,-0.015303299999999999
0.366,-0.00353645,0.386963,-0.0011068,0.004894399999999999,-0.014649500000000001
0.234152,-0.171075,0.0787015,0.00349113,0.00343823,-0.00869548
0.22880799999999998,-0.110371,0.13178800000000002,0.00386161,0.00350817,-0.00750431
0.27147,0.129548,0.322651,0.00472655,0.00273932,-0.00706785
0.294346,0.0309517,0.351121,0.00460925,0.00238543,-0.00691255
0.303778,0.15814,0.413476,0.00447408,0.00212903,-0.00692587
0.324384,0.0418,0.42191899999999993,0.00401287,0.00181336,-0.00692574
0.325729,0.11874000000000001,0.459537,0.00299,0.00207783,-0.00673482
0.33567600000000003,0.0937954,0.47608500000000004,0.00271304,0.0021506999999999997,-0.007290419999999999
0.318817,0.130357,0.514269,0.00237266,0.00196067,-0.00740252
0.334283,0.110773,0.433465,0.00208081,0.00259067,-0.008149919999999998
0.32303200000000004,-0.0415159,0.357333,0.0016485,0.00342074,-0.00863522
0.300206,0.0409454,0.44896800000000003,0.00206385,0.00267585,-0.009238799999999998
0.300352,-0.08530029999999998,0.382761,0.00115655,0.00245138,-0.00922309
0.29273499999999997,0.0586161,0.509182,0.00189837,0.00294135,-0.00928347
0.295479,-0.0841538,0.281069,0.00152002,0.002939,-0.00907237
0.27101,0.0185799,0.450661,0.0013925,0.00311714,-0.00928347
0.297559,0.0103654,0.418991,0.00170096,0.00350463,-0.00985268
0.301526,-0.17363800000000001,0.320395,0.000785908,0.00350463,-0.00943998
0.308384,-0.0360736,0.53803,0.00051206,0.00323344,-0.010106299999999999
0.321328,-0.00278101,0.461712,-9.73887e-05,0.00310323,-0.00967021
0.328081,-0.0800487,0.47543599999999997,-0.000190838,0.0032328,-0.0097935
0.32656199999999996,-0.0969205,0.374272,0.00142375,0.00312845,-0.00954572
0.28439200000000003,-0.148287,0.483455,0.00172975,0.00251261,-0.00972346
0.317646,-0.017998799999999995,0.582191,0.00110897,0.00251261,-0.0103021
0.346505,-0.020055200000000002,0.550723,0.00128366,0.00251261,-0.010364100000000001
0.365734,-0.0200321,0.5535260000000001,0.00142127,0.00270683,-0.0102504
0.377889,-0.00814226,0.565068,0.00066469,0.0020756999999999998,-0.010276799999999999
0.37001100000000003,-0.031037099999999998,0.441917,-0.00013994700000000002,0.0028826,-0.0102649
0.363892,0.264212,0.563193,-0.000253279,0.00402207,-0.0112384
0.36848400000000003,0.0150366,0.430804,0.000421569,0.00363414,-0.0111839
0.276855,-0.187943,0.267906,0.00456555,0.00173209,-0.00994786
0.270273,-0.10262,0.331694,0.00386403,0.00242144,-0.010230800000000002
0.285833,0.05436900000000001,0.41968900000000003,0.00278878,0.00253324,-0.00985927
0.314048,0.054336199999999994,0.431313,0.00243731,0.00246718,-0.0104803
0.31351599999999996,0.159878,0.508739,0.00220081,0.0013286900000000006,-0.0105479
0.32769699999999996,0.12980799999999998,0.486918,0.00155549,0.00195171,-0.0106324
0.31767,0.223262,0.555774,0.0007927219999999999,0.00207321,-0.0105751
0.311775,0.16087100000000001,0.504329,0.00187711,0.00213201,-0.010529799999999999
0.31858000000000003,0.170826,0.5419609999999999,0.00127192,0.00268817,-0.0113263
0.285627,-0.0620694,0.22400799999999998,0.00317414,0.00325818,-0.0103841
0.26355700000000004,-0.0237775,0.32705100000000004,0.00203124,0.00283668,-0.00954051
0.298575,-0.015319200000000002,0.278061,0.00207658,0.00270913,-0.0106964
0.248191,-0.105586,0.307436,0.00223048,0.00178746,-0.009448560000000005
0.283754,0.0344129,0.387083,0.00169583,0.00149559,-0.00995209
0.254954,-0.222419,0.0260329,0.00287295,0.00316129,-0.008769229999999998
0.238652,0.0456846,0.345851,0.00437149,0.00248542,-0.00874163
0.26204,0.0689178,0.42561099999999996,0.00346132,0.0020989999999999997,-0.00930217
0.29948400000000003,-0.07927979999999997,0.27602899999999997,0.00276104,0.00210768,-0.00930217
0.294048,-0.0161405,0.433192,0.00302995,0.00231318,-0.00984505
0.303582,0.0449468,0.45156499999999994,0.00191819,0.00303802,-0.0106365
0.318301,-0.11093900000000001,0.24187199999999998,0.00134369,0.00242499,-0.0105644
0.296877,-0.11161900000000001,0.269676,0.00172979,0.00306045,-0.0102812
0.303627,-0.07510369999999998,0.311212,0.00106819,0.00338349,-0.0110025
0.28685900000000003,0.141842,0.458344,0.00204075,0.00426375,-0.010781200000000001
0.305805,0.156824,0.44507700000000006,0.00290474,0.0044206,-0.011233100000000001
0.28481799999999996,-0.0225752,0.351695,0.00416656,0.00390633,-0.0101053
0.288582,0.032599500000000003,0.549078,0.00397242,0.00377289,-0.0108725
0.272219,0.00437573,0.46817,0.00396073,0.00320307,-0.010818000000000001
0.304196,0.0128114,0.442296,0.00386288,0.00309344,-0.0111786
0.320517,0.11045999999999999,0.5062810000000001,0.0024971,0.00337604,-0.011929200000000001
0.326984,0.046231,0.5149699999999999,0.00223864,0.00261716,-0.0114958
0.336739,0.133434,0.5573140000000001,0.00173929,0.00298258,-0.0115676
0.336364,0.09317339999999999,0.506757,0.00279703,0.00383097,-0.0109776
0.249221,0.207389,0.313938,0.00345402,0.00512827,-0.00958159
0.155388,-0.0661163,-0.057174199999999994,0.00404205,0.00512624,-0.00714035
0.22792800000000002,0.16511199999999998,0.197948,0.00585654,0.00468175,-0.00807173
0.286698,0.07827879999999998,0.266357,0.00547482,0.00418225,-0.00865656
0.312915,0.155316,0.348819,0.00487268,0.00390979,-0.00890728
0.30101300000000003,0.0952896,0.310417,0.00511954,0.0037928000000000003,-0.00957025
0.275335,0.044022900000000004,0.23683,0.00410409,0.00407961,-0.00971975
0.300584,0.14300000000000002,0.370577,0.0035141,0.00378517,-0.0101081
0.297584,0.07685349999999999,0.290136,0.00363254,0.00322881,-0.00976559
0.284697,0.125377,0.367363,0.00222506,0.00345123,-0.0101111
0.300208,0.08535930000000001,0.349696,0.00315651,0.00282348,-0.011051700000000001
0.295455,0.10804000000000001,0.357249,0.00273393,0.00327613,-0.0110927
0.303976,0.12107200000000005,0.349002,0.00274292,0.00368958,-0.0113506
0.289317,-0.0193335,0.348537,0.00335059,0.00294094,-0.010943000000000001
0.28168499999999996,0.007863969999999998,0.3247,0.0039286,0.00290211,-0.010333
0.25592,0.106081,0.348873,0.00311608,0.00278769,-0.0105028
0.283943,0.124517,0.34376999999999996,0.00291308,0.00277208,-0.0110886
0.295542,0.0414205,0.324275,0.00397178,0.00180729,-0.0109229
0.276931,0.153478,0.398932,0.00374649,0.00156176,-0.0103579
0.28438,0.19989,0.38340799999999997,0.0047496000000000005,0.00209566,-0.010524200000000001
0.302836,0.0288825,0.37538699999999997,0.00459093,0.00188971,-0.0112692
0.301171,0.198169,0.5134770000000001,0.00423637,0.00207733,-0.011701000000000001
0.32642,0.0915455,0.386455,0.0046133,0.00204397,-0.0121139
0.3109,0.045022900000000005,0.412976,0.00414308,0.00189212,-0.012068
0.303691,0.144688,0.40218899999999996,0.00377853,0.0022897,-0.0116277
0.233275,-0.0321925,0.09874830000000001,0.00428026,0.00279664,-0.00960847
0.22402600000000003,0.0154721,0.18777,0.00367707,0.00213799,-0.00946208
0.25107399999999996,0.15624200000000002,0.30236999999999997,0.0027535,0.00212574,-0.0103883
0.261382,0.0935503,0.319968,0.00216394,0.00220366,-0.0113113
0.270572,0.23304499999999997,0.402415,0.00187573,0.00188596,-0.0116616
0.262444,0.13810999999999998,0.374012,0.00203483,0.00227226,-0.0114818
0.249912,0.174952,0.40399,0.0023480999999999997,0.0015382,-0.0111441
0.260887,0.116149,0.3881,0.00207168,0.00196128,-0.011603200000000001
0.258612,0.08643669999999999,0.43318999999999996,0.00203088,0.0018789000000000002,-0.011855
0.262439,0.213626,0.49126099999999995,0.000921646,0.00264963,-0.0123566
0.263816,0.00889349,0.299338,0.00221746,0.00285276,-0.012592
0.26054499999999997,0.22583499999999998,0.433724,0.00286372,0.0031625,-0.012566200000000001
0.269563,0.112757,0.350117,0.00391634,0.00362294,-0.012109000000000005
0.251843,0.10529200000000001,0.39819099999999996,0.00412642,0.00303881,-0.0114395
0.273057,0.179342,0.434724,0.0036598,0.0028855,-0.011975200000000002
0.27155999999999997,0.10641500000000001,0.34718899999999997,0.00389354,0.00310286,-0.011622200000000001
0.269662,0.234447,0.44477799999999995,0.0035374000000000004,0.00256677,-0.0114583
0.295002,0.12978499999999998,0.398174,0.0035374000000000004,0.00220197,-0.0118211
0.281206,0.15841,0.393163,0.00321281,0.0022228,-0.011193600000000001
0.306056,0.216421,0.431746,0.00341652,0.00231047,-0.011728299999999999
0.287559,0.065455,0.420658,0.00424792,0.00186668,-0.011497
0.298875,0.196693,0.466412,0.00395606,0.00171475,-0.011853
0.303518,0.07552239999999999,0.38952800000000004,0.00311374,0.00174751,-0.012156299999999998
0.283972,0.176015,0.399174,0.00273194,0.00189872,-0.0116171
0.29872,0.21629,0.375724,0.00346064,0.0024736999999999997,-0.011835799999999999
0.279987,0.11756099999999998,0.40621199999999996,0.00428982,0.00240009,-0.011094499999999998
0.28886999999999996,0.14621800000000001,0.42494,0.00402742,0.00244582,-0.0112961
0.288034,0.146851,0.447284,0.004051699999999999,0.00192559,-0.0111012
0.28239000000000003,0.125475,0.40808,0.00491521,0.00232612,-0.010524200000000001
0.28186100000000003,0.12954100000000002,0.427205,0.00486401,0.0022883,-0.0104954
0.17169600000000002,-0.0394901,0.10296099999999998,0.00617797,0.00225327,-0.008866499999999998
0.181229,0.0131209,0.140025,0.00438408,0.00208645,-0.00830165
0.205067,0.180073,0.29740500000000003,0.00469295,0.00232792,-0.009331200000000001
0.216126,0.0995048,0.33522199999999996,0.00393543,0.00145433,-0.0097393
0.22983800000000001,0.15243299999999999,0.32559499999999997,0.0038095,0.00188292,-0.0103636
0.227739,0.131748,0.372886,0.00365982,0.00168404,-0.0103581
0.243101,0.05856569999999999,0.34380700000000003,0.00383191,0.0021566,-0.0109227
0.24116500000000002,0.166884,0.37101999999999996,0.00364494,0.00225015,-0.011146399999999999
0.241902,0.060047800000000005,0.373769,0.00342525,0.00178614,-0.011182899999999999
0.238443,0.141788,0.39855300000000005,0.00297492,0.00188282,-0.011434200000000002
0.200829,0.053989699999999995,0.268022,0.00320492,0.00186112,-0.0104175
0.213952,0.21119200000000002,0.4159,0.00377711,0.00189609,-0.010853100000000001
0.213206,0.028504900000000003,0.264653,0.00366868,0.0007805510000000001,-0.00978584
0.221646,0.22778099999999998,0.36682800000000004,0.00336483,0.0017729,-0.00953738
0.22717600000000002,0.052123199999999995,0.293831,0.0048695,0.00161356,-0.00898838
0.222135,0.151357,0.360602,0.00475064,0.0013422000000000006,-0.00919307
0.23604299999999998,0.144129,0.334161,0.00558119,0.00162104,-0.00944483
0.220218,0.0868845,0.310219,0.00672339,0.00152588,-0.00895046
0.22111,0.216822,0.382413,0.007504259999999999,0.00152016,-0.008726239999999998
0.21523499999999998,0.0433329,0.31202199999999997,0.00734332,0.00153619,-0.00898312
0.22036,0.234014,0.476008,0.00743871,0.00239615,-0.00917005
0.23424299999999998,0.145571,0.436778,0.00722366,0.0019857,-0.00950474
0.20599800000000001,0.15329500000000001,0.356713,0.00596598,0.00197845,-0.00912938
0.21823,0.20926,0.424779,0.00673178,0.00215568,-0.00956167
0.21453899999999998,0.13809000000000002,0.381475,0.00749261,0.0019180999999999998,-0.00887514
0.218388,0.280489,0.461909,0.00754241,0.00189083,-0.00932564
0.238958,0.1497,0.411078,0.00758757,0.00226838,-0.010023899999999999
0.22830300000000003,0.16996,0.466495,0.00617948,0.0017839799999999997,-0.00970116
0.236803,0.16184599999999996,0.452903,0.00637718,0.00192843,-0.010023899999999999
0.20655300000000001,0.110665,0.337903,0.00701176,0.00176343,-0.009466960000000005
0.170533,0.258902,0.266359,0.00635298,0.00269293,-0.00829672
0.175369,0.052826,0.312263,0.00584952,0.00256587,-0.00872902
