0.00236288,-0.0286074,-0.00924948,0.0,-0.000223592,-6.16764e-05
-2.6073000000000003e-05,0.030816200000000002,-0.060343600000000004,-0.000380585,-0.000223592,7.29034e-05
-1.8024100000000002e-05,-0.06457769999999999,-0.029201099999999997,0.000289758,-0.00017203,-1.3452300000000005e-05
-0.00437277,-0.026896899999999998,-0.071591,-0.000263041,-0.00013217,-3.3782800000000005e-05
0.0105103,-0.0682368,-0.0637077,0.000578752,-0.000223592,0.00018742400000000003
-3.96971e-05,0.025795699999999998,-0.0348017,0.00040311199999999996,-0.00063738,0.000153311
-4.6388400000000005e-05,0.0217613,-0.058279599999999994,0.000171762,-0.00045477800000000003,7.29034e-05
0.007356589999999999,-0.0424394,-0.034826300000000004,0.000187244,-0.000359751,0.00014356700000000002
0.00550622,-0.0008305039999999999,-0.0194241,0.000346677,-0.00045808800000000005,7.29034e-05
-3.16602e-05,0.016016700000000002,-0.0693669,-0.000315489,-0.000397434,7.29034e-05
0.0189975,-0.056629700000000005,-0.052585900000000005,0.000362501,-0.000472062,0.000247473
0.0149415,-0.012212700000000005,-0.0336491,0.0006042759999999999,-0.000527174,0.000301599
0.0277475,-0.00397547,-0.00191619,0.00121422,-0.000544111,0.0006791910000000001
0.0211096,0.0665074,-0.018114099999999998,0.000512953,-0.00084416,0.000596182
0.0346319,-0.025402,-0.0259767,0.000682054,-0.0007957799999999997,0.000635512
0.024848,0.037221,-0.0187121,0.0007322999999999999,-0.000836186,0.0005028669999999999
0.024080200000000003,-0.016758099999999998,-0.046143300000000005,0.000323431,-0.00063738,0.000657261
0.024052700000000003,-0.039103,-0.00640105,0.0007322999999999999,-0.0007542139999999999,0.000535443
0.0222794,0.014786,-0.0557442,-0.000254896,-0.00063738,0.000602935
0.0194423,-0.026291200000000004,0.0206424,0.0009958319999999999,-0.00063738,0.000510158
0.017668200000000002,0.0379603,-0.040551300000000005,0.00046297300000000004,-0.0007302789999999999,0.000444871
0.027723599999999998,-0.0512379,-0.0608694,0.000179144,-0.00063738,0.00057362
0.027780799999999998,0.0364328,-0.0100693,0.000404359,-0.000743495,0.000426002
0.027769799999999997,0.0200859,0.020668400000000003,0.000662284,-0.00063738,0.000320068
0.016606799999999998,0.05008769999999999,-0.0195446,0.000448234,-0.00063738,0.000145189
0.0202538,-0.0007813710000000001,0.033807199999999996,0.0007904260000000001,-0.00063738,0.000209923
0.020752700000000002,0.0392531,0.023372900000000002,0.000549527,-0.00063738,0.000186921
0.0188299,0.045468699999999994,0.039753500000000004,0.000662284,-0.000702884,7.29034e-05
0.015685399999999995,0.053580899999999994,0.024665799999999998,0.000585922,-0.00063738,-4.5588500000000006e-05
0.0196582,0.024399900000000002,0.056013400000000005,0.0008097489999999999,-0.000545743,7.29034e-05
0.013994399999999999,0.0652919,0.0354586,0.000410692,-0.000536224,7.29034e-05
0.0277753,-0.00350696,-0.00119067,-0.000251674,-0.000315055,7.29034e-05
0.019050599999999997,0.04361280000000001,0.0317326,0.00021428700000000002,-0.00063738,7.29034e-05
0.027768599999999997,-0.00218994,0.00910998,0.000142802,-0.0005790169999999999,-7.485279999999997e-05
0.016459400000000003,0.0755837,0.0229983,0.00062561,-0.00063738,7.29034e-05
0.0135351,0.034107900000000003,-0.00451266,0.00021428700000000002,-0.00063738,-6.22139e-05
0.025018799999999997,-0.0241957,0.00294516,0.00038968900000000003,-0.000281806,-0.000174417
0.0159773,0.07515430000000001,0.055803099999999994,0.000855917,-0.00063738,-7.47638e-05
0.0160117,0.06923460000000001,0.00322176,0.00021428700000000002,-0.000264009,-0.000351534
0.0106368,0.022557,0.0298846,0.000554523,-0.000438976,-0.000351534
0.00837582,0.07146439999999998,0.0008000149999999997,0.000595034,-0.000354416,-0.000351534
0.018344799999999998,0.00507392,-0.000136778,-0.000130285,-0.000152543,-0.000351534
0.0174683,0.0308383,0.0231322,0.000315975,-0.000264363,-0.00023146
0.018407800000000002,0.0109691,-0.0083809,0.000315975,-5.10097e-05,-0.00043036800000000004
0.010358200000000001,0.051965599999999994,0.0231395,0.0007670659999999997,-0.00023685900000000002,-0.000351534
0.0110915,0.045812599999999995,-0.029522800000000002,0.000315975,9.438360000000001e-05,-0.000562669
0.00793282,0.0109181,0.00120061,0.00154526,0.000149612,-0.00055157
0.00495333,0.043946,-0.0433871,0.000857,0.00027425400000000003,-0.000641806
0.00620978,0.00296667,0.00281909,0.0014869999999999998,0.00026314,-0.0007784889999999999
-0.00485993,0.0967562,-0.0125556,0.00120027,0.000152469,-0.000552885
-0.00486373,0.0333672,-0.0479099,0.0010312000000000001,0.000118677,-0.000519895
-0.00487124,0.0333509,0.00246335,0.00148607,0.000263141,-0.000769895
-0.00486322,0.0389865,0.00862453,0.00154526,5.54693e-05,-0.000769895
-0.0048741999999999995,0.100655,-0.0215054,0.0011161500000000002,0.000154157,-0.000856345
-0.00487124,-0.0064883,0.0162648,0.00181565,0.000263141,-0.0007698959999999997
-0.00865009,0.0902816,0.0163084,0.00161736,6.92081e-05,-0.0007698959999999997
-0.00486658,0.0450022,0.0294288,0.00176349,0.000208602,-0.000976822
-0.0137341,0.07701720000000001,0.020897299999999997,0.00169299,0.000263141,-0.00112473
-0.0165022,0.0902628,0.016280099999999995,0.00131291,0.000263141,-0.000984114
-0.0139989,0.0343156,0.0283034,0.00143312,0.000263141,-0.000979167
-0.011604799999999998,0.0981934,-0.024806,0.000283682,0.000263141,-0.000895388
-0.0123552,0.019179599999999998,-0.00510739,0.0008908160000000001,0.000204771,-0.00100109
-0.022268700000000002,0.0688492,-0.022200099999999997,0.00105405,0.000263141,-0.00130504
-0.033231800000000006,0.0374509,-0.0433196,0.000154211,0.000517155,-0.00139499
-0.0332328,-0.0197753,-0.00274713,0.000977232,0.000453559,-0.00165437
-0.047098400000000006,0.0754539,-0.000449505,0.000724061,0.0005459659999999999,-0.00194826
-0.033296,0.05912819999999999,-0.039729900000000005,6.212399999999999e-05,0.0007582839999999999,-0.00215659
-0.0444356,0.0754901,0.028544099999999996,0.0007554909999999997,0.0007582839999999999,-0.00215659
-0.0411709,0.0565578,-0.0254168,0.000178294,0.000847972,-0.00209686
-0.0434864,0.07548730000000001,0.017828199999999995,0.0009749130000000002,0.000403416,-0.00206293
-0.038743,0.05239169999999999,-0.04031219999999999,0.000558615,0.000686628,-0.00178304
-0.0460708,0.0566163,0.025812,0.0008985609999999998,0.000234288,-0.00182028
-0.0436398,0.06851669999999999,-0.0342897,0.00020282,0.000481994,-0.00204044
-0.0385557,-0.00904749,-0.00537184,0.00039252,0.000381905,-0.00208656
-0.0430819,0.06972339999999999,-0.0101102,0.000563052,0.00037544900000000003,-0.0021566
-0.050968900000000004,0.0215357,-0.0462435,-0.000135744,0.000609929,-0.0021566
-0.0416708,-0.0171797,-0.0181637,0.00020282,0.000501634,-0.00202102
-0.0494884,0.07359199999999999,-0.00865232,0.00020282,0.000387099,-0.0021566
-0.0436728,0.06655189999999998,-0.017987,-4.927e-05,0.0006674830000000001,-0.0021566
-0.0497287,0.0417004,0.013953799999999999,0.00040555800000000004,0.000641057,-0.0022178000000000002
-0.046608300000000005,0.049948,-0.014929399999999999,0.000272299,0.000641056,-0.00222612
-0.0524149,0.07395689999999999,0.0008104269999999997,0.00033952699999999995,0.000514514,-0.00234338
-0.051180199999999995,0.044320599999999995,0.0221975,0.0006266269999999999,0.000534664,-0.00256035
-0.06151469999999999,0.124677,-0.0329674,2.2165999999999997e-05,0.000381439,-0.00256035
-0.05520030000000001,-0.00310571,0.013339400000000001,0.000525678,0.000353089,-0.00256035
-0.04729269999999999,0.041182199999999995,0.049801099999999994,0.000834613,0.000390159,-0.00222759
-0.0477167,0.09445880000000001,0.012988399999999999,9.28994e-07,0.000308989,-0.00192905
-0.0418579,0.0160711,0.037517400000000006,0.0005136240000000001,0.000153652,-0.00211493
-0.0494418,0.118251,0.021212400000000003,5.2024399999999996e-05,0.000153652,-0.00210886
-0.0425769,0.0155754,0.046986900000000005,0.000373135,0.000325294,-0.00233488
-0.0348486,0.0427112,-0.00395794,-5.158770000000001e-05,0.00062854,-0.00199508
-0.0368506,0.0711347,0.027628500000000004,0.000458701,0.00037092300000000005,-0.00196802
-0.0423644,0.07998510000000002,-0.00721423,0.000269318,0.000350349,-0.00209035
-0.0434802,0.0409987,-0.0240835,0.000223091,0.0006718119999999999,-0.00209035
-0.0430201,0.045043400000000004,0.027544,0.000487731,0.000290654,-0.00209035
-0.0427271,0.11780999999999998,0.00012339600000000004,-0.00028464,0.000516904,-0.00209035
-0.0388674,0.0395889,0.019281700000000002,0.000184384,0.00046461800000000003,-0.00218421
-0.046029900000000006,0.08272989999999998,-0.035405900000000004,-0.000322376,0.0007435109999999998,-0.00209035
-0.0465215,0.0421039,0.0393693,0.000528233,0.000547639,-0.00220517
-0.043956800000000004,0.088157,-0.0249011,-1.26961e-06,0.0006467430000000001,-0.00209035
-0.047887900000000004,0.0318147,0.0207208,0.000535038,0.0005579669999999999,-0.00227008
-0.051686300000000004,0.119804,-0.0224551,-1.1107799999999999e-05,0.000639636,-0.00252008
-0.050982,0.038344699999999995,-0.004296899999999999,0.00019554,0.0005577819999999999,-0.0023801
-0.055208900000000005,0.102198,0.0200764,0.000267688,0.0007231319999999999,-0.00264532
-0.0552386,0.112096,-0.0157623,-0.00027984900000000004,0.0007231319999999999,-0.00292734
-0.06289990000000001,0.048849800000000006,0.00424289,9.62335e-05,0.0007231319999999999,-0.00267733
-0.0725553,0.09410760000000004,0.0201057,5.74398e-05,0.000554544,-0.00298878
-0.0627986,0.10919100000000001,-0.0220804,-0.00083296,0.0007231319999999999,-0.00292733
-0.06807310000000001,0.048186400000000004,0.0292028,-0.000298186,0.000554174,-0.00334774
-0.0769692,0.09290239999999998,-0.0143412,-0.0008531939999999999,0.000645627,-0.00315081
-0.07413129999999997,0.0325322,0.00611456,-0.0007529569999999997,0.000596936,-0.00345467
-0.08389810000000002,0.0924722,0.0280274,-0.0008531939999999999,0.000435454,-0.0035665
-0.0806003,0.07714319999999998,0.0392621,-0.0008531939999999999,0.00038731800000000005,-0.00350973
-0.0806128,0.125801,-0.0393826,-0.0014777499999999995,0.000286395,-0.0035665
-0.0812924,-0.00270014,0.0249726,-0.0007819129999999999,0.000286395,-0.0035665
-0.0715933,0.0457491,0.0482852,-0.000600166,0.000422671,-0.0035665
-0.07893480000000001,0.0753237,0.05499830000000001,-0.0005402919999999999,0.000405396,-0.0035665
-0.079903,0.10545299999999999,0.0589953,-0.000331155,0.00039962,-0.0035665
-0.0764696,0.125223,0.0473764,-0.00120454,0.000525037,-0.0035665
-0.07806089999999999,0.120296,0.051412900000000004,-0.000814472,0.000507343,-0.0035665
-0.0715692,0.0739075,0.013214600000000005,-0.00116259,0.000683107,-0.00346918
-0.07797539999999999,0.12269600000000006,0.00471155,-0.00116259,0.000625386,-0.0035665
-0.0715717,0.0391512,-0.0244737,-0.00116259,0.000638562,-0.00340913
-0.07997560000000001,0.08761779999999998,0.012416700000000001,-0.00116259,0.000490999,-0.0035665
-0.071564,0.0241943,-0.0103159,-0.00134196,0.000680316,-0.0035665
-0.0826265,0.0371065,0.010324,-0.00110532,0.000534835,-0.00369236
-0.0716112,0.07266039999999999,-0.00599079,-0.00116259,0.000783768,-0.0035665
-0.0804806,0.060989,0.0378073,-0.00064124,0.000529414,-0.0035665
-0.07936519999999997,0.147867,-0.0054482,-0.0016229599999999995,0.000715061,-0.0035665
-0.07931059999999998,0.0402459,-0.0179079,-0.00107751,0.0006587639999999999,-0.0035665
-0.0845548,0.10567599999999999,0.027915199999999998,-0.00143471,0.0006107619999999999,-0.0037405999999999997
-0.0836356,0.105706,0.00895391,-0.00128445,0.00046291800000000004,-0.00370766
-0.07619929999999997,0.0157114,0.00408345,-0.0009973610000000002,0.0008463919999999997,-0.0035665
-0.0885784,0.08074499999999997,0.0279154,-0.00132646,0.000526206,-0.0040143999999999996
-0.0899132,0.0969027,-0.00671099,-0.00179672,0.0007843159999999999,-0.00403455
-0.08065279999999997,0.0211398,-0.00978892,-0.00231246,0.000846391,-0.00390618
-0.08914959999999998,0.0506046,0.0263546,-0.0016229599999999995,0.0008463919999999997,-0.00412441
-0.08977450000000001,0.06408530000000001,-0.0155702,-0.00205568,0.0008463919999999997,-0.00412441
-0.0880347,0.0270163,0.0158267,-0.0012677500000000006,0.0008463919999999997,-0.00412441
-0.09538869999999999,0.110248,-0.00428414,-0.00210252,0.0008463919999999997,-0.00412441
-0.0961527,0.047468800000000005,0.013625100000000001,-0.00169461,0.00100541,-0.00433953
-0.10044700000000001,0.102274,-0.000253868,-0.00202601,0.0008463919999999997,-0.00412441
-0.102039,0.0458499,0.012088,-0.00149203,0.0008463919999999997,-0.00438535
-0.101763,0.0973318,-0.0008249349999999997,-0.00130043,0.0008463919999999997,-0.00439286
-0.10655099999999999,0.083719,0.01584,-0.00165457,0.0008463919999999997,-0.00439642
-0.10486400000000001,0.0576886,0.0389775,-0.00149168,0.00102945,-0.00459659
-0.108617,0.10335499999999999,0.0101242,-0.00166698,0.0008463919999999997,-0.00457569
-0.10784400000000001,0.06269130000000002,0.00965154,-0.00173506,0.0010428700000000002,-0.00454509
-0.10822899999999999,0.0714289,0.013206200000000001,-0.00166698,0.0008463919999999997,-0.00452476
-0.100695,0.0942749,-0.016242,-0.00266915,0.00107941,-0.00436544
-0.108071,0.028542500000000002,-0.00392017,-0.00208281,0.0008463919999999997,-0.00434059
-0.106857,0.101691,-0.038737,-0.00260817,0.0008463919999999997,-0.00438453
-0.0886567,-0.000783988,-0.0605915,-0.00215893,0.00148785,-0.00400841
-0.0964643,0.0536313,-0.0219717,-0.00168281,0.00129938,-0.00460328
-0.088607,0.0279562,-0.0309642,-0.00169226,0.00129938,-0.00419915
-0.1098,0.0701919,-0.031066700000000003,-0.00181487,0.00118466,-0.00460328
-0.11204700000000001,0.0863164,-0.028766800000000002,-0.00221643,0.000858743,-0.00460328
-0.10481800000000001,0.0187574,-0.0580011,-0.00281508,0.00129938,-0.00460328
-0.10481800000000001,0.0276803,0.028976799999999997,-0.00168373,0.00129938,-0.00460328
-0.10481800000000001,0.041732099999999994,-0.062130200000000003,-0.00236777,0.00129938,-0.00460328
-0.104815,0.0416075,-0.008998899999999999,-0.00221643,0.00108795,-0.00481484
-0.104824,0.07335080000000001,-0.0723217,-0.00338496,0.00129938,-0.0047911
-0.10481800000000001,-0.00370256,-0.0215058,-0.00233293,0.00129938,-0.00460328
-0.10481800000000001,0.0649611,-0.0597039,-0.00280002,0.00129938,-0.00460328
-0.0917452,-0.016631299999999998,-0.0933532,-0.00321119,0.00129938,-0.00448558
-0.10478900000000001,0.0235782,-0.015931,-0.00209007,0.000963654,-0.00475423
-0.111926,0.052430899999999996,-0.0267068,-0.00240482,0.00129938,-0.00491362
-0.10481800000000001,0.010642200000000001,-0.08820689999999999,-0.00343496,0.00129938,-0.00468458
-0.10481199999999999,0.0238227,-0.0326056,-0.00285537,0.00129938,-0.00496027
-0.0987793,-0.0195031,-0.0898199,-0.00286605,0.00129938,-0.00498423
-0.0984847,0.03135,-0.038725199999999994,-0.00236896,0.00129938,-0.00468458
-0.10481800000000001,0.0204095,-0.026831099999999997,-0.00236896,0.00129938,-0.00468458
-0.104816,0.07686989999999999,-0.053558900000000007,-0.00297443,0.0012186600000000005,-0.00468458
-0.10481700000000001,0.0133626,-0.0318919,-0.00246906,0.0012355300000000005,-0.00468458
-0.10481800000000001,0.0472851,-0.0436661,-0.00297443,0.00129938,-0.00468458
-0.104816,0.0317247,-0.0286442,-0.00285982,0.00129938,-0.00462823
-0.104832,0.013987500000000005,-0.030566900000000004,-0.0025535,0.00129938,-0.00473729
-0.11665,0.0856288,-0.057167499999999996,-0.00343183,0.00122025,-0.00491996
-0.116853,-0.015344700000000001,-0.0194372,-0.00232036,0.0009754910000000001,-0.0048031
-0.10484500000000001,0.024095,-0.05697909999999999,-0.0025510999999999997,0.00116421,-0.00479701
-0.10486300000000001,0.052787,-0.040897300000000004,-0.00341249,0.00109431,-0.00488751
-0.114673,-0.00119079,-0.07819860000000001,-0.00332164,0.00114203,-0.00493347
-0.0987891,-0.0208378,-0.0489353,-0.00278148,0.00128841,-0.00467811
-0.104869,0.0806462,-0.06417819999999999,-0.003927,0.00135806,-0.00467811
-0.10491800000000001,0.0119118,-0.027721499999999996,-0.00316574,0.001349,-0.00492513
-0.11435799999999999,0.0716821,-0.0795405,-0.00424948,0.00144798,-0.00492759
-0.104876,-0.00409282,-0.0410653,-0.00343006,0.00123538,-0.00481826
-0.121206,0.07380309999999997,-0.050000300000000004,-0.00381663,0.00147592,-0.00499815
-0.121745,0.0010065,-0.08270119999999999,-0.00436314,0.00150093,-0.00499815
-0.10497000000000001,-0.0296524,-0.0387269,-0.00362131,0.00170993,-0.00483897
-0.122609,0.0341041,-0.0224588,-0.00322141,0.0011155,-0.00499815
-0.11119100000000001,0.0429445,-0.059687699999999996,-0.00417903,0.0013039000000000002,-0.00493543
-0.118119,-0.00178268,-0.0364109,-0.00384601,0.00150923,-0.00499815
-0.104929,-0.00133142,-0.105449,-0.00456389,0.0017786999999999998,-0.00499815
-0.10489100000000001,0.007600789999999999,-0.0455908,-0.00376808,0.00158849,-0.00492287
-0.121903,0.05376860000000001,-0.08265759999999997,-0.00454765,0.00147758,-0.00499815
-0.0971652,-0.0424208,-0.115646,-0.00446487,0.00194213,-0.00475212
-0.10489100000000001,-0.010543799999999999,-0.08381099999999997,-0.00452778,0.00154204,-0.00484431
-0.104967,0.00976941,-0.105688,-0.0050725,0.00180677,-0.00516219
-0.0891719,-0.0317798,-0.05834640000000001,-0.00402642,0.00172233,-0.00509769
-0.104901,0.057573,-0.10429000000000001,-0.0050989,0.00155244,-0.00498714
-0.104922,-0.00118122,-0.121677,-0.00548799,0.00152666,-0.00525115
-0.10491099999999999,-0.060134900000000005,-0.0324214,-0.00440263,0.00136092,-0.00504024
-0.104921,0.016688099999999997,-0.014987,-0.00414879,0.00174322,-0.00481784
-0.108633,0.023730200000000003,0.00150102,-0.00431016,0.00190689,-0.00507352
-0.11101400000000002,0.0676375,0.00552058,-0.00439224,0.00163161,-0.00511988
-0.11799000000000001,0.06766180000000001,-0.0130225,-0.00468433,0.00142982,-0.00508623
-0.118522,0.061440999999999996,-0.008923149999999998,-0.00439325,0.00142982,-0.0051827
-0.119082,0.05565459999999999,-0.048953699999999996,-0.00507052,0.00177581,-0.00529032
-0.104965,-0.029548400000000002,-0.0371899,-0.00403967,0.00208557,-0.00511237
-0.10968900000000001,0.012832900000000001,-0.0592424,-0.00567699,0.00208557,-0.00511237
-0.10497100000000001,-0.06968619999999999,-0.0899711,-0.00498524,0.00208557,-0.0048973
-0.120722,0.030021299999999997,-0.0657813,-0.00583326,0.00208557,-0.00535476
-0.11395799999999999,-0.014468200000000002,-0.11575999999999999,-0.00606951,0.00208557,-0.00535476
-0.105005,-0.0383344,-0.0466531,-0.00511095,0.00208557,-0.00535476
-0.122064,0.0669007,-0.0908245,-0.00610005,0.00188617,-0.00535476
-0.10861300000000002,-0.031555099999999996,-0.10808499999999999,-0.00569094,0.00215856,-0.0052478
-0.10721,-0.00883424,-0.0376962,-0.00537618,0.00208557,-0.00535476
-0.116388,0.0157686,-0.0668638,-0.00556173,0.00202873,-0.00535476
-0.11424500000000005,0.0141631,-0.067998,-0.00583004,0.00208557,-0.00524669
-0.11717300000000005,0.007786709999999999,-0.0575663,-0.00595491,0.00208557,-0.00535476
-0.104989,-0.0006217659999999999,-0.0939571,-0.00582824,0.00247085,-0.00535476
-0.11541900000000001,0.0163867,-0.05756169999999999,-0.00624433,0.00208557,-0.00535476
-0.104995,-0.0261692,-0.09516720000000001,-0.0055888000000000005,0.00270198,-0.00511816
-0.11469000000000001,0.022627200000000004,-0.0702882,-0.00618832,0.00239552,-0.00535476
-0.121768,0.00541726,-0.10554300000000001,-0.00685728,0.00253178,-0.00535476
-0.11180599999999999,-0.0540096,-0.0442091,-0.0056225,0.00241733,-0.00535476
-0.12903599999999998,0.027833799999999995,-0.0796597,-0.00664429,0.00234894,-0.00535476
-0.12175200000000005,-0.041398800000000006,-0.12924000000000002,-0.00686957,0.00255243,-0.00535476
-0.109714,-0.058464300000000004,-0.0912704,-0.006351600000000001,0.00235363,-0.00557497
-0.11867799999999999,0.020650099999999998,-0.0860572,-0.00683432,0.00239256,-0.005571100000000001
-0.1158,-0.0156036,-0.052702099999999995,-0.00618173,0.00239839,-0.0055673
-0.12416600000000001,0.0341346,-0.0705818,-0.00654053,0.00235387,-0.00552057
-0.11870399999999999,0.008506399999999999,-0.0743,-0.00683803,0.00244828,-0.00552057
-0.12309800000000005,-0.00804488,-0.039822,-0.00635471,0.0025164000000000002,-0.00552057
-0.121459,0.0262296,-0.0734562,-0.00681496,0.00244102,-0.00552057
-0.11845399999999999,-0.0398117,-0.0680003,-0.00654381,0.00249277,-0.00560515
-0.116541,-0.0158275,-0.07737059999999997,-0.00676516,0.00252099,-0.00552057
-0.11434100000000001,-0.0127263,-0.13093,-0.00766599,0.00270103,-0.00553472
-0.10931300000000001,-0.0732234,-0.10053,-0.006906600000000001,0.00244717,-0.00562627
-0.11496300000000001,-0.0341339,-0.14018699999999998,-0.00730874,0.00266529,-0.0057445
-0.110921,-0.0731802,-0.0802553,-0.00663051,0.0024167,-0.00562627
-0.13004000000000002,0.00169798,-0.129972,-0.00719894,0.00223006,-0.0057545
-0.108097,-0.0415505,-0.125108,-0.00664674,0.00267659,-0.00552204
-0.12110499999999999,0.00131422,-0.11661400000000001,-0.00713388,0.00246194,-0.00562628
-0.12255,0.0130732,-0.129356,-0.007383299999999998,0.00248218,-0.00559687
-0.11158399999999999,-0.0477946,-0.12421900000000001,-0.00712699,0.00272111,-0.00564106
-0.12006900000000001,-0.019440799999999998,-0.0931177,-0.00675303,0.0023886999999999997,-0.0057745
-0.116453,-0.0317409,-0.130167,-0.007261509999999999,0.00255017,-0.00576302
-0.12291300000000001,-0.027702299999999996,-0.0971847,-0.00707945,0.00231507,-0.00561569
-0.122175,-0.0152886,-0.139455,-0.00740233,0.00248663,-0.00595652
-0.11326199999999999,-0.0950439,-0.155468,-0.00712429,0.00285858,-0.0058752
-0.118379,-0.0334616,-0.105768,-0.00687366,0.00244918,-0.00581328
-0.11224100000000001,-0.021397,-0.157298,-0.0076603999999999995,0.00239552,-0.00546056
-0.11625,-0.0905994,-0.141282,-0.00731675,0.00245138,-0.00563335
-0.115763,-0.023675599999999998,-0.152232,-0.007715269999999998,0.00246812,-0.00568239
-0.11271099999999999,-0.061932400000000006,-0.0928485,-0.00685007,0.00231797,-0.00577951
-0.12436900000000001,0.00224183,-0.129308,-0.00758668,0.00224757,-0.00588443
-0.111863,-0.051175099999999994,-0.14399300000000004,-0.007398219999999999,0.00254076,-0.00588443
-0.11597400000000001,-0.0417309,-0.11491300000000002,-0.00735335,0.00220639,-0.00588443
-0.122206,-0.027489099999999995,-0.12160000000000006,-0.007654,0.00218062,-0.00581586
-0.126892,-0.00516382,-0.141765,-0.008012929999999998,0.00208557,-0.00588443
-0.12984400000000001,-0.08434130000000001,-0.0623082,-0.006913600000000001,0.00201726,-0.00588443
-0.138811,-0.00126331,-0.105761,-0.00783583,0.00208557,-0.00588443
-0.127755,-0.07463029999999997,-0.047037,-0.00712084,0.00208557,-0.00600536
-0.126717,-0.00621141,-0.0416269,-0.00788611,0.002165,-0.00589396
-0.12971700000000005,-0.024188499999999998,-0.07492559999999998,-0.00834574,0.00222802,-0.00589396
-0.129072,0.0123488,-0.0682362,-0.008546899999999998,0.00208557,-0.00589396
-0.122153,-0.0585182,-0.11221800000000001,-0.00832382,0.00253776,-0.00589396
-0.12218499999999999,-0.0101085,-0.0705311,-0.00851752,0.00236749,-0.00589396
-0.12218,-0.048449400000000004,-0.133922,-0.00924457,0.00246957,-0.00589396
-0.122146,-0.0906076,-0.08955239999999999,-0.00754715,0.00241083,-0.00589396
-0.12216600000000001,-0.0312776,-0.0997395,-0.008395059999999998,0.00248486,-0.00589396
-0.112804,-0.0711198,-0.0895576,-0.008065239999999998,0.00240867,-0.00589396
-0.12219400000000001,0.027673700000000002,-0.08972779999999997,-0.00859199,0.0023951000000000003,-0.00589396
-0.11576700000000001,-0.029968,-0.136497,-0.00864849,0.00250459,-0.00589396
-0.116252,-0.0441143,-0.0711547,-0.00801099,0.00251524,-0.00589396
-0.12219100000000001,0.0140161,-0.0945389,-0.00882843,0.00227387,-0.00589396
-0.11175299999999999,-0.0349355,-0.100117,-0.008717759999999998,0.00248553,-0.00589396
-0.11436099999999999,-0.0723419,-0.0417322,-0.00810075,0.00257191,-0.00589396
-0.12221000000000005,0.0104108,-0.073203,-0.00884532,0.00255212,-0.00589396
-0.11371800000000006,-0.0778571,-0.08836049999999998,-0.00895492,0.00262131,-0.00589396
-0.109753,-0.07340369999999999,-0.0655021,-0.00846006,0.00248054,-0.00578774
-0.11217,-0.0499361,-0.12709600000000001,-0.00922478,0.00233841,-0.00589395
-0.11151400000000002,-0.06475209999999999,-0.0718044,-0.00876172,0.0025597,-0.00589396
-0.111133,-0.033441000000000005,-0.106126,-0.009051700000000001,0.0027904,-0.00589396
-0.12221099999999999,-0.072616,-0.0475159,-0.00839222,0.00243986,-0.00575832
-0.122208,-0.0114381,-0.102976,-0.00933436,0.00243154,-0.00581793
-0.113514,-0.0721165,-0.10299000000000001,-0.00888804,0.00258006,-0.0058104
-0.122197,-0.00508984,-0.08949249999999999,-0.00929354,0.00236369,-0.00589395
-0.12221199999999999,-0.08161419999999997,-0.07465249999999997,-0.00888329,0.00255608,-0.00589395
-0.122181,-0.048054,-0.0423945,-0.00838843,0.00217718,-0.00589395
-0.122181,-0.0542144,-0.0744529,-0.008446739999999998,0.00208557,-0.00589395
-0.12219000000000001,-0.014907299999999998,-0.08361019999999998,-0.00882024,0.00228753,-0.00589395
-0.122209,-0.0551981,-0.0540034,-0.00864058,0.00246317,-0.00583317
-0.124778,-0.0424591,-0.0751952,-0.00884969,0.00252822,-0.00589395
-0.12636900000000004,-0.0327225,-0.0678057,-0.00904122,0.00237232,-0.00589395
-0.12222100000000001,-0.0515423,-0.0884197,-0.00931305,0.00255298,-0.00571054
-0.101822,-0.0652331,-0.104173,-0.00939091,0.00286718,-0.00544747
-0.12219400000000001,-0.0617552,-0.146669,-0.00939424,0.00208557,-0.00552067
-0.109624,-0.07878219999999997,-0.15068099999999998,-0.00902572,0.00271293,-0.005305
-0.110628,-0.100726,-0.09952490000000004,-0.008469219999999998,0.0025223000000000003,-0.0055097
-0.114602,-0.0323824,-0.12229100000000001,-0.00919212,0.00250988,-0.00554703
-0.10260899999999999,-0.102926,-0.139665,-0.00876965,0.00265877,-0.00526194
-0.11713699999999999,-0.0473756,-0.10731700000000001,-0.00873721,0.00230462,-0.00533652
-0.0914238,-0.0717162,-0.12874000000000002,-0.00861755,0.00272164,-0.00512939
-0.105984,-0.022756099999999998,-0.0919669,-0.00817846,0.00262168,-0.00522695
-0.101438,-0.0353153,-0.193902,-0.00926225,0.00249949,-0.00510819
-0.0976072,-0.102414,-0.102996,-0.00784633,0.00241237,-0.00509463
-0.10803800000000001,-0.028184800000000003,-0.11398,-0.00841059,0.00231679,-0.00528412
-0.10548800000000001,-0.0548115,-0.152578,-0.0091402,0.00255307,-0.00533652
-0.09048339999999999,-0.0914764,-0.12413199999999999,-0.007911619999999998,0.00227305,-0.00504254
-0.09185410000000001,-0.0826775,-0.194877,-0.00878656,0.00242634,-0.00473779
-0.09118960000000001,-0.09045249999999999,-0.10169500000000001,-0.00716902,0.00232667,-0.00473779
-0.0988576,-0.0704588,-0.17208800000000002,-0.00907542,0.00259728,-0.00501411
-0.0912416,-0.0646297,-0.112693,-0.007986949999999998,0.00236259,-0.00461313
-0.097719,-0.0245463,-0.12329300000000006,-0.008121879999999998,0.00233132,-0.00458747
-0.09454340000000004,-0.06940490000000002,-0.185881,-0.00914211,0.00274629,-0.00473779
-0.09074600000000001,-0.114418,-0.0987023,-0.007847319999999998,0.00264504,-0.0046775
-0.0963837,-0.07293629999999998,-0.11746199999999998,-0.00755765,0.00240725,-0.00473779
-0.100177,-0.0229018,-0.130647,-0.00816672,0.00251332,-0.00495563
-0.10119600000000001,-0.0988335,-0.13065,-0.00767122,0.00247471,-0.00498571
-0.11458800000000001,-0.017112400000000003,-0.0971125,-0.007612329999999999,0.00208557,-0.00506905
-0.108201,-0.0654087,-0.0665418,-0.00703356,0.00250961,-0.00522228
-0.11516199999999999,0.00822554,-0.12358499999999999,-0.00817518,0.00253938,-0.00524716
-0.112917,-0.09966599999999999,-0.123805,-0.007631399999999999,0.00231962,-0.0051842
-0.11601700000000001,-0.019653,-0.08325549999999997,-0.00754043,0.00237739,-0.00543035
-0.122047,-0.00992858,-0.0768766,-0.007701859999999999,0.00252684,-0.00525368
-0.09697190000000004,-0.049604699999999995,-0.102693,-0.008014439999999998,0.00281957,-0.00481934
-0.0961343,-0.05881519999999999,-0.128831,-0.00857693,0.0025508,-0.00479587
-0.10006,-0.08295969999999997,-0.132356,-0.0076718,0.0025644,-0.00493971
-0.108205,-0.0194862,-0.177153,-0.00847263,0.00271904,-0.00514526
-0.100123,-0.0898598,-0.125978,-0.00762418,0.00261881,-0.00507682
-0.111285,0.011393700000000001,-0.144379,-0.00805482,0.00265523,-0.00518379
-0.10169600000000001,-0.0839883,-0.182291,-0.00901926,0.00292955,-0.00495006
-0.0971122,-0.100101,-0.12203599999999999,-0.00771932,0.00295809,-0.00495003
-0.10818599999999999,-0.028828899999999998,-0.0945693,-0.007560049999999999,0.0028061999999999996,-0.00520235
-0.0887931,-0.07786110000000002,-0.162227,-0.00918911,0.00303899,-0.00484513
-0.10814100000000001,-0.055549,-0.0986607,-0.007825679999999998,0.00270564,-0.0051966
-0.08885219999999999,-0.0747256,-0.166989,-0.008654109999999998,0.00300519,-0.00467241
-0.108162,-0.07476539999999998,-0.0902384,-0.00753151,0.00270496,-0.00484775
-0.103685,-0.0162223,-0.12581400000000004,-0.00810575,0.00269905,-0.00493111
-0.08693889999999999,-0.11742899999999999,-0.15778599999999998,-0.00863088,0.00297372,-0.00491757
-0.103021,-0.0399659,-0.12449,-0.00779729,0.00251824,-0.00498299
-0.08410210000000001,-0.11634800000000001,-0.195458,-0.0084608,0.0029872,-0.00486139
-0.0890841,-0.0682707,-0.122584,-0.00828099,0.00320621,-0.00481119
-0.108169,-0.0532245,-0.140872,-0.00790027,0.00304206,-0.00477654
-0.09278330000000004,-0.09855449999999999,-0.15959500000000001,-0.00833479,0.00324737,-0.00490309
-0.0957179,-0.07894719999999998,-0.0928785,-0.00789633,0.00302496,-0.00504433
-0.101382,-0.035201800000000005,-0.152108,-0.00854707,0.00270954,-0.00505063
-0.09835890000000004,-0.09254939999999999,-0.0914663,-0.00751984,0.00251824,-0.00478911
-0.0998951,0.007368989999999998,-0.131677,-0.00824386,0.0027491,-0.00499063
-0.108128,-0.0612577,-0.119844,-0.00797892,0.00267638,-0.00516274
-0.098353,-0.0612231,-0.08559089999999997,-0.007735719999999998,0.00264707,-0.004855399999999999
-0.0974082,-0.0736451,-0.101082,-0.00807613,0.0028462,-0.00497804
-0.108154,-0.0630665,-0.0881943,-0.00742645,0.00251824,-0.00497277
-0.108162,-0.0399217,-0.09485360000000001,-0.00751503,0.00251824,-0.0050356
-0.09318839999999999,-0.0469045,-0.173268,-0.00885001,0.00298076,-0.00483238
-0.10816500000000001,-0.0475073,-0.11674200000000001,-0.008411049999999998,0.00272322,-0.0049423
-0.09877590000000004,-0.0618464,-0.183982,-0.00891919,0.00310595,-0.0050356
-0.0869133,-0.123998,-0.143752,-0.00805595,0.00308021,-0.0050356
-0.108172,-0.0186415,-0.14368399999999998,-0.00837992,0.00301669,-0.00525781
-0.10815699999999999,-0.08173629999999997,-0.17683199999999996,-0.008782349999999998,0.00313935,-0.00528477
-0.108136,-0.055392399999999994,-0.134978,-0.00817348,0.00312778,-0.00538041
-0.108139,-0.0502352,-0.185419,-0.00887251,0.00312778,-0.00532035
-0.10812100000000001,-0.0553867,-0.133267,-0.00812441,0.00307766,-0.00554081
-0.111161,-0.026697900000000004,-0.178071,-0.00881949,0.00318783,-0.00554081
-0.108124,-0.0933451,-0.14521199999999998,-0.00793783,0.00338951,-0.00554081
-0.108125,-0.014687,-0.154598,-0.008697969999999998,0.00327227,-0.00554081
-0.10811,-0.060381399999999995,-0.17938199999999999,-0.00909829,0.00350046,-0.00554081
-0.0976806,-0.142047,-0.160865,-0.008047459999999998,0.00352326,-0.00538791
-0.108129,-0.0432193,-0.156496,-0.00846855,0.00312778,-0.00542984
-0.0943031,-0.106459,-0.179816,-0.008761609999999998,0.00370274,-0.00556895
-0.110318,-0.0458185,-0.139909,-0.00839193,0.00338538,-0.00555082
-0.0932537,-0.0962962,-0.21220300000000003,-0.00855757,0.00367757,-0.00545127
-0.10806900000000001,-0.0257178,-0.169638,-0.00894053,0.00368033,-0.00576468
-0.10805999999999999,-0.0427352,-0.193368,-0.00916647,0.00373609,-0.00560421
-0.09964940000000004,-0.107886,-0.193943,-0.00875318,0.00364089,-0.00549776
-0.108098,-0.0474287,-0.168329,-0.00873572,0.00351185,-0.00562368
-0.114559,-0.0862715,-0.154257,-0.00832925,0.00335288,-0.00565024
-0.115218,-0.0313388,-0.192183,-0.00911423,0.00337862,-0.00588176
-0.11349400000000001,-0.0992294,-0.133466,-0.00805204,0.00337752,-0.00567077
-0.11218399999999999,-0.027066200000000002,-0.157521,-0.00869722,0.0034948,-0.00588176
-0.110235,-0.0595754,-0.11061099999999999,-0.00790654,0.00349112,-0.00568081
-0.108076,-0.0429609,-0.13037200000000002,-0.00804941,0.00349103,-0.00588176
-0.11739000000000001,-0.022245599999999997,-0.14406,-0.00841452,0.00341784,-0.00588176
-0.117745,-0.029108600000000002,-0.17013,-0.00893588,0.00333909,-0.00588176
-0.104609,-0.09145260000000001,-0.184646,-0.008935659999999998,0.00387752,-0.0055021
-0.10804100000000001,-0.0446478,-0.164395,-0.00855755,0.00377728,-0.00548084
-0.11426700000000001,-0.06821100000000001,-0.20592800000000003,-0.009280890000000005,0.0037650999999999995,-0.00576084
-0.108021,-0.13160500000000006,-0.233475,-0.00883071,0.00384123,-0.00550875
-0.115093,-0.0441501,-0.20602800000000002,-0.00914043,0.00366706,-0.00576084
-0.10799700000000001,-0.0800836,-0.24401799999999998,-0.00933845,0.00400288,-0.00576084
-0.10807,-0.08018339999999999,-0.178989,-0.00843959,0.00379298,-0.00576084
-0.10803199999999999,-0.046963,-0.212092,-0.00914211,0.00390774,-0.00552711
-0.108048,-0.10396400000000001,-0.181122,-0.00825386,0.00378406,-0.00564475
-0.11663499999999999,-0.0420694,-0.21282800000000002,-0.00903803,0.00397511,-0.00564475
-0.0973297,-0.12189100000000005,-0.22062800000000002,-0.00867649,0.00408768,-0.00564475
-0.12315,-0.0493872,-0.19586800000000001,-0.00874869,0.00375109,-0.00576744
-0.101199,-0.11844400000000001,-0.239808,-0.007543809999999998,0.00429719,-0.00564475
-0.115079,-0.035486699999999996,-0.172043,-0.00856632,0.00398031,-0.00579766
-0.107956,-0.0820516,-0.211756,-0.00857047,0.00404462,-0.00573102
-0.11601800000000001,-0.0575775,-0.176477,-0.00847939,0.00404462,-0.005815
-0.113068,-0.08203099999999999,-0.23907199999999998,-0.00942816,0.00404462,-0.00572368
-0.10796199999999999,-0.110877,-0.184482,-0.00861357,0.00399436,-0.00581138
-0.119828,-0.0669078,-0.214727,-0.00933034,0.00386143,-0.00585666
-0.11944500000000001,-0.0923846,-0.25816999999999996,-0.0103809,0.00390396,-0.00591632
-0.107946,-0.134175,-0.224687,-0.00892855,0.00404462,-0.00584473
-0.10999400000000001,-0.07674260000000001,-0.208957,-0.00916694,0.00404461,-0.00611434
-0.120179,-0.04143019999999999,-0.20153,-0.00919161,0.00389319,-0.00592732
-0.127841,-0.0648898,-0.225942,-0.00948843,0.00375019,-0.00592369
-0.12277300000000001,-0.12769,-0.15236,-0.00805874,0.00404461,-0.00591872
-0.125394,-0.0329376,-0.183506,-0.00870237,0.00374904,-0.00611434
-0.125183,-0.0717295,-0.179375,-0.00842269,0.0038405,-0.00611434
-0.125717,-0.0340543,-0.167407,-0.00867465,0.00416173,-0.00611434
-0.12946,-0.039825099999999995,-0.175035,-0.00876419,0.0038018,-0.00611434
-0.120814,-0.08059529999999998,-0.222874,-0.009454400000000005,0.00402812,-0.00611434
-0.118288,-0.0779486,-0.210344,-0.008452859999999998,0.00394909,-0.00603925
-0.13171,-0.0452783,-0.227032,-0.00917262,0.0039107,-0.00598791
-0.118546,-0.154306,-0.24307600000000001,-0.00903178,0.00395115,-0.00611434
-0.125313,-0.0733939,-0.226942,-0.0089276,0.003834,-0.00611434
-0.12922800000000004,-0.054185000000000004,-0.22693600000000003,-0.00912865,0.00383347,-0.00587934
-0.110101,-0.122714,-0.255893,-0.0093993,0.00426946,-0.00585578
-0.12336099999999998,-0.09212039999999999,-0.196989,-0.00838908,0.00411652,-0.005956
-0.10788299999999999,-0.07680929999999997,-0.248327,-0.00864102,0.00419616,-0.0059375
-0.124671,-0.031219999999999998,-0.191597,-0.008033379999999998,0.003949800000000001,-0.00598717
-0.115077,-0.0724544,-0.23714899999999997,-0.00895393,0.00400151,-0.00592455
-0.13064800000000001,-0.0683797,-0.21809,-0.008759579999999998,0.0036049999999999997,-0.00611434
-0.12343900000000001,-0.101879,-0.252619,-0.00912276,0.00386695,-0.00593935
-0.10789100000000001,-0.149132,-0.20662199999999997,-0.00832706,0.00396172,-0.00611434
-0.11426700000000001,-0.0594759,-0.178475,-0.00798385,0.0037895000000000003,-0.00580242
-0.101758,-0.101888,-0.2762,-0.00926312,0.00417785,-0.00538536
-0.11802000000000006,-0.12576400000000001,-0.201106,-0.00764384,0.0036049999999999997,-0.00571742
-0.131003,-0.073907,-0.247621,-0.00852434,0.0037650999999999995,-0.00571742
-0.124747,-0.134188,-0.24769000000000002,-0.00840822,0.00413034,-0.005861600000000001
-0.12477200000000001,-0.06863129999999999,-0.207517,-0.00803645,0.0036049999999999997,-0.00615586
-0.124771,-0.08075039999999999,-0.23555399999999999,-0.00792581,0.0038836999999999995,-0.00586673
-0.12476500000000001,-0.06875419999999999,-0.23479899999999998,-0.00804619,0.00372842,-0.00615586
-0.124773,-0.0908035,-0.20711500000000002,-0.00743964,0.00375531,-0.00597379
-0.124776,-0.05197190000000001,-0.225313,-0.007878549999999998,0.0036049999999999997,-0.00609001
-0.137325,-0.0848929,-0.204423,-0.00751322,0.0036049999999999997,-0.00581433
-0.133572,-0.08497509999999997,-0.209587,-0.00750851,0.0036049999999999997,-0.00601098
-0.12978499999999998,-0.059118399999999995,-0.222282,-0.00784583,0.0036049999999999997,-0.005952300000000001
-0.13898,-0.100034,-0.200816,-0.0072425,0.0036049999999999997,-0.00592365
-0.13986300000000002,-0.060716099999999995,-0.191276,-0.00746325,0.0036049999999999997,-0.00604328
-0.13604500000000005,-0.08753769999999997,-0.17632,-0.00756917,0.0036049999999999997,-0.00598036
-0.117252,-0.13938499999999998,-0.255896,-0.00764756,0.00400712,-0.00568575
-0.124798,-0.050468099999999995,-0.237021,-0.00778697,0.0036049999999999997,-0.00567208
-0.12876300000000002,-0.09299180000000004,-0.26771500000000004,-0.008519159999999998,0.0036049999999999997,-0.00581222
-0.124767,-0.11692000000000001,-0.21460900000000002,-0.007793269999999999,0.00383458,-0.00587175
-0.131994,-0.0593246,-0.21685700000000002,-0.00797972,0.0036049999999999997,-0.00592789
-0.124743,-0.12730300000000006,-0.26464299999999996,-0.00835233,0.00381851,-0.00592789
-0.124774,-0.0859244,-0.19056900000000002,-0.00746157,0.00366264,-0.00592789
-0.124774,-0.014123599999999998,-0.233752,-0.00814012,0.0036049999999999997,-0.00598623
-0.124779,-0.135957,-0.191278,-0.00739532,0.0036049999999999997,-0.00592789
-0.124779,-0.052272900000000004,-0.21162399999999998,-0.00820732,0.0036049999999999997,-0.00592788
-0.12478399999999999,-0.0979285,-0.17722099999999996,-0.007309859999999999,0.00354235,-0.00592789
-0.124774,-0.058498800000000004,-0.216545,-0.008014679999999998,0.00367242,-0.00592789
-0.109679,-0.097858,-0.196748,-0.007571429999999999,0.00367303,-0.00552532
-0.12751800000000002,-0.0210578,-0.19284500000000002,-0.0075738,0.00350516,-0.00592789
-0.124779,-0.0773772,-0.257006,-0.00820414,0.0036049999999999997,-0.00592789
-0.0995602,-0.138903,-0.220545,-0.00787748,0.0036049999999999997,-0.00554145
-0.11658199999999999,-0.0586284,-0.189196,-0.00748027,0.0036049999999999997,-0.0057358999999999995
-0.124779,-0.0510219,-0.224669,-0.00789999,0.0036049999999999997,-0.00592789
-0.108895,-0.0966572,-0.22565700000000002,-0.00757982,0.0036049999999999997,-0.0056949
-0.12481300000000001,-0.03849330000000001,-0.195938,-0.007464949999999999,0.00345684,-0.00574288
-0.109645,-0.0899776,-0.221374,-0.007651100000000001,0.0036049999999999997,-0.00558534
-0.101414,-0.08702,-0.171221,-0.007666499999999999,0.0036049999999999997,-0.00550256
-0.116746,-0.027479700000000003,-0.23073400000000002,-0.00802329,0.0036049999999999997,-0.00551115
-0.113152,-0.10969200000000001,-0.22276999999999997,-0.00759286,0.0036049999999999997,-0.00568924
-0.12478,-0.0424272,-0.189565,-0.0076473,0.00345734,-0.00565727
-0.124779,-0.07287539999999999,-0.182592,-0.00786361,0.0036049999999999997,-0.00592789
-0.12730999999999998,-0.0475295,-0.184123,-0.0080029,0.00330155,-0.00573505
-0.12478900000000001,-0.08559519999999997,-0.174576,-0.00793273,0.00339167,-0.00592789
-0.124825,-0.07231379999999997,-0.207669,-0.0080354,0.0034433,-0.00572085
-0.12481099999999999,-0.053137300000000005,-0.234213,-0.00850592,0.0034460000000000003,-0.00574038
-0.109679,-0.108644,-0.22051500000000002,-0.00767096,0.00365683,-0.00555709
-0.124801,-0.050992800000000005,-0.22486799999999998,-0.00785369,0.0033534999999999997,-0.00592789
-0.116444,-0.096036,-0.262403,-0.00853593,0.0037077,-0.00576879
-0.114222,-0.112826,-0.215982,-0.007493999999999998,0.0036049999999999997,-0.00581109
-0.124779,-0.052344100000000005,-0.258936,-0.008311789999999998,0.0036049999999999997,-0.00592789
-0.101953,-0.12178399999999999,-0.25895300000000004,-0.00800492,0.00366999,-0.00563114
-0.118879,-0.07254389999999998,-0.218646,-0.007386399999999999,0.0036049999999999997,-0.00584208
-0.0951416,-0.0870393,-0.235292,-0.007616119999999999,0.00371351,-0.00555257
-0.117828,-0.040064999999999996,-0.23681100000000002,-0.00785417,0.00347578,-0.00592789
-0.12481199999999999,-0.0692493,-0.275532,-0.007920079999999998,0.0036049999999999997,-0.00565654
-0.10179500000000001,-0.13359100000000002,-0.256745,-0.007607809999999999,0.0036049999999999997,-0.00535825
-0.115396,-0.08024939999999998,-0.210983,-0.00716569,0.00338597,-0.00579009
-0.11855999999999998,-0.0655176,-0.273227,-0.00841858,0.00316803,-0.00568213
-0.100857,-0.147861,-0.24708899999999998,-0.00780228,0.00377579,-0.00539963
-0.124918,-0.0831176,-0.21666799999999997,-0.00728732,0.00316803,-0.00517338
-0.1057,-0.09215069999999999,-0.24527800000000002,-0.00748944,0.00348837,-0.00538627
-0.116969,-0.0520039,-0.25229,-0.007504249999999999,0.00316803,-0.00547336
-0.11605,-0.0886093,-0.260303,-0.007974699999999998,0.00356856,-0.00550536
-0.11199100000000001,-0.105608,-0.20679499999999998,-0.00699548,0.00331373,-0.00560646
-0.11533199999999999,-0.064569,-0.273912,-0.007736609999999999,0.00336635,-0.00548349
-0.114773,-0.12164100000000005,-0.234949,-0.00700672,0.00316803,-0.00560646
-0.10516600000000001,-0.08098529999999997,-0.229519,-0.00707977,0.00335541,-0.00544974
-0.108602,-0.0838878,-0.182502,-0.00593584,0.00316803,-0.0050893
-0.10869000000000001,-0.0491089,-0.245324,-0.00718976,0.00316803,-0.00538747
-0.113026,-0.0684977,-0.23987399999999998,-0.00668834,0.00316803,-0.00522114
-0.10999,-0.07258139999999999,-0.227782,-0.00670016,0.00321879,-0.00526483
-0.11180999999999999,-0.084729,-0.17614100000000002,-0.00631487,0.00306505,-0.00505438
-0.10793699999999999,-0.0423351,-0.21914899999999998,-0.00651876,0.00275754,-0.00505438
-0.109652,-0.0832456,-0.213991,-0.00675053,0.0028659000000000002,-0.00517771
-0.101342,-0.0560681,-0.266979,-0.00733372,0.00314045,-0.00511438
-0.09817680000000001,-0.0974551,-0.21656599999999998,-0.00644018,0.00308672,-0.00511438
-0.10569300000000001,-0.0190468,-0.247129,-0.00685804,0.00298818,-0.00511438
-0.0964178,-0.135708,-0.274726,-0.00723439,0.00331076,-0.00522179
-0.08820460000000001,-0.08591189999999999,-0.221493,-0.00651401,0.00309713,-0.00516314
-0.0968965,-0.0396141,-0.276753,-0.00729266,0.00331515,-0.00515148
-0.0934046,-0.12135599999999999,-0.296126,-0.00712769,0.00326996,-0.0050996
-0.09680230000000001,-0.0853947,-0.247488,-0.00682517,0.00313202,-0.00523981
-0.096898,-0.12397799999999999,-0.313718,-0.00733785,0.00325016,-0.00498623
-0.0981733,-0.07536429999999998,-0.26245599999999997,-0.00706541,0.0029324000000000004,-0.00498623
-0.10254100000000001,-0.04951919999999999,-0.287093,-0.00759177,0.00301908,-0.00517152
-0.0984221,-0.12794100000000005,-0.248977,-0.00686313,0.00311069,-0.00507001
-0.10253599999999999,-0.0836029,-0.248946,-0.00705418,0.00275754,-0.00498623
-0.0967957,-0.049553,-0.316423,-0.007501300000000001,0.00298459,-0.00516899
-0.09749160000000001,-0.155596,-0.257327,-0.00662335,0.00289853,-0.00498624
-0.10056699999999999,-0.0735247,-0.220888,-0.00665721,0.00275754,-0.00511114
-0.0999664,-0.07350830000000001,-0.24885300000000002,-0.00707439,0.00304079,-0.00510835
-0.0981857,-0.103664,-0.191529,-0.00603104,0.00275754,-0.00502793
-0.09737430000000001,-0.0545487,-0.267423,-0.00719959,0.00307252,-0.00494355
-0.10655099999999999,-0.06969639999999999,-0.269891,-0.00688328,0.00275754,-0.0050188
-0.0943052,-0.103474,-0.281237,-0.00700598,0.00306636,-0.00483442
-0.0972708,-0.103616,-0.24015100000000003,-0.00660944,0.00275754,-0.0050933
-0.105798,-0.0165579,-0.292642,-0.00790328,0.00275754,-0.00508627
-0.10660399999999999,-0.12947,-0.268552,-0.00738314,0.00275754,-0.00484325
-0.0968957,-0.14936,-0.22273400000000002,-0.00685139,0.00262842,-0.00482087
-0.09692700000000004,-0.09458810000000001,-0.212362,-0.00677136,0.00275754,-0.00459637
-0.09311610000000001,-0.07550269999999999,-0.20342000000000002,-0.0067596,0.00275754,-0.00477873
-0.0968922,-0.0425958,-0.226242,-0.00675455,0.00275754,-0.00492212
-0.09688550000000004,-0.0426282,-0.23045,-0.00686333,0.00275754,-0.00502928
-0.103415,-0.0126558,-0.275985,-0.00744617,0.00275754,-0.00510717
-0.0968368,-0.0994577,-0.276069,-0.00721574,0.0030965,-0.00510717
-0.0968807,-0.0779156,-0.276027,-0.00697599,0.00300636,-0.00492845
-0.10394400000000001,-0.0995341,-0.294217,-0.00669224,0.00284015,-0.00510718
-0.0882015,-0.160889,-0.347116,-0.00730939,0.00338013,-0.00486151
-0.0968492,-0.112926,-0.276644,-0.00669224,0.00326532,-0.00510718
-0.0823232,-0.14561300000000002,-0.37646599999999997,-0.00712399,0.00333805,-0.00479812
-0.08528989999999999,-0.065932,-0.301281,-0.00686745,0.00310567,-0.00472554
-0.09690950000000001,-0.0487846,-0.308329,-0.00733038,0.00325142,-0.00509202
-0.08836310000000001,-0.121333,-0.279437,-0.00726171,0.00310054,-0.00459805
-0.0969704,-0.09752960000000001,-0.257357,-0.00692026,0.00301135,-0.00483756
-0.09918819999999999,-0.0707607,-0.288749,-0.0075768,0.00315554,-0.00471568
-0.0970159,-0.151257,-0.264332,-0.00694797,0.00295628,-0.00459805
-0.102283,-0.07727139999999999,-0.28607,-0.00765899,0.00304267,-0.00489892
-0.08056199999999998,-0.155662,-0.291744,-0.00708728,0.0030315000000000003,-0.00448237
-0.102681,-0.0519626,-0.273671,-0.0069995000000000005,0.00275754,-0.00482244
-0.0908659,-0.11508199999999999,-0.318148,-0.0073847999999999995,0.00335311,-0.00458343
-0.0969477,-0.08119519999999998,-0.27303,-0.00687873,0.00317362,-0.00493479
-0.09691930000000004,-0.08448369999999998,-0.28583800000000004,-0.007264139999999999,0.00344155,-0.00479587
-0.0969385,-0.10603499999999999,-0.242759,-0.00641445,0.00313827,-0.00479587
-0.0968518,-0.058424699999999996,-0.292425,-0.00701311,0.00324186,-0.00523406
-0.08349960000000001,-0.140853,-0.307327,-0.0068465,0.00330335,-0.00471894
-0.096923,-0.06803139999999999,-0.256531,-0.00672056,0.00318451,-0.00494577
-0.10526300000000001,-0.0821473,-0.23923000000000003,-0.00643334,0.00275754,-0.00507957
-0.106591,-0.0865808,-0.251054,-0.00628961,0.00317292,-0.00511286
-0.112002,-0.053390599999999996,-0.23805700000000002,-0.00661704,0.00310526,-0.00527941
-0.10495399999999999,-0.111989,-0.20083900000000002,-0.00612438,0.00316604,-0.00527941
-0.107123,-0.0583581,-0.24049600000000002,-0.00691953,0.0031812,-0.00498893
-0.104611,-0.10868499999999999,-0.272997,-0.00687661,0.00305887,-0.00499072
-0.107625,-0.059437000000000004,-0.267351,-0.00721047,0.00300631,-0.00511753
-0.111286,-0.09711339999999999,-0.25135799999999997,-0.00699421,0.00314706,-0.00500772
-0.0991412,-0.11474000000000001,-0.261294,-0.00685674,0.00325213,-0.00493102
-0.113284,-0.0607386,-0.237934,-0.007026300000000001,0.00309803,-0.00499121
-0.11109000000000001,-0.086121,-0.270378,-0.00727061,0.00313157,-0.00502257
-0.09688939999999999,-0.111392,-0.24703200000000003,-0.006413800000000001,0.00325526,-0.00501542
-0.10959,-0.06765640000000002,-0.239317,-0.0066604,0.00310564,-0.004979600000000001
-0.09691930000000004,-0.06769019999999999,-0.21978899999999998,-0.00620138,0.00328953,-0.00516406
-0.11126,-0.0521731,-0.227834,-0.00657655,0.00317845,-0.00513178
-0.10851300000000001,-0.0676568,-0.23642800000000003,-0.00657416,0.00332506,-0.0052221
-0.115472,-0.0676896,-0.222847,-0.00654232,0.00335658,-0.00527828
-0.12008599999999998,-0.04423219999999999,-0.271466,-0.00703949,0.00343243,-0.00539196
-0.11861600000000005,-0.111633,-0.209837,-0.00613439,0.0035573999999999996,-0.00547325
-0.126546,-0.0530352,-0.25921,-0.00681043,0.00348469,-0.00549093
-0.118151,-0.12212700000000005,-0.26272399999999996,-0.00654889,0.00380268,-0.00541418
-0.11449300000000001,-0.0901414,-0.239877,-0.00634488,0.0036191,-0.00562368
-0.129572,-0.07294109999999998,-0.297694,-0.00687951,0.00376019,-0.00555927
-0.10651400000000001,-0.161678,-0.362433,-0.0069462000000000005,0.00405885,-0.0054345
-0.11440399999999999,-0.08165279999999997,-0.28584699999999996,-0.00661974,0.00389951,-0.00563479
-0.114379,-0.0815763,-0.312287,-0.00728286,0.00390632,-0.00581959
-0.116421,-0.0932096,-0.243617,-0.00632306,0.0038200000000000005,-0.00581959
-0.124391,-0.038362,-0.269883,-0.00695969,0.00376019,-0.00581959
-0.114401,-0.109449,-0.233526,-0.00612826,0.00376019,-0.00581959
-0.128269,-0.0418661,-0.273443,-0.00665863,0.00358918,-0.00567646
