2.0846900000000002e-05,0.016583899999999995,-0.00681209,0.00040432699999999995,-2.24188e-05,-9.16142e-05
-0.00418047,0.026252499999999998,0.0284178,-0.000101161,-7.974680000000001e-05,0.0
2.3565300000000003e-05,0.0171677,0.028478800000000002,-0.00017147900000000002,-2.24188e-05,5.98775e-05
2.1490799999999998e-05,0.0277515,0.014224100000000003,-0.000262436,-2.24188e-05,-5.8579099999999996e-05
4.60967e-05,0.0239,-0.0122724,0.00032510000000000004,0.000273596,0.0
3.13381e-05,0.0378289,-0.00247191,0.000149002,0.000152347,3.3087199999999996e-24
-0.00482286,0.051611300000000006,0.0450685,9.05148e-05,0.000626157,-0.00032690299999999997
-5.5901000000000006e-05,0.018285299999999997,0.012749000000000005,0.000815108,0.000535262,-0.00033759800000000004
-0.00287315,0.011017399999999998,-0.0240352,0.000877308,9.15961e-05,-6.47534e-05
-0.000200103,-0.24868800000000002,-0.38934,0.000310805,-0.0006562019999999999,-0.000354505
-0.0163694,-0.286576,-0.480207,-0.00257274,-0.00108556,-0.00119303
-0.0289156,0.016277,0.054488800000000004,-0.00265676,-0.00072011,-0.00167327
-0.0395461,0.144967,0.08051619999999997,-0.00211804,-0.000565319,-0.0012742
-0.03202290000000001,0.058326199999999995,0.00110124,-0.00198692,3.28117e-05,-0.00127381
0.00368489,-0.0445153,-0.08116369999999999,-0.00238444,-0.000224744,-0.000796226
0.010323100000000002,0.08667799999999999,0.148426,-0.004425,0.00048102400000000003,-0.0012239
0.018471500000000002,-0.00236734,-0.0227124,-0.00256482,0.000667823,-0.0012239
0.0184547,-0.038699800000000006,-0.0484046,-0.00293858,0.0008878139999999999,-0.00111432
0.0184669,-0.0403382,-0.026095799999999995,-0.00215105,0.0008033889999999997,-0.0012239
0.0339008,-0.0927138,-0.0447836,-0.00164503,0.00114123,-0.0012239
0.0361062,-0.0719832,-0.0443325,-0.00194453,0.00114321,-0.0012239
0.029931299999999997,-0.014241,-0.044101999999999995,-0.00169531,0.00106534,-0.0012239
0.0184167,0.00235877,-0.0160954,-0.00303383,0.0008878139999999999,-0.0007669110000000001
0.0368533,0.0659131,0.119969,-0.00367335,0.0008878139999999999,-0.0012239
0.0445531,0.11444800000000001,0.169017,-0.00252129,0.00138292,-0.00170025
0.053022,0.0503163,0.03809880000000001,-0.00170824,0.00128899,-0.0012239
0.0447248,0.00124458,-0.0278427,-0.00197515,0.00109828,-0.0012239
0.0447556,0.00875683,-0.0417334,-0.00142065,0.0009275589999999999,-0.0008241099999999998
-0.00681564,0.0467568,0.0667469,-0.0018297,0.000247002,-0.00063605
0.0287367,0.06263540000000001,0.0312797,-0.00148462,0.00099623,-0.0009781689999999999
0.048828699999999996,0.0625255,0.0471153,-0.00226698,0.0013061,-0.000658543
0.06559960000000001,-0.0448739,-0.09834010000000004,-0.0005076869999999999,0.0007490189999999999,-0.000541124
0.0488945,0.0281344,0.00412333,-0.00128723,0.000836953,-0.000353568
0.0654181,-0.0383818,-0.0834691,-0.0016292399999999995,0.000420005,-0.00155892
0.07266089999999999,0.109223,0.0779427,-0.00361726,0.00105685,-0.0015378
0.0905155,0.0368402,-0.04995019999999999,-0.00249897,0.000578172,-0.0012013700000000006
0.07585239999999999,0.0166554,-0.050006800000000004,-0.00249897,-0.00011772200000000001,-0.000477786
0.0758729,0.0165353,-0.0709936,-0.00387309,-0.00011772200000000001,0.000123141
0.09188980000000001,-0.013536099999999999,-0.16606700000000002,-0.00455138,-6.06462e-05,-6.49963e-05
0.07231939999999999,0.114949,0.125944,-0.00478777,-0.000925398,-7.517439999999997e-05
0.07611479999999997,0.129175,0.0913943,-0.00442977,-0.000809252,0.000137785
0.0761603,-0.038376,-0.14030399999999998,-0.00369074,-0.000609934,-4.00189e-06
0.07614630000000001,-0.0109303,-0.101961,-0.00409776,-0.000609934,0.000164883
0.0840816,-0.0649418,-0.18205,-0.00495545,-0.000609934,0.00020633900000000002
0.0681492,0.000599542,-0.0991012,-0.00513652,-0.000609934,0.000616443
0.0744443,0.0153632,-0.07129339999999999,-0.00534168,-0.000401153,0.000711787
0.104174,-0.0526332,-0.156364,-0.00310049,-0.00046365,0.000547684
0.104296,0.012114,-0.125753,-0.00521748,-0.000165316,0.0008970519999999999
0.12962200000000001,-0.0495875,-0.23184899999999997,-0.00512079,3.14031e-05,0.0008373709999999997
0.115218,-0.0124162,-0.22076700000000002,-0.00640491,-0.000609934,0.000794711
0.115005,-0.0348785,-0.23666399999999999,-0.00585223,-0.000329937,0.0009139419999999999
0.0985081,-0.0711502,-0.22440500000000002,-0.00718772,-0.000609934,0.0009193300000000002
0.0920113,0.0792557,-0.00520758,-0.00752165,-0.00103266,0.0010545
0.0772572,0.138132,0.04572709999999999,-0.00612569,-0.00102219,0.00116322
0.0809944,0.103901,0.0219393,-0.00451357,-0.00061942,0.00100985
0.0894183,0.10946099999999999,0.00111938,-0.004835100000000001,-0.0007810260000000001,0.000986282
0.09327239999999999,0.060420600000000005,-0.0440079,-0.00395707,-0.000343185,0.00106484
0.07616139999999999,0.0679096,-0.0650327,-0.00437157,-0.000400775,0.00107323
0.08477029999999999,-0.015810499999999998,-0.225194,-0.0045949,-0.0007327939999999999,0.00106502
0.0851827,0.0137916,-0.214981,-0.00475748,-0.000343185,0.00108826
0.103772,-0.0361221,-0.298592,-0.00486318,-0.0007449709999999997,0.00111759
0.110661,-0.058301,-0.387364,-0.00475748,-0.000343185,0.00040907199999999996
0.11558299999999999,-0.0169429,-0.25809299999999996,-0.00590643,0.00038196300000000003,0.000279343
0.13435899999999998,-0.053451900000000004,-0.342037,-0.00474133,0.000426227,5.08915e-05
0.125748,0.000652912,-0.22922399999999998,-0.00526304,0.000262595,0.0005997999999999999
0.14781,-0.059580499999999995,-0.367888,-0.00505265,0.000235506,0.00070688
0.14610599999999999,-0.142746,-0.475599,-0.00471629,-0.000496421,0.000241935
0.143016,-0.044608300000000004,-0.301315,-0.00603468,-0.000175934,0.000638989
0.14524600000000001,-0.051350099999999996,-0.330518,-0.00592905,-0.00019486900000000002,0.000880585
0.158274,-0.12064200000000005,-0.332389,-0.005956100000000001,-0.000636043,0.000238657
0.150032,-0.0331876,-0.229834,-0.00435156,-0.00129262,0.000593647
0.162685,-0.11324200000000001,-0.35633400000000004,-0.00461118,-0.00100752,0.0011645300000000006
0.168545,-0.117592,-0.308722,-0.00454744,-0.000630934,0.000531406
0.15246099999999999,0.0009387999999999999,-0.109878,-0.00491115,0.000193533,0.000163305
0.13832100000000006,-0.023183900000000004,-0.185497,-0.00468904,-0.0008427849999999998,0.000231052
0.14006300000000002,-0.041487800000000005,-0.22920100000000002,-0.00517763,-0.000564811,0.000407459
0.156392,-0.177017,-0.41424300000000003,-0.00384497,-0.00108449,0.000160903
0.141809,0.011728200000000001,-0.0404805,-0.0038311,-0.000564811,-0.00043274
0.13568400000000005,0.101471,0.013268799999999999,-0.00408122,-0.000206386,-0.00043274
0.142732,-0.00430333,-0.137532,-0.00399237,-0.000203382,-0.00021642700000000002
0.156201,-0.07194400000000001,-0.250974,-0.0039033,-0.000695432,-3.38874e-05
0.148412,-0.10032999999999999,-0.212865,-0.00570514,-0.0010422500000000002,-0.00043274
0.0910654,-0.14476,-0.09415520000000001,-0.00411916,-0.00122955,-0.000436201
0.0830495,-0.0373787,0.086592,-0.00236533,-0.000302638,-0.00016255799999999998
0.07603369999999998,-0.0701698,0.07626720000000001,-0.00236533,-0.00040425199999999996,0.00010925299999999999
0.08330709999999998,0.06688939999999999,0.146101,-0.00363041,-0.000222783,-0.000262722
0.0843416,0.040685900000000004,0.0752342,-0.00319366,-0.0007066710000000001,0.000150804
0.115543,-0.031487400000000006,0.036495400000000004,-0.00142191,-0.000187614,0.0007545609999999997
0.11176199999999999,0.0130415,-0.000503836,-0.00140317,-0.00027628900000000004,0.000571662
0.126047,-0.0256067,-0.00242401,-0.00227718,-0.0008326439999999999,0.000571662
0.168744,-0.06012769999999999,0.00996603,-0.00528681,-0.000690431,0.000157108
0.151842,0.09029789999999999,0.162663,-0.00556249,-0.0005807319999999999,0.00020220400000000002
0.168849,0.114446,0.104879,-0.00594951,-0.000617169,0.000571662
0.168235,0.00205107,-0.0677681,-0.00293676,-0.00114695,0.00047250300000000004
0.14101,-0.0445648,-0.180483,-0.0048722,-0.000921432,0.000720852
0.16861099999999998,-0.166131,-0.313275,-0.00385675,-0.0014812000000000002,0.000650747
0.161482,-0.083467,-0.186467,-0.00424432,-0.00144739,0.00109617
0.169291,-0.10165199999999999,-0.191108,-0.00465592,-0.00124997,0.00110481
0.163766,-0.23809699999999998,-0.29829,-0.00469979,-0.00155591,0.00100307
0.13784100000000002,-0.0977506,-0.199928,-0.00554307,-0.00177919,0.00118772
0.167731,-0.175274,-0.286555,-0.00512004,-0.00163279,0.0007643529999999997
0.161393,-0.0560769,-0.11151199999999999,-0.00521101,-0.00127686,0.00037585900000000003
0.151543,-0.037970300000000005,-0.16188,-0.0052802,-0.0011624,0.000160161
0.114337,0.0252236,-0.05903380000000001,-0.00544467,-0.0014809,0.00103064
0.141046,0.00408435,-0.10462,-0.00625347,-0.0011624,0.0010232000000000002
0.168952,-0.131874,-0.267913,-0.00694514,-0.00157713,0.0007108630000000001
0.161962,-0.000468954,-0.133934,-0.00719486,-0.00169142,0.00101308
0.147446,-0.030958499999999996,-0.11727000000000005,-0.00643021,-0.00192324,0.00118134
0.15906900000000002,-0.154924,-0.287584,-0.0061189999999999994,-0.00202833,0.000757285
0.12701199999999999,0.00725281,-0.09041039999999999,-0.00610056,-0.00146393,0.00046321599999999996
0.12702500000000005,0.0363034,-0.0146809,-0.00421208,-0.0014076300000000006,3.6501399999999996e-05
0.113348,0.09516269999999999,0.115343,-0.00455364,-0.00220411,0.0008973160000000001
0.113078,0.0848779,0.16628900000000002,-0.00474506,-0.00202819,0.000831536
0.113045,0.0354275,0.0994947,-0.00272376,-0.00163439,0.00101103
0.11310899999999999,-0.00719238,0.016747,-0.00184078,-0.00158561,0.00111224
0.14640799999999998,-0.0722451,-0.179948,-0.0060209,-0.00154203,0.000644631
0.143791,-0.0389912,-0.24873800000000001,-0.00419954,-0.00162264,0.0008706729999999998
0.15556099999999998,-0.0408699,-0.16485999999999998,-0.00372332,-0.00107422,0.000491901
0.14133199999999999,0.041679,-0.0853773,-0.00423082,-0.00106817,0.000227071
0.152753,-0.00314928,-0.13074000000000002,-0.00329916,-0.000900812,0.00045217300000000005
0.167217,-0.149611,-0.237054,-0.00301308,-0.00129756,0.0007672939999999999
0.14212300000000005,0.0469585,-0.0285192,-0.00392726,-0.00158539,0.00109312
0.15571,-0.056555600000000004,-0.106602,-0.00214929,-0.00145355,0.000902402
0.155711,0.0204632,-0.0482218,-0.00390424,-0.00145355,0.00131753
0.153867,-0.11514700000000005,-0.138566,-0.00358304,-0.00186819,0.0009592810000000001
0.142743,0.010048600000000001,-0.0268565,-0.00411493,-0.00145355,0.00103605
0.156151,-0.017314,-0.07289819999999997,-0.00480634,-0.00145355,0.0015638099999999995
0.16653099999999998,-0.0640573,-0.13356700000000002,-0.00515513,-0.00145355,0.00185765
0.177124,-0.0248723,-0.09230989999999999,-0.00591756,-0.00123115,0.00204321
0.185357,-0.108549,-0.12451500000000001,-0.006090699999999999,-0.0007716869999999999,0.00222445
0.188769,-0.0470514,-0.09742200000000001,-0.00575452,-0.0008720429999999998,0.00264969
0.195546,-0.017027700000000003,-0.0815411,-0.0063628,-0.00068761,0.0029289000000000003
0.209202,-0.121597,-0.226969,-0.00507521,-0.00112614,0.00242304
0.17876,-0.0193544,-0.0823816,-0.00607916,-0.000817786,0.00280068
0.195326,-0.0587736,-0.152418,-0.00471178,-0.0010149,0.00281444
0.19528900000000002,-0.0114371,-0.0985956,-0.00542775,-0.000681353,0.0034253
0.21795100000000003,-0.0725009,-0.22235,-0.00568933,-0.000580412,0.00321407
0.198266,-0.0618024,-0.129503,-0.00626442,-0.000761376,0.00363829
0.212247,-0.0172612,-0.053254199999999995,-0.00550127,-0.000527592,0.00431904
0.214998,-0.09393939999999999,-0.134607,-0.00605511,-0.000624551,0.0042261
0.21496300000000002,-0.052240699999999994,-0.140012,-0.00834879,-0.00056718,0.00372517
0.166475,0.147642,0.19650399999999998,-0.007669800000000001,-0.00056718,0.00368742
0.160045,0.20265999999999998,0.220084,-0.00653842,0.000231593,0.00377988
0.177732,0.111534,0.123276,-0.00535973,0.000183024,0.00389736
0.170165,0.10378499999999999,0.121977,-0.00570551,0.00021276,0.00391233
0.17774500000000001,0.0698722,0.0751984,-0.00513904,0.00018683,0.00379735
0.170041,0.12183600000000006,0.121081,-0.00574111,0.0005002019999999999,0.00383018
0.177734,0.0805029,0.09277389999999999,-0.0049315,0.000396849,0.00390107
0.182053,0.09463769999999999,0.0639499,-0.005163399999999999,0.00034297,0.00390107
0.19375599999999998,0.111624,0.0415055,-0.00540979,2.7274800000000002e-05,0.00439831
0.21615399999999999,0.0591786,-0.050530900000000004,-0.00498364,-8.491849999999997e-05,0.00450306
0.216193,0.0641324,-0.037318300000000006,-0.00608013,6.914229999999999e-05,0.00450306
0.22465700000000002,0.00265989,-0.0446394,-0.00601475,6.914229999999999e-05,0.0040173000000000006
0.251176,0.023362200000000003,-0.0688757,-0.00698256,-2.69065e-05,0.00432018
0.24529,0.0215972,-0.025727800000000002,-0.00527036,-0.000416904,0.00450306
0.24528699999999998,0.091067,0.0326586,-0.00685054,-5.2174e-05,0.00450306
0.22912600000000002,-0.0196082,-0.106255,-0.00619972,-0.000630571,0.00436314
0.267977,-0.06491799999999999,-0.149048,-0.0057816000000000005,-0.0008490819999999999,0.00402015
0.254504,-0.034500199999999995,-0.15428499999999998,-0.00483236,-0.0007519839999999999,0.00389803
0.25446199999999997,0.0345707,-0.100509,-0.0055158,-0.000447274,0.00434926
0.25444,0.0150519,-0.131578,-0.00594743,-0.0006609469999999999,0.00450306
0.269728,-0.0457213,-0.15583699999999998,-0.00491878,-0.00031189200000000003,0.00450306
0.25447600000000004,-0.0344988,-0.12183,-0.00573262,-3.25763e-05,0.00427404
0.25449499999999997,-0.0197086,-0.12070299999999999,-0.00629248,4.31637e-05,0.00437254
0.24842199999999998,-0.0785783,-0.221926,-0.0058272,-0.000857056,0.00375077
0.246261,-0.011005599999999999,-0.147152,-0.00620791,-0.000828715,0.00440449
0.277625,-0.060805099999999994,-0.313998,-0.00620621,-0.00111667,0.00413096
0.28691,-0.07213,-0.273748,-0.00647419,-0.00113361,0.00424896
0.280077,-0.0396958,-0.253752,-0.00702508,-0.000999439,0.0041833999999999994
0.287021,-0.105054,-0.340511,-0.0063184,-0.0006727139999999999,0.00435137
0.277476,-0.105306,-0.265862,-0.00561723,-0.000829202,0.0043108999999999995
0.254216,-0.126839,-0.252141,-0.00584973,-0.000718109,0.00399693
0.20555199999999998,0.057053,-0.025782999999999997,-0.00432561,-0.00123921,0.00399693
0.214234,0.0357592,-0.12445899999999999,-0.00391715,-0.000621196,0.00418327
0.219639,-0.00434645,-0.167496,-0.0037244,-0.000471985,0.00421183
0.21673699999999999,0.0192266,-0.09276010000000001,-0.00390317,-0.000519652,0.00425107
0.202679,-0.00517612,-0.116274,-0.00364195,-0.00024306,0.00433173
0.201058,0.0267551,-0.079166,-0.0034558,-0.00024306,0.00426021
0.219048,-0.021389500000000002,-0.09776649999999999,-0.00420597,-0.00024306,0.00462464
0.23531300000000002,-0.13925,-0.314189,-0.00164411,-0.0007955039999999999,0.00451153
0.218937,-0.0409334,-0.160897,-0.00336831,-0.00034323800000000005,0.00458512
0.23858600000000002,-0.122814,-0.293142,-0.00267945,-0.000483297,0.00416303
0.23374,-0.102012,-0.276525,-0.00299713,-0.00046488300000000003,0.00422312
0.22634899999999997,-0.025667000000000002,-0.181248,-0.00413546,-0.000265524,0.00450159
0.24502,-0.156879,-0.38924899999999996,-0.00328813,-0.0007955039999999999,0.00428039
0.20699299999999998,-0.09927380000000001,-0.268584,-0.00415016,-0.000568287,0.00381032
0.193307,-0.0288486,-0.204024,-0.00471683,3.13948e-05,0.00342521
0.214998,-0.166075,-0.392409,-0.00233689,-0.000626912,0.00335594
0.226,-0.03660580000000001,-0.256089,-0.00334685,-0.00048592599999999997,0.0038633
0.2377,-0.151336,-0.41601099999999996,-0.00346532,-0.000680388,0.00366759
0.20778000000000002,-0.09312790000000004,-0.23051,-0.00266813,-0.00020183,0.00333011
0.204028,-0.060816300000000004,-0.234896,-0.00286762,5.58679e-05,0.00337391
0.21601900000000002,-0.23352199999999998,-0.530925,-0.00210071,-0.0007268760000000001,0.00368828
0.177428,-0.330275,-0.553366,-0.00188544,-0.00121509,0.00362919
0.20241900000000002,-0.19526,-0.47711099999999995,-0.00327338,-0.0009172160000000002,0.00370428
0.168452,-0.338854,-0.395782,-0.00364947,-0.00127917,0.00344447
0.183584,-0.162548,-0.189675,-0.00191636,-0.000916343,0.00279716
0.17436,-0.101114,-0.23616199999999998,-0.00413106,-0.0008339279999999997,0.00326972
0.19078599999999998,-0.0839725,-0.250161,-0.0049459,-0.0006534830000000001,0.00403969
0.21796500000000002,-0.400624,-0.629025,-0.000570497,-0.00125052,0.0039923
0.199076,-0.16914499999999996,-0.280167,-0.00548132,-0.00176118,0.00336613
0.172432,-0.112777,-0.127306,-0.000635322,-0.0008764559999999997,0.0032149
0.166484,-0.0610971,-0.0427895,-0.00130162,-0.000653328,0.00268132
0.169291,-0.143433,-0.119975,-0.000206888,-0.000374237,0.00234511
0.153113,-0.09188500000000001,-0.169414,-0.00124767,-0.000374237,0.00265122
0.169255,-0.100441,-0.195695,-0.00264884,-0.000264035,0.00251059
0.172543,-0.05985309999999999,-0.18783,-0.00267492,-0.00017109299999999998,0.00265122
0.190198,-0.09132430000000001,-0.21247199999999997,-0.00243613,0.00013482600000000005,0.00259813
0.19025699999999998,-0.0659165,-0.18284,-0.00233244,0.00019904799999999998,0.0027161999999999998
0.19031199999999998,-0.220379,-0.306911,-0.00131368,0.00023751799999999998,0.00219284
0.219968,-0.0935703,-0.192443,-0.00294868,0.000217987,0.00265122
0.21989899999999998,-0.286124,-0.33737399999999995,-0.00332753,0.00023353099999999998,0.00254617
0.21085900000000002,-0.10945099999999999,-0.11739200000000001,-0.00262143,-0.000343007,0.00265122
0.22906100000000001,-0.16880499999999998,-0.273444,-0.00354355,-0.000145849,0.00265122
0.231095,-0.149705,-0.30190100000000003,-0.00284266,-0.00019947,0.00285591
0.23851,-0.14254900000000004,-0.287249,-0.00359399,-0.000145849,0.0029385
0.246148,-0.199114,-0.37392600000000004,-0.00348321,-1.23864e-05,0.00299687
0.23841500000000002,-0.17314000000000002,-0.337926,-0.00380406,-7.43763e-05,0.00323685
0.245364,-0.177399,-0.363139,-0.00429301,0.00013382,0.00342882
0.23835599999999998,-0.150538,-0.37340100000000004,-0.00470462,2.69806e-05,0.00355623
0.238353,-0.148887,-0.306229,-0.00531596,0.000186766,0.00362189
0.25000900000000004,-0.24712399999999998,-0.416483,-0.0050857,0.000186766,0.00391309
0.230021,-0.11573499999999999,-0.266342,-0.00627221,-8.997600000000001e-05,0.00404772
0.238179,-0.197487,-0.389013,-0.00553064,0.000186766,0.004278
0.23791500000000002,-0.23593699999999998,-0.43174700000000005,-0.00392007,-0.000316661,0.00453577
0.26047800000000004,-0.255795,-0.505049,-0.0042753999999999995,-0.000316661,0.00481608
0.269392,-0.227071,-0.492975,-0.00458245,-0.000412802,0.00464387
0.265421,-0.14488799999999996,-0.391635,-0.00436587,-0.000146508,0.00505693
0.27070500000000003,-0.214993,-0.521659,-0.00421365,-0.00019382400000000002,0.00488436
0.292626,-0.171239,-0.483225,-0.00617378,-0.0013732000000000002,0.00472839
0.243808,-0.0475369,-0.27559,-0.00601922,-0.000269184,0.00461743
0.214108,-0.0263376,-0.15962499999999996,-0.0037949,-0.000102909,0.00453658
0.204207,0.0007720659999999999,-0.122027,-0.00162906,0.000387617,0.0038726
0.192657,-0.102324,-0.194545,-0.0016126999999999995,4.6969700000000005e-05,0.00389857
0.188341,-0.102234,-0.210042,-0.00215609,-1.75637e-05,0.00399904
0.192351,-0.09082589999999999,-0.207296,-0.0027191999999999997,-0.00023886599999999999,0.00416346
0.192354,-0.059838800000000004,-0.180051,-0.0032858000000000006,-0.000317043,0.00416346
0.190307,-0.0191357,-0.17708,-0.00211924,0.000300965,0.00392021
0.223929,-0.0549678,-0.311761,-0.00249336,0.000107519,0.00416346
0.220177,-0.13353900000000002,-0.329873,-0.00243628,-0.00031639099999999996,0.00416346
0.227361,-0.111598,-0.351036,-0.00292982,-0.000261186,0.00416346
0.22747399999999998,-0.202959,-0.388704,-0.00220061,-0.000115583,0.00384889
0.227562,-0.09430690000000004,-0.302686,-0.00290547,0.00011888899999999999,0.00403231
0.22757199999999997,-0.155867,-0.42201700000000003,-0.00234919,0.000320138,0.00416346
0.209339,-0.15576900000000002,-0.381112,-0.0009303019999999999,3.70364e-05,0.00416346
0.209351,-0.08151900000000001,-0.33621100000000004,-0.00287324,3.70364e-05,0.00404552
0.234355,-0.211569,-0.545113,-0.00218035,-0.00029523099999999997,0.00416346
0.209529,-0.132954,-0.347835,-0.00190844,0.000440036,0.00371233
0.220369,-0.219705,-0.502524,-0.00170837,-0.00012841,0.00416346
0.214061,-0.147565,-0.36154400000000003,-0.00182361,6.39824e-05,0.00466831
0.204094,-0.12019300000000001,-0.293553,-0.00241797,-9.389740000000004e-05,0.00492567
0.233671,-0.323716,-0.675241,-0.00187675,-0.00043177300000000004,0.00452746
0.21534299999999998,-0.17416199999999998,-0.44749700000000003,-0.00143687,-0.0006987569999999999,0.00452746
0.21162899999999998,-0.094843,-0.41106000000000004,-0.00181724,-0.0008885519999999999,0.00480024
0.212887,-0.27710300000000004,-0.479192,-0.00151718,-0.000316165,0.00366643
0.20410599999999998,-0.176704,-0.370186,-0.000587146,-0.0005210109999999999,0.00377915
0.208619,-0.145504,-0.386998,-0.00100527,-0.000167102,0.00400112
0.193403,-0.170235,-0.42035100000000003,-0.000564781,-0.0007392349999999997,0.00392546
0.195883,-0.0180005,-0.226575,-0.00274599,0.000749393,0.00322076
0.179405,-0.0753915,-0.30905900000000003,-0.00347553,-0.000722883,0.00322076
0.15167,-0.111533,-0.319801,-0.00254768,-0.00047388800000000005,0.00322076
0.153764,-0.157863,-0.332439,-0.00211654,5.9335299999999994e-05,0.0030478000000000002
0.146326,-0.15996300000000002,-0.37685100000000005,-0.00091499,-0.000441015,0.00263529
0.133412,-0.0141748,-0.0121134,-0.00131962,0.000279772,0.00211413
0.146372,-0.0548316,-0.15374300000000002,-0.0018289,0.000494806,0.00222619
0.162919,-0.0275444,-0.135983,-6.709020000000001e-05,0.0007290489999999997,0.00151564
0.162938,-0.0493154,-0.133921,0.00100896,0.000612295,0.00200013
0.162921,-0.0419439,-0.13105799999999998,0.000341484,0.000490416,0.00200013
0.183592,-0.0494799,-0.24967199999999998,-0.000767022,0.000666853,0.00192853
0.174848,-0.0534239,-0.25152800000000003,-0.00201073,-7.92521e-05,0.00185332
0.15923699999999996,-0.043001199999999996,-0.21848800000000002,-0.00147345,-0.00039093699999999995,0.00200013
0.17201,-0.122823,-0.273125,-0.0010365,-0.000521856,0.00193026
0.16626400000000002,-0.151616,-0.320359,-0.00133582,-0.0007464739999999999,0.00232896
0.17121,-0.174199,-0.323781,-0.00231834,-0.000521856,0.00227971
0.159161,-0.110644,-0.300578,-0.00303552,-0.00038864300000000004,0.00247602
0.169104,-0.13397699999999998,-0.338793,-0.00261147,-0.000411833,0.00256299
0.182391,-0.177314,-0.359188,-0.00180314,-0.000114433,0.00264571
0.178549,-0.138165,-0.347414,-0.00245259,-0.000114433,0.00268251
0.17853,-0.14106300000000002,-0.285164,-0.00220632,0.000253601,0.00200013
0.162606,-0.036598900000000004,-0.20410699999999998,-0.00200523,0.000341915,0.00200013
0.177128,-0.12051600000000001,-0.321131,-0.00152746,0.000148322,0.00251953
0.161483,-0.101881,-0.339506,-0.00227022,-0.000287551,0.0028594000000000002
0.185378,-0.17346099999999998,-0.447301,-0.00128698,-0.000405005,0.0030437
0.174782,-0.140498,-0.391719,-0.0009223530000000002,-0.0008541289999999999,0.00311956
0.167408,-0.16487099999999996,-0.39165,-0.00176939,-0.00045422400000000003,0.00311956
0.167329,-0.21159,-0.440985,-0.00272534,-0.000843215,0.0029167
0.16233699999999998,-0.114666,-0.381798,-0.00273427,-0.000388293,0.00288032
0.165223,-0.203295,-0.440377,-0.00199642,-0.000388293,0.00306275
0.17086800000000002,-0.257573,-0.572753,-0.00142152,-0.000614622,0.00269472
0.15144000000000002,-0.243943,-0.657569,-0.00326722,-0.00133273,0.00269472
0.14072300000000001,-0.185945,-0.487166,-0.00225064,-0.0008213910000000001,0.0025264
0.13350499999999998,-0.11346800000000005,-0.408301,-0.00225698,-0.000319734,0.00228996
0.163408,-0.14993599999999999,-0.46751099999999995,-0.00209109,-0.0006629810000000001,0.00296973
0.178572,-0.129205,-0.451874,-0.00189391,-0.000243584,0.00321867
0.154077,-0.119322,-0.41845600000000005,-0.00139548,-0.00019941299999999998,0.00311122
0.182337,-0.06837069999999999,-0.310857,-0.00167066,0.00067967,0.00269472
0.204756,-0.046008999999999994,-0.307194,-0.00191179,0.0009477639999999999,0.00244403
0.21126,0.0199602,-0.242412,-0.00268277,0.00102532,0.00269472
0.21306,-0.125827,-0.381387,-0.000442868,0.000293959,0.00269472
0.198607,-0.0521609,-0.303638,-0.000804166,0.000273219,0.00303756
0.194178,-0.08175699999999997,-0.291285,-0.00129391,0.000477329,0.00312446
0.19855899999999999,-0.235301,-0.5130100000000001,0.00047826,0.000457033,0.00269472
0.195459,-0.147411,-0.41208,-0.000502279,0.00014516,0.00326878
0.21255300000000002,-0.12497200000000006,-0.48373900000000003,-0.0011839900000000006,0.000296412,0.00326785
0.198297,-0.193219,-0.49896599999999997,-0.000983157,-0.000156224,0.00344391
0.198365,-0.18445999999999999,-0.573146,-0.000659635,0.000169138,0.00359792
0.193377,-0.12082300000000006,-0.521081,-0.00172989,-0.000600031,0.00342702
0.178432,-0.105433,-0.42045200000000005,-0.00175445,-0.00045305599999999997,0.00353901
0.18899200000000002,-0.29031999999999997,-0.621394,-0.00116772,-0.000612955,0.00335325
0.156805,-0.16153,-0.45928,-0.00206951,-0.00071975,0.00291371
0.17998,-0.207323,-0.542147,-0.00155642,-0.000475704,0.00291371
0.180214,-0.12138099999999999,-0.436985,-0.000983401,-0.000179934,0.00291371
0.180422,-0.11228199999999999,-0.432004,-0.000445872,0.000275613,0.00291371
0.185167,-0.07899739999999998,-0.378929,-0.0007932889999999998,5.71345e-05,0.00320952
0.18042,-0.06491559999999999,-0.34794899999999995,-0.00098848,0.000180709,0.00330158
0.201255,-0.202929,-0.58973,-0.000948582,5.23783e-05,0.00332227
0.198978,-0.11789100000000001,-0.47658199999999995,-0.00212552,-8.827280000000001e-05,0.00363528
0.198878,-0.178378,-0.575505,-0.0007266939999999997,-0.000281554,0.00356094
0.16564500000000001,-0.24213600000000002,-0.449909,-6.622520000000001e-05,-0.0008101989999999999,0.00342577
0.13833100000000004,-0.174565,-0.28444200000000003,0.00314409,-0.00053415,0.00330755
0.138097,-0.194055,-0.25840799999999997,0.00284385,-0.00067688,0.00347516
0.136122,-0.0941909,-0.31558200000000003,0.000322487,-0.00114041,0.00392524
0.138495,-0.161773,-0.34418899999999997,0.00199736,-0.00109819,0.00418608
0.154144,-0.144955,-0.368023,0.00246504,-0.000824781,0.00410815
0.13754400000000006,-0.09321900000000001,-0.304759,0.00253552,-0.000567542,0.0041012
0.150617,-0.11383099999999999,-0.350501,0.00271322,-0.000518089,0.00387592
0.15812,-0.0907913,-0.337392,0.00198664,-0.000755679,0.00422355
0.155638,-0.0873251,-0.307206,0.00202198,-0.000681843,0.0043035
0.176528,-0.25146399999999997,-0.43800200000000006,0.00234758,-0.000489371,0.00458993
0.17418599999999998,-0.254657,-0.46071899999999993,0.00275543,-0.000536531,0.00470727
0.16919700000000001,-0.246234,-0.42326800000000003,0.0030845,-0.000912704,0.00470727
0.173825,-0.156727,-0.327611,0.00256847,-0.00033256199999999995,0.00453626
0.179538,-0.22387800000000002,-0.435382,0.00297431,-0.00064632,0.00412657
0.158691,-0.11658699999999998,-0.301098,0.00179863,-0.00028938099999999996,0.00442495
0.173491,-0.16300599999999998,-0.411926,0.00217287,-0.000267549,0.00447072
0.161645,-0.0881283,-0.36949499999999996,0.00166098,-0.0008119289999999998,0.00443264
0.157971,-0.088128,-0.292195,0.00156352,-0.0002513,0.00431822
0.165883,-0.176981,-0.32609499999999997,0.00182206,-9.77751e-05,0.00470727
0.161983,-0.176904,-0.324828,0.00132356,-0.0004909959999999999,0.00470727
0.157952,-0.223194,-0.318416,0.00189202,-0.000226425,0.00454855
0.174396,-0.16916099999999998,-0.341287,0.00226264,-5.52741e-05,0.00470727
0.15712,-0.10340999999999999,-0.22987600000000002,0.00157513,1.62091e-05,0.00422306
0.164011,-0.126408,-0.35476199999999997,0.00139659,1.63963e-05,0.00452943
0.167129,-0.157524,-0.419914,0.00181037,-0.0008758979999999997,0.00470727
0.16187299999999996,-0.0962507,-0.38255700000000004,0.0009425239999999999,-0.00041543,0.00460192
0.182645,-0.18855,-0.513369,0.00224377,-0.00060513,0.00460927
0.145974,-0.10338199999999999,-0.33157,0.00209651,-0.000526973,0.004417100000000001
0.148886,-0.17760899999999996,-0.414012,0.00250403,-0.000740874,0.00452218
0.11983599999999998,-0.130395,-0.30303800000000003,0.00152922,-0.0008186119999999999,0.00443512
0.102167,-0.059138199999999995,-0.24388,0.00197807,-0.000514906,0.00416842
0.10205399999999999,-0.0924071,-0.307044,0.0009212,-0.0007489909999999997,0.00439745
0.101984,-0.161065,-0.362295,0.00113021,-0.000702394,0.00470727
0.10928800000000001,-0.14217900000000006,-0.334356,0.00099083,-0.00083887,0.00457686
0.11358599999999999,-0.11496400000000001,-0.340929,0.00156063,-0.000985626,0.00458369
0.13306400000000002,-0.176026,-0.42018999999999995,0.00217947,-0.00074972,0.00470727
0.124651,-0.18027200000000002,-0.49273500000000003,0.00181945,-0.0015065,0.00465429
0.126307,-0.09049910000000001,-0.41561099999999995,0.000409252,-0.00135498,0.00502853
0.14468599999999998,-0.116801,-0.503283,0.00163873,-0.00097911,0.00467329
0.139678,-0.067449,-0.384179,0.00127142,-0.00106613,0.00461514
0.144597,-0.261563,-0.596276,0.00257353,-0.00130998,0.00449637
0.134543,-0.210587,-0.53695,0.0012731900000000006,-0.00121313,0.00499056
0.113924,-0.0563369,-0.360729,0.00054909,-0.0007476910000000001,0.00454493
0.134453,-0.183658,-0.494251,0.00236958,-0.00101456,0.0044899
0.134848,-0.131806,-0.37522300000000003,0.00131092,-0.0005343069999999999,0.00456665
0.149693,-0.12509,-0.480979,0.00163248,-0.0006033869999999999,0.00468849
0.144423,-0.129638,-0.43494399999999994,0.00120934,-0.000796675,0.00485295
0.159329,-0.11399100000000001,-0.394074,0.00104616,-0.0006033869999999999,0.00499056
0.159328,-0.22808299999999998,-0.483814,0.00171198,-0.000772648,0.00477351
0.14997,-0.16012,-0.44109,0.00187868,-0.000506069,0.00471278
0.149443,-0.186896,-0.514821,0.00158829,-0.00034700800000000005,0.00469478
0.135632,-0.0917061,-0.396122,0.00159767,-0.00041963199999999997,0.00446482
0.139949,-0.215216,-0.529008,0.00256303,-0.000525832,0.00451645
0.131962,-0.137668,-0.412871,0.00259632,-0.000435231,0.00445905
0.143343,-0.16384399999999996,-0.43128500000000003,0.00201017,-0.00022156599999999997,0.00456766
0.15116300000000002,-0.21382199999999998,-0.5859800000000001,0.0008876519999999998,-0.000701538,0.00452792
0.14670999999999998,-0.120722,-0.428489,0.0007276060000000001,-0.00056951,0.00452792
0.11683099999999999,-0.10382100000000001,-0.37901999999999997,0.000713665,1.70192e-05,0.00404471
0.11666099999999999,-0.12798099999999998,-0.375707,0.0009655410000000002,-0.000251083,0.00386199
0.0945157,-0.0605609,-0.289106,0.00203035,7.48119e-05,0.0037942
0.0940515,-0.0996159,-0.347918,0.00174037,0.000154602,0.00365632
0.0971366,-0.11149300000000001,-0.399099,0.00161554,7.94033e-05,0.00382762
0.100957,-0.0793892,-0.352354,0.00148364,0.000342297,0.00366413
0.11130999999999999,-0.0648392,-0.350476,0.00162378,0.00036962400000000004,0.00388105
0.109351,-0.09752519999999999,-0.360923,0.00205817,0.000282108,0.00389106
0.105305,-0.084441,-0.34820300000000004,0.00163589,0.000367769,0.00365353
0.105331,-0.055379599999999994,-0.311769,0.00205052,0.000510854,0.00366153
0.121076,-0.0510862,-0.348598,0.0014203000000000006,0.000809825,0.00355873
0.133372,-0.202785,-0.5420470000000001,0.00250479,0.000425953,0.0025861
0.14630399999999996,-0.0504974,-0.347855,0.00018586,0.000257291,0.0035476999999999996
0.15998800000000002,-0.117997,-0.418361,-0.000157002,3.64582e-05,0.00411924
0.161551,-0.280393,-0.6459560000000001,0.000328642,-0.000581288,0.00334788
0.136009,-0.0865655,-0.37514400000000003,-0.0008886639999999998,-7.82124e-05,0.00320952
0.15756900000000001,-0.213443,-0.602276,0.00036143,-0.00035155099999999997,0.00305079
0.14392700000000005,-0.0966845,-0.442251,-0.00045587300000000003,8.339419999999998e-05,0.00312646
0.160583,-0.157686,-0.5752520000000001,0.0009589650000000002,-4.29076e-05,0.00280845
0.143929,-0.040876300000000004,-0.40710100000000005,-0.0007487909999999997,-0.00015259099999999996,0.00280703
0.136725,-0.13990999999999998,-0.42923100000000003,-0.00114494,-1.6718400000000003e-06,0.00325022
0.145039,-0.246035,-0.55893,0.000617897,-0.000270071,0.00300244
0.1076,-0.060188599999999995,-0.19903099999999999,0.00176625,2.89052e-05,0.00275395
0.140184,-0.302602,-0.64386,0.000795227,-0.000663045,0.0027816
0.13722100000000004,-0.13079100000000002,-0.41808199999999995,-0.000557709,-0.000306742,0.00325022
0.15654400000000002,-0.200139,-0.566747,2.51732e-05,-0.000352194,0.00348208
0.129375,-0.124358,-0.38937,-0.000485333,-0.000426104,0.00217042
0.129389,-0.07167860000000001,-0.374898,-0.000690161,-2.67181e-05,0.0024198
0.15800999999999998,-0.263508,-0.674148,0.00165477,-0.000447069,0.0024198
0.14648699999999998,-0.18295699999999998,-0.497173,0.00138494,-0.00128929,0.0024198
0.129241,-0.142699,-0.41150299999999995,0.0009928460000000001,-0.000583785,0.00199297
0.117486,-0.0735112,-0.359383,0.000856462,-0.000135232,0.00149811
0.07022460000000001,-0.0921231,-0.240681,-0.000887375,-0.00011912,0.00127639
0.065263,-0.013634700000000001,-0.0854056,0.000244684,0.00012327600000000002,0.00168968
0.058380499999999995,-0.0593251,-0.190088,0.000775367,0.00014447,0.00167328
0.07088430000000001,-0.0951271,-0.219338,0.00209175,0.00014447,0.00170103
0.06580180000000001,-0.0972222,-0.239621,0.00393416,0.00014447,0.00141232
0.0700607,-0.0700679,-0.2154,0.00346569,0.000321451,0.00158565
0.06766389999999999,-0.0295614,-0.14248,0.00315147,0.00014447,0.0013884600000000006
0.0725813,-0.0449543,-0.188137,0.00298657,9.01269e-05,0.00177385
0.0791684,-0.036775699999999995,-0.14866500000000002,0.00230886,-2.0221799999999998e-06,0.00193213
0.11448499999999999,-0.049474199999999996,-0.21309,0.00306495,0.000545921,0.00100228
0.12049100000000001,0.0279264,-0.17056300000000002,0.000577622,-0.00011284700000000001,0.00141193
0.10030700000000001,-0.0268694,-0.295522,-7.21873e-05,-0.0009282130000000002,0.00237874
0.11025499999999999,-0.15444000000000002,-0.393019,0.00137975,-0.000762975,0.0019545
0.10447100000000001,-0.204814,-0.402599,0.00224735,-0.00103481,0.00194554
0.0931179,-0.0353396,-0.10581199999999999,-0.000310778,-0.000179094,0.00162603
0.12741,-0.00125802,-0.152818,-0.0008896269999999999,0.000632207,0.00154496
0.106529,0.00658666,-0.137434,3.45722e-05,-0.000722121,0.00194554
0.13305,-0.0437486,-0.28973499999999996,-0.00182476,-0.000436588,0.00234042
0.12426,-0.09558539999999999,-0.17134000000000002,4.3594099999999997e-05,-0.00025973,0.00159273
0.107847,-0.041807800000000006,-0.138158,0.000998043,-7.581159999999997e-05,0.00153029
0.10276800000000001,-0.0328356,-0.135088,0.000193153,-0.000410392,0.00101547
0.08756389999999999,0.0548928,-0.0458596,-0.000116409,-0.00035197300000000005,0.00108148
0.118021,0.0421396,-0.10940799999999999,0.000172583,0.000181681,0.00138577
0.11570200000000005,-0.0240567,-0.276827,0.0013570000000000001,-0.00029142400000000003,0.0013421100000000005
0.129084,-0.0228667,-0.19931400000000002,-0.0008409369999999999,2.6805100000000002e-05,0.00108148
0.132639,-0.019641299999999997,-0.162154,2.3847800000000002e-05,-0.00012002700000000001,0.00108148
0.1192,-0.115308,-0.22523,0.00168561,8.22431e-05,0.000964998
0.123377,-0.0765788,-0.18045899999999998,0.00104383,0.00034265099999999997,0.00102612
0.125424,-0.0928855,-0.323716,0.00149728,-0.000404474,0.00108148
0.113114,-0.11810699999999999,-0.36744299999999996,0.000459937,-0.000591706,0.00108148
0.0909392,0.0512419,-0.157886,-0.000372355,-3.2840500000000005e-05,0.000578077
0.09815080000000001,0.0733703,-0.15521,-0.00021177200000000002,0.000363535,0.000236077
0.0943998,0.0974525,-0.154165,-0.00038447300000000003,0.000130471,0.000139039
0.0981436,0.163162,-0.026553500000000004,0.00042746,0.00025581,-4.15146e-05
0.102504,0.0371286,-0.0865203,0.00244761,-0.000153417,0.000400189
0.09815739999999999,0.00357073,-0.09108680000000001,0.00217983,-0.000570262,0.000412995
0.09819760000000001,-0.029239599999999998,-0.140352,0.00165648,-0.000383881,0.000701629
0.09817569999999999,-0.026274099999999998,-0.154263,0.00045479900000000003,-0.000425874,0.000701629
0.117665,-0.0808797,-0.257706,0.00111686,5.54483e-05,0.000701629
0.108431,-0.09132080000000001,-0.17840799999999998,0.0027019,-0.000225208,0.000701629
0.11511400000000001,-0.0404536,-0.202719,0.00133063,-0.000186049,0.000701629
0.121421,-0.0726904,-0.318193,0.00205962,-0.000657824,0.000624978
0.115074,-0.050523900000000004,-0.25651199999999996,0.00209201,-0.000302732,0.000647957
0.114988,-0.0750615,-0.342409,0.00175861,-0.000459386,0.000701629
0.07854479999999997,-0.0008413249999999998,-0.197122,0.00191018,-0.00037866,0.00027917
0.098957,-0.06527530000000001,-0.38085,0.00181002,-0.0007917669999999998,0.00048166
0.10641700000000001,-0.0283736,-0.295817,0.000513055,-0.000523208,0.0007254129999999997
0.11486700000000001,-0.10117000000000001,-0.338096,0.00156773,-0.0007323589999999999,0.0008294659999999997
0.100629,-0.0507134,-0.131347,0.00233204,-0.000349345,0.000577811
0.099863,-0.0334215,-0.172953,0.00239268,-0.000349345,0.000901735
0.11610899999999999,-0.0926326,-0.361931,0.00251033,-0.000948927,0.000776468
0.11343900000000001,-0.055263599999999996,-0.33265300000000003,0.0017247199999999995,-0.000651271,0.0008210439999999999
0.103199,-0.0103634,-0.31550700000000004,0.00121431,-0.0009077110000000001,0.00120577
0.13905499999999998,-0.104348,-0.38845799999999997,0.000217307,-0.000579322,0.0008650839999999999
0.10736099999999998,0.048936099999999996,-0.24667600000000003,0.000469057,-0.000862493,0.000990068
0.111366,-0.0197605,-0.290471,-3.37439e-05,-0.00057404,0.0012902
0.115191,-0.11534000000000001,-0.351821,-0.000301898,-0.0008456759999999997,0.00123754
0.112853,-0.0864737,-0.335874,0.0005467569999999999,-0.0008456759999999997,0.0012902
0.110853,-0.180089,-0.455317,0.00281574,-0.00141813,0.0014371
0.0910275,-0.07438550000000001,-0.277998,0.00258791,-0.0009276369999999999,0.0012902
0.10291199999999999,-0.10348299999999999,-0.294721,0.00272989,-0.0006892980000000001,0.00156113
0.102724,-0.0662691,-0.294211,0.00215651,-0.0008456759999999997,0.00150762
0.108634,-0.046993099999999996,-0.292222,0.00253062,-0.00027310400000000003,0.00162171
0.10858,-0.039847,-0.28491700000000003,0.00170919,-0.00042445199999999997,0.00159463
0.0628065,-0.0327524,-0.260167,0.00150819,-0.000226182,0.0012902
0.0704474,-0.0551552,-0.248137,0.00161328,-0.000724001,0.00172193
0.0987061,-0.028075700000000002,-0.240213,0.00180962,-0.000342694,0.00187543
0.09912989999999999,-0.04668119999999999,-0.251321,0.00181201,-0.000386116,0.00192104
0.119413,-0.167077,-0.44413500000000006,0.00248001,-0.00034958699999999994,0.0016094000000000002
0.108423,-0.101499,-0.317801,0.00216625,-0.00036413300000000005,0.000975553
0.115877,-0.116497,-0.354052,0.00271589,-0.00055027,0.0012902
0.127499,-0.046752499999999995,-0.222829,0.00196847,-0.000149014,0.00153672
0.12746900000000005,-0.0442875,-0.21257199999999998,0.0015845999999999998,-0.000275663,0.00190923
0.144476,-0.130848,-0.273472,0.00343745,-0.000572798,0.0020885
0.12953399999999998,-0.031816500000000004,-0.142701,0.00263407,-0.00028887,0.00243025
0.129502,-0.0230461,-0.17313900000000002,0.00173389,-0.000284482,0.0026678
0.138468,-0.10680999999999999,-0.365622,0.00156411,-0.0008651969999999997,0.0026678
0.163447,-0.202559,-0.5373680000000001,0.000809688,-0.00148787,0.00308023
0.148775,-0.10573699999999998,-0.37600300000000003,0.000404357,-0.00135757,0.00305043
0.144034,-0.132055,-0.397486,0.00211575,-0.00127348,0.00299856
0.125128,-0.026302499999999996,-0.264438,0.00132208,-0.00147054,0.00322634
0.152522,-0.11737,-0.452408,0.00149474,-0.00164967,0.00323279
0.15704399999999996,-0.0706248,-0.413945,0.00055359,-0.00192071,0.0034798999999999997
0.137934,-0.13265900000000005,-0.540319,0.00110435,-0.00195237,0.00356156
0.137989,-0.13286900000000001,-0.47491400000000006,0.00130787,-0.0018698,0.00368042
0.138259,-0.10505199999999999,-0.455556,0.00323753,-0.00112486,0.00368042
0.107949,-0.0804063,-0.361346,0.00321194,-0.00161287,0.00368042
0.103252,-0.151106,-0.5539430000000001,0.0034467,-0.00172204,0.00368042
0.13330999999999998,-0.188313,-0.5893579999999999,0.00321779,-0.00201088,0.00405235
0.121472,-0.152712,-0.486396,0.00346092,-0.00157961,0.00411372
0.10720299999999999,-0.132495,-0.468689,0.00450953,-0.0017664000000000002,0.00396687
0.10714100000000001,-0.130031,-0.457323,0.00441477,-0.00177029,0.00414333
0.10697899999999999,-0.131908,-0.422596,0.00359346,-0.00182458,0.00430373
0.12476,-0.168697,-0.523469,0.00301361,-0.00233528,0.00441657
0.10884500000000001,-0.0703529,-0.293036,0.00347594,-0.00207986,0.00457929
0.108821,-0.0492514,-0.24448000000000003,0.00359088,-0.00220265,0.00452101
0.10887100000000001,-0.026485,-0.24247399999999997,0.00434139,-0.00197199,0.00463565
0.108927,-0.0717102,-0.319454,0.00473563,-0.00164099,0.00471293
0.11504400000000001,-0.0359176,-0.27255100000000004,0.00332134,-0.00160882,0.00449987
0.108964,-0.031338,-0.271485,0.00340195,-0.00155797,0.00452055
0.135076,-0.07724539999999999,-0.375899,0.00402606,-0.00163684,0.00483982
0.13075699999999998,-0.06953780000000001,-0.348045,0.00402646,-0.00165591,0.00451836
0.135147,-0.055703499999999996,-0.374212,0.00389211,-0.00130418,0.00441694
0.13508599999999998,-0.028569900000000002,-0.30057399999999995,0.00407692,-0.00165802,0.0047456
0.135133,-0.028531400000000002,-0.286923,0.00470754,-0.00150583,0.00485791
0.12385299999999999,-0.036868599999999994,-0.276256,0.00406729,-0.00153439,0.0049148
0.13861300000000001,-0.0559791,-0.371222,0.00449674,-0.0017902599999999997,0.00491481
0.135964,-0.08506669999999998,-0.399032,0.00385556,-0.0021062,0.00491481
0.134733,0.00330865,-0.318756,0.00342247,-0.00173128,0.00491481
0.138699,-0.06627739999999999,-0.39726,0.00390421,-0.00132666,0.00491481
0.118145,-0.07893380000000001,-0.342061,0.00333257,-0.0012505000000000005,0.00440704
0.131196,-0.0145804,-0.25496399999999997,0.00327801,-0.000987118,0.00430063
0.15304500000000001,-0.11920599999999999,-0.45981000000000005,0.00396003,-0.00102171,0.00449831
0.13108,-0.0301622,-0.361419,0.00280158,-0.00128146,0.00415063
0.147797,-0.0877677,-0.48504200000000003,0.00474226,-0.0011049,0.00416414
0.14952299999999996,-0.114281,-0.53442,0.00233949,-0.00162614,0.00386147
0.118252,0.0335415,-0.261793,0.00234269,-0.00135795,0.00381141
0.124797,-0.09718330000000001,-0.39832,0.00387866,-0.00127778,0.00360687
0.131157,-0.0515155,-0.298176,0.00374164,-0.00126652,0.00348621
0.141963,-0.135211,-0.40846,0.0051866,-0.0011607999999999998,0.00353077
0.14594400000000002,-0.121571,-0.39059099999999997,0.0059834,-0.00127355,0.00358531
0.148817,-0.12249000000000002,-0.3473,0.00553162,-0.00149067,0.00384281
0.141673,-0.0576611,-0.24416300000000002,0.00412736,-0.000893082,0.00335382
0.168945,-0.126441,-0.31599,0.00545153,-0.000435293,0.00351194
0.16754000000000002,-0.136269,-0.32198699999999997,0.00502397,-0.0008114289999999999,0.00379161
0.159039,-0.058157400000000005,-0.272468,0.00446586,-0.000631528,0.00365542
0.170992,-0.0558422,-0.251255,0.00426482,-0.00044735,0.00358531
0.176976,-0.09178380000000001,-0.352544,0.00494155,-0.00043232199999999996,0.00358531
0.167244,-0.025070500000000003,-0.239749,0.00403495,-0.00040254300000000005,0.00374876
0.177111,-0.038108300000000005,-0.30650900000000003,0.00414538,-0.00048354699999999997,0.00423948
0.17685999999999996,-0.12597,-0.41538100000000006,0.00443985,-0.000607412,0.00358531
0.177265,-0.0159411,-0.238472,0.00341696,-4.67967e-05,0.00380296
0.171036,-0.11175,-0.410029,0.00503734,-0.000504922,0.00391172
0.171241,-0.07707689999999999,-0.312128,0.00430244,-0.000858148,0.00410652
0.18618800000000002,-0.0425118,-0.277437,0.00423033,-0.00067893,0.00481301
0.176004,-0.113952,-0.293456,0.00508517,-0.0007596189999999999,0.00423847
0.175933,-0.0471201,-0.22895300000000002,0.00520727,-0.000624443,0.0038475000000000002
0.173896,-0.142746,-0.34675500000000004,0.0064389,-0.000736647,0.00364164
0.158884,-0.018482299999999997,-0.21091999999999997,0.00536107,-0.00109569,0.0039282
0.168969,-0.056504099999999995,-0.274769,0.00491185,-0.000919003,0.0044225
0.175958,-0.11745599999999999,-0.392111,0.00205247,-0.00110867,0.00372904
0.173005,0.0108233,-0.258021,0.00206684,-0.000359559,0.00360546
0.193947,-0.0586832,-0.40427199999999996,0.00217191,-0.00020708,0.00367863
0.18283,0.0584649,-0.24457199999999998,0.00164068,5.351610000000001e-07,0.00390695
0.182081,0.0373282,-0.24348000000000003,0.00152458,-0.000122495,0.00397785
0.19263,-0.06448469999999999,-0.424332,0.00151584,-0.0007174839999999999,0.00372466
0.171801,0.09525750000000001,-0.109019,0.00304004,-2.6792800000000002e-05,0.00383575
0.183364,-0.036315,-0.19906600000000002,0.00428302,0.000427245,0.00340051
0.168123,-0.0593922,-0.22974499999999998,0.00508202,-4.59592e-05,0.00340051
0.144901,-0.07474229999999997,-0.317963,0.00559437,-0.00043265800000000004,0.00340051
0.14796800000000002,-0.0900665,-0.312424,0.00554465,-0.00043260300000000005,0.00347759
0.15876700000000002,-0.049812199999999994,-0.30962199999999995,0.00527221,-0.000351335,0.00362945
0.158712,-0.103622,-0.303295,0.00584909,-0.000503251,0.00380456
0.179589,-0.114526,-0.376006,0.00615064,-0.000277347,0.00391146
0.164941,-0.08304459999999997,-0.337131,0.00585255,-0.000216656,0.00369753
0.160827,-0.120502,-0.333875,0.00704535,-5.19332e-05,0.00340051
0.163413,-0.0842296,-0.29183000000000003,0.0071703,7.58103e-05,0.00355401
0.163246,-0.12036,-0.313212,0.00713373,-0.000453574,0.00340051
0.15767799999999998,-0.017678799999999998,-0.238717,0.0062407,-0.0005687930000000001,0.00371192
0.171303,-0.129046,-0.414588,0.00791264,-0.0006959,0.00359733
0.157666,-0.150393,-0.48318900000000004,0.00620023,-0.00109166,0.00350913
0.169654,-0.137774,-0.45538599999999996,0.00716237,-0.000396724,0.00340051
0.164631,-0.043317800000000004,-0.41675,0.00514132,-0.0008392799999999998,0.00363748
0.163429,-0.09059450000000001,-0.430241,0.00508769,-0.0008532439999999999,0.0035797
0.167345,-0.186552,-0.5597310000000001,0.00675775,-0.000827762,0.00340051
0.153567,-0.118573,-0.44299499999999997,0.00595738,-0.0007285469999999999,0.00358533
0.16354100000000002,-0.163114,-0.510636,0.00689229,-0.0007266410000000001,0.00340051
0.15176099999999998,-0.097315,-0.41202700000000003,0.0061985,-0.0007748959999999999,0.00340051
0.155346,-0.117211,-0.497044,0.00603483,-0.0006915469999999999,0.00375706
0.13435,-0.130908,-0.502812,0.00602945,-0.0006453019999999999,0.00353816
0.12070999999999998,-0.0907847,-0.468893,0.00648309,-0.000563924,0.00358476
0.14164200000000002,-0.13012100000000001,-0.575246,0.00650649,-0.0007983769999999999,0.00352087
0.13263699999999998,-0.10134,-0.495875,0.00671705,-0.0008600959999999998,0.00362933
0.153104,-0.21353200000000003,-0.6430130000000001,0.00744182,-0.0007149589999999999,0.00383498
0.138003,-0.19888,-0.631966,0.00605624,-0.0005051680000000001,0.00388237
0.14924,-0.149268,-0.5917279999999999,0.00565544,-0.00035957400000000004,0.00403409
0.15198699999999998,-0.231289,-0.740495,0.006944800000000001,-0.000708575,0.00403409
0.137774,-0.21334899999999998,-0.681838,0.00387016,-0.0007479719999999999,0.00375397
0.136419,-0.135683,-0.5554979999999999,0.00409737,2.85682e-22,0.00357686
