-0.024896599999999998,0.017112099999999998,-0.0473089,0.00028335599999999996,-0.000366515,-0.0006039919999999999
-0.00559631,0.0550498,-0.022849599999999998,-0.0011368,-0.000482249,-0.000338919
-0.00515871,0.026681,-0.0140559,-0.0007879859999999999,-0.000469742,-0.000338919
-0.014067500000000002,-0.0119042,-0.054332500000000006,-0.000365455,-0.000366515,-0.000607743
-0.0162729,-0.0609831,-0.0387719,0.000630499,-0.000431888,-0.000452091
-0.016278,-0.013862600000000001,-0.0585831,0.000291803,-0.000473034,-0.000366995
-0.0280779,-0.105004,-0.0967293,0.000116496,-0.000248718,-0.000451944
-0.026664099999999996,-0.0123448,-0.0373148,0.000821491,-0.000280028,-0.000439755
-0.0249198,-0.00974102,-0.120867,-0.00324914,-0.0006830730000000001,-0.00043553099999999996
-0.0239917,0.08712549999999998,-0.0455089,-0.00124914,-0.00047586300000000003,-0.000564953
-0.032492599999999996,-0.0490801,-0.11975799999999999,0.00034344400000000004,-0.000279445,-0.0005290140000000001
-0.0325601,-0.0695954,-0.1018,0.000903433,-0.000105032,-0.0006949310000000001
-0.0244895,0.08964889999999999,-0.00550595,0.000421741,-0.000390983,-0.000514016
-0.0233091,-0.0264939,-0.0709946,-7.93021e-05,-0.000414433,-0.00040167800000000004
-0.0240394,-0.07666089999999999,-0.0598206,0.0010494000000000002,-0.000193465,-0.000350037
-0.0140451,0.07661710000000001,0.044032800000000004,0.000566098,-0.00032331,-0.000298934
-0.029451299999999996,0.0205409,-0.00773548,0.0007852589999999997,-0.00032331,-0.000323492
-0.028454200000000002,-0.0723829,-0.007762169999999999,0.00155129,2.09469e-05,-0.000253618
-0.018904300000000002,0.0418593,0.0293125,0.00110394,-0.00029736599999999997,-0.000218528
-0.0253187,0.00667071,-0.023272099999999997,0.0017397999999999995,0.000184909,0.000201227
-0.023083199999999998,0.036359300000000004,-0.00413454,0.00174706,-8.891729999999997e-05,0.000201227
-0.014518600000000001,-0.0158823,-0.07545549999999998,0.00193827,0.000330461,0.000201227
-0.0104834,0.057709199999999995,-0.00466971,-0.00160165,-0.000225529,0.000410748
-0.00805398,0.0124794,-0.00833592,-0.0008943399999999998,0.000330461,0.000201227
-0.019049700000000003,-0.054097400000000004,-0.0438833,0.000292473,-9.48699e-05,3.70228e-06
-0.023016099999999998,0.012913299999999997,0.013499500000000001,0.0006701210000000001,-7.82259e-05,0.000201227
-0.0188799,0.185656,0.159406,-0.00043814099999999996,-0.0007245489999999999,0.000201227
-0.029217,0.0129078,0.07828639999999999,3.63583e-05,-0.000357255,0.000201227
-0.00561962,-0.00473768,0.0819092,-0.000879608,-0.00018792,5.15514e-05
-0.00618908,0.0423952,0.104591,-0.0006786689999999999,-0.000311628,0.000201227
-0.00161383,0.171257,0.09940189999999999,-0.000247365,-0.00066233,0.0005081069999999999
-0.00795257,0.017008900000000004,-0.00280413,0.0009277760000000001,-9.46908e-05,0.000309092
-0.00364291,0.08226119999999999,0.0363337,0.00115016,-0.00018901400000000002,0.000561026
0.00354169,0.0323015,0.00236415,0.00157953,2.14815e-05,0.0008850339999999999
0.00306125,0.013272200000000001,0.052772900000000005,0.00252072,0.000131488,0.000876563
0.007581519999999999,0.0623814,0.0197513,0.00204847,0.000110709,0.000876563
0.00757822,-0.000185107,0.03529330000000001,0.00264723,0.000429129,0.000936413
0.007607399999999999,0.05580689999999999,0.025233900000000004,0.00245883,0.000113895,0.0010878
0.007622269999999999,-0.0264375,0.0514346,0.00282717,0.000230276,0.000876562
0.007574189999999998,0.0618771,0.07701319999999999,0.00229986,0.000540354,0.00111849
0.00480296,0.0196923,0.0422745,0.00189145,0.000682195,0.00121535
0.007491829999999999,0.04685809999999999,0.0999284,0.00276199,0.0009094460000000001,0.0010884
0.0147542,0.0715105,0.06802560000000002,0.00298225,0.000830891,0.00133507
-0.008881629999999998,-0.101939,-0.0417506,-0.00126427,0.0005714240000000001,0.000735435
0.00663216,-0.398146,-0.255959,-0.00579291,0.0001136,0.00186002
0.00690292,-0.244346,-0.202569,-0.0011911,0.00115152,0.00171586
0.00690537,-0.12774000000000002,-0.0977716,0.000442548,0.00104227,0.00125913
0.0326223,-0.00906998,-0.0457402,0.000808896,0.0007823799999999997,0.00144391
0.0305584,-0.154619,-0.225568,0.00134085,0.00145607,0.00149567
0.0324382,-0.0838112,-0.11466100000000005,0.00275402,0.00154762,0.00144391
0.0395815,0.00731827,-0.07922379999999997,0.00251016,0.00130124,0.0018244
0.0150524,-0.0991117,-0.123331,0.000678071,0.00056574,0.0013040800000000006
-0.0040192,-0.0715683,-0.121553,-0.00537883,-0.00036129900000000004,0.0005849609999999999
-0.0105346,-0.039268800000000006,-0.0771951,-0.00303025,0.000554185,0.000490579
0.0203814,0.07067799999999999,0.0184858,-0.00813412,-0.00032847,0.000622287
0.00359603,0.172572,0.156801,-0.00522186,-8.269959999999999e-05,0.000490579
-0.00746543,-0.0238523,0.0446914,-0.00354508,0.000463811,0.000490579
-0.00412005,0.016208799999999995,0.043642099999999996,-0.00307326,0.000621105,0.000490578
-0.000785145,0.08869889999999997,0.06913810000000001,-0.00381976,0.000279469,0.0007741119999999998
-0.00283853,0.20731100000000002,0.214418,-0.0043438,-0.00043934800000000005,0.00105749
-0.008862399999999998,0.0815705,0.12480699999999999,-0.00339221,0.00013901200000000002,0.0007809409999999997
0.00113907,0.0217366,-6.55566e-05,-0.0012544000000000001,0.000255211,0.000622818
-0.015513399999999998,-0.00974847,-0.00565505,-0.000702767,0.000601168,0.000637815
-0.0185227,-0.025946299999999995,-0.0708415,-0.000528946,0.00086291,0.000490578
-0.0183813,0.13179200000000002,0.029414099999999995,-0.000765045,0.000122624,0.000869686
-0.0184306,0.023049700000000003,-0.04053180000000001,-0.0013272300000000006,0.0005094030000000001,0.0009253610000000001
-0.018459299999999998,0.00504216,-0.016741599999999995,-0.000946299,0.000807379,0.00083546
-0.012725700000000001,0.0712952,0.00286691,-0.0008560519999999999,0.000444764,0.000890963
0.00308973,-0.028401599999999996,-0.08944099999999999,-0.00249559,-5.48223e-05,0.000669828
0.0111714,-0.0242534,-0.05635419999999999,-0.00347382,-0.000265841,0.000860941
0.00124546,-0.000823501,-0.08755039999999999,-0.00218381,0.000365625,0.00071605
0.00825956,0.054179899999999996,-0.00816677,-0.00167017,0.000315041,0.000812613
-0.00460862,0.0762664,-0.0101597,-0.00143955,-3.73273e-05,0.000986806
-0.007775179999999999,-0.038990699999999996,-0.109023,-0.000980186,0.000365625,0.00087923
-0.00564763,0.019172400000000003,-0.0236759,-0.0009042960000000001,0.000162191,0.0009522010000000001
-0.0065836,0.08945119999999998,0.010186,-0.0013228,0.000184106,0.0011561
-0.00315235,-0.0167046,-0.062400300000000006,-0.00163879,0.000542458,0.00117875
-0.00559824,0.037587,-0.013363499999999999,-0.00138714,8.288049999999999e-05,0.00117604
-0.00187385,-0.00385443,0.0019489999999999998,-0.0005889140000000001,2.7840699999999998e-06,0.00129459
0.00736557,0.054508600000000004,0.00842345,-0.000922925,2.37425e-06,0.00132526
-0.00576943,0.0203343,-0.0357661,-0.00022895900000000001,0.000344691,0.00127324
-0.00455755,0.00158742,0.0103818,-0.00553498,-0.000525293,0.00138471
-0.07867169999999997,-0.0166843,0.014671200000000002,-0.00369457,-0.00135935,0.0018038
-0.0497189,-0.08635119999999999,-0.165466,-0.00416644,-0.00049788,0.00132926
-0.0316027,-0.0899322,-0.158368,-0.00410927,-0.000354859,0.00124552
-0.0315874,-0.0490901,-0.158141,-0.00366921,-0.00022009299999999998,0.00101037
-0.015488499999999999,0.00468725,-0.1411,-0.0038277999999999997,-0.00022009299999999998,0.0009626010000000002
-0.011582799999999999,0.066205,-0.13058800000000004,-0.00442735,-0.00022009299999999998,0.00176356
0.00853046,-0.029533799999999995,-0.12408400000000006,-0.00334935,2.42677e-05,0.00226687
0.018061,0.0126396,-0.101129,-0.00333253,-0.00022009299999999998,0.00306909
0.00811274,0.0211777,-0.09361649999999999,-0.00267412,-0.00022009299999999998,0.00252125
0.00703297,-0.009183620000000002,-0.06557080000000001,-0.00189961,8.274680000000001e-06,0.00276272
-0.00370177,-0.026238499999999998,-0.09633889999999999,-0.00169567,0.000166396,0.00282217
-0.00164793,-0.043826300000000006,-0.054835400000000006,-0.00142278,0.000375826,0.00283144
0.010898399999999999,0.0166379,-0.08082289999999999,-0.00139286,0.000349459,0.00282677
0.00852667,-0.015813999999999998,-0.0489087,-0.00147144,0.000468504,0.00263616
0.0109118,0.102599,-0.038328100000000004,-0.00176205,0.000309885,0.00277087
0.0007918149999999999,-0.0195315,-0.14465699999999998,-0.00160738,0.000437971,0.0027997
0.0109088,-0.019625,-0.0943026,-0.000938642,0.000618843,0.00286154
0.010877800000000002,0.0929572,-0.06834370000000001,-0.00152032,0.000106055,0.00286154
0.00580006,-0.0308092,-0.105726,-0.00111908,0.000567596,0.00280383
0.010925299999999999,0.00129592,-0.0318849,-0.000930545,0.0008580439999999998,0.00263321
-0.0211642,0.0845086,0.0208891,-0.00259134,0.00042557699999999995,0.00218507
-0.056310900000000004,0.2374,0.204042,-0.00156897,-0.0010398400000000002,0.00229012
-0.0755567,-0.027233099999999996,0.06688739999999999,-0.000744877,-3.98407e-05,0.00240138
-0.06674889999999999,0.00702398,0.0410408,-0.00119291,0.000661473,0.00232233
-0.0667495,0.0381274,0.0747786,-0.0006802739999999999,0.00040440699999999997,0.0023279
-0.0625163,0.024733599999999998,0.0372496,0.000146112,0.00040440699999999997,0.00240138
-0.0666766,0.120804,0.08116769999999998,-0.000348076,-6.73247e-05,0.00240138
-0.06666649999999999,0.102828,0.09989719999999999,-0.000101452,-6.73247e-05,0.00251841
-0.0631846,0.0639078,0.0535799,1.80498e-06,0.000265902,0.00240138
-0.06657139999999999,0.241691,0.371315,-0.000294432,-0.000586115,0.00198798
-0.0886818,0.11749200000000005,0.275028,0.00164185,-0.00022639400000000001,0.0021162
-0.0802362,-0.0125174,0.165794,0.00170259,0.000478532,0.00206708
-0.07927779999999998,0.015558700000000002,0.11385799999999999,0.0011708300000000005,0.00045305800000000005,0.00191815
-0.0637427,0.0262775,0.0889901,0.00147294,0.00045305800000000005,0.00194708
-0.058763300000000004,0.049623099999999996,0.0798166,0.00140095,0.00045305800000000005,0.00221389
-0.0516198,0.15550999999999998,0.0906421,0.000976216,0.000324285,0.00269911
-0.0532025,0.0763195,0.0677196,0.00110741,0.00045305800000000005,0.00299122
-0.0550068,0.0338721,0.0886228,0.00158712,0.000575805,0.00272852
-0.045995999999999995,0.033881699999999994,0.0159161,0.00239163,0.000848395,0.00240315
-0.0407009,0.107725,0.083406,0.0020185,0.00033685199999999995,0.00284004
-0.0407049,0.00201231,0.00430864,0.00274761,0.000945293,0.00284004
-0.040656599999999994,0.0449042,0.10629000000000001,0.0029311,0.000637047,0.00284004
-0.0405753,0.10318900000000002,0.113722,0.00268563,0.000359912,0.00284004
-0.0511799,-0.0488525,0.008765439999999998,0.00272298,0.000942912,0.00263322
-0.0568154,0.0162459,0.0753288,0.00282017,0.000588964,0.00245762
-0.0529576,0.142913,0.11325,0.0017318399999999995,0.00034371,0.00284004
-0.0622876,0.00733814,0.10610599999999999,0.00263072,0.000591435,0.00284004
-0.0783545,0.200627,0.29836,0.00235413,-0.00039339400000000004,0.00271331
-0.0847408,0.0225291,0.149921,0.0033997,0.00061463,0.00284004
-0.07481669999999999,0.00751805,0.14291199999999998,0.00332833,0.0007060660000000001,0.00310742
-0.05173869999999999,-0.0452704,-0.0042257,0.00403412,0.00106432,0.00303682
-0.0654203,0.09046699999999999,0.128158,0.00383784,0.0006183790000000001,0.00300496
-0.0847124,0.015261000000000002,0.07183880000000001,0.00427796,0.000526687,0.00300496
-0.08228309999999997,-0.023224900000000003,0.0789557,0.00492186,0.000652977,0.00279503
-0.07297779999999998,0.09393660000000001,0.14469399999999996,0.0041062,0.000235824,0.00300496
-0.059631500000000004,-0.0070492,0.08916929999999999,0.00466092,0.000577459,0.00300496
-0.06747210000000001,0.0904323,0.135551,0.00410052,0.00013195,0.00300496
-0.0741403,-0.0017718,0.08587749999999998,0.00458189,0.000281247,0.00321691
-0.0670679,0.00992483,0.17138499999999998,0.00471283,0.000577458,0.00317192
-0.08444609999999997,0.283026,0.645983,0.00597237,-7.80756e-05,0.00254476
-0.110455,-0.0272957,0.185121,0.00363448,-0.000252021,0.00273779
-0.0992974,-0.026931599999999997,0.140287,0.00324928,5.8888e-05,0.0023334
-0.091571,-0.016903399999999996,0.14591600000000002,0.00390583,0.000380112,0.00217576
-0.0888221,0.037935,0.175231,0.00443152,0.000284035,0.00247431
-0.06777430000000001,0.1272,0.220608,0.00405069,-0.000173379,0.00320048
-0.0676761,0.0979699,0.17093599999999998,0.00387974,-0.000304931,0.00353456
-0.06782560000000001,0.05813530000000001,0.206506,0.00434989,0.00022364900000000003,0.00340044
-0.061614699999999994,0.12403800000000001,0.185106,0.00359761,-6.666739999999999e-05,0.00294035
-0.062212800000000006,0.00801494,0.13379100000000002,0.0047771,0.000366014,0.00247824
-0.0680022,0.06908049999999999,0.165279,0.00511295,0.000313357,0.00258673
-0.08621219999999999,-0.042189199999999996,0.0483142,0.005314800000000001,0.000675081,0.00239604
-0.100687,-0.00441398,0.14847,0.00584548,0.000602064,0.00218397
-0.103091,0.0863957,0.176346,0.0056343999999999995,0.000555287,0.00232455
-0.103105,-0.019074900000000002,0.102425,0.00598496,0.000957579,0.0024013000000000003
-0.0910492,-0.0272781,0.150295,0.00662527,0.00103556,0.0023131999999999996
-0.09992100000000001,0.033129900000000004,0.156574,0.00685484,0.00081623,0.00222768
-0.0973422,0.00707458,0.0584929,0.00685484,0.000469258,0.00235037
-0.08471410000000001,-0.0125685,0.161028,0.00763244,0.000736152,0.00204274
-0.09425610000000001,0.110201,0.204397,0.00683527,0.00022135,0.00212388
-0.10311700000000001,0.0345925,0.166553,0.00638523,0.00040952,0.00167412
-0.10054400000000001,-0.0345904,0.0544006,0.00718677,0.0008499529999999998,0.0016209
-0.103111,-0.0385897,0.10603900000000001,0.007714709999999999,0.000838871,0.00157823
-0.102995,0.0135608,0.117263,0.00739204,0.00041406300000000005,0.00165835
-0.106136,-0.0842688,0.0423054,0.00782852,0.00106468,0.00177725
-0.09663139999999999,0.0421889,0.175586,0.00754438,0.000609244,0.0019378
-0.0955558,0.0122687,0.150842,0.00686796,0.00063884,0.00213805
-0.09258789999999999,0.0203293,0.194168,0.00810012,0.000760788,0.0022506999999999996
-0.0959025,0.0647451,0.16555699999999998,0.00722418,0.00109765,0.00228002
-0.10203,0.019584900000000002,0.131103,0.00559488,0.00165837,0.00171321
-0.116125,0.14861400000000002,0.256286,0.00266815,0.000960773,0.00155192
-0.11265399999999999,0.21466100000000002,0.3291,0.00323053,0.000473369,0.0016321999999999999
-0.11942799999999999,0.00701218,0.259475,0.00415203,0.00127798,0.0016321999999999999
-0.11618599999999998,0.042341199999999996,0.270516,0.00401184,0.00132802,0.0016321999999999999
-0.11938299999999999,0.0972714,0.320695,0.00388076,0.00129356,0.00186257
-0.115729,0.172523,0.315272,0.00329887,0.0008844089999999998,0.00177053
-0.119317,0.07691100000000001,0.265236,0.00385909,0.00101257,0.00193531
-0.122706,0.11286600000000001,0.295634,0.00397646,0.00112132,0.00173749
-0.119367,0.183873,0.44966300000000003,0.00599278,0.0008844089999999998,0.00132455
-0.136962,0.079015,0.43941099999999994,0.0079226,0.00177811,0.0013901400000000006
-0.142131,0.122333,0.33912800000000004,0.00715402,0.00169363,0.00135074
-0.12583,0.028188400000000002,0.292175,0.007626049999999999,0.0019993,0.00163392
-0.116532,0.039843,0.24813000000000002,0.00614548,0.00118809,0.00139343
-0.101279,-0.25356300000000004,0.035790800000000005,9.016200000000001e-05,0.00132452,0.00019711200000000002
-0.101489,-0.0398683,0.152592,0.00317952,0.0010419000000000001,0.00147791
-0.101633,-0.00708617,0.251159,0.00549768,0.00141457,0.00137907
-0.0966354,-0.07209639999999999,0.118026,0.00659842,0.00216038,0.00106488
-0.08385539999999997,0.04403769999999999,0.281028,0.00689063,0.00201688,0.00123732
-0.080122,0.08160599999999997,0.303375,0.00616913,0.00183804,0.00170405
-0.08175259999999998,0.00334678,0.2023,0.00689223,0.00262535,0.00147336
-0.08903939999999999,0.0780441,0.311327,0.00803403,0.00206033,0.00189837
-0.08188989999999999,0.0944062,0.30385500000000004,0.007360229999999999,0.0024962,0.00203942
-0.08119680000000001,0.143003,0.376127,0.00838182,0.00198101,0.00216199
-0.10668399999999999,0.0700592,0.281871,0.00608966,0.00202335,0.00231434
-0.07952349999999997,0.129876,0.31113,0.00592706,0.00202335,0.00234746
-0.09273660000000002,0.046833099999999996,0.25837,0.0056395,0.00309834,0.00266509
-0.0948051,0.179538,0.371159,0.00341677,0.00116712,0.00206398
-0.101489,0.107768,0.35897399999999996,0.00464901,0.0023471,0.00239105
-0.13454100000000002,-0.015122100000000001,0.290003,0.00257056,0.00339094,0.00149961
-0.144336,-0.12565,0.153821,-0.00132466,0.0022209,0.000835702
-0.14105100000000004,-0.07230019999999998,0.17632799999999998,0.0016263999999999999,0.00232456,0.00066787
-0.148331,0.0485715,0.284637,0.00325618,0.00184146,0.0011095
-0.13497699999999999,0.142035,0.339095,0.00438461,0.00184146,0.00147828
-0.153013,0.00975125,0.303002,0.005568600000000001,0.0028675999999999997,0.00136097
-0.147251,0.0428464,0.326308,0.00599517,0.00307643,0.00137491
-0.12767,0.117405,0.406115,0.00480419,0.0016744799999999995,0.0016917000000000002
-0.13263699999999998,0.203998,0.591296,0.00712363,0.00141711,0.00191357
-0.131672,-0.0071987,0.284756,0.00439778,0.0024963,0.0016917000000000002
-0.124471,-0.0685438,0.161855,0.00620982,0.00123137,0.0016917000000000002
-0.133551,0.0307495,0.255171,0.00638509,0.00152505,0.00177734
-0.138695,0.0649499,0.306827,0.00670214,0.00139779,0.00205014
-0.138776,0.0470329,0.23131100000000002,0.00683971,0.00171538,0.00236672
-0.138845,0.0509009,0.310562,0.007595249999999999,0.00198355,0.00229391
-0.115265,0.129132,0.36451100000000003,0.00711735,0.000759833,0.00253153
-0.10521199999999999,0.0635032,0.326282,0.00688222,0.0017895299999999997,0.00253153
-0.114389,0.056991099999999996,0.302505,0.007562239999999999,0.00186372,0.00253153
-0.1188,0.0304629,0.308424,0.00834788,0.00203991,0.0027289000000000002
-0.12166099999999999,0.0972154,0.342529,0.00835896,0.00158048,0.00278066
-0.122306,0.048872399999999996,0.312846,0.007405659999999999,0.00196116,0.00292155
-0.113597,0.00716498,0.355749,0.00903606,0.00228964,0.00298617
-0.11894900000000005,0.0583634,0.287993,0.008473929999999998,0.0016726899999999995,0.00308305
-0.120172,0.014146899999999999,0.35372,0.00935464,0.00206593,0.00302321
-0.11678,0.0778452,0.341468,0.009035240000000002,0.00189737,0.00356994
-0.138743,0.0590005,0.330876,0.007207019999999998,0.00199159,0.00380207
-0.138756,0.0849125,0.340775,0.007880400000000001,0.0019551,0.00374803
-0.138882,-0.00589158,0.335331,0.008935399999999998,0.00242229,0.00381211
-0.13856300000000002,0.12250799999999999,0.42955,0.00912439,0.00156882,0.00379629
-0.11259200000000001,0.132662,0.43063900000000005,0.00861663,0.0016662999999999995,0.00406512
-0.138548,0.027864599999999996,0.39148,0.0084346,0.00164756,0.00390394
-0.138352,0.0645502,0.30407399999999996,0.00430195,0.00114499,0.00307732
-0.138428,0.0604427,0.288379,0.00419698,0.00112215,0.00232036
-0.138498,0.127802,0.335721,0.00484251,0.0013705,0.00273481
-0.13829300000000005,0.197476,0.346999,0.00451677,0.000933652,0.00318016
-0.138575,0.0478187,0.328326,0.00555566,0.00157836,0.00291783
-0.138596,0.07254630000000001,0.351798,0.00555566,0.00157583,0.00310044
-0.135392,0.154888,0.400163,0.00512363,0.00120678,0.00312614
-0.132464,0.194826,0.367264,0.00490474,0.000974403,0.00341801
-0.116541,0.016785399999999995,0.31551999999999997,0.00619738,0.00158591,0.00282113
-0.112375,0.017545500000000002,0.24521500000000002,0.0067381,0.00107856,0.00236501
-0.11049,0.11645100000000005,0.308678,0.00698891,0.000831452,0.00284348
-0.11926300000000001,0.0623724,0.310157,0.00690229,0.000798161,0.00328099
-0.104127,0.0414135,0.240121,0.00680077,0.00144601,0.00319853
-0.102113,0.041862699999999996,0.24493,0.007378929999999999,0.00153495,0.00312216
-0.090995,0.0433213,0.172574,0.00851498,0.00168001,0.00328095
-0.084222,0.132771,0.272056,0.00797815,0.00124297,0.00374833
-0.0909341,0.024911199999999998,0.210529,0.008304700000000002,0.00166562,0.00364062
-0.09093430000000001,0.0692635,0.268341,0.00905543,0.00154056,0.00338253
-0.0908603,0.0262934,0.241129,0.0086796,0.00130296,0.0035853
-0.09083039999999999,0.06298490000000001,0.296041,0.009000819999999998,0.00125901,0.00381826
-0.0909168,0.0571116,0.254255,0.00849487,0.00153094,0.00408319
-0.0909555,0.0171728,0.294377,0.0095351,0.00166562,0.00404817
-0.09087669999999999,0.124155,0.309578,0.00832951,0.00106382,0.00397721
-0.0909972,0.013548900000000001,0.198392,0.008207199999999998,0.00150389,0.00361441
-0.10357999999999999,0.040031,0.24463200000000002,0.007760600000000001,0.00197586,0.00358645
-0.0909166,0.0896408,0.277577,0.008515109999999998,0.00140125,0.00387279
-0.09088330000000001,0.021795,0.22421799999999997,0.00892527,0.00123194,0.00386762
-0.0981442,0.08512919999999999,0.286533,0.0093214,0.00112753,0.00388198
-0.0946257,0.11462000000000006,0.20305,0.0081823,0.00129166,0.00390372
-0.10118200000000001,0.0479093,0.23171599999999998,0.007996619999999998,0.00129166,0.00357157
-0.10862100000000001,0.07788560000000001,0.262002,0.00837424,0.00129166,0.00356233
-0.0824552,0.17085699999999998,0.31288699999999997,0.00735532,0.0009403110000000001,0.00393908
-0.09661289999999999,0.09172330000000001,0.25907800000000003,0.00835775,0.0008183,0.00358505
-0.0917087,0.0421673,0.25053200000000003,0.00541238,0.0008183,0.00352461
-0.08945789999999999,0.0927882,0.295414,0.0067554,0.00145657,0.00369011
-0.09345800000000004,0.20753000000000002,0.402545,0.00680456,0.00020485,0.00354776
-0.110796,0.162523,0.424555,0.00814257,0.000525975,0.00340068
-0.0968795,0.0364904,0.29278699999999996,0.00712554,0.00149025,0.00345405
-0.0909502,0.07675129999999998,0.206087,0.00568816,0.00012481299999999999,0.00302493
-0.0890539,0.063081,0.221479,0.00739278,0.000538924,0.00310823
-0.0843807,0.132857,0.240137,0.007588819999999999,0.00036973199999999995,0.00376438
-0.0909547,0.00978004,0.134626,0.00823278,0.000667537,0.00356143
-0.08675099999999998,0.06875010000000001,0.23335100000000003,0.008364929999999998,0.000542106,0.00365748
-0.0852958,0.140879,0.227856,0.007528199999999999,0.000187664,0.00411485
-0.08356319999999999,0.0272092,0.22774,0.008588,0.000598011,0.00403939
-0.0823643,0.069643,0.20985399999999998,0.00799199,0.00043448900000000003,0.00411485
-0.07739469999999997,0.022947,0.210522,0.00931578,0.000735381,0.00411485
-0.0711,0.11044000000000001,0.27978200000000003,0.00887362,0.000151407,0.00411484
-0.0870916,0.152893,0.285639,0.00810424,-0.000522723,0.00411485
-0.08734999999999997,0.0344039,0.283937,0.00955626,0.00020884200000000002,0.00391054
-0.08722919999999999,0.165452,0.343736,0.0090914,-0.000413085,0.00411485
-0.08726669999999999,0.121546,0.265426,0.008887489999999998,-0.000267393,0.00411485
-0.08740139999999999,0.027718200000000002,0.281921,0.0100445,0.00019845599999999999,0.00374243
-0.08282689999999998,0.09934069999999999,0.258394,0.00988485,-5.74282e-05,0.00411485
-0.0874437,0.0595846,0.241914,0.0101492,0.000230447,0.00376032
-0.0826251,0.11663499999999999,0.291989,0.0099449,-4.01555e-05,0.0039545000000000005
-0.08732899999999999,0.134455,0.252743,0.00997438,-0.000172417,0.00411485
-0.08740019999999997,0.062475499999999996,0.27231700000000003,0.0102054,0.00016374099999999996,0.00411485
-0.079705,0.093943,0.234163,0.009430299999999999,0.000303889,0.00405065
-0.0947047,0.178759,0.250157,0.00132636,-0.0006694060000000001,0.00411485
-0.114336,0.250207,0.219689,-0.00048498,-0.00116255,0.0044006
-0.0934686,0.36087199999999997,0.487166,0.00512105,-0.00108699,0.0032844000000000003
-0.108136,0.285313,0.530097,0.00556219,-0.00119314,0.00315948
-0.0988587,0.10567599999999999,0.390165,0.00418268,-0.000401415,0.00295803
-0.097304,0.147215,0.396443,0.00504781,-0.000339603,0.00310136
-0.097535,0.216572,0.406188,0.00447337,-0.000493341,0.00336736
-0.091123,0.264916,0.362002,0.00428531,-0.0006011069999999999,0.00341083
-0.0980795,0.192276,0.344441,0.00490357,-0.000493341,0.00342869
-0.0685607,0.11018900000000001,0.141961,0.00661694,-6.6746e-05,0.00280907
-0.06778839999999998,0.24707199999999999,0.285027,0.00664317,-0.000279495,0.00308526
-0.101961,0.173509,0.37650900000000004,0.00790009,-0.00115002,0.00314337
-0.126805,0.170798,0.373727,0.00598911,0.0008375069999999999,0.00347553
-0.143316,0.08455179999999997,0.296546,0.00645557,0.00115789,0.00263177
-0.130968,0.09787489999999999,0.273998,0.00726058,0.0007912219999999997,0.00252815
-0.127049,0.0621735,0.24763400000000002,0.00800249,0.0007479299999999997,0.00261038
-0.110918,0.044857999999999995,0.17445,0.00684339,0.00115789,0.00287706
-0.122427,0.175072,0.291164,0.00712749,-0.000313356,0.0025816
-0.122521,0.13895900000000005,0.272312,0.00771919,2.33321e-05,0.00268919
-0.122673,0.0222241,0.24052800000000002,0.00855911,0.000628671,0.00282608
-0.122563,0.11750799999999999,0.29971,0.00848923,0.000218601,0.00308798
-0.12256500000000001,0.0702941,0.306682,0.00911022,0.000267917,0.00335627
-0.12264100000000001,0.10148,0.328716,0.008784989999999998,0.000498275,0.00323795
-0.12154200000000001,0.166053,0.333094,0.00870366,-0.000171578,0.00353934
-0.12004200000000001,0.06706720000000001,0.290285,0.008609739999999998,0.000498276,0.00339789
-0.11734800000000001,0.191063,0.405659,0.00906027,-0.00045469099999999996,0.00327163
-0.11971200000000005,0.16383599999999998,0.386058,0.00925543,-0.0004987559999999999,0.00319729
-0.126891,0.0817036,0.351605,0.0092743,9.68405e-05,0.00320626
-0.11710799999999999,0.12276199999999998,0.333654,0.00920781,6.683979999999999e-05,0.00340228
-0.119894,0.0930249,0.320696,0.00990771,0.00025340000000000003,0.00353934
-0.11993699999999999,0.0777191,0.200291,0.00374637,-9.665070000000004e-05,0.00307182
-0.13642100000000001,0.21222,0.333239,0.00221762,-0.00135402,0.00268418
-0.140508,0.32001999999999997,0.559926,0.00590922,-0.000923695,0.00261893
-0.13261400000000004,0.06283530000000001,0.30511,0.00645834,0.00036392,0.00253073
-0.122262,0.0883209,0.311494,0.00642373,0.000498449,0.00245753
-0.115717,0.12917,0.32768800000000003,0.006402199999999999,0.000638396,0.002398
-0.108829,0.22123800000000002,0.360992,0.0058378,8.197069999999997e-05,0.00279085
-0.116622,0.13893599999999998,0.331575,0.006217,0.00034824,0.00276051
-0.111971,0.166783,0.321422,0.00682577,0.000658547,0.0026187
-0.12013900000000001,0.117254,0.29834,0.00796525,0.00050319,0.00224271
-0.118718,0.12278599999999999,0.264881,0.007278100000000001,0.000940793,0.00270282
-0.118153,0.0759306,0.237499,0.008089219999999998,0.0011232000000000002,0.00242233
-0.109872,0.166061,0.279983,0.007261959999999999,0.00082087,0.00265723
-0.112099,0.11793499999999998,0.290373,0.008594489999999998,0.00113468,0.00271938
-0.107856,0.17823699999999998,0.343694,0.007958589999999998,0.00061569,0.00299601
-0.115579,0.10545299999999999,0.26348699999999997,0.00709808,0.0008925510000000001,0.00272975
-0.09902000000000001,0.0657115,0.197599,0.007798809999999998,0.00113468,0.00251743
-0.102782,0.174312,0.334545,0.00845393,0.000716686,0.00289453
-0.0990479,0.0625882,0.22601500000000002,0.00775016,0.00125314,0.00273866
-0.108127,0.108947,0.296108,0.00894228,0.00125601,0.00278894
-0.0954058,0.22676300000000002,0.405841,0.00824482,3.69935e-05,0.00300163
-0.106223,0.137472,0.3933,0.00901602,0.0008111110000000001,0.00308218
-0.0990822,0.15373499999999998,0.316107,0.00622676,0.00228148,0.00373957
-0.13933800000000002,0.177368,0.435871,0.00991527,-0.00115213,0.00251753
-0.142315,0.196685,0.52732,0.011088899999999999,-0.00137626,0.00243787
-0.14256300000000002,0.029791900000000003,0.363106,0.0109414,-0.00034274699999999996,0.00258552
-0.142476,0.0869077,0.410774,0.010911200000000001,-0.000454824,0.00271581
-0.13425499999999999,0.18999100000000002,0.465345,0.0107971,-0.00137683,0.00266464
-0.135329,0.07312699999999997,0.380844,0.011527299999999999,-0.000454824,0.00260731
-0.152309,0.135475,0.515263,0.0109173,-0.0009192060000000002,0.00266915
-0.186725,0.125775,0.39664099999999997,0.00715327,-0.0006990330000000001,0.0029732
-0.1733,0.0588845,0.21660300000000002,0.00589285,8.12433e-05,0.00214909
-0.154204,0.052649400000000006,0.280142,0.00670998,0.000301116,0.00169884
-0.160478,0.0862505,0.327031,0.008315579999999998,0.000217913,0.00174626
-0.154105,0.16764599999999996,0.344331,0.00810418,2.96729e-05,0.00205861
-0.153919,0.0876855,0.336487,0.00864511,-7.2295e-05,0.00244537
-0.151352,0.0726951,0.362593,0.00909847,9.79948e-05,0.00236721
-0.14696199999999998,0.172491,0.38375,0.00894455,-0.000130916,0.00229964
-0.14720899999999998,0.08094859999999998,0.315011,0.008958469999999998,1.45232e-05,0.00226799
-0.12935,0.0656403,0.334771,0.0100918,0.000157576,0.00236982
-0.114676,0.101922,0.339468,0.00995249,0.00046249800000000004,0.00250205
-0.10795,0.025053799999999998,0.254891,0.010975,0.00154679,0.00230026
-0.107091,0.07410759999999998,0.266893,0.010082899999999999,0.0010892,0.002381
-0.10466400000000001,0.0401713,0.276917,0.0103684,0.00148424,0.00236603
-0.107207,0.0977149,0.299188,0.011045000000000001,0.00143688,0.00228452
-0.10396199999999998,0.115291,0.28734899999999997,0.011045000000000001,0.001098,0.00195494
-0.10403599999999999,0.0581066,0.309051,0.0115636,0.00150147,0.00236206
-0.107999,0.0683961,0.337021,0.011813299999999999,0.00191115,0.00223242
-0.10918800000000001,0.0635899,0.251369,0.011196200000000002,0.00197465,0.00225505
-0.10410599999999999,0.043041300000000005,0.310857,0.0118679,0.00175208,0.00236899
-0.0879409,0.101864,0.26529200000000003,0.011039799999999999,0.00199196,0.00236899
-0.0837127,0.022741,0.29143800000000003,0.012740399999999999,0.0022346,0.00246574
-0.0978334,0.12847999999999998,0.34025900000000003,0.011853200000000001,0.00118413,0.00236899
-0.0859872,0.0669141,0.285085,0.011306600000000002,0.0016889,0.00243229
-0.09556700000000004,0.0714337,0.347585,0.012342100000000005,0.00229039,0.00273071
-0.08691310000000001,0.17987899999999998,0.345434,0.0111471,0.00146465,0.00275677
-0.0951164,0.0645832,0.29030900000000004,0.0111153,0.00203186,0.00285591
-0.08260689999999997,0.080597,0.220734,0.00981995,0.00282512,0.00302378
-0.0907952,0.0359667,0.162578,0.00686616,0.00188415,0.00277201
-0.100606,-0.020531999999999998,0.1736,0.00792216,0.00193783,0.00226913
-0.0850023,0.00384024,0.224521,0.0103801,0.00250231,0.00225519
-0.08420039999999998,0.046089099999999994,0.24027600000000002,0.0103704,0.00279148,0.00228105
-0.0831461,0.217389,0.519613,0.00930267,0.0007591469999999997,0.00233633
-0.12619300000000006,0.171011,0.496529,0.0102458,0.0013234000000000002,0.00181349
-0.0862727,-0.0170543,0.244527,0.00739736,0.00244841,0.00182418
-0.08942339999999999,0.07801160000000001,0.283122,0.00929371,0.0027171,0.00187696
-0.08030429999999998,0.153194,0.31856,0.009294,0.002298,0.00185516
-0.073133,0.120842,0.262018,0.009126100000000002,0.00240221,0.00188425
-0.0566189,0.00216151,0.122846,0.00962492,0.0025678000000000003,0.00147647
-0.059392999999999994,0.125802,0.21105,0.00940888,0.00210874,0.00170008
-0.04965630000000001,0.0522295,0.233528,0.008884279999999998,0.00266714,0.00187842
-0.0553186,-0.046746300000000005,0.12211,0.00958349,0.00297626,0.00147006
-0.0495212,0.10952200000000001,0.21298899999999998,0.00922446,0.00255296,0.00187842
-0.049485900000000006,0.0314064,0.21293,0.0105301,0.0025883000000000004,0.00187842
-0.0465184,0.0200796,0.245497,0.010855799999999999,0.00311651,0.00187842
-0.0495943,0.06669989999999999,0.175403,0.0105189,0.00225426,0.00187842
-0.0496313,0.0929821,0.24949699999999997,0.0106546,0.00271515,0.00209615
-0.0497122,0.07107139999999999,0.23979099999999998,0.0105568,0.00259626,0.00187842
-0.0498183,0.013159,0.237301,0.0116154,0.00319815,0.00181141
-0.0602849,0.166035,0.363203,0.00912494,0.00202818,0.00153469
-0.06813630000000001,0.131718,0.294906,0.00858421,0.00295857,0.00111393
-0.0640218,0.0544736,0.279075,0.00987603,0.00327998,0.000916832
-0.050081099999999996,0.121951,0.305277,0.0106221,0.00297489,0.00127638
-0.0387935,-0.031534,0.180943,0.011044,0.00384201,0.0010097
-0.0353302,0.038149699999999995,0.260763,0.0116967,0.00357752,0.000955253
-0.0321621,0.141697,0.311211,0.011162700000000001,0.00285679,0.00102497
-0.034420400000000004,0.0600298,0.27013899999999996,0.011866100000000001,0.00349492,0.00100527
-0.0271855,0.0290514,0.207909,0.0124539,0.0035485,0.00116281
-0.0678821,0.24353000000000002,0.46948500000000004,0.00979924,0.00253479,0.000991076
-0.08822360000000001,0.251945,0.605859,0.012096899999999999,0.00314803,0.00121364
-0.06939830000000001,0.0743293,0.344197,0.00919653,0.00382863,0.000602029
-0.0590987,0.0674105,0.32088099999999997,0.010127700000000002,0.00346561,0.000694009
-0.0613246,0.080367,0.348271,0.0109677,0.00374045,0.0008440219999999999
-0.0534751,0.11074500000000001,0.344464,0.0109057,0.00400822,0.000981487
-0.0306242,0.218556,0.36054400000000003,0.0097513,0.0035385,0.00120817
-0.030838599999999997,0.118925,0.366372,0.011319,0.00419896,0.00136849
-0.0436235,0.131049,0.38364499999999996,0.010803100000000001,0.00414071,0.00138365
-0.0285077,0.173221,0.338024,0.010332899999999999,0.00355786,0.00104331
-0.014589600000000001,0.0829768,0.30826,0.011388200000000001,0.00390031,0.00122106
0.00419953,0.10641600000000001,0.282477,0.0118709,0.00402507,0.00150762
0.0226147,0.0661536,0.210272,0.012379200000000005,0.00435587,0.00141082
0.022645500000000002,0.0772853,0.286569,0.0120384,0.00466894,0.00183953
0.032818,0.12928599999999998,0.261336,0.012602,0.00444995,0.00181145
0.027792700000000004,0.0629763,0.264048,0.013340399999999999,0.0051387,0.0019375999999999998
0.0296238,0.120803,0.321922,0.0134308,0.00498215,0.00219926
0.0247893,0.07921569999999999,0.201249,0.012723200000000002,0.00490298,0.00186936
0.025958600000000002,0.08963539999999999,0.272548,0.013828799999999999,0.00469378,0.00186833
0.0226938,0.211218,0.267097,0.0121333,0.0042388999999999994,0.0018078
0.025478999999999998,0.036043599999999995,0.230877,0.012985300000000005,0.00491877,0.00175053
0.0224798,0.0918285,0.305741,0.013988299999999999,0.00515987,0.00197786
0.029398,0.164225,0.319535,0.0127857,0.00451191,0.00204912
0.0225707,0.0436365,0.276513,0.013346799999999999,0.00472331,0.00187034
0.0176813,0.0667678,0.257714,0.0132586,0.00496746,0.00144833
0.00597279,0.11093499999999999,0.256865,0.013815799999999998,0.00484869,0.00168286
0.00496868,0.127495,0.283111,0.012205100000000005,0.0045951,0.00157037
-0.012740799999999998,0.0882536,0.23342800000000002,0.0131013,0.0049253,0.00154337
-0.0119676,0.10993599999999999,0.307196,0.0138548,0.00514571,0.00153618
-0.0140703,0.128709,0.314698,0.013021799999999998,0.00500514,0.00127079
-0.07065010000000001,0.044791000000000004,0.179266,0.011186399999999999,0.00530886,0.00067918
-0.0706479,0.0279904,0.171443,0.0133262,0.0053165,0.00047158300000000003
-0.0593505,0.06947880000000001,0.24191700000000002,0.0130345,0.00475803,0.000900018
-0.0627166,0.29394699999999996,0.47587799999999997,0.0119698,0.00329166,0.000573899
-0.0663156,0.114773,0.380781,0.012274700000000001,0.00449185,0.000900018
-0.058337900000000005,0.0184525,0.294061,0.012813900000000001,0.005227300000000001,0.000900018
-0.0498458,0.07565099999999997,0.309232,0.0134005,0.00508931,0.0011094000000000002
-0.040786300000000004,0.189447,0.340472,0.012227600000000005,0.00429026,0.00150337
-0.0272067,0.141178,0.317868,0.011842900000000005,0.00457167,0.00125431
-0.020129400000000002,0.11641199999999999,0.253756,0.0130861,0.0042832999999999994,0.00128107
-0.020311799999999998,0.0969571,0.295667,0.013702200000000001,0.00499801,0.00141492
-0.030027699999999997,0.196765,0.34515500000000005,0.0131357,0.00370235,0.00188532
-0.08162029999999999,0.0140197,0.171906,0.0140825,0.00346055,0.00223166
-0.074437,-0.0103559,0.161394,0.0159231,0.00481429,0.00192011
-0.06360730000000002,0.00172271,0.0907048,0.0162335,0.00449895,0.00161578
-0.0531202,-0.0342945,0.131439,0.0166371,0.00543427,0.00182809
-0.0515466,0.10258800000000001,0.19172,0.015475799999999998,0.00428346,0.00188909
-0.0686023,-0.00683399,0.106806,0.0154381,0.00468338,0.00188909
-0.06479059999999999,-0.034437,0.146611,0.0167327,0.00510037,0.00169869
-0.0659959,0.104532,0.17305,0.0160654,0.0043698999999999995,0.00188909
-0.06864450000000001,-0.0320588,0.08191289999999997,0.0158093,0.00485787,0.00175878
-0.06866699999999999,-0.0459518,0.10951500000000002,0.017434,0.00532985,0.00144695
-0.0687554,-0.045977,0.041744300000000005,0.0180484,0.00550866,0.00159292
-0.066261,-0.019366099999999997,0.039425999999999996,0.0163779,0.005973,0.00169557
-0.06875039999999999,-0.000197624,0.12531099999999998,0.016938599999999998,0.00555048,0.00188909
-0.057241999999999994,0.0355099,0.120952,0.017286900000000004,0.00486292,0.0018084
-0.054404999999999995,-0.0206663,0.109516,0.018422499999999998,0.00512689,0.00169378
-0.0479233,-0.00401349,0.0640875,0.0176099,0.00533486,0.00188909
-0.051781100000000004,-0.039588599999999995,0.117074,0.0190241,0.00532463,0.00164793
-0.047256099999999995,0.00656276,0.0931328,0.0171872,0.00508318,0.00171725
-0.0420709,0.0663064,0.214002,0.0155459,0.00417698,0.00139291
-0.0895113,0.0569081,0.224782,0.013008100000000002,0.00242429,0.00176624
-0.10005399999999999,-0.114711,-0.0882184,0.00866265,0.00140473,0.00149717
-0.08584069999999999,-0.08100299999999999,-0.101104,0.00223896,0.00048735099999999996,0.0007780699999999997
-0.07460759999999997,-0.049071300000000005,-0.0535535,0.00356589,0.00100737,0.0005842509999999999
-0.07552749999999997,0.00479584,-0.045047699999999996,0.00458262,0.00146609,0.0007012419999999999
-0.0684208,0.119547,0.016630799999999998,0.00404395,0.00156518,0.00079064
-0.06667460000000001,0.150783,0.04921969999999999,0.00437115,0.00142516,0.000952915
-0.0775668,0.00674002,0.0258028,0.00547978,0.00233251,0.000750758
-0.08255429999999997,-0.00840795,-0.07144919999999999,0.008212489999999998,0.00266039,0.0005915240000000001
-0.0884422,-0.0306316,-0.07146960000000001,0.00903906,0.00328096,0.000407855
-0.07472529999999998,-0.0159943,-0.043394300000000004,0.0109809,0.00313508,0.000510562
-0.0752908,-0.0158004,-0.030912000000000002,0.0105279,0.00325818,0.000694987
-0.12276,0.0363477,0.09594960000000001,0.00725066,0.00111212,0.00164925
-0.157394,-0.13717100000000002,-0.07544299999999997,0.008111079999999998,0.00194807,0.00149469
-0.14277100000000004,-0.21299099999999999,-0.201712,0.00942428,0.00300951,0.000586703
-0.119218,-0.10748800000000001,-0.221487,0.0076055,0.00316187,0.0006441109999999999
-0.11418099999999999,-0.162359,-0.322726,0.00891864,0.00426318,0.00017695
-0.109215,-0.0820911,-0.311419,0.0101333,0.00373982,0.0005276769999999999
-0.0990935,-0.172183,-0.35044000000000003,0.011395299999999999,0.00475987,0.000281332
-0.118947,-0.0673422,-0.23173400000000002,0.0105477,0.00340211,0.0005276769999999999
-0.118948,-0.217862,-0.345393,0.0119069,0.0042152,0.0005276769999999999
-0.116026,-0.270345,-0.36436599999999997,0.0126811,0.00480196,0.000192805
-0.118959,-0.179018,-0.315504,0.012140799999999998,0.00408125,0.00018008
-0.11863199999999999,-0.238144,-0.344848,0.013158100000000002,0.00499882,0.000146501
-0.11896300000000005,-0.116225,-0.245352,0.0124711,0.00382085,0.0005276769999999999
-0.118777,-0.224204,-0.33514499999999997,0.013029599999999999,0.00434534,0.000206462
-0.0840289,0.0154475,0.00119655,0.0113578,0.0025621,0.00058877
-0.0891398,-0.027372300000000002,0.07651339999999998,0.0123288,0.00341479,0.0005276769999999999
-0.0646824,-0.064489,0.020225,0.00233223,0.00277621,0.0009693810000000001
-0.09805019999999999,-0.132155,-0.25404099999999996,0.00299059,0.00380353,0.000264229
-0.0673199,-0.12546,-0.226746,0.00134939,0.00399626,-0.00135777
-0.06732360000000001,-0.07567439999999999,-0.161411,0.00355974,0.00481971,-0.00140577
-0.0521655,0.00865359,-0.14008299999999999,0.00327706,0.00475327,-0.00132395
-0.0473985,0.0339874,-0.14094000000000004,0.00268403,0.00459768,-0.00131216
-0.039657099999999994,-0.0111535,-0.14499899999999996,0.00433105,0.00578702,-0.00123026
-0.0392358,-0.035408999999999996,-0.11304700000000001,0.00493393,0.00574765,-0.00117719
-0.032311200000000005,0.06748939999999999,-0.09486889999999999,0.00440631,0.00537004,-0.000956603
-0.0174954,0.0157364,-0.128456,0.00518414,0.00490831,-0.000781735
0.00432864,-0.0919258,-0.24213099999999999,0.008072849999999998,0.00580436,-0.00068558
0.00361031,-0.0897691,-0.198077,0.00909145,0.00624835,-0.0007622939999999997
0.00249438,-0.084927,-0.271333,0.00935055,0.00670388,-0.0007484679999999999
0.00291175,-0.10611500000000001,-0.27668400000000004,0.00832248,0.00678733,-0.000321885
0.00329163,-0.0942472,-0.23838,0.0101481,0.00633911,-0.000321885
0.00292921,-0.10260899999999999,-0.23220500000000002,0.0109369,0.00687597,-0.000483154
-0.00204871,0.0181727,-0.171571,0.009986030000000005,0.0060515000000000005,-0.000321885
-0.00626366,-0.0610609,-0.24069400000000002,0.00965837,0.00697342,-0.000223258
-0.0134732,-0.0740288,-0.199273,0.011001700000000001,0.00706671,-0.00032672
-0.013680200000000002,0.017829499999999998,-0.138202,0.0111512,0.00619347,7.39472e-05
-0.0136375,-0.0486494,-0.166932,0.0111181,0.00676251,-8.80904e-05
-0.020442,-0.012713,-0.196445,0.0109319,0.006689100000000001,-1.74422e-05
-0.0135092,-0.140765,-0.254473,0.0117715,0.007520169999999999,-4.9254799999999995e-05
-0.013472899999999998,-0.0865312,-0.195847,0.012084899999999999,0.00713381,2.24305e-05
-0.0152864,-0.0980791,-0.24398899999999998,0.0121455,0.007422599999999999,8.210529999999998e-05
-0.015184600000000001,-0.0505927,-0.194766,0.012138,0.00676066,-7.711409999999998e-06
-0.0126468,-0.0718266,-0.2703,0.0115634,0.00753167,0.000184045
-0.0171356,-0.040901599999999996,-0.241274,0.0106449,0.007859039999999998,0.000287931
-0.00744418,-0.024768000000000002,-0.179455,0.0116318,0.007341119999999999,0.000467468
-0.0169055,-0.09531510000000004,-0.29759,0.0119989,0.008041249999999998,-0.000141813
-0.033491,-0.0918145,-0.25440100000000004,0.012438600000000001,0.00818128,-9.274780000000003e-06
-0.032866,-0.051520500000000004,-0.22239699999999998,0.0132851,0.00817132,2.89542e-05
-0.0244045,0.0810076,-0.130971,0.011456000000000001,0.00682126,0.000267215
-0.036979000000000005,-0.0400478,-0.191212,0.011920300000000005,0.006786100000000001,0.000105426
-0.020741700000000002,-0.122325,-0.176717,0.00968434,0.00668383,-0.000114166
-0.0214764,-0.051730700000000004,-0.172514,0.010936399999999999,0.00715657,4.3165e-05
-0.0154849,0.030368799999999998,-0.164667,0.0109319,0.00630964,7.453350000000001e-05
-0.015270500000000001,-0.0891029,-0.20572600000000002,0.011880400000000001,0.007215789999999999,0.000102933
-0.0152887,-0.0546578,-0.159894,0.0121529,0.0070631,0.000246146
-0.0154496,0.00284532,-0.19852899999999998,0.0121125,0.00663673,0.000156507
-0.022123,-0.0404865,-0.223233,0.0110536,0.007248939999999999,0.000172962
-0.0231372,0.0263844,-0.0938873,0.0108009,0.00641279,0.000146508
-0.0151357,-0.0749066,-0.185625,0.0106713,0.00665105,7.78491e-05
-0.019471900000000004,-0.107751,-0.169276,0.009016830000000002,0.00637653,-0.000277682
-0.06671820000000002,-0.095968,-0.07514080000000001,0.0110835,0.006141399999999999,0.000536556
-0.135373,0.157453,0.285248,0.0115514,0.00423679,0.0007738389999999999
-0.155704,-0.179721,0.00521645,0.0116591,0.00601867,0.000411103
-0.142247,-0.182748,-0.157783,0.00911127,0.007647389999999999,-0.000143866
-0.14211,-0.147921,-0.0314235,0.011726100000000001,0.007678469999999998,-0.000317602
-0.150475,-0.16409300000000002,-0.051998300000000004,0.014180000000000003,0.00863564,-4.16592e-07
-0.14239200000000002,-0.0514509,-0.024134,0.013818700000000001,0.007361549999999999,0.000437657
-0.142427,-0.115352,-0.037223,0.013796100000000002,0.007529359999999999,0.0006819910000000001
-0.129554,-0.11538300000000005,-0.0987919,0.013494799999999998,0.008533739999999998,0.00035663800000000005
-0.12235499999999999,-0.149843,-0.097212,0.014214500000000001,0.00908703,0.00034741199999999996
-0.113023,-0.13122999999999999,-0.120876,0.0154303,0.008521779999999998,0.00032476900000000003
-0.115195,-0.0379805,-0.0805076,0.014789400000000001,0.007852049999999998,0.000559905
-0.10890999999999999,-0.193404,-0.156886,0.0158373,0.008807799999999998,0.000254554
-0.10458900000000002,-0.083759,-0.106589,0.015553899999999999,0.00767589,0.000525531
-0.10613900000000001,-0.139018,-0.10669100000000001,0.0151516,0.00788227,0.000582627
-0.0974549,-0.156998,-0.129084,0.0143304,0.00833683,0.000599323
-0.0903988,-0.159886,-0.134154,0.013993100000000001,0.007638759999999999,0.000530788
-0.0863245,-0.09420060000000001,-0.07246810000000001,0.0142642,0.00758431,0.000611096
-0.0829822,-0.0869522,-0.11207400000000001,0.0158564,0.008111429999999998,0.000908049
-0.08292979999999997,-0.178701,-0.0989519,0.0170292,0.008528769999999998,0.000934732
-0.08153819999999999,-0.09693550000000001,-0.0735788,0.0167075,0.00840888,0.0009374400000000002
-0.06852530000000001,-0.0194609,-0.07775449999999999,0.011141799999999999,0.006779899999999999,0.000625896
-0.0643677,-0.159499,-0.10974400000000001,0.0127562,0.00792772,0.0007964759999999997
-0.074517,-0.11832899999999999,-0.110951,0.0140026,0.007971729999999998,0.000681183
-0.0706855,-0.0481001,-0.10430899999999999,0.013400899999999999,0.00805842,0.0007986319999999999
-0.06243099999999999,-0.157946,-0.165017,0.014311099999999998,0.00779425,0.000992016
-0.0588159,-0.181356,-0.165784,0.016162,0.00860517,0.000811497
-0.0608058,-0.111641,-0.171019,0.015682599999999998,0.00847876,0.0007778739999999999
-0.075396,-0.0355786,-0.106255,0.0149216,0.00733377,0.000552011
-0.08211130000000001,-0.22371799999999997,-0.195641,0.0163623,0.00834992,0.0005800240000000001
-0.0747415,-0.140738,-0.166796,0.0163994,0.00823912,0.000399563
-0.0799822,-0.00177374,-0.0949951,0.015580200000000002,0.007419679999999999,0.000568466
-0.0817133,-0.20388900000000001,-0.21871100000000002,0.016291899999999998,0.0085337,0.000554491
-0.08530639999999999,-0.157201,-0.148146,0.0170259,0.00898265,0.000819617
-0.07687530000000001,-0.030099,-0.07625859999999997,0.0160392,0.00762997,0.00086722
-0.08110309999999997,-0.133694,-0.16284300000000002,0.013606300000000005,0.008457279999999998,0.000682715
-0.07835459999999997,-0.0716564,-0.130571,0.014424600000000001,0.0081557,0.000617069
-0.07851089999999998,-0.15001,-0.191493,0.0154549,0.00876504,0.000627651
-0.072897,-0.11235899999999999,-0.116877,0.016684,0.008103229999999998,0.000871208
-0.07163860000000001,-0.142871,-0.202069,0.016489700000000003,0.00841016,0.000771475
-0.07708769999999998,-0.158728,-0.17369599999999996,0.0170149,0.008880229999999998,0.0007628139999999999
-0.0632024,-0.05998819999999999,-0.12141400000000001,0.016887700000000002,0.0084083,0.00132194
-0.056898199999999996,-0.12337999999999999,-0.13649900000000004,0.014972799999999998,0.00832801,0.0008576299999999999
-0.0553466,-0.035329900000000004,-0.0918248,0.0150887,0.008087,0.000828029
-0.0597203,-0.165142,-0.186638,0.016709099999999998,0.00901207,0.00115627
-0.053849400000000006,-0.15296099999999999,-0.14923,0.017321200000000002,0.00883185,0.00109792
-0.0459958,-0.0837004,-0.151278,0.0162247,0.008679899999999999,0.00103835
