0.000148499,0.022059,-0.00694518,0.000117684,-8.521179999999997e-05,0.000311564
-0.000401339,0.016322,-0.0103251,0.00042167699999999997,-0.000155641,0.00052905
0.00695223,0.00977796,0.0217108,0.00042167699999999997,-8.52119e-05,0.000638199
0.00696609,0.0116696,0.0353134,0.000648636,-0.00039491099999999996,0.0005387430000000001
0.00246517,0.00226821,0.036425,0.00042167699999999997,-0.000342065,0.000250304
-0.00926274,0.0484025,0.0584095,0.000285844,-0.00055557,0.00044096699999999995
0.00698036,0.011747399999999998,0.0326901,0.0007280579999999999,-0.000555571,0.0006382
0.00147387,-0.00598143,0.0635799,0.00031047400000000004,-0.000612432,0.000450072
0.00698021,0.039481999999999996,0.058049800000000006,-0.00015258899999999999,-0.000504064,0.00038035300000000005
0.000809703,-0.0473947,0.040837,0.000392785,-0.0009308160000000001,0.0006382
0.00211609,0.020714,0.06152230000000001,-8.001979999999998e-05,-0.000511946,0.0006382
-0.000160452,-0.013972799999999999,0.044637699999999995,-9.96094e-05,-0.000921574,0.000434734
-0.00644946,-0.025521000000000002,0.05656130000000001,0.00026203099999999997,-0.00114194,0.00029858900000000004
-0.009184790000000002,0.012277600000000001,0.060740699999999995,-4.84462e-05,-0.000921574,0.0006382
0.00176651,-0.04134380000000001,0.007322499999999999,-0.000300851,-0.00109234,0.0006382
0.0189429,-0.0271966,0.06540109999999999,-0.0007193039999999999,-0.000921574,0.0006382
0.0189618,0.01258,0.0331535,-0.00047826199999999997,-0.00113428,0.0008245229999999999
0.00421353,-0.04425,0.057823900000000004,-0.000633156,-0.00104741,0.0006382
0.0111113,0.0176283,0.0505248,-0.00048559300000000004,-0.00103032,0.00082434
0.007627489999999998,-0.040524,0.0641732,-0.0007869760000000001,-0.00110922,0.000638199
0.00273797,0.00520867,0.06761440000000002,-0.0008221119999999997,-0.00115968,0.00081574
0.00275723,-0.0628164,0.030657499999999997,-0.000391765,-0.0012173100000000005,0.000638199
-0.00640188,-0.013538900000000001,0.0664526,-0.00155341,-0.0008852229999999998,0.000638199
-0.00710213,-0.0135167,0.0574014,-0.00137453,-0.000810912,0.000638199
-0.0114308,-0.0661422,0.0325668,-0.00138004,-0.000994552,0.000331655
-0.0139334,0.0137122,0.030610599999999998,-0.0011785500000000006,-0.000994552,0.00044079300000000003
-0.013922799999999997,-0.031174900000000002,0.038537800000000004,-0.00163857,-0.000994551,0.000638199
-0.013900299999999999,-0.00475889,0.059685400000000007,-0.00163857,-0.000994551,0.000359437
-0.013877100000000002,-0.0216542,0.0574884,-0.00163857,-0.000994551,0.00023079
-0.008181789999999998,-0.0332864,0.054671500000000005,-0.00127378,-0.000895368,0.000242057
-0.00581956,-0.0152535,0.0914372,-0.00196829,-0.000994552,0.000638199
0.00675748,-0.0503876,0.03807580000000001,-0.0007821669999999997,-0.0007818359999999997,0.000385009
-0.00441805,-0.0188621,0.0681978,-0.0011736,-0.0006736000000000001,0.000291318
-0.00967814,-0.0112487,0.067316,-0.00145875,-0.0006570889999999999,0.000467505
-0.000992757,-0.08094,0.060405600000000004,-0.00145875,-0.000724632,0.000502384
-0.00493355,-0.0515655,0.07116660000000001,-0.00171381,-0.000994552,0.000324424
0.0005943880000000001,-0.029800999999999998,0.048458499999999995,-0.00110752,-0.0007642389999999999,0.00039700099999999996
-0.0123511,-0.0476651,0.0855528,-0.00129932,-0.000717194,0.00046953699999999996
-0.016813400000000003,0.0241017,0.11393699999999998,-0.0020870999999999997,-0.000572765,0.000644555
0.00979863,-0.0666082,0.0606337,-0.00144292,-0.0007575919999999999,0.000447642
-0.00698723,-0.0139487,0.102393,-0.00128638,-0.000757678,0.000277585
-0.00699825,-0.0216577,0.08669639999999999,-0.00133703,-0.0008103089999999999,0.00041660000000000004
0.00680052,-0.092464,0.0376723,-0.0008572299999999997,-0.000936031,0.000329921
0.016699400000000003,-0.0648884,0.0646412,-0.00122719,-0.00103343,0.0005836740000000001
0.0167361,-0.05814400000000001,0.0540251,-0.00142616,-0.0009360319999999999,0.00033108199999999996
0.0166794,-0.0357786,0.0684689,-0.00108802,-0.0009360319999999999,0.000644555
0.0166703,-0.1185,0.060411400000000004,-0.00216236,-0.000838008,0.000644555
0.0166685,-0.063086,0.06815249999999999,-0.00106338,-0.000841156,0.000644555
0.0166628,-0.06791160000000002,0.029911700000000003,-0.0009450280000000002,-0.000784728,0.00034858199999999995
0.00994428,-0.0464163,0.055928399999999996,-0.0008137369999999999,-0.00119066,0.000644555
0.0166498,-0.0346095,0.037521,-0.000664058,-0.000905929,0.000644554
0.0166953,-0.10943800000000001,0.0488247,-0.00106009,-0.0010200500000000002,0.000465289
0.00882142,-0.056047400000000004,0.054237400000000005,-0.00141524,-0.0012415,0.000357208
0.00565125,-0.0632872,0.0233107,-0.0005695769999999999,-0.00128041,0.000644554
0.00664517,-0.0559972,0.036802800000000004,-0.00116554,-0.00137406,0.000644554
0.000997686,-0.0228708,0.0688671,-0.00223063,-0.00149482,0.000579532
-0.00199194,-0.034570800000000006,0.0263166,-0.00187954,-0.00137481,0.000644554
0.00932157,-0.010888600000000002,0.0331173,-0.00229464,-0.00160816,0.000716222
0.011887700000000001,-0.0522115,0.020512799999999998,-0.00201487,-0.0016135399999999995,0.000644554
0.013999200000000002,-0.015303899999999999,0.0460401,-0.00248267,-0.00135382,0.0009054180000000001
0.0170359,-0.0334098,0.0228084,-0.0011286,-0.00135382,0.0008558679999999998
0.0089762,-0.0624856,0.051439099999999995,-0.00164631,-0.0010033,0.0005568130000000001
-0.00172857,-0.00015949899999999999,0.0640818,-0.0017004399999999995,-0.00112387,0.000644554
0.00899508,-0.0751546,0.0333808,-0.00154098,-0.00130104,0.000644554
0.00900566,-0.11400999999999999,0.037581,-0.00154729,-0.00142982,0.0006445530000000001
0.00900093,-0.00905167,0.063963,-0.00211466,-0.00130332,0.0006445530000000001
0.00900093,-0.0798331,0.043266000000000006,-0.00152023,-0.00130332,0.000644554
0.00894281,-0.00356331,0.0639837,-0.00228483,-0.00102022,0.0008554749999999999
0.0030732,-0.06704810000000001,0.0446639,-0.00182595,-0.00122137,0.0007096380000000001
0.00446321,0.00618568,0.055176699999999995,-0.00185526,-0.00114944,0.000716117
0.00884448,-0.0878723,-0.00109627,-0.0011860999999999998,-0.00167938,0.00108924
0.008841669999999998,-0.054554599999999995,0.0521263,-0.001974,-0.00167938,0.00101856
0.00882465,-0.014064799999999999,0.052758000000000006,-0.00177228,-0.00149171,0.00117725
0.010845200000000001,-0.0668949,0.0366092,-0.00162331,-0.00138661,0.000994363
0.0038908000000000002,6.84394e-05,0.08223809999999998,-0.00168225,-0.00142667,0.00110566
0.00330683,-0.045360000000000004,0.0452409,-0.00198441,-0.00128886,0.00114376
0.00036599099999999997,-0.0695725,0.0279402,-0.00182522,-0.00164349,0.00105217
-0.00798353,-0.0110369,0.044864999999999995,-0.00166076,-0.00135437,0.00127899
-0.007994519999999998,-0.040432800000000005,0.0796235,-0.00212701,-0.0011605700000000005,0.00127899
-0.007934699999999998,-0.0570249,0.0313209,-0.00154362,-0.00112045,0.000864088
-0.0118666,-0.0183638,0.0391631,-0.0008132499999999997,-0.00141407,0.00127899
-0.0154216,-0.0637653,0.0341418,-0.000954761,-0.00141407,0.00127899
-0.0079501,-0.0128923,0.044326300000000006,-0.00154337,-0.00141407,0.00127899
-0.0231149,-0.0509333,0.012691,-0.00149247,-0.0011872400000000006,0.00104732
-0.025306799999999997,-0.0167135,0.0378207,-0.00170606,-0.00119275,0.0010521800000000002
-0.0252794,-0.0567462,0.0120365,-0.00207033,-0.00112373,0.000902008
-0.025340400000000003,-0.0163435,0.0230097,-0.0022221,-0.000956095,0.00116805
-0.010164200000000002,-0.058043399999999995,-0.025784699999999997,-0.00144281,-0.00121554,0.000855308
-0.0102553,-0.011661399999999999,0.00814229,-0.00163728,-0.00110906,0.00103462
0.00105563,-0.046400199999999996,0.0387522,-0.00172809,-0.00143995,0.00107476
0.00103357,-0.0451877,0.0194607,-0.000827695,-0.00143995,0.00113913
0.017357400000000002,-0.033358,-0.0236503,-0.000531979,-0.00143995,0.00127899
0.008994159999999998,-0.00618341,0.041444999999999996,-0.00139567,-0.00128338,0.00127899
0.0182943,-0.0907539,0.025355799999999998,-0.00156929,-0.00155474,0.00127899
0.031659,-0.039226699999999996,0.046961800000000005,-0.00181083,-0.00127107,0.00147068
0.0408291,-0.08576130000000001,0.0301651,-0.00189925,-0.00152862,0.0017112000000000002
0.021462000000000002,-0.0857645,0.0304788,-0.0021264,-0.00153271,0.00110837
0.023667700000000003,-0.036763599999999994,0.0333463,-0.00280542,-0.0015433,0.00115916
0.023710400000000003,-0.08912689999999998,0.0144339,-0.00209931,-0.00154739,0.00111355
0.029813,-0.09911589999999999,0.0370825,-0.00266861,-0.00154739,0.0006791989999999999
0.0237438,-0.0479756,0.0590048,-0.00273373,-0.00137684,0.000940611
0.0238189,-0.107733,0.0038374000000000004,-0.00207769,-0.00154739,0.00116982
0.037060699999999995,-0.0996336,0.032786300000000004,-0.0029614999999999997,-0.0014927,0.000911264
0.0464707,-0.0647549,0.00997436,-0.0017987,-0.00165686,0.00116982
0.0477656,-0.12828299999999998,0.042429,-0.00389926,-0.00138066,0.000755027
0.0371939,-0.0538298,0.0429198,-0.00381628,-0.00145918,0.00101298
0.03364280000000001,-0.127805,0.041348,-0.00324705,-0.00143345,0.000952945
0.0309151,-0.06933020000000001,0.0467461,-0.003624,-0.00165686,0.0007339060000000001
0.0439734,-0.13331199999999999,-0.00595868,-0.00211876,-0.00165686,0.000687953
0.05124159999999999,-0.07876099999999997,0.0336264,-0.00280014,-0.00154474,0.0008829899999999998
0.0567663,-0.052713800000000005,0.0327524,-0.00210732,-0.00137564,0.00106099
0.0661154,-0.121393,0.0433739,-0.00341406,-0.00152862,0.000625467
0.0633299,-0.0572633,0.06454059999999999,-0.00492801,-0.00161507,0.0007161839999999999
0.0643796,-0.09231289999999999,0.0482295,-0.00373898,-0.00186747,0.000435513
0.0567206,-0.0332811,0.0316426,-0.00384366,-0.00189849,0.00038758
0.057193499999999994,-0.07922260000000002,0.035212900000000005,-0.00405157,-0.00152862,0.00024324900000000002
0.05090580000000001,-0.0367545,0.039235,-0.00440179,-0.00175203,0.00029101400000000003
0.0397409,-0.0580753,0.022035299999999997,-0.00374638,-0.00167343,0.00031321
0.0415388,-0.0500661,-0.0108659,-0.00359286,-0.00158548,0.00031321
0.0646727,-0.04950209999999999,0.0036941,-0.00319842,-0.00212025,0.00037514
0.08356720000000001,-0.0605125,-0.0207226,-0.0022404,-0.0017442999999999998,0.000570955
0.07312739999999998,-0.0633638,0.0145411,-0.00243099,-0.00177925,0.000655365
0.0589424,-0.039912199999999995,0.00837062,-0.00281438,-0.00185183,0.00065603
0.0545346,-0.0435806,0.0191597,-0.0025978000000000004,-0.00181236,0.000755307
0.056240099999999994,-0.03465630000000001,0.00161256,-0.00264148,-0.0019343,0.00031321
0.04745680000000001,-0.07691100000000001,0.019550900000000003,-0.00290969,-0.00197952,0.00031321
0.0418398,-0.00383812,0.0412962,-0.00340683,-0.00161322,0.000719298
0.0418484,-0.059597199999999996,-0.00486688,-0.00261174,-0.00194865,0.000990849
0.054188400000000005,-0.0763808,0.0151792,-0.00260071,-0.00210007,0.000840283
0.048239599999999994,0.0294029,0.0770389,-0.00229095,-0.00152123,0.00135118
0.04516130000000001,-0.0647682,0.0464787,-0.00284101,-0.00152693,0.00100387
0.036474400000000004,-0.00999165,0.036693699999999996,-0.0033602,-0.00177307,0.0009748910000000001
0.045127999999999995,-0.07045169999999999,-0.0265036,-0.0022581999999999997,-0.00219636,0.000858217
0.0382176,-0.0284046,0.051623199999999994,-0.00335987,-0.0020488000000000004,0.0008268029999999998
0.0280444,-0.019351,0.0409534,-0.00294623,-0.00180239,0.000831268
0.0281277,-0.0655429,0.03677009999999999,-0.00324064,-0.00206534,0.0005767130000000001
0.028091700000000004,-0.00716239,0.057446500000000005,-0.00378093,-0.00203654,0.000597642
0.0281062,-0.05974680000000001,0.04809,-0.00337487,-0.00213386,0.000555622
0.028044799999999998,-0.0153058,0.0686884,-0.00394502,-0.00190593,0.0007593349999999997
0.0280686,-0.0577128,0.08086709999999997,-0.00410398,-0.00198004,0.0006204240000000001
0.030177199999999998,-0.08852810000000001,0.0423554,-0.00360546,-0.00222097,0.000551409
0.015250299999999998,-0.0847257,0.042355800000000006,-0.00376107,-0.00205681,0.00056094
0.023679699999999998,-0.0636284,0.0261065,-0.00415832,-0.00222097,0.000586648
0.011933899999999999,-0.0065744,0.042273000000000005,-0.00437394,-0.00222097,0.0007784710000000001
0.011988500000000001,-0.0401826,0.00524903,-0.00410491,-0.00189534,0.000465691
-0.00957309,-0.021869299999999998,0.0263416,-0.00392751,-0.00182369,0.000379244
-0.0006757369999999999,-0.0364902,0.0370972,-0.00402875,-0.00199686,0.00040592
0.0113165,-0.045105400000000004,-0.0130957,-0.00409105,-0.0019390999999999998,0.000583009
-0.0016744,-0.021890700000000003,0.011993799999999999,-0.00381891,-0.00199685,0.000583009
0.0112902,-0.033460699999999996,0.0173399,-0.00372952,-0.00199685,0.00080411
0.011275499999999999,-0.0118665,0.029640499999999997,-0.00222929,-0.00166148,0.00111998
0.011296899999999999,-0.0472736,0.029624900000000003,-0.00229115,-0.00199686,0.0007103639999999999
0.0190534,-0.00935199,0.0110845,-0.00182888,-0.00200139,0.000650915
0.0309154,-0.07530839999999997,0.0122696,-0.00221289,-0.00191981,0.00019468
0.021142400000000002,-0.031220400000000002,0.0401901,-0.0024499,-0.00191981,0.00033549
0.021155900000000002,-0.0414935,0.0177735,-0.0021715999999999997,-0.00195091,0.000403971
0.0210651,-0.0426296,0.047668199999999994,-0.00257293,-0.0015586999999999999,0.000650914
0.0178774,-0.0313188,0.0445116,-0.00304006,-0.00169329,0.000372977
0.0210998,-0.0313389,0.08713539999999999,-0.00311972,-0.00172181,0.000224041
0.0127133,-0.0313017,0.042867800000000005,-0.00269392,-0.00180806,0.000650915
0.016122,-0.0653159,0.0316387,-0.00301665,-0.00201415,0.00036496300000000005
0.021634099999999996,-0.010174500000000001,0.0417796,-0.00273391,-0.00136633,0.000539234
0.0110209,-0.0955332,0.0441698,-0.00291365,-0.00160447,0.000197346
0.022205000000000003,-0.012860900000000001,0.029575599999999997,-0.00258464,-0.00162141,0.000379514
0.0160273,-0.0728759,0.0296309,-0.0021991999999999997,-0.00211698,0.000244097
-0.00071112,-0.00928341,0.07473819999999999,-0.00344203,-0.00192783,0.000401806
0.0113716,-0.0482152,0.0775939,-0.00420299,-0.00210351,0.000650915
0.0264801,-0.0908895,0.0251194,-0.00292319,-0.00210351,0.000465554
0.0264319,0.00289949,0.07499169999999998,-0.0033159,-0.00187302,0.000650915
0.0391326,-0.0713579,0.0199505,-0.00319456,-0.00181007,0.000650915
0.0172377,-0.08671380000000001,0.025472400000000003,-0.00269916,-0.00201178,0.000239184
0.0078233,-0.0274318,0.06606620000000002,-0.00392462,-0.0021104,0.000143155
0.00781162,-0.014143799999999998,0.0484035,-0.00366391,-0.0019579999999999997,-7.44143e-05
0.00214106,-0.0141431,0.039068599999999995,-0.00328729,-0.00200689,1.4018600000000007e-05
-0.00313526,-0.00525879,0.0488066,-0.00389435,-0.00185472,-0.000106733
-0.00128246,-0.0372575,0.0413695,-0.00349094,-0.00157519,-0.00016367
0.0007589589999999999,-0.014051,0.0536424,-0.0039268,-0.00160971,-7.553609999999997e-05
0.00256414,-0.053916099999999995,0.0183457,-0.00352482,-0.00170958,-9.04346e-06
0.0049242,0.00220055,0.0411539,-0.00373615,-0.00162292,0.000247784
0.013852799999999998,-0.0530783,0.0214933,-0.00242884,-0.00154645,6.25441e-05
0.00258947,-0.0158219,0.028739499999999998,-0.00237622,-0.0015102099999999995,-0.000199875
0.0124995,-0.0198186,0.021665599999999997,-0.00184681,-0.00158535,3.4999199999999994e-06
0.00505105,-0.0473152,0.026947000000000002,-0.0024734,-0.0017539299999999995,-0.000199875
0.0100281,0.00179575,0.0632944,-0.00281122,-0.0017539299999999995,0.000266735
0.0220829,-0.0598405,0.0410964,-0.0030645,-0.00211316,7.933819999999999e-05
0.016058000000000003,-0.008664589999999998,0.0369709,-0.00348935,-0.00166793,-2.00303e-05
0.00102207,-0.012686399999999999,0.0517547,-0.0032739000000000006,-0.00179403,0.00017807399999999996
0.0192517,-0.0707699,0.021592,-0.00293503,-0.00209273,0.00042421300000000005
0.0156168,-0.0380796,0.0395972,-0.00346481,-0.00181652,0.00027116200000000003
0.015384799999999999,-0.0345681,0.026052099999999995,-0.00281468,-0.00164265,0.00042421300000000005
0.024297,-0.0670082,-0.0102829,-0.00244858,-0.00197831,0.00021982299999999999
0.00717114,-0.036733,0.0200172,-0.00326789,-0.00207148,7.07158e-05
0.00802193,-0.055233199999999996,-0.0204014,-0.00283997,-0.0017240999999999995,-4.67666e-05
0.007993419999999998,-0.028112400000000003,-0.000276928,-0.00310578,-0.00200049,0.00016699
0.007904619999999998,-0.0492752,-0.014546200000000002,-0.00229651,-0.00145839,0.00026524
-0.00442584,-0.037161599999999996,0.0417301,-0.00286037,-0.00143438,-4.67666e-05
0.00370055,-0.0421096,0.015205000000000002,-0.00322014,-0.00130497,0.00015738
-0.00342532,-0.061930099999999995,0.022336599999999998,-0.00331142,-0.0015908299999999995,3.05224e-05
-0.00413723,-0.0138466,0.00188134,-0.00354543,-0.00142653,0.000128342
0.00796376,-0.07451639999999997,-0.0242818,-0.00296932,-0.0013657700000000005,-4.67666e-05
-0.00241186,-0.05730219999999999,-0.00304379,-0.00284461,-0.0014414999999999999,-0.00011355399999999999
-0.0113569,-0.0494024,0.00405918,-0.00298337,-0.00136414,-0.000249252
-0.00892649,-0.0546241,0.00776732,-0.00334041,-0.00120755,-0.000305472
-0.008923459999999998,-0.033954000000000005,-0.029711,-0.00312469,-0.00136267,-0.000460978
-0.0274502,-0.0387702,-0.0352393,-0.00291919,-0.00180215,-0.000342886
-0.023383,-0.06424930000000001,-0.0421548,-0.00283284,-0.00145015,-0.000332814
-0.0274798,-0.0400016,-0.012460500000000001,-0.00346911,-0.00126268,-0.000158731
-0.013956799999999998,-0.0644892,-0.018449200000000002,-0.00297411,-0.00119286,-0.000250461
-0.0259915,-0.0175286,-0.017652599999999997,-0.00200178,-0.00122674,-0.000147699
-0.025961099999999997,-0.0678515,-0.0478079,-0.00221327,-0.0013427300000000005,-0.000399725
-0.036113099999999995,-0.015031399999999999,-0.022683000000000002,-0.00238675,-0.0009727239999999999,-0.000589974
-0.025997900000000004,-0.06881169999999999,-0.0414909,-0.00212625,-0.00135197,-0.000281688
-0.0259625,-0.028388099999999996,-0.0103069,-0.00226253,-0.00135197,-0.000589974
-0.0385958,-0.028367400000000004,-0.0177832,-0.00234213,-0.00129515,-0.000321651
-0.020207,-0.09417769999999999,-0.05724490000000001,-0.00174568,-0.00145438,-0.000509378
-0.025969700000000002,-0.022908900000000003,-0.0204151,-0.00243241,-0.00108783,-0.000529843
-0.035925099999999995,-0.0496583,-0.0362248,-0.00171889,-0.00104684,-0.000530954
-0.0365143,-0.0210439,-0.021226599999999998,-0.00231359,-0.00105053,-0.000671998
-0.0397503,-0.013079200000000001,-0.0506966,-0.00263335,-0.00118131,-0.000671998
-0.0363155,-0.0628029,-0.04525,-0.00228999,-0.00160072,-0.000671998
-0.036314400000000004,0.0319226,-0.0209865,-0.00281159,-0.00117283,-0.000254352
-0.036271199999999996,-0.064346,-0.0186164,-0.00310239,-0.00111367,-0.000277224
-0.0362691,-0.0324809,-0.0024398,-0.00223534,-0.00137058,-0.000339051
-0.0362816,-0.0477725,-0.0251495,-0.00208451,-0.00172699,-0.000279488
-0.0362743,-0.0175604,-0.0129172,-0.00214337,-0.0021031999999999995,-0.00025016599999999996
-0.0237696,-0.0401507,-0.0202515,-0.002814,-0.0021031999999999995,-0.000339051
-0.0111587,-0.07387080000000001,-0.000548112,-0.00275546,-0.00199011,-0.000339051
-0.0186566,-0.0176217,0.011478299999999999,-0.00313819,-0.0021031999999999995,-0.000300119
-0.022687,-0.0176143,0.00717008,-0.00296022,-0.0021031999999999995,-0.000176411
-0.00412388,-0.078751,-0.0273843,-0.00194979,-0.0018765000000000001,-0.000583043
-0.0167594,-0.0424259,-0.011229200000000002,-0.00211289,-0.00171234,-0.000467755
-0.0189555,-0.0813285,-0.0209508,-0.0021718,-0.0018134,-0.000467755
-0.0186577,-0.024506,-0.006891199999999999,-0.00266833,-0.00158937,-0.000467755
-0.0217288,-0.061696900000000006,0.014248599999999998,-0.0027936,-0.00158937,-0.000467755
-0.029351299999999997,-0.062345500000000005,-0.00196259,-0.00307283,-0.00167011,-0.000558452
-0.021666900000000003,-0.034025,-0.020470699999999998,-0.00261133,-0.0014686,-0.0007229489999999999
-0.026493799999999998,-0.0812663,-0.0581632,-0.00219946,-0.00158179,-0.000831328
-0.0307855,-0.0299517,-0.0207713,-0.00278049,-0.00123111,-0.000642701
-0.0217717,-0.0741654,-0.0398827,-0.00200065,-0.00155237,-0.000467755
-0.00187463,-0.045911400000000005,-0.0309196,-0.00198819,-0.00137466,-0.000555565
-0.0234383,0.00687766,-0.0057876,-0.0013436800000000005,-0.00144375,-0.00032819699999999996
-0.017459400000000003,-0.0704432,-0.0401777,-0.0015493,-0.00144375,-0.000467755
-0.028135900000000005,-0.0220168,0.0165672,-0.00174427,-0.00136644,-0.000388773
-0.023660900000000002,-0.0675703,-0.0184713,-0.00149388,-0.00173711,-0.000582898
-0.0223545,-0.051118800000000006,0.0168484,-0.00142975,-0.00126133,-0.00034821699999999995
-0.030464599999999994,-0.0293899,0.000582066,-0.00145835,-0.00126133,-0.000492891
-0.00556228,-0.08412129999999997,-0.0729695,-0.00159754,-0.00182416,-0.000493506
-0.0178419,-0.0108947,-0.00888595,-0.00171772,-0.00147196,-0.00021904900000000002
-0.012087200000000001,-0.044530099999999996,-0.038426199999999994,-0.00057176,-0.00146361,7.66187e-05
-0.00972734,-0.08191010000000001,-0.0557725,-0.00126,-0.00149848,-0.00042632
-0.00858878,0.00660157,-0.0296423,-0.00142279,-0.0012679,-0.000100108
-0.0125553,-0.0987377,-0.0350501,-0.00106587,-0.0014946,-0.000104846
-0.012617,-0.0273402,-0.00362458,-0.00175754,-0.00131449,0.000175928
-0.00413045,-0.049328699999999996,-0.0395369,-0.00166912,-0.00157149,6.9753899999999995e-06
-0.00384861,-0.06664160000000001,-0.03849930000000001,-0.00173824,-0.00145675,0.000296005
-0.0165521,-0.00451308,-0.00721195,-0.00156181,-0.00126484,0.000404746
-0.0165514,-0.108053,-0.06499740000000001,-0.00109151,-0.0013446,0.00024561900000000003
-0.0309469,-0.052086,-0.0452583,-0.00145836,-0.00104467,0.000175928
-0.0165282,-0.0521207,-0.0428855,-0.00100466,-0.00107745,3.3598e-06
-0.00967325,-0.107195,-0.06218340000000001,-0.00094615,-0.00120774,0.000175928
-0.0144472,-0.0469904,-0.0506228,-0.00110032,-0.00157247,0.000175928
-0.0195493,-0.0738273,-0.0694578,-0.00047055800000000004,-0.00136406,0.000175928
-0.023202,-0.0458666,-0.0482721,-0.0012383,-0.00131559,0.000175928
-0.0385829,-0.0804046,-0.0609105,-0.000920555,-0.00155329,0.000175928
-0.0437121,-0.045861599999999995,-0.06941789999999999,-0.00119962,-0.00133708,2.81275e-05
-0.0385541,-0.0842464,-0.0579322,-0.0012640000000000001,-0.00129934,0.000175928
-0.04082,-0.0586538,-0.0770753,-0.0006830580000000001,-0.0012281900000000005,-5.4570299999999995e-05
-0.038516800000000004,-0.0404293,-0.0638261,-0.000484826,-0.00103047,-5.31055e-05
-0.0214652,-0.100366,-0.135653,0.0005065509999999999,-0.0014626699999999995,-7.153180000000002e-05
-0.037448300000000004,-0.022774400000000004,-0.07725129999999998,-0.00017009299999999999,-0.0012432700000000005,-0.000226979
-0.037474099999999996,-0.0617785,-0.09303670000000004,9.93442e-06,-0.00131121,-8.9018e-05
-0.0327244,-0.0344073,-0.0636728,-0.000186037,-0.00100766,2.11457e-06
-0.029527499999999998,-0.0328565,-0.121571,-0.000144615,-0.0011565,0.000138238
-0.0471943,-0.0682018,-0.07457589999999999,5.86507e-05,-0.00117029,-0.000226979
-0.0556047,-0.010375100000000002,-0.05025809999999999,-0.000524892,-0.00117029,-0.000226979
-0.0363306,-0.0814072,-0.11813100000000006,-0.000137453,-0.00154885,-0.000383054
-0.030181299999999998,-0.050963800000000004,-0.10040299999999999,-0.00024234599999999997,-0.00117029,-0.000226979
-0.0334228,-0.00195147,-0.0960633,-0.00010682,-0.00110732,-0.000226979
-0.0307464,-0.09528130000000004,-0.125202,-0.00016895700000000002,-0.00103533,-0.000554046
-0.0352291,-0.0174667,-0.079568,-0.00012940600000000001,-0.0009081260000000001,-0.000226979
-0.0304355,-0.0598539,-0.0908181,-0.000124101,-0.00110158,-4.2390699999999994e-05
-0.0442459,-0.0674206,-0.07937519999999999,0.000334119,-0.00118333,-0.00041871800000000005
-0.0435475,-0.0316543,-0.0709742,0.000497677,-0.0008438769999999999,-0.000226979
-0.0476597,-0.0644059,-0.05172380000000001,0.00029574099999999997,-0.0008438769999999999,-0.00035568
-0.0506596,0.00118648,-0.065838,0.00010065100000000001,-0.000449064,-0.000493402
-0.0477811,-0.0824531,-0.108633,3.36819e-05,-0.0007443639999999999,-0.0007168210000000001
-0.053848,-0.00601243,-0.04897580000000001,0.000279157,-0.0007443639999999999,-0.000446073
-0.053836800000000004,-0.02913,-0.059124,0.000171443,-0.000538382,-0.000370275
-0.0452375,-0.044794400000000005,-0.09581410000000004,0.000100114,-0.0007443649999999997,-0.000408074
-0.0517059,-0.045018300000000004,-0.0680086,0.000136854,-0.0007443649999999997,-0.000575756
-0.060859300000000005,-0.028895599999999997,-0.0782577,0.000774165,-0.000649488,-0.000659373
-0.0608516,-0.0453974,-0.060619799999999995,0.000115705,-0.0007262119999999997,-0.000586083
-0.056129099999999994,-0.0361094,-0.08952280000000001,0.00011569700000000001,-0.00025632599999999997,-0.000716822
-0.0648907,0.00356395,-0.0647052,0.000562468,-0.000401738,-0.000534726
-0.0601048,-0.034586599999999995,-0.0700467,9.98765e-05,-0.000336363,-0.000716822
-0.059735699999999996,-0.007744329999999998,-0.059811199999999995,6.52998e-05,-0.000336363,-0.000654977
-0.05973049999999999,-0.0514009,-0.08747549999999997,0.000383307,-0.000336363,-0.000716822
-0.059725099999999996,-0.017108599999999998,-0.07299630000000001,0.000611243,-0.00028979200000000003,-0.000716822
-0.0529859,-0.03744190000000001,-0.0675997,0.000358194,-0.000293047,-0.000716822
-0.059734,-0.0146999,-0.048620800000000006,0.000288711,-0.000105479,-0.000716822
-0.059714800000000005,-0.0314712,-0.0940033,0.00110338,-0.000304229,-0.0012511000000000006
-0.05300219999999999,-0.0347706,-0.0711835,0.00102952,-0.000304229,-0.0012511000000000006
-0.06183110000000001,-0.00587712,-0.0490565,0.000749725,-0.00042021699999999996,-0.00095673
-0.0458148,-0.0941779,-0.103218,0.000404357,-0.00103444,-0.00114225
-0.055926199999999995,0.0151189,-0.048892000000000005,0.000655034,-2.6369899999999996e-05,-0.0009575019999999999
-0.0605648,-0.0320811,-0.0454647,0.000996673,-0.00011677600000000001,-0.00116064
-0.0681166,-0.0437334,-0.09202389999999999,0.00129122,-0.000280872,-0.0012511000000000006
-0.061634100000000004,-0.045949800000000006,-0.125273,0.000484936,-0.000493606,-0.0012511000000000006
-0.0812605,-0.010320399999999999,-0.0463883,0.0006027340000000001,-0.00034479300000000003,-0.0012511000000000006
-0.07601339999999998,-0.00222245,-0.0521231,0.000208907,0.000161335,-0.00101522
-0.0605312,-0.07973689999999999,-0.12358599999999999,0.000208907,-0.000340301,-0.00111507
-0.0704687,-0.0287214,-0.06685060000000001,0.0005906780000000001,-0.000340301,-0.00125235
-0.0705203,-0.00900099,-0.061177999999999996,0.000629232,-0.000576488,-0.00102222
-0.0704827,-0.07614619999999997,-0.0648021,0.000416446,-0.0005510819999999999,-0.00092562
-0.07687929999999997,-0.00619153,-0.054397100000000004,0.000334225,-0.00017675599999999997,-0.000471048
-0.061634,-0.051821500000000006,-0.11906199999999999,0.00087555,-0.000243356,-0.000852263
-0.061619299999999995,-0.052930200000000004,-0.0908245,0.000199537,-0.00032982,-0.0009442570000000002
-0.06162190000000001,-0.0018870999999999998,-0.06672289999999999,0.000909179,-0.000198183,-0.000885695
-0.0636712,-0.0634623,-0.07720739999999998,0.00022281799999999998,-0.000198183,-0.000806631
-0.061638099999999994,-0.0506582,-0.09614110000000001,0.00113924,-0.000299044,-0.000885695
-0.06162190000000001,-0.00245047,-0.09198869999999999,0.0012413,-0.000198183,-0.000885695
-0.06162190000000001,-0.03308080000000001,-0.0812912,0.00112313,-0.000198183,-0.000885695
-0.0692103,-0.00163202,-0.0711302,0.0009400989999999999,-0.000198183,-0.000885695
-0.06166,-0.0209949,-0.0652303,-8.552379999999999e-05,-0.000419596,-0.0007975539999999999
-0.06161559999999999,-0.0223039,-0.07697329999999998,0.000229703,-0.000369459,-0.000885695
-0.0615914,-0.0223481,-0.0997968,0.000548777,-0.000325422,-0.000793788
-0.0616212,-0.00373256,-0.12551199999999998,0.00189296,-0.00032850699999999996,-0.000885695
-0.056676199999999996,0.007835379999999998,-0.074199,0.000858797,-0.000177082,-0.000814919
-0.0445459,-0.00516316,-0.0731112,0.00138232,-0.00024733400000000004,-0.000961869
-0.028204400000000004,-0.0118045,-0.0466758,0.00155691,-0.00024451,-0.000885695
-0.028194099999999996,-0.0600733,-0.054247300000000005,0.00126442,-0.000102625,-0.0009004
-0.028170999999999998,-0.0162473,-0.0416816,0.00107551,-0.00024451,-0.00129375
-0.0346445,-0.0119836,-0.0629729,0.0015079000000000002,-0.00024451,-0.00114837
-0.0426419,-0.041282099999999995,-0.044951,0.00155971,-0.00045563,-0.00150266
-0.0414709,0.0299709,-0.043206,0.000576537,-0.00024451,-0.00129375
-0.0314365,-0.0365232,-0.07527889999999997,0.000797928,-0.000556506,-0.00129375
-0.0330789,-0.0006075890000000001,-0.0323605,0.00107461,-0.0007269419999999997,-0.00129375
-0.0333855,0.018067700000000003,-0.046123500000000005,0.000705751,-0.00028681299999999997,-0.00129375
-0.0271026,-0.0418386,-0.040258999999999996,0.0008637060000000001,-0.00033658,-0.00129375
-0.0389754,0.0187152,-0.00346627,0.000612757,-0.000388803,-0.00102884
-0.0232658,-0.0526379,-0.0910348,0.00101806,-0.0007280219999999999,-0.0008731849999999997
-0.0206734,-0.0498151,-0.0838082,0.00045489,-0.00045433699999999997,-0.00105242
-0.020888999999999998,0.0174173,-0.10778199999999999,0.000452492,-0.000393797,-0.000637601
-0.0319274,-0.06251319999999999,-0.07969429999999998,0.0008514939999999997,-0.00065758,-0.00123125
-0.045648400000000006,0.027524299999999998,-0.042492800000000004,0.0007414109999999997,-0.0007334229999999998,-0.0008397689999999998
-0.0381796,-0.0254741,-0.0713343,0.0005124719999999999,-0.0006643889999999999,-0.000914228
-0.0351811,-0.035573900000000006,-0.0495656,0.000499679,-0.0006684410000000001,-0.00113152
-0.0448411,-0.00843675,-0.0704716,0.000438672,-0.000639176,-0.0012227300000000006
-0.0437945,-0.08026799999999999,-0.0640289,0.000438672,-0.00050805,-0.00131013
-0.0462797,-0.010569799999999999,-0.0319332,-0.000102725,-0.0005002,-0.00127724
-0.0461597,-0.0502311,-0.0640987,0.000302764,-0.000702666,-0.00143119
-0.0497604,-0.00355745,-0.055051699999999995,5.96063e-05,-0.0005002,-0.00125258
-0.0470674,-0.041424199999999994,-0.0424695,-5.10634e-05,-0.000643881,-0.00143119
-0.0516013,-0.00111472,-0.0558128,-0.00021684400000000003,-0.000616302,-0.00132879
-0.04510619999999999,-0.044192,-0.0384748,-0.00019434900000000002,-0.000554485,-0.00129587
-0.0380394,-0.0264491,-0.0567659,4.38953e-05,-0.000590924,-0.00143119
-0.0412858,-0.026436,-0.044179500000000003,0.00037386699999999995,-0.0007243609999999998,-0.000855616
-0.026191900000000004,-0.046001,-0.06314600000000001,0.000392629,-0.00049418,-0.000942927
-0.0353567,-0.0410298,-0.056930600000000005,0.00034585199999999995,-0.000603604,-0.0008297009999999999
-0.0498298,0.012771,-0.0971312,0.0008588899999999997,-0.000489246,-0.00108243
-0.0445029,-0.0509844,-0.12484300000000001,0.00046997,-0.000603604,-0.0014256300000000006
-0.0511081,0.0196028,-0.0702482,0.000547796,-0.0006781710000000001,-0.000910698
-0.047342699999999995,-0.05728540000000001,-0.034193699999999994,0.000337638,-0.000719455,-0.0008343209999999997
-0.0510495,0.0302778,0.00272303,0.00022748200000000002,-0.000602931,-0.0008343209999999997
-0.05106,-0.00839976,-0.0312459,-0.00010574,-0.000667779,-0.0012359000000000003
-0.0468405,-0.0574808,-0.105999,0.0007593139999999998,-0.0008296839999999999,-0.00146583
-0.032782,0.012489100000000001,-0.07322310000000001,0.000907888,-0.000667779,-0.00121795
-0.032785400000000006,-0.047579500000000004,-0.0729221,-0.000222715,-0.00028874099999999997,-0.0009089339999999999
-0.0613929,0.00371198,-0.0579008,0.000270313,-0.00045472599999999997,-0.00117702
-0.0422959,-0.0388853,-0.11103299999999999,0.000569547,-0.001161,-0.00104479
-0.044904599999999996,-0.029976599999999996,-0.06692100000000001,0.0008677319999999999,-0.000983262,-0.00144567
-0.0472805,-0.008399149999999998,-0.103631,0.00111129,-0.0008471619999999999,-0.00103625
-0.0332315,-0.0463866,-0.0916897,-8.38831e-07,-0.0005622369999999999,-0.00107571
-0.0485823,-0.000237735,-0.12353599999999999,0.0009990160000000001,-0.0006177590000000001,-0.00107571
-0.039855699999999994,-0.04827940000000001,-0.0905538,0.000648938,-0.000662299,-0.00107571
-0.0562268,0.00563056,-0.0536732,9.13185e-05,-0.000566177,-0.00107571
-0.0554087,-0.037004300000000004,-0.08644389999999999,0.000189817,-0.0008944669999999999,-0.00107571
-0.0398036,-0.0496633,-0.10684,0.00073697,-0.000545539,-0.0013250999999999998
-0.039779699999999994,-0.013094499999999999,-0.10622000000000001,0.000261018,-0.000281975,-0.00134443
-0.0613068,-0.0291974,-0.11623499999999999,0.000225454,-0.000543486,-0.00148715
-0.0571664,-0.013094799999999998,-0.12725999999999998,6.62222e-05,-0.00031804099999999997,-0.00168925
-0.07031810000000001,-0.00840915,-0.0997201,-0.000257638,-0.000644886,-0.00140358
-0.0607327,-0.0199917,-0.0840112,-0.000221903,-0.0006871889999999999,-0.00148715
-0.06621619999999999,0.004367,-0.08148129999999999,-0.000672179,-0.000215661,-0.00148715
-0.0662789,-0.036456999999999996,-0.120965,8.8433e-05,-0.00044595,-0.00156352
-0.0587966,0.011887799999999999,-0.09654739999999999,-0.00039564,-0.00044595,-0.00148715
-0.0524337,0.00562378,-0.0943609,-0.000128322,-2.3293200000000003e-05,-0.00148715
-0.0436416,-0.05707040000000001,-0.152407,-8.10536e-05,-0.000525728,-0.00159984
-0.0477338,0.00596125,-0.0921213,-0.000455549,-0.00028559799999999997,-0.00140295
-0.0591442,-0.015594799999999997,-0.08377180000000001,-0.00037702199999999997,-0.00044357,-0.00115569
-0.0553178,-0.0662442,-0.0831496,-0.0007976639999999999,-0.00022757099999999998,-0.0012177
-0.047802,-0.0463585,-0.0926384,-0.00058247,-0.000525728,-0.00124486
-0.0478231,-0.0462095,-0.08974809999999997,-0.000539555,-0.000326179,-0.000940477
-0.047730400000000006,0.00490303,-0.0828406,-0.00041177300000000004,-4.94255e-05,-0.00142104
-0.0438508,-0.0466807,-0.0727238,-0.000888931,-0.000146924,-0.0009291939999999999
-0.0412935,-0.015079399999999998,-0.077653,-0.0005520119999999999,-0.00018544099999999997,-0.0007728139999999999
-0.047981800000000005,-0.0566226,-0.113098,0.000125597,-0.00017258,-0.0009156189999999999
-0.042596800000000004,-0.0188415,-0.11526800000000001,-0.000365005,0.000107029,-0.0009156189999999999
-0.0511043,-0.000612567,-0.10744100000000001,0.000578789,2.1904000000000002e-05,-0.0009156189999999999
-0.0343838,-0.06638089999999999,-0.13430700000000004,0.000833156,-0.000242327,-0.0009156189999999999
-0.046895400000000004,0.0172547,-0.073603,0.000661838,0.000240618,-0.00111025
-0.047024300000000005,-0.0345885,-0.12573100000000004,0.0012764600000000005,-8.622979999999999e-05,-0.0009156189999999999
-0.0470376,-0.0321327,-0.10827,0.00092339,-0.00029135099999999997,-0.0009156189999999999
-0.0559648,-0.00213494,-0.0937614,0.000995975,0.000113586,-0.0009156189999999999
-0.0390814,-0.0663872,-0.13123900000000002,0.0006682210000000001,-0.00029000099999999996,-0.00135842
-0.0474597,0.017184900000000003,-0.08904119999999999,0.000637918,-0.00029000099999999996,-0.00091562
-0.0414092,-0.026648200000000004,-0.14911300000000002,0.000992347,-0.00016528099999999998,-0.00091562
-0.0392161,-0.0348523,-0.156828,0.00140987,-0.000173378,-0.00121104
-0.0420584,0.00453258,-0.111671,0.000895677,-0.000350586,-0.00091562
-0.048259199999999995,-0.0350958,-0.104324,0.000970664,-0.000350859,-0.00091562
-0.0420436,-0.0251328,-0.11013599999999998,0.0006560769999999999,-0.000176137,-0.00091562
-0.044642699999999993,-0.018155900000000003,-0.0982461,0.000450376,-0.000172545,-0.00091562
-0.0420579,-0.0420601,-0.114602,0.0006738310000000001,-0.000172545,-0.00091562
-0.042058,-0.017390700000000002,-0.117149,0.0007279789999999999,-0.000172545,-0.00091562
-0.0500372,-0.0479531,-0.13147999999999999,0.00118043,-0.00023103099999999998,-0.00091562
-0.0457965,-0.00889385,-0.134393,0.0008788189999999998,-0.000172545,-0.00091562
-0.0361019,-0.0430136,-0.137989,0.000537823,-0.00048432099999999996,-0.00091562
-0.0361505,-0.0357624,-0.0899,0.000296851,-0.000362697,-0.00091562
-0.048393,0.043038400000000004,-0.0965077,0.0005669340000000001,-0.000172545,-0.000915621
-0.0531001,-0.0481767,-0.122375,0.000388269,-3.90302e-05,-0.000496847
-0.06485369999999999,-0.018277099999999998,-0.11343099999999999,0.000160825,-0.000149173,-0.000915621
-0.06468430000000001,0.008772149999999998,-0.0841277,0.000232445,-0.000303676,-0.000641125
-0.056241,-0.0406186,-0.107485,0.0009567180000000001,-0.000322653,-0.000864732
-0.06049740000000001,0.026565199999999997,-0.10529300000000001,0.000532824,-0.00019867900000000003,-0.00051567
-0.061920800000000005,-0.0196335,-0.09706039999999999,0.000144543,-4.96299e-05,-0.000915621
-0.062385800000000005,0.026591000000000004,-0.08508849999999997,0.000278669,-0.000275456,-0.000486182
-0.072246,-0.03521969999999999,-0.0716922,0.000675841,-0.00031305,-0.00102315
-0.0756709,0.0326122,-0.0722654,-0.000587686,-0.000328059,-0.0009156219999999999
-0.0697329,-0.020184599999999997,-0.104615,-0.00046875800000000005,-0.000446163,-0.000825654
-0.0664861,-0.045942000000000004,-0.113001,-5.3353199999999996e-05,-0.000423135,-0.00105012
-0.0707032,0.0163527,-0.109867,0.000307001,-0.00020941299999999998,-0.0009156219999999999
-0.0718845,-0.019483,-0.07893410000000001,-0.00020726299999999998,-0.000271491,-0.0009156219999999999
-0.07177599999999999,0.0379578,-0.0686387,-0.00043486800000000004,-0.000519544,-0.0007321819999999997
-0.0502495,-0.0251444,-0.0966347,0.000106471,-0.00068701,-0.00107328
-0.06765260000000001,0.030826799999999998,-0.0541506,0.000211052,-0.00067406,-0.0009156219999999999
-0.0640813,0.00329086,-0.05576180000000001,0.000106471,-0.000745091,-0.0009156219999999999
-0.0470482,-0.0443967,-0.11146400000000001,-0.00055074,-0.00075206,-0.00122164
-0.071477,-0.00255662,-0.0586669,-0.0009269339999999999,-0.00098727,-0.0009963910000000001
-0.073978,-0.018127,-0.0725987,-0.0008859610000000001,-0.00098727,-0.000959628
-0.061791099999999995,-0.0166696,-0.112935,-0.000609196,-0.00114807,-0.0007921610000000001
-0.05724830000000001,-0.029076799999999996,-0.0863979,-0.00152851,-0.00115038,-0.0007921610000000001
-0.061787,0.00261998,-0.11944,-0.00105121,-0.0010881999999999999,-0.0007921610000000001
-0.0669733,0.027089299999999997,-0.0906187,-0.00135607,-0.00124164,-0.0006605439999999999
-0.0695456,-0.016540799999999998,-0.11011300000000002,-0.00103244,-0.00124164,-0.0006766389999999999
-0.0617547,0.0249582,-0.09807869999999999,-0.00160099,-0.000852485,-0.000559568
-0.06173580000000001,0.00318152,-0.11231,-0.0008444229999999999,-0.0008287419999999999,-0.00044410300000000005
-0.058688300000000006,-0.0361668,-0.139692,-0.000270847,-0.000825132,-0.0007921610000000001
-0.0548922,-0.0187762,-0.104149,-0.000308467,-0.0007064360000000001,-0.000410747
-0.0692143,-0.018894799999999996,-0.11193199999999999,-5.023e-06,-0.0009263260000000002,-0.000668199
-0.0761431,-0.0189322,-0.0690947,-0.00023129099999999998,-0.000801464,-0.0007921610000000001
-0.0761581,0.000354062,-0.07311269999999999,-0.000664158,-0.000439771,-0.000446813
-0.07066740000000002,-0.026509300000000003,-0.0889636,-0.000497768,-0.000656331,-0.00036794199999999995
-0.0679081,-0.043656400000000005,-0.0735301,-0.00022137,-0.0010253800000000002,-0.000721638
-0.059865999999999996,0.0112754,-0.05860359999999999,-0.0008159310000000001,-0.0008892989999999998,-0.00036794199999999995
-0.0497343,-0.07216849999999997,-0.0793794,-0.000324771,-0.000928252,-0.0006846039999999999
-0.0391383,0.00898981,-0.07313509999999998,-0.000213429,-0.000922748,-0.00036794199999999995
-0.0391033,-0.05812130000000001,-0.0924972,0.000217273,-0.0008582779999999998,-0.0007127980000000001
-0.044394300000000005,0.008147639999999998,-0.08868689999999999,-0.00041138800000000005,-0.0008408639999999998,-0.00036794199999999995
-0.0461279,-0.0105808,-0.0959947,-0.000383486,-0.000691993,-0.00036794199999999995
-0.0313366,-0.0363805,-0.108743,-0.000498007,-0.0008587879999999998,-0.000297298
-0.0377478,-0.018786,-0.09603389999999999,-0.000774963,-0.000997276,-0.00036794199999999995
-0.0377588,-0.0211567,-0.15298299999999998,4.71019e-06,-0.000955198,-0.000214356
-0.0377662,-0.0418904,-0.101371,-0.000431915,-0.00117615,-0.00036794199999999995
-0.034305800000000004,-0.00725838,-0.10173,-0.00137279,-0.00121052,-7.994729999999999e-05
-0.0247341,-0.0833341,-0.12923099999999998,-0.000908353,-0.00124421,-0.00019308299999999998
-0.030437099999999998,-0.00154049,-0.09676110000000002,-0.00123763,-0.00114951,0.000126416
-0.0127196,-0.0685102,-0.129055,-0.0008382539999999998,-0.00156397,-0.00015668
-0.0239973,-0.0606395,-0.11848900000000001,-0.00118604,-0.0014747199999999995,-0.000305383
-0.0413464,-0.064077,-0.13235999999999998,-0.00044904699999999994,-0.00153041,-0.000305383
-0.0413474,-0.0367045,-0.0926369,-0.000737755,-0.00148775,-0.000305383
-0.0412741,-0.0511404,-0.11796400000000005,-0.00114809,-0.0009619110000000001,-0.000305383
-0.0413156,-0.0460278,-0.11794600000000001,-0.00128878,-0.00128861,-0.000556592
-0.041335699999999996,-0.0329153,-0.118019,-0.00189963,-0.00131733,-0.000305383
-0.041335699999999996,-0.0514186,-0.09612439999999998,-0.00189963,-0.00131733,-0.000305383
-0.054065300000000004,-0.07690010000000001,-0.125433,-0.00124993,-0.00122255,-0.000305383
-0.0483476,-0.0307215,-0.09720930000000001,-0.00189633,-0.00137801,-0.0006031259999999999
-0.0378214,-0.0557149,-0.132169,-0.0008162529999999999,-0.00134254,-0.000665055
-0.052217599999999996,-0.022903299999999998,-0.0832717,-0.000304987,-0.00144644,-0.000465521
-0.0429349,-0.06378740000000001,-0.12115699999999999,-0.000343991,-0.00148719,-0.000508234
-0.052463800000000005,-0.00484804,-0.0895963,-0.0009867539999999998,-0.00153833,-0.000252751
-0.0507577,-0.05151,-0.10648699999999998,-0.00039100800000000003,-0.00136422,-0.00045952
-0.0528985,-0.027262400000000003,-0.08706489999999999,-0.0012432,-0.0016132000000000002,-0.000659825
-0.0428492,-0.0127366,-0.06597160000000002,-0.00124284,-0.00124141,-0.000154052
-0.042776800000000004,-0.118399,-0.0542352,-0.00181923,-0.00103615,-0.00045684400000000003
-0.0606909,-0.052816300000000004,-0.0697707,-0.0014145500000000005,-0.0014074,-0.000503404
-0.058514800000000006,-0.0186705,-0.0686928,-0.00175407,-0.00106939,-0.00041539
-0.040056699999999994,-0.102244,-0.0943903,-0.00129024,-0.00186681,-0.0005004580000000001
-0.0501351,-0.00394631,-0.05233340000000001,-0.00194871,-0.00190172,-0.000285423
-0.0501238,-0.0224303,-0.0488781,-0.00172468,-0.00169724,-0.000335125
-0.050173199999999994,-0.08528510000000002,-0.104076,-0.00125219,-0.00187825,-0.000566377
-0.05014880000000001,-0.0324238,-0.0820715,-0.00210399,-0.0017254999999999998,-0.000535265
-0.0604612,-0.0701993,-0.08122339999999999,-0.00211478,-0.0017254999999999998,-0.000229605
-0.06757360000000001,-0.054674,-0.07290059999999997,-0.00171735,-0.0017254999999999998,-0.000659607
-0.06344900000000002,-0.036463300000000004,-0.111346,-0.00166775,-0.0018625,-0.000229605
-0.0553316,-0.0642782,-0.08038199999999998,-0.00209763,-0.00191427,-0.000229605
-0.06066559999999999,-0.0410774,-0.0922841,-0.00182025,-0.00190061,-0.000477858
-0.0643527,-0.0828779,-0.11391300000000001,-0.00116607,-0.00190061,-0.000510555
-0.07840549999999999,-0.041238199999999996,-0.0991185,-0.00117247,-0.00177425,-0.0006756760000000001
-0.07727889999999997,-0.0635915,-0.10336400000000001,-0.00193782,-0.00190061,-0.000480469
-0.0665246,-0.027609699999999997,-0.07731459999999997,-0.00253788,-0.00190061,0.00011203600000000001
-0.0666857,-0.041213599999999996,-0.137194,-0.00224237,-0.00162429,-0.0004678
-0.0695371,-0.00449886,-0.12305999999999999,-0.00171464,-0.00215117,-1.2499400000000001e-05
-0.0582205,-0.028387400000000004,-0.13849,-0.0019551,-0.00188766,-0.000122855
-0.0648016,-0.0342055,-0.131295,-0.00190915,-0.00189271,-0.000157056
-0.07405929999999998,-0.014671799999999999,-0.12193,-0.00167639,-0.00159936,-0.000225496
-0.08362229999999997,-0.00715289,-0.133339,-0.000652712,-0.00119789,0.00034051800000000005
-0.08241319999999999,-0.0761108,-0.142587,-0.00105607,-0.00161528,-0.000155551
-0.07597029999999999,-0.0276532,-0.172084,-0.00105607,-0.0012741400000000006,-0.000155551
-0.06615599999999999,-0.10055399999999999,-0.127363,-0.00134801,-0.00169445,-7.4156e-05
-0.06310639999999999,0.010326100000000001,-0.10139400000000001,-0.00139298,-0.00100977,0.00044973699999999997
-0.0579148,-0.0950939,-0.144735,-0.00196633,-0.00169885,-0.000155551
-0.0847797,-0.0239557,-0.12493199999999999,-0.0019917000000000003,-0.00149067,-0.000155551
-0.08094839999999999,-0.0101549,-0.141852,-0.00164437,-0.00138814,-0.000155551
-0.0965042,-0.037032300000000004,-0.100368,-0.000965754,-0.00128175,-4.51773e-05
-0.09224919999999999,0.00737464,-0.095547,-0.00194989,-0.00134329,0.000342943
-0.08173619999999998,-0.0731922,-0.129221,-0.00158235,-0.00165509,3.91509e-05
-0.0732414,0.0008154959999999998,-0.143929,-0.00118873,-0.00112812,0.00019746099999999999
-0.0775444,-0.07004210000000001,-0.140923,-0.00201682,-0.00155487,0.00019746099999999999
-0.08504810000000002,-0.0120474,-0.13464500000000001,-0.00205781,-0.00126099,4.72537e-05
-0.0741329,-0.08021549999999998,-0.18179700000000001,-0.00249401,-0.00145967,-0.00020820299999999999
-0.050636,-0.0696188,-0.157908,-0.00197459,-0.00174355,1.70235e-05
-0.06389940000000001,-0.00161868,-0.13226300000000002,-0.00216737,-0.0015741799999999995,8.33681e-05
-0.0813263,-0.0077015,-0.18089,-0.00141876,-0.0015077,0.00012779
-0.06833339999999999,-0.06265369999999999,-0.15526500000000001,-0.00239347,-0.00146154,-0.000136961
-0.0759771,0.017168799999999998,-0.12445099999999999,-0.002509,-0.00147678,4.45055e-05
-0.07449469999999997,-0.0479072,-0.15328599999999998,-0.00216753,-0.00131433,0.00010745
-0.0701018,-0.0782408,-0.14957,-0.00205877,-0.00176499,1.42853e-05
-0.07565629999999998,-0.038806099999999996,-0.159977,-0.00182952,-0.00188836,0.00022501200000000002
-0.0336715,-0.08140399999999999,-0.12230999999999999,-0.00204735,-0.00147863,0.000752341
-0.031177999999999997,-0.0713892,-0.249975,-0.00258751,-0.00180833,0.000752341
-0.0535516,-0.0782913,-0.272071,-0.00247029,-0.0016380399999999995,0.000286169
-0.0478869,-0.0830043,-0.27350599999999997,-0.00290255,-0.00158683,0.000230239
-0.0479069,-0.0576318,-0.256298,-0.00262969,-0.0016380399999999995,0.000230239
-0.0479069,-0.0866071,-0.274794,-0.00231135,-0.0016380399999999995,0.000230239
-0.054718499999999996,-0.0472433,-0.27475700000000003,-0.00247029,-0.0016380399999999995,0.000230239
-0.026290699999999997,-0.116154,-0.350456,-0.00212568,-0.00174964,0.000230239
-0.032895999999999995,-0.0509929,-0.29427800000000004,-0.00133087,-0.00152578,0.0005909590000000001
-0.025795599999999995,-0.06292350000000001,-0.329405,-0.00134588,-0.00115066,0.00041571699999999996
-0.027533600000000002,-0.129215,-0.361993,-0.00261522,-0.00212103,-9.80582e-05
-0.036051099999999996,-0.0464767,-0.329315,-0.00134113,-0.00172982,9.1406e-05
-0.039523800000000005,-0.0904956,-0.329344,-0.00159073,-0.00114976,0.00017340700000000002
-0.0434258,-0.0934829,-0.325588,-0.00131125,-0.00156365,9.40493e-05
-0.046416900000000004,-0.032881,-0.308683,-0.00143965,-0.000858261,0.00019058900000000001
-0.0453337,-0.11535,-0.357858,-0.00206032,-0.00158859,-0.00020605799999999998
-0.059305399999999994,-0.05353189999999999,-0.308052,-0.00153629,-0.00143701,-0.000756595
-0.06746289999999999,-0.042518,-0.321857,-0.00164184,-0.000676775,-0.000580826
-0.0431915,-0.114533,-0.40382399999999996,-0.0007064619999999999,-0.000954403,-0.000636123
-0.0646054,-0.0669541,-0.326171,-0.0007594219999999999,-0.00147,-0.000696617
-0.0707086,-0.056458100000000004,-0.307621,-0.0005077269999999999,-0.00124323,-0.00048690800000000003
-0.05815309999999999,-0.09969910000000001,-0.324912,-0.000477459,-0.000817793,-0.000665919
-0.0632737,-0.06124159999999999,-0.30375599999999997,-0.0008245849999999999,-0.000817793,-0.000406336
-0.05604680000000001,-0.0979073,-0.33684400000000003,-0.000654694,-0.000817793,-0.000456313
-0.06922869999999999,-0.0617721,-0.332876,-0.00011692899999999999,-0.00088851,-0.000580894
-0.0581731,-0.0896328,-0.318019,-0.00077981,-0.000712842,-0.000386089
-0.06604960000000001,-0.0623895,-0.300035,-0.000175261,-0.0009564939999999999,-0.000252978
-0.058397500000000005,-0.12430999999999999,-0.31904,-0.00118579,-0.00114813,-0.000397867
-0.05843859999999999,-0.07675789999999999,-0.30093400000000003,-0.0008880519999999999,-0.00133179,-0.00036439800000000004
-0.067011,-0.08268699999999997,-0.323464,-0.000574772,-0.0009236089999999999,-0.000449416
-0.0583126,-0.073116,-0.308804,-0.00100102,-0.00110069,-0.000492071
-0.052371400000000005,-0.0987267,-0.320065,-0.0007446059999999997,-0.00094614,-0.000756597
-0.06003340000000001,-0.0797216,-0.309846,-0.0007481169999999999,-0.00131015,-0.000453797
-0.0622793,-0.0927795,-0.34383600000000003,-0.000650638,-0.00128858,-0.000262465
-0.0631161,-0.06497330000000001,-0.319321,-0.00101666,-0.0013400999999999999,-0.000374185
-0.061904499999999994,-0.10385699999999999,-0.343095,-0.00021642099999999998,-0.00128858,-0.00030399
-0.05218540000000001,-0.048186,-0.326814,-0.00047125300000000004,-0.0006480640000000001,-0.000226506
-0.0429036,-0.158615,-0.343325,-0.000987419,-0.00103936,-0.000287055
-0.0563188,-0.0498997,-0.322346,-0.000630803,-0.00068346,-0.00022464
-0.0663134,-0.09803839999999998,-0.345042,-0.00011749,-0.0009506139999999999,-0.000493103
-0.046023800000000004,-0.112141,-0.404053,-0.000338755,-0.00102921,-0.000593509
-0.0660412,-0.0435292,-0.35076,-0.000338755,-0.0007766169999999997,-0.000335367
-0.055463099999999994,-0.124115,-0.363493,0.00016894900000000003,-0.0009296739999999999,-0.000756598
-0.0645083,-0.060659000000000005,-0.345825,-0.000338755,-0.000697267,-0.000328458
-0.058282600000000004,-0.09919019999999999,-0.340419,-0.000154014,-0.000556586,-0.000196
-0.058287599999999995,-0.0575149,-0.307911,-0.000338755,-0.000501712,-0.000403078
-0.0669959,-0.0812075,-0.304769,0.00016275,-0.0004910369999999999,-0.000122856
-0.043720499999999995,-0.13685799999999998,-0.36628499999999997,0.0008323369999999999,-0.0008218159999999997,-0.00020052200000000002
-0.054687099999999995,-0.0554828,-0.339227,8.045279999999997e-05,-0.00070373,-1.81955e-05
-0.0437602,-0.1114,-0.349436,0.00107017,-0.000671457,3.949330000000001e-06
-0.060961800000000003,-0.0901534,-0.331106,0.0011038100000000002,-0.0007717539999999999,-0.000505316
-0.0463563,-0.0704784,-0.342938,0.00113187,-0.00062923,-0.00010703299999999999
-0.046409399999999996,-0.124124,-0.364448,0.000800162,-0.000954431,-0.000505316
-0.056705700000000005,-0.0576992,-0.321617,0.000350357,-0.000801625,-0.000281608
-0.0459097,-0.156891,-0.329031,-0.0007664939999999999,-0.000627449,-0.000505316
-0.0562961,-0.0709414,-0.309404,8.69858e-06,-0.000807937,-0.000392321
-0.0431051,-0.10357100000000001,-0.348482,0.000359764,-0.0006586739999999999,-0.000352396
-0.043362599999999994,-0.117029,-0.351461,0.000615194,-0.00120649,-0.0003829
-0.048782099999999995,-0.044068800000000005,-0.31546799999999997,0.000600568,-0.0008424959999999997,-0.000377674
