0.0132321,0.131773,0.038643800000000006,-5.87353e-05,-0.000155339,0.000290497
0.023812599999999996,0.0388935,-0.0630674,0.0017129999999999995,-0.000448816,0.000325671
0.019571599999999998,0.0863966,-0.0231622,0.00127781,-0.000617134,0.000219058
0.0181299,0.0234007,-0.0367045,0.00100465,-0.0005899319999999999,6.88151e-05
0.0406624,0.022947299999999997,-0.08791849999999997,0.00374822,-0.00098776,0.000790041
0.04813680000000001,-0.00363787,-0.0375912,0.00187334,-0.000984311,0.00039201800000000005
0.0365189,0.115218,-0.041007300000000003,0.0017334,-0.00084334,0.000596443
0.0481765,-0.0423074,-0.0718935,0.00201327,-0.00119759,0.000872288
0.0402675,0.178999,0.030232099999999998,0.00145076,-0.001187,0.00100143
0.040750800000000004,-0.0168403,-0.027930299999999998,0.00124313,-0.0014073200000000005,0.000872288
0.044790300000000005,0.11893,0.0447908,0.00126592,-0.00132563,0.00107794
0.048239599999999994,0.0341065,-0.0234942,0.000641371,-0.00142109,0.00106446
0.0405779,0.0476816,0.017453,0.00044323199999999995,-0.00132563,0.00130696
0.046001099999999996,0.0217981,-0.00277999,0.0005695709999999999,-0.00165782,0.00152557
0.0435921,-0.00475408,0.024655,-9.42252e-05,-0.00176299,0.0013302
0.0436498,0.012069700000000001,0.0978352,3.64872e-05,-0.00176299,0.00134367
0.05062609999999999,0.0530272,0.0296966,0.000148469,-0.00176299,0.00145814
0.054199800000000006,0.0149053,0.0680355,-0.000370215,-0.00176299,0.00135065
0.048321699999999995,0.08366669999999997,0.10435799999999999,-0.000643847,-0.00151107,0.00171805
0.0755684,-0.00610864,0.126173,-0.00221273,-0.00205922,0.00191653
0.064324,0.136079,0.196436,-0.0032005000000000002,-0.00211804,0.00203102
0.07370029999999997,-0.0480545,0.1101,-0.00166111,-0.00207453,0.00180426
0.0668325,0.08502189999999997,0.198717,-0.00340811,-0.00231029,0.00207502
0.0705889,0.046495999999999996,0.199532,-0.00418831,-0.00241713,0.00242769
0.0784423,-0.0563284,0.20933400000000002,-0.00441637,-0.00275842,0.00243062
0.08084769999999998,-0.050614099999999995,0.26531,-0.00447936,-0.00291901,0.00211154
0.0563106,0.12013900000000001,0.213194,-0.00436843,-0.00229277,0.00206193
0.0571238,0.0821306,0.257296,-0.00454277,-0.00247595,0.00201435
0.056746000000000005,0.156347,0.24509,-0.00463383,-0.00285389,0.00185821
0.07503,0.165777,0.270546,-0.00504712,-0.00308057,0.00185821
0.0693187,0.10614000000000001,0.23187199999999997,-0.00440792,-0.00344141,0.00210675
0.0830913,0.214166,0.18789,-0.00103381,-0.00352947,0.00185821
0.075379,0.0888336,0.21233600000000002,-0.00281071,-0.00338876,0.00204814
0.101359,0.03932480000000001,0.195903,-0.00132163,-0.00308246,0.00252036
0.117558,-0.0131814,0.209188,-0.00174606,-0.00342458,0.00237308
0.116212,0.146868,0.25655100000000003,-0.0019657,-0.00371025,0.00273896
0.11934600000000001,0.021916099999999997,0.284238,-0.00249061,-0.00386633,0.00223682
0.103602,0.184538,0.358589,-0.0026563000000000003,-0.00417761,0.00249378
0.10940899999999999,0.07927979999999997,0.352111,-0.00281402,-0.00417761,0.00216776
0.100004,-0.03403869999999999,0.334431,-0.00479083,-0.00417761,0.00185821
0.118552,0.120743,0.38693,-0.00453928,-0.00423386,0.0022186
0.1316,-0.022356,0.417137,-0.00513499,-0.00473589,0.00234296
0.131983,0.07708739999999999,0.464045,-0.00570375,-0.00477615,0.00245383
0.141234,0.0637745,0.40789899999999996,-0.00534539,-0.00507258,0.00281021
0.148422,-0.058781799999999995,0.43302799999999997,-0.00491259,-0.00497391,0.00263868
0.14894300000000002,0.07816239999999999,0.44333900000000004,-0.0059504,-0.00543357,0.00308367
0.148755,-0.102576,0.44633100000000003,-0.00737013,-0.00502644,0.0026334
0.147087,0.0142563,0.503918,-0.00862614,-0.00519415,0.00269534
0.149695,-0.0571293,0.492729,-0.00748734,-0.00523039,0.00251079
0.17460799999999999,-0.0986831,0.449191,-0.00718065,-0.00537028,0.00258286
0.170094,-0.008142939999999998,0.50312,-0.00813088,-0.00616366,0.00256184
0.18037999999999998,-0.0924211,0.48326499999999994,-0.00801682,-0.00571404,0.00306719
0.181821,0.027481799999999997,0.545786,-0.010514299999999999,-0.00573018,0.00286147
0.158459,-0.042450800000000004,0.510645,-0.010486399999999998,-0.00575601,0.00208871
0.158108,-0.0635905,0.5494859999999999,-0.011052600000000001,-0.00523543,0.00185822
0.158157,0.0196979,0.549154,-0.0106027,-0.00536745,0.00185822
0.158399,0.0165845,0.587947,-0.0115509,-0.00566784,0.00206866
0.140743,0.0410696,0.567416,-0.012358599999999999,-0.0050348,0.00215427
0.140491,0.00408707,0.5768340000000001,-0.011886399999999998,-0.00473869,0.00185822
0.149054,0.0268545,0.574236,-0.0125101,-0.00528182,0.00200857
0.171673,-0.0558351,0.5720890000000001,-0.011580600000000005,-0.00545516,0.00247252
0.179615,-0.042513199999999994,0.54347,-0.0111808,-0.00542919,0.00260421
0.1667,-0.0261855,0.598035,-0.0122506,-0.00538448,0.00239886
0.16675299999999998,0.0314466,0.564972,-0.0113975,-0.00539328,0.00283569
0.17061499999999996,-0.054820299999999995,0.568756,-0.012122200000000001,-0.00567469,0.00239886
0.179207,0.00716064,0.527961,-0.012952200000000002,-0.00592696,0.0026208000000000004
0.179504,-0.0452339,0.552916,-0.013116599999999999,-0.00610816,0.00239886
0.17870899999999998,0.0320796,0.597705,-0.013754599999999999,-0.00610816,0.00244464
0.181291,-0.117343,0.619203,-0.014382800000000001,-0.00654042,0.0024901999999999997
0.184197,-0.035227499999999995,0.712082,-0.0149139,-0.00708302,0.00257377
0.208252,-0.101114,0.658149,-0.014248599999999998,-0.00732436,0.00280588
0.20794200000000002,-0.021868799999999997,0.73026,-0.015214400000000001,-0.0077536,0.00288463
0.205531,-0.103349,0.630157,-0.014673599999999998,-0.00728495,0.00279035
0.19902999999999998,0.00738089,0.71529,-0.016030600000000002,-0.00763066,0.00271622
0.194968,-0.09876900000000001,0.754776,-0.0158996,-0.007323269999999998,0.00277446
0.20205499999999998,-0.00890862,0.760811,-0.0156213,-0.00804884,0.00265161
0.21905,-0.140431,0.8102709999999999,-0.0159601,-0.00835014,0.00264767
0.21129299999999998,0.025690699999999997,0.853417,-0.016661900000000004,-0.00855144,0.0026028
0.224294,-0.139713,0.765084,-0.015368999999999999,-0.008709619999999998,0.00223855
0.228987,-0.037087800000000004,0.8583819999999999,-0.016659799999999995,-0.00921024,0.00217436
0.226442,-0.116002,0.817983,-0.01699,-0.00923372,0.0020609
0.222136,-0.169809,0.847176,-0.0174024,-0.008981849999999998,0.00158756
0.211337,0.0364234,0.8524870000000001,-0.017041099999999997,-0.008455169999999998,0.00202171
0.19509100000000001,-0.0268315,0.7818239999999999,-0.0161705,-0.00859988,0.00177309
0.22512,-0.246406,0.901783,-0.0170856,-0.00938608,0.00135558
0.21896999999999997,-0.06051469999999999,0.9229959999999999,-0.0176405,-0.00957745,0.00120334
0.232754,-0.15048699999999998,0.963065,-0.0183542,-0.00981794,0.00136127
0.204726,0.0341601,0.999194,-0.018999900000000004,-0.009259280000000005,0.00136127
0.22850399999999998,-0.11888499999999999,1.01423,-0.0192714,-0.00955312,0.00136127
0.22118800000000002,0.033958499999999996,1.03481,-0.0198527,-0.00972158,0.00151862
0.248921,-0.023376599999999997,0.932765,-0.018114500000000002,-0.00979322,0.00202478
0.259399,-0.0743488,1.0026700000000002,-0.0183452,-0.010221899999999999,0.00188529
0.24791799999999997,-0.109482,0.9261469999999999,-0.0180972,-0.009735400000000005,0.00172533
0.26013000000000003,-0.168497,0.966242,-0.0180181,-0.0102837,0.00132124
0.260358,-0.0477161,0.932466,-0.0176002,-0.0104819,0.00161246
0.273725,-0.21922199999999997,0.8949860000000001,-0.0170907,-0.010470100000000001,0.00198835
0.277939,0.0312862,1.03159,-0.017785299999999997,-0.010470100000000001,0.00175283
0.271563,-0.114199,0.8688869999999999,-0.0169511,-0.010470100000000001,0.00169251
0.281902,-0.0967064,1.01845,-0.018457400000000002,-0.0109107,0.00198264
0.284475,0.00995101,0.948417,-0.0175841,-0.0109107,0.00198743
0.300002,-0.148591,0.983251,-0.0174995,-0.011446,0.00217568
0.30340300000000003,-0.0606004,1.02642,-0.018446599999999997,-0.011150499999999999,0.00217355
0.300896,0.0243477,0.980716,-0.016852799999999998,-0.0114841,0.00227239
0.316527,-0.15029800000000001,1.03148,-0.0191513,-0.012186200000000001,0.00220188
0.321276,-0.033037699999999996,1.11055,-0.0195169,-0.012041,0.00205245
0.330664,-0.042763199999999994,1.06726,-0.018453999999999998,-0.0121853,0.00238322
0.319708,-0.24486599999999997,1.10169,-0.0201775,-0.012536499999999999,0.00160708
0.316289,-0.060162400000000005,1.12981,-0.0202622,-0.012326100000000001,0.00155211
0.348366,-0.168459,1.07531,-0.0196482,-0.013344100000000001,0.00221136
0.353333,-0.23744899999999997,1.16104,-0.0209921,-0.0136489,0.00232267
0.354158,-0.129678,1.09266,-0.0196311,-0.013468700000000002,0.00254309
0.351096,-0.23344,1.16031,-0.0213477,-0.013468700000000002,0.00205245
0.309694,-0.032657,1.1998799999999998,-0.0220942,-0.0115835,0.00157288
0.321525,0.03889430000000001,1.21591,-0.0223171,-0.0122405,0.000751475
0.329908,-0.0128085,1.24023,-0.022734099999999997,-0.0122845,0.00069875
0.31006300000000003,0.09982970000000001,1.2584600000000001,-0.022838099999999997,-0.0118891,0.00131768
0.331406,-0.179054,1.25839,-0.023363299999999997,-0.012352799999999999,0.00096238
0.326687,0.0473474,1.25873,-0.0240155,-0.0118988,0.00145242
0.337429,-0.197527,1.29558,-0.0239865,-0.0118988,0.00143145
0.32766999999999996,0.027698200000000003,1.2841200000000002,-0.023942599999999998,-0.0123194,0.00127599
0.33909,-0.10105399999999999,1.19164,-0.0213945,-0.0118988,0.00228775
0.33069,-0.08333539999999999,1.3071700000000002,-0.022927200000000002,-0.0115382,0.00210116
0.31888099999999997,-0.0275339,1.21835,-0.022936,-0.0110387,0.0020096
0.333978,-0.028878300000000003,1.34254,-0.023362200000000003,-0.0119458,0.00181836
0.326019,-0.0271627,1.30046,-0.0237195,-0.0112735,0.00127599
0.342279,-0.08624339999999997,1.2642200000000001,-0.0239993,-0.011912299999999999,0.00195215
0.3399,-0.040182499999999996,1.3808200000000002,-0.023959400000000002,-0.011912299999999999,0.00176983
0.332597,-0.0845138,1.28931,-0.0242629,-0.0123073,0.00190033
0.352648,-0.204467,1.3139299999999998,-0.0246008,-0.012389399999999998,0.00202326
0.344907,-0.00922121,1.35824,-0.0244523,-0.012389399999999998,0.00190277
0.365203,-0.210492,1.18573,-0.0242035,-0.013036,0.00240462
0.36194699999999996,-0.0320586,1.3417700000000001,-0.0247185,-0.0130195,0.0024216
0.376665,-0.163102,1.29887,-0.0241419,-0.013767500000000002,0.0024936
0.37587600000000004,-0.0812659,1.38965,-0.024717,-0.013767500000000002,0.00230985
0.355621,-0.059467700000000005,1.3760700000000001,-0.0245026,-0.0140122,0.00220795
0.387337,-0.223838,1.4008600000000002,-0.0244516,-0.014406299999999999,0.00226727
0.376006,-0.0494456,1.3814600000000001,-0.0241457,-0.0138223,0.00220795
0.388729,-0.174792,1.40531,-0.0240262,-0.014396,0.00220795
0.38861799999999996,-0.0181408,1.4560799999999998,-0.0244938,-0.0143204,0.00200947
0.38856,-0.107359,1.42909,-0.024071000000000002,-0.0142675,0.00220795
0.344622,-0.0648657,1.2507,-0.0229005,-0.0137496,0.00132239
0.323861,-0.180619,1.13144,-0.023169,-0.012703399999999998,0.00140433
0.292419,-0.036150699999999994,1.1725700000000001,-0.023925400000000003,-0.012202600000000001,0.000798929
0.275859,0.15343599999999996,1.22597,-0.0250532,-0.0114006,0.000353002
0.292448,-0.053027599999999994,1.19879,-0.025896100000000002,-0.0122838,0.000175265
0.277185,0.197305,1.3019999999999998,-0.025594799999999997,-0.0111891,0.000423494
0.31732899999999997,-0.11028699999999998,1.25905,-0.0257262,-0.012242200000000005,0.000778963
0.314021,0.0516581,1.31627,-0.0256786,-0.012643399999999999,0.000705655
0.326138,-0.0464921,1.31066,-0.025867400000000002,-0.0126568,0.000376929
0.345473,0.0271903,1.2809100000000002,-0.0241775,-0.013212,0.000705655
0.348523,-0.0293764,1.32281,-0.024490900000000003,-0.013186199999999999,0.000541474
0.33784699999999995,0.0404293,1.37038,-0.025995599999999997,-0.013253399999999999,0.000705655
0.376844,-0.033538599999999995,1.37141,-0.0248423,-0.0135484,0.00130288
0.375576,-0.0556576,1.39815,-0.0259323,-0.014106,0.00132549
0.364105,0.036290699999999995,1.43213,-0.0270428,-0.013817099999999999,0.00133096
0.380233,-0.06914400000000001,1.41636,-0.026401799999999996,-0.0136818,0.00188953
0.39408899999999997,-0.122761,1.4821,-0.0269019,-0.014368500000000001,0.00183555
0.370766,0.0210646,1.51227,-0.0269085,-0.013526499999999999,0.00167744
0.388651,-0.121675,1.44426,-0.0264801,-0.0140004,0.00196467
0.392205,-0.15160099999999999,1.46955,-0.027242900000000004,-0.014459200000000002,0.00176392
0.391567,0.010489299999999998,1.43976,-0.0258449,-0.0140004,0.00176392
0.400356,-0.14057,1.4788,-0.0271524,-0.014167700000000002,0.00176392
0.391377,-0.0112321,1.43234,-0.027431200000000003,-0.013864099999999999,0.00152004
0.400273,-0.116745,1.47069,-0.027479900000000005,-0.014533700000000002,0.00146285
0.406445,-0.022734900000000002,1.4439600000000001,-0.027817400000000003,-0.014409700000000001,0.00134194
0.42932299999999995,-0.178128,1.39894,-0.027903300000000002,-0.014580200000000001,0.00177201
0.40215500000000004,-0.0147215,1.40455,-0.0264147,-0.014509399999999999,0.00141483
0.403265,-0.182061,1.38478,-0.0278431,-0.014098,0.00118869
0.401982,-0.0365454,1.46702,-0.0282752,-0.0144911,0.00125962
0.412822,-0.158894,1.43365,-0.0269383,-0.014579,0.0017758
0.394406,-0.10506300000000002,1.49038,-0.027077499999999997,-0.014726,0.00132921
0.393664,-0.0714292,1.4720600000000001,-0.027654500000000002,-0.014193299999999999,0.00124934
0.400696,-0.109802,1.4956399999999999,-0.027973,-0.0144481,0.00124934
0.393832,-0.046209,1.4957,-0.027696,-0.014329699999999999,0.00102673
0.402775,-0.140511,1.51004,-0.027801,-0.014578200000000001,0.000873811
0.376655,0.040105800000000004,1.48348,-0.0275373,-0.0139368,0.000670138
0.36684,-0.119223,1.47432,-0.028569900000000002,-0.0132838,0.000848592
0.327751,0.15192999999999998,1.4265,-0.0291584,-0.0115115,0.0011658
0.347893,0.0418496,1.45985,-0.029232499999999998,-0.0122646,0.0008701419999999999
0.359998,0.0647446,1.35731,-0.026654200000000003,-0.0131209,0.000498168
0.373462,-0.06029119999999999,1.37852,-0.0282079,-0.013496000000000001,9.54282e-05
0.37335799999999997,-0.0720026,1.40583,-0.0277214,-0.013256899999999999,-3.55566e-05
0.38571300000000003,-0.101355,1.28823,-0.026699200000000003,-0.0132507,0.00048433
0.38056999999999996,0.0124495,1.43521,-0.0274959,-0.013444799999999998,0.00040690699999999997
0.401765,-0.147172,1.26347,-0.026400299999999998,-0.0135201,0.00071639
0.40478400000000003,-0.0208024,1.43836,-0.027541700000000002,-0.013660399999999998,0.000303783
0.41600200000000004,-0.0687958,1.28945,-0.0267586,-0.013908199999999999,0.00105853
0.4047,-0.11536500000000001,1.3608200000000001,-0.027334300000000002,-0.013623699999999999,0.00105853
0.404362,-0.034933,1.40468,-0.027701099999999996,-0.0133891,0.000678219
0.407458,0.00820414,1.3194,-0.025919900000000003,-0.013887799999999999,0.000979425
0.404426,-0.175655,1.39448,-0.0278971,-0.013430700000000002,0.0006277219999999999
0.405028,-0.08723029999999997,1.42408,-0.0276323,-0.013887799999999999,0.00091414
0.424079,-0.10491500000000001,1.39355,-0.026807799999999996,-0.013358799999999999,0.00135981
0.42854799999999993,-0.195392,1.47394,-0.0282744,-0.014091200000000003,0.00105853
0.41217200000000004,-0.0384364,1.47068,-0.028032400000000002,-0.0139078,0.0016934
0.421704,-0.180293,1.45783,-0.028887400000000004,-0.0133185,0.0015632
0.4333,-0.0226365,1.4572100000000001,-0.028703899999999997,-0.013672700000000001,0.00173401
0.454604,-0.153473,1.54487,-0.0287851,-0.014117700000000002,0.00160911
0.43535100000000004,-0.00527002,1.60456,-0.0294675,-0.0140114,0.00118865
0.441875,-0.177726,1.47876,-0.029047900000000005,-0.0146059,0.00152011
0.41759399999999997,-0.08770889999999999,1.56846,-0.030169099999999997,-0.014131200000000002,0.00134492
0.418682,-0.0973475,1.58762,-0.0302093,-0.014161799999999999,0.0012771700000000006
0.38745799999999997,0.26143099999999997,1.7365700000000002,-0.029513,-0.0138946,0.00165347
0.371342,-0.208077,1.72397,-0.0309462,-0.01321,0.00254918
0.398776,-0.264896,1.7589,-0.029979000000000002,-0.013914099999999999,0.0013482600000000006
0.397575,-0.11829300000000001,1.7180400000000002,-0.032296899999999996,-0.013198500000000002,0.0006329490000000001
0.372535,-0.00162098,1.55287,-0.0318769,-0.0109265,0.000520863
0.36199899999999996,0.0300519,1.60299,-0.0324676,-0.0108512,0.00034497
0.383864,0.153581,1.6854900000000002,-0.0320305,-0.0119056,0.00043789999999999996
0.407516,0.119896,1.57976,-0.028977,-0.012640799999999999,0.00144477
0.42017200000000005,-0.0896528,1.6966400000000001,-0.0314176,-0.0127096,0.00105995
0.428839,0.017141999999999998,1.60704,-0.0299935,-0.0128434,0.0008657039999999999
0.441234,-0.130461,1.66727,-0.031202499999999998,-0.0134708,0.00114617
0.44347200000000003,-0.0361977,1.76868,-0.0310591,-0.013384100000000001,0.00147029
0.436645,-0.10535499999999999,1.6622299999999999,-0.0294813,-0.013419299999999999,0.00158164
0.455787,-0.17849699999999996,1.7843799999999999,-0.0315865,-0.013711000000000001,0.00128448
0.45843500000000004,-0.0516543,1.65268,-0.029210900000000005,-0.0135014,0.00174666
0.468807,-0.20867399999999997,1.79519,-0.0314056,-0.0139887,0.00134156
0.46921599999999997,0.00526668,1.7358,-0.030655099999999998,-0.0141596,0.00159934
0.455205,-0.10156699999999999,1.7281799999999998,-0.0309887,-0.013546100000000002,0.00135473
0.466258,0.0116572,1.8228799999999998,-0.0314051,-0.013940200000000002,0.00126058
0.469351,-0.0189612,1.7401099999999998,-0.0301385,-0.0142916,0.0016472000000000001
0.477675,-0.143581,1.76594,-0.031057799999999997,-0.0142916,0.0016472000000000001
0.506069,0.035963999999999996,1.73587,-0.029046600000000002,-0.0142916,0.00266659
0.47763999999999995,-0.188872,1.7710400000000002,-0.0305868,-0.014509200000000002,0.00156598
0.494158,-0.147645,1.8275700000000001,-0.0298106,-0.015328799999999998,0.00205722
0.506447,-0.163628,1.8277299999999999,-0.0299302,-0.014972899999999999,0.00161862
0.503683,-0.0588102,1.88857,-0.0308334,-0.0150086,0.00146609
0.512504,-0.113043,1.88035,-0.0296034,-0.0150382,0.00185984
0.504835,-0.159271,1.87652,-0.030754200000000002,-0.015173599999999999,0.00185276
0.494651,-0.031065,1.88147,-0.031771600000000004,-0.014760599999999999,0.00184054
0.459897,-0.098763,1.8440299999999998,-0.032856800000000005,-0.0130959,0.00128346
0.42569799999999997,0.09345410000000001,1.8361299999999998,-0.033049300000000004,-0.012371700000000001,0.000967706
0.44298999999999994,-0.07637979999999997,1.8289400000000002,-0.0325696,-0.0124105,0.000549227
0.440324,0.048987699999999995,1.84916,-0.0328577,-0.0127917,0.000291083
0.42148800000000003,-0.061629199999999995,1.81413,-0.0336716,-0.0118229,0.000443285
0.35698,0.08226239999999999,1.6861099999999998,-0.0351483,-0.00940781,9.732049999999999e-05
0.382398,-0.0154545,1.66618,-0.0346965,-0.0106505,5.38557e-05
0.40894400000000003,0.145862,1.61277,-0.030503199999999998,-0.011834200000000001,0.00063766
0.42558500000000005,-0.076645,1.63952,-0.0319601,-0.011826799999999998,0.000652325
0.43800100000000003,0.06755650000000002,1.67944,-0.0324572,-0.011781999999999999,0.00100433
0.441413,-0.09023880000000001,1.6754,-0.032775599999999995,-0.011873700000000001,0.00101653
0.437366,0.08265360000000001,1.84047,-0.033794199999999996,-0.012118,0.00103383
0.43701899999999994,-0.00519139,1.74433,-0.0318976,-0.011873700000000001,0.00163449
0.43770299999999995,0.0221953,1.8961700000000001,-0.033944800000000004,-0.012349700000000005,0.000993518
0.431385,0.07714899999999998,1.88247,-0.0345677,-0.011873700000000001,0.000594335
0.438062,-0.08015739999999999,1.7802799999999999,-0.0342342,-0.0126038,0.000665655
0.43810200000000005,0.08238489999999997,1.9011,-0.034668300000000006,-0.012629000000000001,0.000538626
0.436558,-0.021047999999999997,1.88126,-0.0347,-0.012965299999999999,0.0006745680000000001
0.45155100000000004,-0.11817799999999999,1.8707599999999998,-0.0340909,-0.0134408,0.000588491
0.447546,0.020468200000000002,1.9238,-0.034787599999999995,-0.013770600000000001,0.000376637
0.437857,-0.08699950000000001,1.8345099999999999,-0.034426,-0.013844899999999999,0.000289018
0.458883,-0.08770899999999998,1.7571400000000001,-0.0335645,-0.0138719,0.000605945
0.447982,0.039147,1.86538,-0.0336773,-0.013661500000000002,0.00067138
0.45401499999999995,0.00232019,1.9295,-0.0345564,-0.0140469,0.0007308599999999997
0.470237,-0.0875125,1.8481400000000001,-0.0337467,-0.014547999999999998,0.00131293
0.46717700000000006,-0.011977400000000001,1.92933,-0.034105300000000005,-0.0140157,0.0008930729999999998
0.476221,-0.0597472,1.94825,-0.0338442,-0.013906300000000005,0.0011169900000000002
0.459608,0.0401166,1.8879599999999999,-0.0323234,-0.0137048,0.00112686
0.457214,-0.15926099999999999,1.8016299999999998,-0.0342376,-0.013398599999999998,0.00149574
0.45131800000000005,-0.070674,1.8113400000000002,-0.0353077,-0.013318200000000002,0.00152201
0.466136,-0.0324724,1.78361,-0.0340595,-0.013617500000000001,0.00170754
0.457049,-0.10181,1.62612,-0.0323148,-0.013326499999999998,0.00187099
0.47046000000000004,-0.14870999999999998,1.63614,-0.0308836,-0.0136724,0.00173592
0.457721,0.052648900000000005,1.73259,-0.0322654,-0.0137477,0.00174636
0.443308,-0.0975665,1.686,-0.0313022,-0.0134041,0.00161795
0.442272,0.0841636,1.73387,-0.0314207,-0.0132654,0.00138895
0.45120200000000005,-0.07385329999999997,1.71192,-0.0310727,-0.013704599999999999,0.00132658
0.430878,0.0648436,1.6532799999999999,-0.029432999999999997,-0.013558700000000005,0.00120264
0.450883,-0.0428806,1.7379,-0.030615800000000002,-0.0135226,0.00120264
0.425149,0.0292466,1.73206,-0.0309906,-0.0133958,0.00120264
0.465967,-0.141713,1.7263700000000002,-0.031090100000000002,-0.0137974,0.00120264
0.43447299999999994,0.0718169,1.80655,-0.0314072,-0.013518700000000002,0.00120264
0.45416599999999996,-0.09998380000000001,1.75161,-0.0314151,-0.013465200000000002,0.00160361
0.462794,0.0445847,1.8164099999999999,-0.0313806,-0.0138882,0.0014822000000000001
0.47451400000000005,-0.141215,1.73013,-0.030737599999999997,-0.014227100000000001,0.00178697
0.449271,0.051436,1.83007,-0.0318082,-0.014227100000000001,0.0013877000000000002
0.45428100000000005,-0.017228099999999996,1.8396400000000002,-0.0320442,-0.0141304,0.00139019
0.475163,-0.08779149999999998,1.77224,-0.0317216,-0.014644599999999999,0.0012592
0.46926899999999994,-0.0171034,1.84845,-0.0315181,-0.0144768,0.00132377
0.45098999999999995,-0.0144799,1.76699,-0.031772800000000004,-0.014708700000000002,0.00112767
0.470055,-0.0836924,1.83315,-0.0325845,-0.0147088,0.000863406
0.46778800000000004,0.09763689999999998,1.8056400000000001,-0.0315972,-0.014566899999999999,0.00106162
0.47746000000000005,-0.15795399999999998,1.84422,-0.0321337,-0.0148929,0.00120224
0.46993599999999996,0.051517499999999994,1.9297900000000001,-0.0329347,-0.0148447,0.00109812
0.477883,-0.0792298,1.8134,-0.0315221,-0.015219700000000001,0.00121018
0.476929,-0.0721525,1.89264,-0.0330828,-0.0146392,0.000942043
0.47463599999999995,0.013547700000000001,1.93154,-0.03265440000000001,-0.0150105,0.000942043
0.47375,-0.0553864,1.8237,-0.031217400000000003,-0.0140623,0.00134239
0.426989,-0.0523514,1.81781,-0.0341161,-0.012387299999999999,0.00133023
0.410218,0.0703725,1.71616,-0.034296,-0.0116683,0.0017768
0.41333400000000003,0.122726,1.7932299999999999,-0.0339016,-0.012280500000000001,0.00104162
0.42362,0.022627,1.79508,-0.033178,-0.0130787,0.0007825809999999999
0.427138,0.064136,1.8455,-0.033289400000000004,-0.0131589,0.000319911
0.42446300000000003,0.0236173,1.81539,-0.0335715,-0.013339199999999999,8.23774e-05
0.435429,0.11231400000000001,1.88917,-0.0343005,-0.013922200000000001,5.91025e-05
0.44251,-0.0121169,1.87979,-0.0346241,-0.013877500000000001,0.000261332
0.434212,0.22042899999999999,1.90905,-0.0318575,-0.0137387,0.00037623199999999994
0.454712,-0.025779200000000002,1.74089,-0.0306655,-0.013941299999999998,0.000982674
0.43067799999999995,0.132931,1.91888,-0.0308901,-0.013941299999999998,0.000181717
0.45255,-0.12288199999999999,1.75275,-0.0304863,-0.014129,0.000442611
0.455298,0.0992792,1.85448,-0.031085599999999998,-0.014358700000000002,0.000130309
0.45458699999999996,0.00781615,1.77885,-0.0300493,-0.013941299999999998,0.000157401
0.458665,-0.042891399999999996,1.8949799999999999,-0.031335400000000006,-0.014017000000000005,5.0531499999999996e-05
0.452038,0.10028200000000001,1.90726,-0.0305723,-0.0140256,5.0531599999999996e-05
0.461241,0.0328649,1.81712,-0.030835700000000004,-0.0139099,0.000191825
0.454589,0.11635400000000005,1.9363599999999999,-0.0316236,-0.0139215,-3.54863e-07
0.464592,0.08821719999999998,1.86927,-0.029995599999999997,-0.0140335,0.000206928
0.457242,-0.0104508,1.91987,-0.0316868,-0.013716200000000001,-0.000262177
0.449808,0.05907280000000001,1.8403,-0.031100700000000002,-0.013936099999999998,4.5206899999999996e-05
0.45557200000000003,-0.0126585,1.9356900000000001,-0.030454400000000003,-0.0137924,-0.00043817199999999996
0.451308,0.023521,1.92967,-0.030738599999999998,-0.014120500000000001,-0.00033273900000000003
0.447425,-0.0622568,1.8725,-0.0319741,-0.014902799999999999,-0.000669177
0.446984,0.00144853,1.9504099999999998,-0.0319979,-0.0144583,-0.00038579300000000005
0.46703599999999995,0.0215418,1.85857,-0.0300226,-0.014353,0.00031041
0.453664,-0.0735337,1.86568,-0.0303784,-0.0145326,-0.00010905399999999999
0.46022399999999997,0.0796202,1.95587,-0.0314273,-0.014342700000000002,-0.00038579300000000005
0.46416499999999994,-0.00228002,1.94503,-0.031104000000000003,-0.0144262,-0.00038579300000000005
0.46706099999999995,-0.0451865,1.94488,-0.0325564,-0.014754,-0.00038579300000000005
0.44434700000000005,0.0911146,1.92753,-0.034029000000000004,-0.013815899999999999,-0.000295519
0.42388400000000004,0.00998043,1.6711200000000002,-0.036327899999999996,-0.012571899999999999,0.00104081
0.363174,0.21097600000000002,1.67097,-0.034916699999999995,-0.0119829,0.00145907
0.367564,0.048771800000000004,1.6487599999999998,-0.0333015,-0.0118286,0.00178111
0.358928,0.185565,1.7341099999999998,-0.0338154,-0.012044299999999999,0.0013215900000000005
0.37212399999999995,0.08829479999999999,1.7268700000000001,-0.0338186,-0.0121285,0.0013215900000000005
0.38243,0.08692959999999998,1.7453,-0.0346099,-0.012044299999999999,0.00121047
0.361249,0.170762,1.70885,-0.0345469,-0.012044299999999999,0.0009014089999999999
0.39019699999999996,0.156427,1.61795,-0.0297342,-0.012554899999999999,0.000982791
0.361734,0.152169,1.50914,-0.028243200000000003,-0.0124384,0.000781522
0.37545300000000004,0.20089200000000002,1.52768,-0.0273635,-0.0120293,0.00123375
0.368438,-0.0324446,1.47148,-0.0269,-0.0115725,0.000654504
0.380248,0.0663842,1.6949299999999998,-0.0295589,-0.012128700000000001,0.000424635
0.398046,0.144501,1.6078,-0.027506,-0.012486200000000001,0.00100274
0.41798900000000005,-0.0372559,1.73213,-0.0289492,-0.0129349,0.00061185
0.40589200000000003,0.113581,1.73186,-0.029471499999999998,-0.012723100000000001,0.000626074
0.43254,0.154504,1.5669,-0.025445500000000003,-0.0126793,0.00194528
0.42610600000000004,0.0160702,1.7152599999999998,-0.0284606,-0.012893000000000005,0.00115841
0.44304,0.180016,1.6362299999999999,-0.026632,-0.0132786,0.00198968
0.44462399999999996,0.0502304,1.7387599999999999,-0.0276001,-0.013431499999999999,0.00131071
0.42787,0.09107180000000001,1.76937,-0.029163799999999997,-0.012836400000000001,0.00122102
0.42584399999999994,0.06602330000000001,1.6877400000000002,-0.027204000000000002,-0.0133234,0.00118953
0.434913,0.011129300000000002,1.79405,-0.029546,-0.0132452,0.000490662
0.428017,0.143294,1.80204,-0.0285689,-0.0132452,0.000490662
0.433342,-0.0631589,1.6901700000000002,-0.027763599999999996,-0.013933000000000001,0.00057566
0.437353,0.14816500000000002,1.76203,-0.0271851,-0.0141701,0.000846288
0.449158,-0.0649433,1.7498900000000002,-0.0275375,-0.014310900000000001,0.00104733
0.44015699999999996,0.0961162,1.85333,-0.028776999999999997,-0.0138446,0.000490662
0.45576099999999997,0.0976194,1.72585,-0.0260772,-0.0137561,0.000701815
0.43781899999999996,0.021074900000000004,1.8132099999999998,-0.030171800000000002,-0.0140273,0.000321906
0.44285699999999995,-0.0250963,1.66441,-0.0323796,-0.0137399,5.59026e-07
0.417656,-0.0789866,1.7755599999999998,-0.0324035,-0.0127359,-0.0008240609999999997
0.387393,0.040824599999999996,1.82613,-0.0323276,-0.012014200000000001,-0.0008095439999999999
0.385621,0.0462898,1.7968,-0.0321057,-0.011916800000000005,-0.000354143
0.393938,0.04548819999999999,1.8175400000000002,-0.0326284,-0.0121554,-0.0007475859999999997
0.39214099999999996,0.166864,1.8259299999999998,-0.0323272,-0.0122722,-0.00057781
0.416969,-0.0632012,1.82591,-0.031919499999999996,-0.0130363,-0.00014981600000000002
0.413963,0.162186,1.85658,-0.031708299999999995,-0.0130047,-0.0005615630000000001
0.43003800000000003,0.060247,1.6709900000000002,-0.026378199999999997,-0.0126595,0.000964464
0.45388,-0.0225648,1.7945200000000001,-0.0288847,-0.0138476,0.000380146
0.453866,0.07771129999999997,1.7137799999999999,-0.027823,-0.013750100000000001,0.000726038
0.465264,-0.041859600000000004,1.6764599999999998,-0.02825,-0.0140536,0.000980447
0.45397,0.17394,1.8589900000000001,-0.0296935,-0.013841899999999999,0.000792391
0.456818,0.062351800000000006,1.7747700000000002,-0.0310154,-0.0138048,0.000792391
0.47467,-0.0225993,1.8478,-0.031021499999999997,-0.0142058,0.000419069
0.450092,0.14157899999999998,1.8074400000000002,-0.0316046,-0.014176900000000001,0.000110294
0.475253,-0.0175329,1.88032,-0.0315027,-0.014618,0.000110294
0.44850200000000007,0.172403,1.8803,-0.030885500000000003,-0.014618,0.000110294
0.475022,-0.05607859999999999,1.80515,-0.030439499999999998,-0.0144781,0.000635434
0.468466,0.133709,1.91503,-0.0308097,-0.014618,0.000635434
0.482023,0.0161087,1.89356,-0.030811900000000003,-0.0144787,0.00041170599999999996
0.50443,0.0118738,1.81525,-0.0299777,-0.0150697,0.0007149610000000001
0.48516499999999996,0.08989429999999997,1.9237799999999998,-0.030534699999999998,-0.014896200000000002,0.000266019
0.484734,0.0241106,1.87455,-0.030245400000000002,-0.0152035,0.000166521
0.49581000000000003,0.0644414,1.9924,-0.0309861,-0.015346200000000003,-0.00010278
0.5047050000000001,0.07738010000000001,1.85275,-0.0301575,-0.015263399999999998,-2.33431e-05
0.5063340000000001,0.0656396,1.96823,-0.031273300000000004,-0.016189099999999998,-0.000442723
0.510417,0.118486,1.9447900000000002,-0.031501999999999995,-0.0159527,-0.00025666400000000003
0.520121,-0.0412195,1.8097299999999998,-0.030852499999999998,-0.016189099999999998,-0.000544533
0.47626499999999994,0.026309500000000003,1.85215,-0.0321942,-0.01475,-0.000313687
0.463631,-0.09945269999999999,1.7124,-0.033925,-0.0135999,-8.429469999999997e-05
0.436821,0.07235719999999997,1.6846,-0.0345076,-0.0124725,0.0006619
0.39719,0.111865,1.43983,-0.0350835,-0.0107214,0.00099143
0.369647,0.22031399999999998,1.5931600000000001,-0.0340776,-0.0111823,0.000541861
0.313264,0.488962,1.8000200000000002,-0.031539,-0.0105581,0.00104602
0.31932699999999997,-0.0182405,1.6825700000000001,-0.0329855,-0.010127500000000001,0.00104602
0.337717,-0.00162128,1.61486,-0.0332075,-0.010127500000000001,0.00104602
0.340969,0.27563899999999997,1.59254,-0.0301427,-0.0109644,0.00104602
0.41579399999999994,0.14033299999999999,1.4275000000000002,-0.027906900000000002,-0.012807599999999999,0.0019459
0.40962600000000005,0.0967067,1.56956,-0.0295632,-0.012863299999999998,0.00104602
0.4142,0.281532,1.54865,-0.0289957,-0.0134132,0.000785503
0.431961,0.134546,1.62606,-0.029111200000000004,-0.013721700000000002,0.0007205489999999999
0.427267,0.2574,1.66963,-0.029527299999999996,-0.0138298,0.000669004
0.43895,0.199049,1.55508,-0.025904000000000003,-0.0138928,0.0010392
0.432108,0.09731010000000001,1.6601599999999999,-0.028642400000000002,-0.0138298,-4.21413e-05
0.446024,0.21605700000000003,1.6553200000000001,-0.0272095,-0.014243299999999999,0.00033409199999999997
0.44604099999999997,0.055853099999999996,1.6813799999999999,-0.028242200000000002,-0.014243299999999999,0.000311489
0.452295,0.197515,1.6269799999999999,-0.026118000000000002,-0.0146815,0.000268886
0.41751400000000005,0.10763299999999999,1.61903,-0.027665699999999998,-0.014181899999999999,-0.00089557
0.44777700000000004,0.198177,1.65025,-0.026167799999999998,-0.0146185,-0.000194122
0.471188,0.0722556,1.7133099999999999,-0.027148099999999998,-0.015531200000000002,-0.00024130099999999997
0.46196000000000004,0.150082,1.7891400000000002,-0.027766500000000003,-0.015593700000000002,-0.00020532599999999998
0.46221599999999996,0.24417600000000003,1.73813,-0.027853199999999998,-0.0157077,-4.02471e-05
0.47048999999999996,0.06602539999999998,1.67425,-0.0286241,-0.015142,-8.231009999999997e-05
0.460653,0.177398,1.80781,-0.029426400000000002,-0.014823699999999999,4.92896e-05
0.462131,0.17849699999999996,1.78741,-0.028938299999999997,-0.015570600000000002,0.000509218
0.483109,0.0429728,1.82473,-0.0308233,-0.0153525,0.000603378
0.476696,0.231618,1.8760700000000001,-0.030420999999999997,-0.0153732,0.000603378
0.464923,0.0237023,1.83093,-0.0298658,-0.014819799999999998,0.000603378
0.419732,-0.0179108,1.64735,-0.029916599999999998,-0.0138042,0.000603379
0.415812,0.03523130000000001,1.6455099999999998,-0.0310691,-0.0128054,0.000622265
0.402547,0.237722,1.64552,-0.0305222,-0.0126437,0.00139245
0.406541,0.08713279999999997,1.64123,-0.030706999999999998,-0.013006499999999999,0.00109836
0.390377,0.303193,1.72175,-0.0312492,-0.013350799999999998,0.0008975059999999998
0.39853299999999997,-0.010473399999999999,1.7015,-0.0313736,-0.0132137,0.00114226
0.39017199999999996,0.204631,1.7075,-0.0309046,-0.0132137,0.000963161
0.410517,0.044611000000000005,1.71213,-0.0308686,-0.0134704,0.0008799069999999998
0.406433,0.247844,1.6492200000000001,-0.028532099999999998,-0.0132137,0.00122038
0.438935,0.0133156,1.67989,-0.029981999999999998,-0.0139279,0.0012027000000000001
0.426803,0.191581,1.7369599999999998,-0.0298405,-0.0139793,0.0009534210000000001
0.442558,0.0889298,1.60885,-0.0282904,-0.0146204,0.0008254289999999999
0.439503,0.178349,1.73948,-0.0299221,-0.0144489,0.000673616
0.43724700000000005,0.15548299999999998,1.73197,-0.030801299999999997,-0.014394999999999998,0.0008766559999999999
0.456153,0.144178,1.7035099999999999,-0.030021499999999996,-0.014937100000000002,0.0009534220000000002
0.47108599999999995,0.06853989999999999,1.79062,-0.030633999999999998,-0.015530100000000002,0.00105059
0.47062,0.166265,1.77003,-0.030770699999999998,-0.015228100000000001,0.00162338
0.47097,0.0493351,1.8344099999999999,-0.0308852,-0.015438499999999999,0.00134865
0.45690299999999995,0.166103,1.83457,-0.031430099999999996,-0.0151859,0.00134244
0.47089200000000003,0.0866527,1.7165599999999999,-0.0307024,-0.0153824,0.00147412
0.49614899999999995,0.0770512,1.8245900000000002,-0.0314976,-0.0156373,0.00166201
0.47451800000000005,0.162356,1.8018900000000002,-0.0314898,-0.015324100000000002,0.00171884
0.479497,0.0298671,1.82654,-0.0316567,-0.0157032,0.00133779
0.475304,0.164553,1.8896700000000002,-0.0319089,-0.0158144,0.0011834800000000006
0.47612600000000005,0.050069499999999996,1.79234,-0.032498700000000005,-0.0162986,0.0013770999999999998
0.47971800000000003,0.0714951,1.83643,-0.0321126,-0.0162986,0.00095194
0.475408,0.172505,1.7903799999999999,-0.031520400000000004,-0.0158797,0.00116804
0.519022,0.0481853,1.87748,-0.0317869,-0.0174231,0.00169485
0.482754,0.202959,1.84684,-0.0320882,-0.0170201,0.00155857
0.46015200000000006,0.06643710000000001,1.78475,-0.031232,-0.016348400000000003,0.00136097
0.43233299999999997,0.0397268,1.72508,-0.03038,-0.014831200000000001,0.00155578
0.434137,0.062380200000000004,1.67145,-0.0321163,-0.015069999999999998,0.00204122
0.443605,0.00358632,1.75987,-0.0330375,-0.015760299999999998,0.0015978
0.420666,0.238911,1.8085799999999999,-0.0331589,-0.0152641,0.00148646
0.420653,0.08390779999999999,1.7586,-0.033161,-0.0152641,0.00131248
0.429933,0.203465,1.82093,-0.0330798,-0.015394799999999998,0.0007885429999999997
0.4512,0.0985474,1.78305,-0.032780699999999996,-0.0160927,0.00104592
0.448064,0.231967,1.8441400000000001,-0.0325862,-0.0163804,0.000651819
0.451517,0.106057,1.6759,-0.028241900000000004,-0.0162306,0.00145841
0.450955,0.119279,1.79098,-0.0313582,-0.015956799999999997,0.00104592
0.45043199999999994,0.03598780000000001,1.8097599999999998,-0.0318967,-0.0156956,0.0005090030000000001
0.458138,0.11068900000000001,1.7611400000000001,-0.030802,-0.0171082,0.0013294400000000005
0.484839,0.053764599999999996,1.8769999999999998,-0.0319963,-0.0175849,0.00104592
0.467246,0.198692,1.90209,-0.0322336,-0.0171082,0.000872147
0.49610699999999996,0.0274676,1.6944400000000002,-0.0307395,-0.017168700000000002,0.00151154
0.48473999999999995,0.156372,1.83732,-0.0316204,-0.0175182,0.0007398669999999997
0.47313599999999995,-0.0030203000000000005,1.75235,-0.0318583,-0.0183077,0.000582452
0.46353900000000003,0.166165,1.9083599999999998,-0.032208,-0.017999399999999995,0.000164666
0.455089,0.0871175,1.72301,-0.029704599999999998,-0.017603599999999997,4.36987e-05
0.48026,0.0134455,1.8429099999999998,-0.0313615,-0.0181644,0.000301845
0.483126,0.111329,1.7482,-0.0302531,-0.0185119,0.000628269
0.484025,-0.0723143,1.82045,-0.0305639,-0.018986000000000003,0.000420219
0.494825,0.136102,1.79493,-0.0298025,-0.0195279,0.00105519
0.476137,-0.00991402,1.87756,-0.0312018,-0.0195468,0.000223705
0.484671,0.202441,1.92198,-0.031824700000000004,-0.019404499999999998,8.436459999999998e-05
0.502206,0.00429039,1.79568,-0.031105400000000002,-0.019528599999999997,0.000624682
0.507467,0.136714,1.9701400000000002,-0.0325401,-0.0199107,0.000224094
0.492162,0.126979,2.0110900000000003,-0.0326718,-0.0201246,0.00020204099999999997
0.465264,0.046039300000000005,1.72615,-0.0310622,-0.018272200000000002,1.5466699999999995e-05
0.451773,-0.0702233,1.6755,-0.0333807,-0.017959799999999998,-9.78075e-05
0.423993,0.00965665,1.61684,-0.0336608,-0.015673099999999995,0.00035749199999999994
0.41286000000000006,-0.0435781,1.5359,-0.0324143,-0.015470600000000001,0.000130588
0.428213,0.012251,1.6535099999999998,-0.0329596,-0.016406099999999996,0.000505184
0.428379,0.0872685,1.6156,-0.0325861,-0.0164868,0.000505184
0.46352899999999997,-0.0413327,1.63496,-0.0316689,-0.016356899999999997,0.000505184
0.426832,0.279905,1.8180900000000002,-0.0322233,-0.0148969,0.0011296
0.387508,0.516161,1.94508,-0.030200599999999998,-0.014502100000000002,0.0008585760000000001
0.423839,-0.0457164,1.9100099999999998,-0.029751299999999998,-0.0148969,0.00143116
0.431093,0.145763,1.70229,-0.027169,-0.0157208,0.00100659
0.44266000000000005,0.0839404,1.74718,-0.0273395,-0.016691499999999998,0.00118831
0.45590299999999995,-0.0403098,1.67704,-0.028504900000000003,-0.0163395,0.000458025
0.465764,0.0583106,1.64565,-0.0276418,-0.017142399999999995,0.000458024
0.475826,0.102353,1.7527700000000002,-0.0288851,-0.018082900000000002,0.000750887
0.481965,0.110957,1.7706,-0.0288368,-0.018614099999999998,0.000480994
0.49706999999999996,0.183256,1.77068,-0.029297900000000005,-0.0185273,0.000764875
0.506506,0.125824,1.72278,-0.0287718,-0.0188123,0.000990504
0.501666,0.08385399999999997,1.8447799999999999,-0.028793700000000002,-0.0189931,0.000884515
0.50048,0.19253299999999998,1.86444,-0.028968400000000002,-0.018658900000000003,0.0011803
0.518879,-0.00145511,1.7740799999999999,-0.028878700000000004,-0.0183795,0.00143637
0.50927,0.0420611,1.90657,-0.030168,-0.0189993,0.00104541
0.525682,-0.10019299999999999,1.82045,-0.0308084,-0.0183204,0.000501562
0.5307109999999999,-0.00578652,1.9596900000000002,-0.0314522,-0.0183795,0.00104814
0.520983,0.13526400000000002,1.99446,-0.0316505,-0.0184093,0.0008786869999999997
0.527184,-0.015663999999999997,1.8567900000000002,-0.031727899999999996,-0.017957899999999995,0.0006722160000000001
0.523147,-0.06590069999999999,1.9033,-0.0320739,-0.0173874,0.000191313
0.524783,0.10838699999999998,1.91451,-0.0317902,-0.017836900000000003,0.000317005
0.527153,0.0247255,1.9194099999999998,-0.032538599999999994,-0.0179683,-7.90115e-05
0.518514,0.183738,1.92355,-0.031491700000000004,-0.017224,0.00011621
0.48418599999999995,-0.0617212,1.87854,-0.0307863,-0.015508500000000001,-0.00013485700000000005
0.47429399999999994,0.06524450000000001,1.9325900000000003,-0.0315932,-0.0160901,-0.00138675
0.5030020000000001,-0.0598559,1.93481,-0.0316235,-0.016886099999999998,-0.00133003
0.508208,0.014554399999999999,1.9315,-0.0320799,-0.0170043,-0.00116692
0.511339,0.0419091,1.92927,-0.0324691,-0.016666900000000002,-0.0013450100000000006
0.507568,0.1283,1.94255,-0.0321092,-0.016779599999999995,-0.0013450100000000006
0.5125460000000001,0.0172686,1.9182599999999999,-0.032173,-0.0176726,-0.00114486
0.50408,0.19329100000000002,1.9569999999999999,-0.0325262,-0.0174827,-0.0008981059999999998
0.5232640000000001,-0.0276974,1.9564400000000002,-0.0321642,-0.017537299999999995,-0.00044179
0.517251,0.0534602,1.85939,-0.0297764,-0.017523,-0.00044179
0.504553,-0.0165633,1.91487,-0.0317607,-0.0174062,-0.0010949000000000002
0.5045470000000001,0.07125210000000001,1.9587599999999998,-0.0313344,-0.0174101,-0.0008884339999999999
0.536666,-0.07898199999999997,1.88268,-0.0317147,-0.0184023,-0.00034193699999999995
0.527155,0.09067810000000001,1.9997099999999999,-0.031936200000000005,-0.0181291,-0.000413131
0.527321,-0.00139879,2.01681,-0.0315243,-0.018120400000000002,-0.000341004
0.558999,0.07015060000000001,2.00487,-0.0311072,-0.0180327,0.0005144209999999999
0.553002,0.102978,2.05368,-0.0322002,-0.0186903,0.000294063
0.550614,0.0856378,1.96938,-0.0322875,-0.0179132,0.000562503
0.538103,0.0184373,2.05088,-0.033088599999999996,-0.0183791,0.000346039
0.548669,0.0973888,2.0051900000000002,-0.0331838,-0.0183013,0.000192526
0.554913,-0.0372292,2.08432,-0.0336326,-0.0188824,0.00023323099999999998
0.549914,0.039367,2.02556,-0.034089999999999995,-0.019530900000000004,-2.99081e-05
0.5527029999999999,-0.112627,2.04343,-0.034466500000000004,-0.019487599999999997,-0.00041793900000000004
0.550638,0.0786183,2.0986,-0.0343151,-0.019499900000000004,-0.0003343
0.574872,-0.0476909,2.04717,-0.033848,-0.019459099999999997,1.3036600000000002e-05
0.593449,-0.0491648,2.1231,-0.0346405,-0.020432099999999998,-0.000146665
0.566658,0.06930610000000001,2.13001,-0.0348051,-0.0200795,-0.000132271
0.581192,-0.0837228,2.00999,-0.0346051,-0.0209454,4.20166e-06
0.574172,0.0977535,2.10086,-0.033939300000000006,-0.0206126,-0.000483882
0.566241,0.023556099999999996,2.01876,-0.0333625,-0.0200878,-0.00010857899999999999
0.539291,-0.0773717,1.9446599999999998,-0.0308758,-0.017669,-0.00015629200000000001
0.481263,0.0498499,1.76541,-0.035342900000000003,-0.014901499999999998,0.00162533
0.41925100000000004,0.383612,1.86028,-0.0348085,-0.0150119,0.00222039
0.454925,0.08920789999999999,1.91008,-0.0342923,-0.015615500000000001,0.00214034
0.479171,0.26276900000000003,1.98615,-0.0342636,-0.0170576,0.00158003
0.497619,0.09503869999999999,1.99607,-0.0341582,-0.0170991,0.00139455
0.48967700000000003,0.24307199999999998,2.04928,-0.0346013,-0.017543099999999996,0.00124063
0.49626899999999996,0.09563250000000001,2.0367599999999997,-0.035100900000000004,-0.0172332,0.00130533
0.499044,0.265067,2.09035,-0.035477800000000004,-0.017728999999999998,0.00127104
0.515174,0.145807,2.01136,-0.033497000000000006,-0.0182833,0.0015452999999999999
0.5454859999999999,0.185169,2.14099,-0.03491180000000001,-0.0185707,0.00170644
0.564473,0.0904646,2.06312,-0.035310900000000006,-0.019681999999999998,0.0022600000000000003
0.5723050000000001,0.179784,2.17896,-0.035295099999999996,-0.0192954,0.00231713
0.576859,0.07981299999999998,2.11044,-0.0352776,-0.0195704,0.00250206
0.59708,0.0781721,2.22876,-0.0359465,-0.0202058,0.00261873
0.593634,0.140835,2.21657,-0.0361832,-0.0205012,0.00239964
0.600022,-0.056350199999999996,2.12465,-0.0357625,-0.021125099999999997,0.00240363
0.58178,0.167986,2.17366,-0.036153199999999996,-0.020049599999999997,0.00208757
0.6005729999999999,0.0252061,2.1202900000000002,-0.0358336,-0.020771599999999998,0.00215213
0.591,0.25352600000000003,2.24545,-0.035857,-0.0209607,0.00190043
0.5917520000000001,0.0948765,2.1005599999999998,-0.0368509,-0.0213718,0.00169318
0.59926,0.033723699999999995,2.14772,-0.0360037,-0.021549000000000002,0.00221279
0.578001,0.276819,2.25413,-0.0354174,-0.020287700000000002,0.00208091
0.569531,0.0278754,2.12342,-0.0355924,-0.0208127,0.00204454
0.5768770000000001,-0.0216875,2.19065,-0.036372800000000004,-0.0212206,0.00148421
0.5708310000000001,0.142034,2.21785,-0.0361916,-0.0206958,0.00143635
0.602442,-0.050534300000000004,2.14423,-0.035486699999999996,-0.0223155,0.00166875
0.596698,0.11799100000000001,2.24267,-0.035906,-0.0213804,0.00186299
0.5905090000000001,0.055224800000000004,2.22609,-0.035954,-0.021426,0.0018262999999999999
0.6059760000000001,0.0983043,2.16358,-0.0352597,-0.0209466,0.00194191
0.580965,0.073045,2.16626,-0.0352384,-0.0201985,0.00164873
0.549471,0.192644,2.0689599999999997,-0.034639800000000005,-0.0197434,0.00143309
0.5451819999999999,0.0825563,2.0526,-0.0340339,-0.018644400000000002,0.00189912
0.5156029999999999,0.276066,2.07918,-0.034906400000000004,-0.0184299,0.00172627
0.546251,0.0532619,2.10455,-0.0348211,-0.0193712,0.00148673
0.5399970000000001,0.179117,2.12137,-0.0349529,-0.0193386,0.00112104
0.559149,0.07570189999999999,2.14017,-0.0351963,-0.0193152,0.000889701
0.540506,0.21413600000000002,2.10797,-0.034943300000000004,-0.019332299999999997,0.00105576
0.548067,0.143646,2.0888299999999997,-0.03288819999999999,-0.0196185,0.00100242
0.5557,0.191667,1.9666400000000002,-0.0325844,-0.018147999999999997,0.0016249000000000003
0.539434,0.25284,2.12087,-0.0340421,-0.0191317,0.000621231
0.570021,0.103001,2.0777099999999997,-0.033071300000000005,-0.0195269,0.0009118660000000001
0.561288,0.0707032,2.15745,-0.0350529,-0.0200727,0.000760138
0.561314,0.134007,2.16831,-0.0341371,-0.0200727,0.000696566
0.565134,0.06831210000000001,2.08192,-0.0331531,-0.0197225,0.00122018
0.574581,0.072243,2.19877,-0.0344908,-0.019755099999999998,0.00101199
0.582893,0.0239091,2.11998,-0.0345084,-0.0194794,0.0014857000000000002
0.57539,0.0749674,2.23248,-0.0359003,-0.0198776,0.00138047
0.574063,0.054676699999999995,2.2404,-0.036165499999999996,-0.019842500000000002,0.0011349
0.585517,0.0554875,2.12355,-0.0362051,-0.0190036,0.00107063
0.566226,0.07418860000000001,2.22821,-0.0377805,-0.0193007,0.000620432
0.587335,-0.0146703,2.21524,-0.0369754,-0.0200977,0.00116595
0.620766,-0.052699199999999995,2.03702,-0.0349287,-0.019316200000000002,0.00178542
0.610587,0.0194925,2.22932,-0.0364306,-0.0195731,0.00138734
0.592182,0.0586942,2.0894,-0.035339999999999996,-0.0185178,0.0016088
0.5852930000000001,-0.05916180000000001,2.23927,-0.0375911,-0.0191496,0.000495737
0.6017,-0.0323052,2.0923,-0.036992500000000005,-0.0198746,0.000946473
0.614823,-0.0914845,2.13103,-0.0369527,-0.0193763,0.00110214
0.602499,0.08818739999999999,2.1465099999999997,-0.0351139,-0.019906,0.00127228
0.604726,-0.11667899999999999,2.16321,-0.0355463,-0.0187758,0.0011455
0.6023569999999999,0.0724559,2.22198,-0.0362469,-0.0186283,0.00158054
