0.00272578,-0.039619800000000004,-0.019397900000000003,0.000502415,-6.49291e-05,0.0
0.00272223,-0.008149679999999998,-0.0618596,0.000135751,-1.8938800000000002e-24,6.98717e-05
-0.00463005,-0.0191858,-0.015200299999999998,-0.000273435,-0.00023632099999999998,0.0
-0.00602095,0.12112300000000001,0.122679,-0.00102317,-0.00077258,0.000582233
0.0026812,-0.11341099999999998,-0.12283699999999999,-0.00158008,-0.000250879,0.000105134
0.00266078,-0.0528739,-0.10868599999999999,-0.0010264400000000002,-0.000423575,6.20968e-05
0.0156244,-0.0450903,-0.102846,-0.00242452,-0.000423575,0.0
0.00756741,0.195986,0.186184,-0.00179184,-0.00124351,0.000606615
0.016929200000000002,-0.044586,0.000554386,-0.0008568369999999999,-0.000554635,0.000382197
0.026881,-0.0574284,-0.090525,-0.0015724999999999995,-0.00048783,0.0
0.0110396,-0.0435416,-0.125817,-0.000776388,-0.000505764,0.000381846
0.00978734,0.129796,0.112327,-0.00150064,-0.00128105,0.00037019
0.0178262,-0.0883148,-0.151829,-0.00192339,-0.00036174,9.322969999999999e-05
0.013569399999999999,-0.0448133,-0.07926119999999999,-0.00177074,-0.00040794400000000004,0.000132405
0.00996082,0.0949951,0.0759457,-0.00144021,-0.00101724,0.00035465400000000004
0.0241773,-0.20043699999999998,-0.27045399999999997,-0.0018280000000000002,-0.000494655,-5.54119e-05
0.00993706,0.032305099999999996,0.000240941,-0.00258436,-0.0011691500000000005,0.00023065099999999998
0.00993647,0.0446063,0.0216136,-0.00203779,-0.00123137,5.0976499999999996e-05
0.017131099999999996,-0.0840955,-0.0876316,-0.00107363,-0.000878946,0.00013224
0.00992866,0.00636336,-0.00664491,-0.0009429919999999999,-0.000754054,0.00024136
0.01695,0.020095500000000002,-0.0334654,-0.0016253,-0.00108964,0.000229176
0.0104975,-0.12860700000000005,-0.244877,-0.00178788,-0.000878946,0.000130353
0.00444812,0.137329,0.08593669999999999,-0.00227502,-0.00145289,0.000620441
0.00728609,-0.0952457,-0.08917749999999999,-0.00269744,-0.000741474,8.74719e-05
0.007862549999999998,-0.0669453,-0.10600699999999999,-0.00258032,-0.0008310789999999998,0.0
0.00519503,0.014862700000000001,-0.0476189,-0.0022983,-0.00115793,0.00014911700000000002
0.012798899999999998,-0.019509400000000003,-0.0611183,-0.00281861,-0.000997803,0.0
0.00372131,-0.0257356,-0.0500296,-0.00226974,-0.00098547,0.00011777700000000001
-0.00393986,-0.025753500000000002,-0.0696962,-0.00235913,-0.0010220000000000001,0.00010803
-0.00392363,-0.0584091,-0.0949238,-0.00285205,-0.0009784639999999999,0.000129745
-0.00393374,-0.0352613,-0.08611039999999999,-0.00265132,-0.00114913,0.00014337200000000004
-0.00394104,0.121852,0.046444400000000004,-0.00198777,-0.00070787,0.000433137
-0.0104739,-0.0945697,-0.150003,-0.00247687,-0.00083957,4.235169999999998e-22
-0.014065799999999998,0.0348642,-0.00589752,-0.00186398,-0.00119634,0.00036188
-0.00393216,-0.0386398,-0.019823900000000002,-0.00203573,-0.00122041,0.00023019599999999998
-0.0117604,0.07507439999999999,0.06151519999999999,-0.00209267,-0.00156134,0.000468327
0.0135048,0.00150256,-0.0162986,-0.00213952,-0.000931976,0.000436509
0.015012399999999999,-0.0646549,-0.0662567,-0.00243624,-0.00116343,0.0
0.010494499999999999,0.037158699999999996,-0.00493286,-0.00246171,-0.00116361,0.00021391099999999998
0.0104884,0.0335936,-0.017600499999999998,-0.00247035,-0.0010159600000000002,0.00013039900000000004
0.00361785,0.0534314,-0.00688841,-0.00243355,-0.00145289,7.894809999999997e-05
0.010560700000000001,0.0547129,0.0112175,-0.00387771,-0.00173431,0.000269645
0.0110376,0.254213,0.244488,-0.00310457,-0.00235773,0.000979852
0.0137984,0.0677325,0.07186620000000002,-0.00293253,-0.00182279,0.000713648
0.017884200000000003,0.029038099999999997,0.0637983,-0.00283316,-0.00184915,0.000318693
0.021407,0.12376400000000005,0.139907,-0.00276042,-0.00203793,0.0007215519999999997
0.025756599999999998,0.0468336,0.08057599999999998,-0.00257613,-0.0016300000000000002,0.000658837
0.014923599999999999,0.184917,0.16262200000000002,-0.00227235,-0.00235773,0.000929782
0.0022998000000000003,0.153712,0.130686,-0.0014017,-0.00211098,0.0008884639999999999
0.0141713,0.0536535,0.0256543,-0.00147159,-0.00187314,0.000318693
0.00765903,0.132929,0.08460579999999998,-0.00191078,-0.00192354,0.000318693
0.015418200000000002,0.15645699999999998,0.07969429999999998,-0.00272657,-0.00190523,0.000129572
0.0189052,0.0738169,0.0255452,-0.00280144,-0.00190523,0.000124468
0.017703,0.200574,0.0751564,-0.00310109,-0.00243199,0.000318694
0.0237461,0.07235319999999999,0.0176274,-0.0023358,-0.00231483,0.000159544
0.0223793,0.104654,0.0568102,-0.00280144,-0.00237463,0.000318694
0.029371800000000003,0.142164,0.0804705,-0.00298677,-0.00253888,0.000318694
0.0275041,-0.0036525999999999998,-0.00133457,-0.00259716,-0.00237463,0.000318694
0.0237775,0.12453299999999999,0.067374,-0.00291997,-0.00264662,0.00040176599999999996
0.023885299999999998,0.09831720000000001,0.0915363,-0.0035271,-0.00286577,0.000318694
0.016357799999999995,0.036669099999999996,0.0697477,-0.00270311,-0.00286577,0.00054371
0.013909,0.175289,0.110614,-0.00202363,-0.00252941,0.000318694
0.00527586,0.153746,0.169321,-0.00277414,-0.00286577,0.000318694
0.00540123,0.176822,0.169164,-0.00228644,-0.00286577,0.0007386239999999999
0.00554066,0.221581,0.19984200000000002,-0.00196921,-0.00235546,0.0014234600000000005
0.02023,0.10319300000000001,0.12088900000000001,-0.00177691,-0.00204917,0.0007708210000000001
0.052984699999999996,0.07238709999999997,0.105031,-0.00147094,-0.00181275,0.00104195
0.0377593,0.204041,0.195019,-0.00210618,-0.00239118,0.00115673
0.0272579,0.172605,0.13130999999999998,-0.0014738,-0.00198078,0.0007708210000000001
0.027192700000000004,0.0687393,0.06951689999999999,-0.00176011,-0.00198038,0.000313588
0.0205681,0.210878,0.222061,-0.0019676999999999997,-0.00264063,0.000560585
0.023733599999999997,0.260631,0.271567,-0.00142943,-0.00239118,0.00060076
0.029764099999999995,0.11074500000000001,0.168402,-0.00215102,-0.00233041,0.0004043
0.029800599999999997,0.168142,0.152626,-0.00169518,-0.00205014,0.0008391360000000001
0.0300471,0.22036,0.242495,-0.00166522,-0.00256147,0.000969493
0.0230054,0.22098299999999998,0.25605,-0.0006246590000000001,-0.00239118,0.000849583
0.029826,0.116026,0.166596,-0.0010375999999999999,-0.00197965,0.000797814
0.00744061,0.311161,0.342625,-0.00131349,-0.00239118,0.00119167
0.0170205,0.146923,0.19664,-0.00228963,-0.00193824,0.000969493
0.0149328,0.259176,0.330853,-0.00191071,-0.00253251,0.00136085
0.02197,0.14811,0.165356,-0.00153442,-0.00224373,0.00154615
0.00701603,0.23594600000000002,0.269529,-0.000713008,-0.00239118,0.00179727
0.0345472,0.129547,0.151426,-0.0010583,-0.00183466,0.00120284
0.0270236,0.18626600000000001,0.180532,-0.0008768479999999997,-0.00215065,0.00108154
0.0293461,0.215525,0.182662,-0.00109136,-0.00221375,0.0009317939999999999
0.0225652,0.156131,0.177491,-0.0008561019999999998,-0.00239118,0.000775113
0.0182612,0.20548000000000002,0.196728,-0.0011814,-0.00245732,0.000931795
0.012373700000000001,0.12959400000000001,0.151806,-0.00102812,-0.00239118,0.000931795
0.0130471,0.354093,0.390341,-0.00109046,-0.00321367,0.0013987000000000001
0.014732499999999999,0.102531,0.13519500000000004,-0.00214446,-0.00238737,0.0008799339999999998
0.0126496,-0.08738739999999999,-0.156728,-0.00113238,-0.00195819,0.000625566
0.013864099999999999,0.0900442,0.0489578,-0.00247171,-0.00246452,0.000931795
0.015847999999999998,0.0524938,-0.07841439999999998,-0.00219805,-0.00210279,0.0006592719999999999
0.013115200000000002,0.0414514,-0.0702553,-0.00162407,-0.00240995,0.000714875
0.0192043,0.252628,0.179027,-0.00220691,-0.00296121,0.0008528569999999999
0.019697700000000002,-0.047267500000000004,-0.151784,-0.0013165999999999998,-0.00238038,0.0005112
0.0222,0.0971786,0.0065804,-0.000586948,-0.00248505,0.0009740139999999999
0.016087999999999998,0.169405,0.134301,-6.90179e-05,-0.00247825,0.000991547
0.016452,0.200514,0.22486199999999998,-8.5384e-05,-0.00326375,0.00121996
0.027824099999999997,0.00761341,0.0496781,-0.0007352999999999999,-0.0024393,0.0006862239999999999
0.024255900000000004,0.100802,0.128687,-0.000813404,-0.00253985,0.0007247639999999999
0.0242045,0.149896,0.15968099999999996,-0.00018868599999999998,-0.00249409,0.0010552
0.0261961,0.041804900000000006,0.045978500000000005,-0.00124748,-0.00232202,0.0007508849999999999
0.026916000000000002,0.190493,0.139585,-0.00066052,-0.00265234,0.00100135
0.0317931,0.0383897,-0.000398274,-0.00021742099999999998,-0.00215451,0.0007181760000000001
0.0232845,0.0828393,0.023721400000000004,3.90005e-05,-0.00225356,0.000640226
0.023134900000000003,0.017109700000000002,-0.180996,-0.000469056,-0.00198444,0.0005112
0.017900599999999996,0.261617,0.14441600000000002,-0.000937441,-0.0027258000000000004,0.0008955849999999998
0.0328426,0.0830085,0.061545100000000005,-0.000702907,-0.00228959,0.0010167
0.032184199999999996,-1.92495e-05,0.00743965,-0.000132293,-0.00228959,0.0008805599999999998
0.027107599999999996,0.0113928,-0.04847,-0.00060166,-0.00219127,0.000868327
0.032792400000000006,0.033479400000000006,0.0147086,-0.00117748,-0.00216916,0.000948269
0.0401583,0.0420091,0.0159447,-0.000641939,-0.00211002,0.00102065
0.0342711,0.016929800000000002,-0.0053332,-0.000101171,-0.00207317,0.00072583
0.033088400000000004,0.0467418,-0.0126087,-0.000198135,-0.00218235,0.000684335
0.0267171,0.101504,0.0364745,-0.0005762019999999999,-0.00228959,0.00101068
0.0310774,0.159816,0.10269600000000001,-0.00109786,-0.00258517,0.00110926
0.0366353,-0.035945300000000006,-0.0420597,-0.00129646,-0.0022068,0.000855457
0.027704900000000005,0.011332900000000002,-0.033561900000000006,-0.00113479,-0.00228959,0.0008248539999999998
0.0238408,0.0713819,0.0104543,-0.00121378,-0.00228959,0.0007737729999999997
0.023844,-0.0238352,-0.115229,-0.0007689049999999997,-0.0022218000000000003,0.000853267
0.0238542,0.0877342,0.021887900000000002,-0.000574176,-0.0022319,0.000958772
0.0174899,0.0503452,-0.0219958,-0.000660259,-0.00228959,0.000938167
0.0072347999999999996,0.0156359,-0.0272041,-0.00105786,-0.0024495999999999997,0.00080734
0.0133276,0.21141300000000002,0.20801,-0.000882885,-0.00300669,0.00132957
0.028101400000000002,-0.00181668,0.00167924,-0.00105786,-0.00224722,0.0009761040000000002
0.017615599999999995,0.004645799999999999,-0.00793942,-0.00131308,-0.00241206,0.0007992249999999997
0.0300101,0.0312613,-0.0365579,-0.00105786,-0.0019933,0.0009871539999999999
0.0070298,0.0395505,-0.0340383,-0.00172007,-0.00208975,0.0007992249999999997
0.0236326,0.00966807,-0.137178,-0.00124916,-0.00168533,0.0007992249999999997
0.00649158,0.235695,0.158953,-0.00203928,-0.00285206,0.00130707
0.013868100000000001,0.0195271,-0.0168233,-0.00159235,-0.00225257,0.00105844
0.0161594,0.00426134,-0.05777809999999999,-0.00124094,-0.00215352,0.00105207
0.00251662,0.22006799999999999,0.200259,-3.68435e-05,-0.00311733,0.00137039
0.0157471,-0.0298315,-0.00874098,-0.000433965,-0.00215787,0.0009990980000000001
0.0115759,0.0113758,-0.000472826,-0.00105628,-0.0021152,0.000902771
0.007073,0.108764,0.0789904,-0.0007371689999999998,-0.00252149,0.0009723760000000001
0.00987836,-0.09349589999999999,-0.214727,-0.0009436,-0.00220119,0.0007992249999999997
0.015026,0.0797562,-0.0189963,-0.0006630239999999999,-0.00259437,0.000703928
0.0148681,0.0191852,-0.09509780000000001,0.00017046900000000002,-0.00198717,0.0007992249999999997
0.014142700000000003,0.0255519,-0.0937598,0.000366237,-0.00207696,0.0007474469999999999
0.018603599999999998,0.39014499999999996,0.260024,0.000564937,-0.00252367,0.0007992249999999997
0.028185,0.0781173,0.130934,-0.000263938,-0.00198717,0.000955401
0.0276743,-0.11414,-0.0280947,-0.00117005,-0.00132574,0.00060722
0.0184072,-0.0634369,0.00441232,-0.00171092,-0.0016901,0.00038502199999999995
0.017839899999999995,-0.00150357,0.016459999999999995,-0.00203676,-0.00182382,0.000551879
0.015337200000000002,0.07016549999999999,0.023157,-0.00271817,-0.00190782,0.000609166
0.0167666,0.08255769999999997,0.0230555,-0.00222298,-0.00198717,0.000564477
0.019516,0.0824892,0.039911800000000004,-0.00248139,-0.00185522,0.0005373330000000001
0.016322299999999998,0.140323,0.0388068,-0.00294352,-0.00177136,0.000668878
0.0383615,0.12216900000000006,0.017258700000000002,-0.00146868,-0.00134772,0.00087684
0.0114104,0.0735448,0.0733032,-0.00150557,-0.00222408,0.0009200539999999999
0.00539159,0.150365,0.174764,-0.00187028,-0.00214153,0.00150969
0.011609200000000002,0.0362473,0.157398,-0.00233881,-0.00235994,0.00117419
-0.000479865,0.11333299999999999,0.19314,-0.00227337,-0.00249537,0.000869187
0.0115779,-0.013834,0.11075399999999999,-0.00233548,-0.00209897,0.000856988
0.00539807,0.259662,0.369375,-0.00381718,-0.00290012,0.00111391
0.00289199,0.138286,0.16411199999999998,-0.00374176,-0.00221684,0.000576816
0.00179997,0.177445,0.141048,-0.00352724,-0.00249537,0.000576816
0.00573601,0.27519899999999997,0.275235,-0.00445426,-0.00282359,0.0009619510000000001
0.000416144,0.237752,0.16800299999999999,-0.00329227,-0.00211197,0.00048175199999999995
0.0101957,0.22465100000000002,0.242842,-0.00235213,-0.00212785,0.0012817900000000005
-0.0120581,0.369708,0.426658,-0.00190073,-0.00257165,0.000899693
-0.0118152,0.318855,0.418026,-0.00140207,-0.00236775,0.00208047
-0.007547800000000001,0.24676700000000001,0.368742,-0.00246544,-0.00253894,0.0019607
0.00703419,0.162575,0.276068,-0.00405174,-0.0018725999999999999,0.00187526
0.00368762,0.24462199999999998,0.380479,-0.00348025,-0.00279983,0.0019607
0.00675041,0.219415,0.292619,-0.00384205,-0.00301868,0.0019607
0.00606443,0.259255,0.302612,-0.00395298,-0.00301868,0.00174925
-0.0071213000000000005,0.599842,0.701751,-0.00500096,-0.00383841,0.00155371
0.0099045,0.36230999999999997,0.492856,-0.00425453,-0.00330478,0.00193079
0.0273628,0.194672,0.315065,-0.00316454,-0.00332619,0.00174663
0.0250221,0.244483,0.324909,-0.00316454,-0.00343024,0.00168891
0.0172736,0.33065900000000004,0.388293,-0.00376743,-0.00348839,0.00163241
0.017547099999999996,0.221458,0.314625,-0.00370487,-0.00316858,0.00115705
0.00690853,0.17466099999999998,0.295199,-0.00391079,-0.00321729,0.00110688
0.0132496,0.232096,0.316915,-0.00408065,-0.00309644,0.00112577
0.00233789,0.417493,0.570761,-0.0037985999999999996,-0.0036649,0.00129884
0.0131004,0.149276,0.27332,-0.00400174,-0.00292996,0.0008447489999999999
0.0118493,-0.06385,-0.0451333,-0.0019582000000000002,-0.00283185,0.00032178700000000003
0.011541500000000001,0.28468000000000004,0.30914200000000003,-0.00308883,-0.00332485,0.000713883
0.022225599999999998,0.104073,0.110472,-0.0032948,-0.00283185,0.000234357
0.0154498,0.06200599999999999,0.08416809999999998,-0.00350135,-0.00216191,0.000610115
0.00375069,0.19573,0.17374,-0.00293643,-0.00205857,0.000495193
0.00712141,0.26927399999999996,0.27124000000000004,-0.00231522,-0.00239038,0.000743086
0.0218088,0.040164,0.0425805,-0.00409715,-0.00220962,0.0007656160000000001
0.00665031,0.130933,0.06153240000000001,-0.00382633,-0.00239038,0.0006965160000000001
0.0120589,0.08407739999999997,0.03230159999999999,-0.00346566,-0.00180071,0.000602323
-0.000270433,0.0389158,-0.0565576,-0.00273851,-0.0018292999999999998,0.0005397830000000001
0.00662919,0.0544314,-0.05528330000000001,-0.00249085,-0.00164726,0.0008056889999999997
0.00676643,0.217257,0.15253599999999998,-0.00382633,-0.00212158,0.000877595
0.012227799999999999,-0.00385677,-0.05204009999999999,-0.00254317,-0.00164726,0.00064081
0.00676198,0.188593,0.158636,-0.00212617,-0.002141,0.000637624
0.00662292,0.0667813,-0.0240541,-0.00236188,-0.00164726,0.00041258
0.0066047,-0.04005,-0.11446400000000001,-0.00196252,-0.0017059000000000002,0.000526612
0.00667606,0.18975899999999998,0.145769,-0.00229527,-0.00198388,0.000579589
0.00662292,0.05884059999999999,-0.019156299999999998,-0.00216913,-0.00164726,0.00041258
-0.00109616,0.04660569999999999,-0.00967438,-0.00232278,-0.00164726,0.00041258
0.00106102,0.269909,0.278456,-0.00183642,-0.00238606,0.00138171
0.0068369,0.0905133,0.05180119999999999,-0.00274556,-0.00153144,0.000638261
0.00369432,0.051749199999999995,0.0538064,-0.00263823,-0.00129721,0.000554911
0.0037032,0.16228800000000002,0.1312,-0.00281068,-0.00144429,0.0006899139999999999
-0.00639464,0.013884299999999999,-0.013052700000000002,-0.00292936,-0.00140381,0.000689913
-0.0127752,0.120374,0.0630966,-0.00295094,-0.00155647,0.000689913
-0.010371,0.16170199999999998,0.11763900000000001,-0.00337092,-0.00151517,0.000517784
-0.0127788,0.0411582,0.0198535,-0.00302262,-0.00147643,0.000296751
-0.0292278,0.168487,0.10961800000000001,-0.00338729,-0.00180872,0.0006899139999999999
-0.0241806,0.09215980000000001,0.0669428,-0.00335341,-0.00157011,0.000327512
-0.029193900000000002,0.07389839999999999,0.03450809999999999,-0.00306417,-0.00156071,0.00019695700000000002
-0.0232124,0.036017400000000005,-0.0523029,-0.00228589,-0.00144275,0.00025687700000000003
-0.025894900000000002,0.197483,0.12443299999999999,-0.00304632,-0.00175848,0.0007076680000000001
-0.0171574,0.060899199999999994,0.0107391,-0.00231456,-0.00175848,0.00025687700000000003
-0.0129651,-0.021442199999999998,-0.10610399999999999,-0.00282682,-0.00122355,0.000546961
-0.0119656,0.247993,0.248054,-0.00335837,-0.00216373,0.00116481
-0.0028759000000000002,0.0109476,0.00743727,-0.00310921,-0.00130803,0.000464846
-0.016196600000000002,0.09607760000000004,0.07961899999999998,-0.00333294,-0.0013441900000000005,0.000691628
-0.0162033,0.08303689999999997,0.0222003,-0.0028605,-0.00129378,0.00059726
-0.0161984,0.0935429,0.0434469,-0.00319591,-0.00150251,0.000691628
-0.00970105,0.08583259999999998,0.025752299999999995,-0.00225225,-0.0010984000000000002,0.000437139
-0.0203477,0.186304,0.141922,-0.00286085,-0.00137602,0.000691628
-0.0204179,0.08986489999999997,0.0659534,-0.00303978,-0.00127469,0.00026733400000000004
-0.0204051,0.031785,-0.007940509999999998,-0.00277187,-0.00113327,0.000327373
-0.0204261,0.12980999999999998,0.09490180000000001,-0.0024216999999999997,-0.00121887,0.00041974199999999997
-0.0203416,0.0241707,-0.08537079999999997,-0.00269132,-0.00102712,0.000258358
-0.0203805,0.101868,0.0536019,-0.00264694,-0.00134705,0.000320925
-0.0203372,0.08464729999999998,0.0447995,-0.00252939,-0.0008810759999999998,0.00031832299999999997
-0.013352000000000001,-0.000157801,-0.06844589999999999,-0.00289013,-0.00066353,0.000365115
-0.025237400000000004,0.18295799999999998,0.115139,-0.00323169,-0.00149328,0.000521104
-0.0262572,0.0676392,0.0438392,-0.00295482,-0.00110174,0.00043672199999999996
-0.010254799999999998,0.00874372,-0.038765100000000004,-0.00305596,-0.00059674,0.000258358
-0.0203428,0.09791060000000001,0.022389,-0.00328231,-0.0009267160000000001,0.000319261
-0.012857399999999998,0.053808100000000005,-0.0288406,-0.00291204,-0.0009200769999999999,0.000258358
-0.019440799999999998,0.0482958,0.00204157,-0.00339301,-0.00101499,0.000258358
-0.0232417,0.251818,0.18168399999999998,-0.00342575,-0.00152409,0.0008490139999999999
-0.0026947,0.076251,0.08204559999999997,-0.00301187,-0.000995969,0.000499153
-0.00863957,-0.0148857,0.0201206,-0.00314336,-0.00102696,0.000258358
-0.011466100000000002,0.0436752,0.0351166,-0.00319875,-0.00108348,0.000258358
-0.008646489999999998,0.0717291,0.0385125,-0.00292755,-0.00114563,0.000258358
-0.00594542,0.0894862,0.015473400000000002,-0.00281251,-0.000969272,0.00041849
0.00825234,0.09176369999999999,0.0243203,-0.00386891,-0.000485865,0.00042766699999999996
-0.00304954,0.127363,0.0834362,-0.00287037,-0.00038626,0.0007724869999999997
-0.000670111,0.10525899999999999,0.0907212,-0.00309109,0.00022618400000000002,0.000530573
-0.0114193,0.117556,0.137959,-0.00328094,-5.99471e-05,0.0006951230000000001
-0.0220015,0.164525,0.156271,-0.00342941,-0.000180805,0.0007763629999999999
-0.020361599999999997,0.033532,0.060876599999999996,-0.00400748,-0.000180805,0.000258359
-0.032761,0.20868499999999998,0.241231,-0.00404765,-0.00044839,0.000846913
-0.0363946,0.114719,0.127408,-0.0036317,-0.000180805,0.000739194
-0.0300728,0.10231699999999999,0.13680500000000004,-0.00413283,-0.000376174,0.00045555
-0.023372900000000002,0.29546,0.32198499999999997,-0.0041843,-0.0012301999999999999,0.0007744889999999997
-0.0299726,0.11338699999999999,0.132338,-0.00377993,-0.0009338339999999999,0.00032234099999999997
-0.0327254,0.21066,0.23196999999999998,-0.00406296,-0.00103976,0.000866008
-0.023509,0.09155049999999999,0.0890807,-0.00410509,-0.0007803639999999998,0.000432765
-0.0352469,0.28746,0.389063,-0.00448189,-0.00136308,0.00115651
-0.0313493,0.232156,0.296265,-0.00347526,-0.0013154999999999998,0.00108032
-0.013795400000000001,0.08663489999999999,0.09384110000000001,-0.00406076,-0.00100252,0.00129212
-0.0335496,0.314436,0.400987,-0.00383891,-0.00180007,0.00154104
-0.0320074,0.357421,0.48808900000000005,-0.00396881,-0.0021163,0.0023793000000000004
-0.0182582,0.09747019999999999,0.248102,-0.00411612,-0.0014169400000000006,0.00198861
-0.025300599999999996,0.290731,0.41433100000000006,-0.0045857,-0.00155871,0.00227773
-0.00644213,0.16763499999999998,0.24202100000000001,-0.00322321,-0.00155871,0.00211014
0.00972896,0.115624,0.224689,-0.00304102,-0.00155871,0.0019305
-0.00191702,0.211139,0.268475,-0.0034561,-0.00155871,0.00211014
-0.0110581,0.26958200000000004,0.30101999999999995,-0.00385795,-0.00170814,0.00211014
-0.00695275,0.125101,0.192245,-0.00375579,-0.00155871,0.0015823
-0.028964799999999995,0.23810900000000002,0.279348,-0.00399833,-0.00166456,0.00160333
-0.0167179,0.148303,0.251128,-0.00360348,-0.00162968,0.00141495
-0.00636212,0.17432999999999998,0.272149,-0.00339965,-0.00163613,0.0016570999999999995
0.013922499999999999,0.16230999999999998,0.252279,-0.00314326,-0.00155871,0.00201123
0.00674056,0.07547529999999998,0.12300100000000005,-0.00283707,-0.000994339,0.00141456
-0.010812100000000002,0.165577,0.22788000000000003,-0.00298758,-0.0009079750000000002,0.00111466
-0.00253811,0.101855,0.10756600000000001,-0.00319587,-0.00116208,0.000911369
-0.00379017,-0.08910560000000001,-0.123749,-0.00405008,-0.00101665,0.000911369
-0.0156065,0.207039,0.21722399999999997,-0.00333906,-0.00153806,0.00130177
-0.00537422,0.111062,0.10447100000000001,-0.0036049,-0.00123031,0.0008282689999999999
-0.00110043,-0.0475898,-0.0309633,-0.00358379,-0.000616374,0.000911369
-0.0136505,0.160425,0.14280199999999998,-0.00313994,-0.00123186,0.00115524
0.00301636,0.08153560000000001,0.0828291,-0.00272004,-0.0008996889999999998,0.00111798
-0.00208696,0.15928,0.19986099999999998,-0.00331881,-0.00137191,0.0014234000000000002
0.011607600000000001,0.197101,0.260013,-0.0032673000000000003,-0.00164088,0.00161962
0.0125674,-0.018756000000000002,0.0470976,-0.00298293,-0.0008645019999999997,0.000951573
-0.00542393,0.148815,0.220658,-0.00291764,-0.00122528,0.00127826
0.0216225,0.12105900000000006,0.21742399999999998,-0.00331881,-0.0007191039999999999,0.00141303
0.0135168,0.06064680000000001,0.180344,-0.00311133,-0.000380951,0.000951573
0.000893212,0.171599,0.230652,-0.00282753,-0.000888366,0.000951573
0.0131537,0.0710673,0.120529,-0.00206706,-0.000407596,0.000951573
-0.0039016999999999997,0.182283,0.21417600000000003,-0.00310061,-0.0008966569999999999,0.000951573
0.00958363,0.033107300000000006,0.041923199999999994,-0.00216571,-0.000407596,0.000951573
0.018002299999999995,0.21331399999999998,0.234459,-0.00254874,-0.000628711,0.0017601
0.015837200000000003,0.0790169,0.135152,-0.00150494,-0.00023899599999999997,0.00127606
0.0162587,0.131125,0.177264,-0.00140467,-0.000407596,0.00119901
0.028588599999999995,0.104234,0.152596,-0.00239865,-3.67441e-05,0.0015489
0.031539,0.152453,0.23174099999999997,-0.00205143,-0.000407596,0.00168332
0.0300207,0.0654886,0.11657000000000001,-0.00257992,-0.000407596,0.00132857
0.0175444,0.13027,0.195889,-0.00278457,-0.000407596,0.00141835
0.00920658,0.0845251,0.13658299999999998,-0.0030364999999999997,-0.000407596,0.00124739
0.00943811,0.12107799999999999,0.19762000000000002,-0.00329546,-0.000488646,0.00131429
0.00822223,0.0698725,0.10131699999999999,-0.00344414,-0.000613169,0.00112536
0.010474500000000001,0.126198,0.15756900000000001,-0.00327936,-0.000635929,0.00141931
0.0128506,-0.0634903,-0.168908,-0.00274712,-0.00065049,0.00103465
-2.76973e-05,0.27160100000000004,0.303208,-0.00377576,-0.00155305,0.00190124
0.00901005,0.038210400000000005,0.03313869999999999,-0.00422827,-0.00115675,0.00112146
0.0177614,-0.188383,-0.32347,-0.00480539,-0.0006206240000000001,0.00099227
0.00972821,0.13208699999999998,0.07849749999999997,-0.00317018,-0.0012163600000000005,0.00147386
0.0245635,0.0350215,0.0329462,-0.00355355,-0.000979533,0.00140536
0.0183898,-0.043214800000000005,-0.0639666,-0.0040615,-0.0007929339999999999,0.0010032
0.017131099999999996,-0.05143350000000001,-0.186158,-0.00353256,-0.0008918659999999998,0.0010032
0.014441999999999998,0.2109,0.185727,-0.00352333,-0.00150218,0.0013697300000000006
0.0159369,0.0427412,-0.000158342,-0.00329255,-0.0011547,0.0010032
0.027656200000000002,0.029459,-0.00573538,-0.00221117,-0.0007463129999999998,0.0010032
0.017012099999999995,0.07806169999999997,0.060373,-0.00235365,-0.0008920410000000001,0.0010032
0.016723499999999995,0.038148699999999994,0.00890921,-0.00280111,-0.000401125,0.00118437
0.00238983,0.075133,0.06866389999999999,-0.00312267,-0.0007250149999999998,0.00136317
-0.00123737,0.25738099999999997,0.300105,-0.00274733,-0.00135267,0.00200052
0.0205872,0.00871267,0.0590878,-0.00356635,-0.0008685019999999997,0.00176935
-0.00126518,0.101138,0.171758,-0.00316042,-0.00142089,0.00149204
0.00393186,0.06683589999999999,0.100513,-0.00334641,-0.000921215,0.00142043
0.0157562,0.10894300000000001,0.163395,-0.00390208,-0.000552188,0.0018031
-0.00046557,0.0125682,-0.0243714,-0.00279581,-0.00111848,0.00146715
0.00355982,0.0311654,-0.0477244,-0.00260009,-0.00111848,0.00126485
0.015709,0.157896,0.0923442,-0.00254951,-0.00111848,0.00140899
0.010796600000000002,-0.0163827,-0.0748077,-0.00289683,-0.000818433,0.000970316
0.008084519999999998,0.025459700000000002,-0.05349349999999999,-0.00265618,-0.000964056,0.0009099310000000002
0.015766899999999997,0.054942899999999996,-0.025290599999999996,-0.00314151,-0.000911562,0.000965374
0.015753,0.0353228,-0.0220426,-0.00295472,-0.0009102270000000002,0.00105121
0.0157458,0.06978689999999999,0.00162863,-0.00301867,-0.0009405860000000001,0.00105121
0.016194999999999998,0.316726,0.33670500000000003,-0.00255515,-0.0018364000000000002,0.00198584
0.032788,-0.0392086,0.0439675,-0.00297037,-0.00100697,0.00149552
0.0123551,-0.0633365,-0.0367782,-0.00289956,-0.00101541,0.0009820130000000001
0.00894966,0.045812,0.0496666,-0.00331995,-0.000701307,0.00112356
-0.000279204,0.123162,0.15401600000000001,-0.00310854,-0.00118668,0.0013764
0.00319365,0.0779717,0.0781048,-0.00372986,-0.00103864,0.000911345
-0.000310382,0.135703,0.146361,-0.00257263,-0.0011878,0.0009820130000000001
-0.000318604,0.129498,0.06165790000000001,-0.00277744,-0.00125408,0.000553678
0.0224306,0.07132100000000001,0.0500265,-0.00249385,-0.0006716210000000001,0.0008493960000000001
0.0152496,0.282982,0.251402,-0.00257654,-0.00125408,0.00140926
0.0317869,0.08790009999999998,0.116223,-0.0014178000000000005,-0.000540208,0.000681205
0.00435795,0.214556,0.247743,-0.0018,-0.00125613,0.000787288
0.00399186,0.145537,0.155745,-0.00136498,-0.00103839,0.00114204
0.0174198,-0.0243278,0.0250071,-0.00194207,-0.000867954,0.000685006
0.00242928,0.170627,0.170821,-0.00149954,-0.00126855,0.00096734
0.0219447,0.09340239999999998,0.0628807,-0.00176096,-0.00103839,0.0008109909999999997
0.0121347,0.0765994,0.05604540000000001,-0.0008799189999999998,-0.00103839,0.000305541
0.0156089,0.12905899999999998,0.0358922,-0.00116942,-0.0008813389999999998,0.000249375
0.011638500000000001,0.138633,0.0956877,-0.00169679,-0.000705184,0.000505282
0.00117214,0.216337,0.15441,-0.000938015,-0.000778763,0.00066273
0.0139745,0.0555371,0.0330495,-0.00255334,-0.00102174,9.13405e-05
-0.00116064,0.270491,0.26108600000000004,-0.00252305,-0.00147241,0.00062564
0.0137446,0.123822,0.0574202,-0.00063564,-0.000932032,0.000400713
0.041661800000000006,0.056906899999999996,0.023844099999999997,-0.000510157,-0.000778763,0.0005662590000000001
0.0387647,0.154711,0.13453299999999999,-0.00030507,-0.00111608,0.000625415
0.0177405,0.12836,0.08889019999999999,-0.00137442,-0.00106595,0.00028386
0.020918,0.00773068,-0.00270606,-0.00146356,-0.0009541560000000001,9.13405e-05
0.012848900000000005,0.257808,0.19639,-0.00196698,-0.00159584,0.000609011
0.0253153,0.14205299999999998,0.09984939999999999,-0.00148977,-0.0011832800000000005,0.00030028
0.0338536,-0.0175299,-0.0143988,-0.00148977,-0.00130049,0.000274404
0.025327799999999998,0.142171,0.08412419999999997,-0.00203929,-0.00145094,0.00054112
0.017736499999999995,0.24848499999999998,0.23953200000000002,-0.00217115,-0.0018882000000000003,0.0006653319999999999
-0.00105938,0.0879468,0.0267651,-0.00210655,-0.00117432,9.13405e-05
0.015853799999999998,0.07552359999999997,0.00855604,-0.00211581,-0.00081432,0.000286089
0.00461598,0.231429,0.174023,-0.00153269,-0.0008899529999999998,0.0007772639999999997
-0.00172196,0.09242489999999999,0.048223199999999994,-0.0007348389999999999,-0.000230742,0.00040862699999999995
-0.0117052,0.0823904,0.0405246,-0.000549339,-0.00035951099999999997,0.00041138199999999996
-0.00129198,0.12256199999999999,0.0321605,-0.0007966710000000001,-0.00033061300000000005,0.000255213
-0.00523323,0.188797,0.13484000000000002,-0.00106442,-0.000544901,0.0005488790000000001
-0.019677700000000003,0.266746,0.18024,-0.0007913179999999997,-0.000636869,0.000669963
-0.011600200000000001,0.13691,0.07403329999999997,-0.00046531199999999995,-0.000459661,9.13405e-05
-0.0169582,0.130995,0.056411300000000004,-0.00177682,-0.000651012,9.13405e-05
0.00606367,0.136191,0.08153510000000001,-0.00264273,-0.000824948,0.000572875
-0.011054399999999999,0.364107,0.325175,-0.00118129,-0.0012353100000000005,0.000817731
-0.00102086,0.0504579,0.00247715,-0.00169409,-0.000455683,9.13405e-05
9.273719999999999e-05,0.0959358,0.07968070000000001,-0.00123818,-0.000539463,0.00022160299999999999
-0.017082299999999998,0.25309699999999996,0.22957600000000003,-0.0015902999999999998,-0.000824948,0.000620263
0.011998700000000001,0.1416,0.109285,-0.00196041,-0.0007372739999999999,0.000692583
-0.0155791,0.350408,0.312933,-0.000933534,-0.00109678,0.00105131
-0.00644587,0.126968,0.10260899999999999,-0.0006948560000000001,-0.000503186,0.00024919
-0.0180116,0.275185,0.290664,-0.0013130000000000001,-0.000970532,0.00024919
-0.00767257,0.20078900000000002,0.137467,-0.00137169,-0.000995237,0.00024919
-0.00991397,0.0644279,0.00734909,-0.000709201,-0.000505125,0.00024919
-0.0181488,0.446684,0.386766,-0.000330612,-0.00170351,0.0008148549999999999
0.00829703,0.14323699999999998,0.126578,-0.0008216000000000001,-0.000824948,0.000249191
0.0121205,0.0203335,0.0153285,-0.000578241,-0.000824948,0.000249191
-0.00349861,0.278685,0.265919,-0.0005972859999999999,-0.00134657,0.000584243
0.00350292,0.27936,0.28394,-0.000935956,-0.00132035,0.000503117
0.00889707,0.049833300000000004,0.0760855,-0.000877217,-0.000824948,2.46719e-05
-0.00985814,0.26569699999999996,0.226892,-0.0010112,-0.00126955,0.000249191
-0.00278726,0.319814,0.325652,-0.000477305,-0.00126122,0.000249191
-0.00440841,0.09960269999999999,0.10561500000000001,-0.00165422,-0.000882077,0.00017183400000000002
0.00813314,0.175951,0.11006099999999999,-0.00117983,-5.93808e-06,-0.000117328
-0.00141646,0.17607799999999998,0.157554,-0.000882683,-0.000140091,-0.00016432599999999998
-0.017018799999999997,0.274563,0.286191,-0.00153234,-0.000664753,0.000287942
0.0107634,0.101006,0.0713432,-0.00135537,-0.000428316,3.90686e-05
-0.0115887,0.101076,0.04516869999999999,-0.00122338,-0.000457145,-0.00022271700000000002
-0.010672,0.172868,0.160914,-0.00266973,-0.000673257,0.00024396
-0.0243528,0.137149,-0.0115297,-0.00244027,-0.0005425569999999999,-0.000280858
-0.0279705,0.287536,0.26360100000000003,-0.00247122,-0.0007742539999999999,0.000174635
0.010593799999999999,0.0462715,-0.041334699999999995,-0.00212325,-0.0005425569999999999,-0.00010369200000000001
-0.0121773,0.208142,0.175332,-0.00210204,-0.000889556,4.99493e-05
0.00508534,0.148898,0.0972725,-0.000766913,-0.000246177,0.00012784
0.00307023,0.146174,0.11312699999999999,-0.00192885,-0.000371215,0.000340171
0.00115024,0.155313,0.09206639999999999,-0.00188864,-0.000306416,-3.40541e-06
-0.00313264,0.247869,0.21634699999999998,-0.00259874,-0.0005425569999999999,0.000242825
-0.0167957,0.264131,0.232618,-0.00171531,-0.000600726,-0.000280858
-0.00930924,0.182401,0.172549,-0.00180978,-0.0005425569999999999,-0.00017042099999999997
-0.0333374,0.356846,0.321062,-0.00189879,-0.000993013,0.000104147
-0.0327646,0.16518,0.11866199999999999,-0.00206368,-0.00034433099999999997,-0.000280858
7.916349999999998e-05,0.176366,0.10686199999999998,-0.00165995,-0.000273657,0.000620706
-0.0356616,0.335704,0.309321,-0.000894406,-0.000834068,0.000384251
-0.026040499999999998,0.209204,0.183344,-0.000521746,-0.00045156,0.000369226
-0.0144299,0.197518,0.18324300000000002,6.94054e-05,-0.000335587,0.000369226
-0.0116412,0.268915,0.222214,-2.67779e-05,-0.000273657,0.000128229
-0.00688365,0.145706,0.136812,-0.000841057,-0.000426345,-9.5734e-05
-0.0176076,0.33671799999999996,0.261155,-0.00146756,-0.00038753199999999995,2.3430900000000003e-05
-0.013783900000000005,0.221654,0.177045,-0.00123599,-0.000273657,-0.000369872
-0.00664959,0.277035,0.22662800000000002,-0.00191508,-0.000273657,-0.000245691
-0.009636380000000005,0.38554,0.355466,-0.00173643,-0.0007527649999999999,7.46747e-05
-0.00605555,0.11205899999999999,0.129156,-0.00230119,-0.000446176,-9.5734e-05
-0.0268531,0.225334,0.176147,-0.00272793,-0.00059534,-9.5734e-05
-0.0244481,0.240274,0.18645799999999998,-0.00159656,8.386010000000001e-05,-9.5734e-05
-0.0244058,0.178732,0.14258800000000002,-0.0023815999999999998,-0.000273657,-0.00034309
-0.010594899999999999,0.200034,0.118203,-0.00163991,-0.000273657,-3.4569499999999995e-05
-0.0130236,0.167941,0.168659,-0.0017648,-0.000273657,-9.5734e-05
-0.0192121,0.332512,0.307992,-0.00127518,-0.000273657,-0.00035224199999999995
0.016835299999999997,0.163901,0.17187,-0.000516809,0.00037335,0.000209985
-0.0184114,0.43946999999999997,0.48179799999999995,-0.00160348,-0.000654183,0.00038004099999999996
0.016577900000000003,0.195876,0.14186600000000002,-0.0015885,-0.000213613,0.000435128
-0.0185612,0.38363600000000003,0.421649,-0.00165115,-0.0009607830000000002,0.000202035
-0.0164892,0.126992,0.0494346,-0.00129717,-0.000176257,-0.000581127
-0.00577147,0.124491,0.0522648,-0.0004971369999999999,0.000208142,-0.000462971
-0.025496099999999997,0.454272,0.425534,-0.00134158,-0.00107627,0.000455349
-0.00537218,0.439489,0.464312,-0.00116701,-0.0018727,0.000455349
0.0125202,0.20902300000000001,0.21993800000000002,0.00018035900000000003,-0.0014374000000000001,0.00101085
-0.0149869,0.454481,0.457296,0.00034204,-0.00196859,0.00127105
0.00445508,0.17949699999999996,0.143328,0.000702308,-0.00107144,0.00109064
-0.0154702,0.392845,0.293535,0.0011433,-0.00108013,0.00045731
-0.0155899,0.274989,0.170285,0.00022784599999999997,-0.00091564,0.000358824
-0.0252614,0.511988,0.418029,0.00010470100000000004,-0.00142724,0.00020987599999999998
-0.0506254,0.6945859999999999,0.6233479999999999,0.0007971509999999997,-0.00209179,0.0006556019999999999
-0.0171893,0.387942,0.27387399999999995,-0.00126949,-0.00139443,0.000974806
-0.00222367,0.14029100000000005,0.05549490000000001,-0.00121523,-0.00142068,0.000951622
-0.00116992,0.23030100000000003,0.0959457,-0.00151304,-0.00170733,0.00107168
-0.00669425,0.287906,0.12596400000000002,-0.00190289,-0.00201701,0.000834291
-0.00987159,0.438446,0.25435399999999997,-0.00193506,-0.00252845,0.0011017000000000002
-0.00905935,0.273007,0.0730057,-0.00181733,-0.00213917,0.00107775
-0.013250999999999999,0.444384,0.317459,-0.00175262,-0.00288847,0.00137901
-0.00959104,0.787091,0.75312,0.00118734,-0.00334056,0.00126962
0.000361524,0.21126599999999998,0.175897,-0.0008305669999999999,-0.00152094,0.000506119
-0.00275919,0.000886211,-0.04779919999999999,-0.00044114699999999997,-0.00117999,0.0006106880000000001
-0.00887829,0.348486,0.279647,-0.000126445,-0.00248261,0.00132772
0.018714500000000002,0.285323,0.279465,0.000120426,-0.00182143,0.0009905180000000001
0.013065899999999998,0.14513799999999996,0.08311110000000001,0.00046236599999999997,-0.0009363080000000001,0.00016952299999999998
-0.0205803,0.560794,0.555565,0.000219062,-0.0021973,0.0009486280000000001
-0.00946748,0.203254,0.134074,-0.00048407400000000003,-0.00082169,-0.000159784
0.00260339,0.22246100000000002,0.176172,-0.00047713199999999996,-0.000621128,3.46151e-05
-0.022291299999999997,0.40797100000000003,0.35416,0.000134538,-0.00109935,-1.84367e-05
-0.00650064,0.25064000000000003,0.237963,0.000553997,-0.00117763,6.60558e-05
-0.0139612,0.22042399999999998,0.162682,-0.000236708,-0.0010682100000000002,6.282090000000001e-05
-0.0159993,0.196873,0.08589069999999999,0.00045351699999999996,-0.00068575,5.83435e-05
-0.018488499999999998,0.440611,0.42995500000000003,-0.000779368,-0.00145731,0.000449013
-0.0165462,0.193145,0.176316,-0.000289682,-0.000452739,-0.000205513
-0.0183665,0.137076,0.10828900000000001,0.0005047119999999999,-0.0007265359999999997,-0.000374484
-0.036283300000000004,0.32061300000000004,0.268326,0.0007470559999999997,-0.00114192,0.000313427
-0.022901400000000002,0.227715,0.21853699999999998,0.000915099,-0.000958365,-0.000247855
-0.0315303,0.216953,0.19583399999999998,0.000677902,-0.000905532,-0.000374484
-0.0429533,0.48858,0.451953,0.00226706,-0.00197518,0.000148241
-0.01344,0.233067,0.21606999999999998,0.00102254,-0.000915041,-3.55123e-05
-0.0338359,0.154825,0.121084,0.0006653830000000001,-0.000972192,-0.000610651
-0.0280539,0.190418,0.058701199999999995,0.00109568,-0.000803145,-0.00030528900000000004
-0.023461199999999998,0.32537699999999997,0.216444,0.0010968,-0.00131988,-0.000133255
-0.0162578,0.169251,0.0770156,0.00105897,-0.000898534,-0.000358309
-0.020046400000000002,0.223679,0.0924664,0.00122679,-0.000874607,-0.00043162800000000004
-0.0306855,0.21881599999999998,0.09762489999999999,0.00117009,-0.000862091,-0.000390055
-0.030683600000000002,0.22359,0.107609,0.0007563239999999997,-0.0010263300000000002,-0.000610651
-0.033322199999999996,0.21484899999999998,0.10558499999999998,0.0007563239999999997,-0.00100481,-0.000483298
-0.027977600000000002,0.22359899999999996,0.107612,0.0007563239999999997,-0.00112706,-0.000254945
-0.020838299999999997,0.534327,0.49185,0.00137576,-0.00255093,0.00117004
-0.00662315,0.060788,0.0169143,0.00015701700000000002,-0.00112974,-0.000217882
-0.021628400000000002,-0.0481261,-0.13583199999999998,0.00079447,-0.0007026280000000001,5.9138599999999997e-05
-0.0259183,0.19062,0.0521773,0.00112615,-0.00106655,6.83346e-06
-0.010445,0.106227,-0.0264535,0.000998609,-0.000508322,0.000298661
-0.0159875,0.137997,-0.00028931299999999997,0.000735353,-0.0006584469999999999,0.00018066
-0.017412299999999995,0.40875,0.24732300000000002,0.00159339,-0.001317,0.000710828
-0.015109200000000001,0.104164,-0.00549014,0.0006780139999999999,-0.000864453,-0.00026228
-0.029110900000000002,0.20156400000000002,0.09652369999999999,0.0009031410000000002,-0.0008961539999999999,-7.492639999999998e-05
-0.0174282,0.29149200000000003,0.202763,0.000772021,-0.00134161,9.7575e-05
-0.015045900000000001,0.0950275,0.032726599999999995,2.7290500000000002e-05,-0.000897248,-0.000201847
-0.024564,0.147617,0.0193414,0.000300265,-0.0007803229999999998,-7.492639999999998e-05
-0.0200233,0.147646,0.0379539,0.0007315510000000001,-0.000897248,-7.492639999999998e-05
-0.0165236,0.294455,0.23671399999999998,0.00116363,-0.00168757,-7.492639999999998e-05
-0.0323658,0.0659095,-0.033424300000000004,0.000446635,-0.000758415,-0.00047724
-0.0168163,0.07424759999999997,-0.0334895,0.000793966,-0.000779865,-0.00036216
-0.0147227,0.335173,0.218768,0.00167254,-0.00154949,2.15092e-05
-0.00861823,0.12961,0.0371217,0.00147562,-0.0008561889999999999,-0.000287693
-0.024388,0.10743499999999999,-0.0183295,0.000915468,-0.000879607,-0.000460842
-0.024202599999999998,0.2525,0.0958615,0.0016997099999999995,-0.00119121,4.54934e-05
-0.012632899999999999,0.0918904,-0.009471920000000005,0.00139515,-0.0008823069999999999,-0.000379098
-0.0167666,0.14560999999999996,-0.00666511,0.00172936,-0.000978548,-0.000148007
-0.00299224,0.113087,-0.0150189,0.00172936,-0.000506328,6.64836e-06
0.00341511,0.28898,0.151479,0.0011882,-0.000978548,0.000514872
0.020749599999999997,0.120247,0.017277,0.000328435,-0.000762768,0.000389154
0.013114700000000005,0.010298700000000001,-0.0231208,0.000630396,-0.000483415,0.00012811299999999998
0.00346373,0.0648019,-0.0259377,0.000570875,-0.00052238,-5.05363e-05
0.00147027,0.102583,-0.007689579999999999,0.000578251,-0.000653582,-0.00021757099999999998
-0.013831799999999998,0.289274,0.172833,0.00115929,-0.00142055,0.000380425
0.00538172,0.124271,0.0187868,0.000614615,-0.0008663269999999999,3.0285000000000003e-06
-0.011957700000000005,0.0396259,-0.0692928,0.0007207099999999997,-0.000643336,-0.00033080800000000004
-0.0247764,0.0855346,-0.09101110000000001,0.00111345,-0.0009461440000000002,-0.00021757099999999998
-0.018154499999999997,0.08547510000000001,-0.12083800000000001,0.0011739,-0.0007900019999999999,-0.000273927
-0.0282822,0.288777,0.12403199999999999,0.0016263999999999999,-0.00178719,0.000326081
-0.0180303,0.0235118,-0.125396,0.00159318,-0.0010295,-0.00021757099999999998
-0.036184100000000004,0.124145,-0.0328407,0.00123532,-0.00117987,-0.000106246
-0.017513400000000002,0.10825,-0.026247900000000005,0.00132777,-0.00106683,-0.00021757099999999998
-0.030460200000000003,0.042465800000000005,-0.086245,0.0008206739999999998,-0.00117987,-0.000350887
-0.0268976,0.26291,0.115329,0.00156167,-0.00170533,0.000236955
-0.0174373,0.0420105,-0.0771303,0.0015271,-0.0010753300000000002,-0.00021757099999999998
-0.0349832,0.11801500000000001,-0.0226852,0.00139194,-0.00136346,-0.00021757099999999998
-0.0217455,0.219237,0.0848574,0.00226866,-0.00148399,0.000157595
-0.0215643,0.0186228,-0.11658900000000001,0.00153162,-0.00105279,-0.00046781300000000003
-0.031297399999999996,0.16392400000000001,0.00202815,0.00158577,-0.00147364,-0.00010162200000000001
-0.038625099999999996,0.137751,-0.0323545,0.00150192,-0.00125284,-0.00021757099999999998
-0.023990200000000003,0.0393953,-0.110535,0.00165985,-0.00125284,-0.00021757099999999998
-0.0270226,0.163286,-0.00830551,0.000915785,-0.00143362,-1.8448e-05
-0.014965299999999999,0.0422175,-0.0661612,0.001872,-0.000998657,-0.00021757099999999998
-0.0282507,0.18723,0.033421,0.00110854,-0.0011495,0.00020589099999999998
-0.0273901,-0.0477158,-0.262315,0.00217384,-0.0008325610000000001,9.855170000000001e-05
-0.027352099999999997,0.0532947,-0.161472,0.00128288,-0.00104863,-0.000115371
-0.0133826,0.0851201,-0.102925,0.00205515,-0.00100271,3.861e-05
-0.00436768,0.0528688,-0.12108600000000005,0.00171109,-0.000820438,0.000411717
0.00219703,0.07929,-0.122974,0.00132289,-0.000947444,0.000319844
0.00220674,0.0961794,-0.0870637,0.0013435,-0.000947444,0.000150574
0.00706329,0.08893480000000001,-0.10562300000000001,0.00101247,-0.000846842,0.000258747
0.00219034,0.0873629,-0.0727618,0.00132319,-0.000947444,0.000238403
0.00217398,0.056305999999999995,-0.118974,0.00160069,-0.000947444,0.000258506
0.00497889,0.0196009,-0.10856099999999999,0.00225249,-0.000947444,0.00018092099999999998
0.00218289,0.046468199999999994,-0.138958,0.00190882,-0.000947444,-4.06846e-05
0.0023944,0.328708,0.08022289999999999,0.0016112000000000001,-0.00112926,0.000578435
-0.021662999999999998,0.334961,0.30118,0.00257695,-0.000947444,0.000563755
-0.00667217,-0.0253937,-0.12575,0.0004192,-0.0008234409999999997,-0.000169343
-0.0165048,-0.105867,-0.337054,0.00126717,-0.000502752,-0.000549111
-0.011386499999999999,-0.0207077,-0.20336400000000002,0.000932335,-0.000738275,-0.000549111
-0.009611399999999999,0.268777,0.0308795,0.000749691,-0.00153021,-5.27794e-05
-0.00549857,0.06447230000000001,-0.30388899999999996,0.000781068,-0.00075767,-0.0006601160000000001
-0.0173937,0.24618299999999999,-0.042605000000000004,0.00108868,-0.00134062,-0.000467426
-0.00552495,0.27724,0.0117258,0.000658398,-0.00162842,-0.00034202300000000006
0.0007034039999999999,0.0247239,-0.23397600000000002,-0.000118522,-0.00152731,-0.00047726699999999997
-0.013150299999999998,0.190878,-0.0354348,0.0006750980000000001,-0.00155773,-0.00019862299999999999
-0.0131814,0.108927,-0.052305899999999995,-0.0007517939999999999,-0.00133984,2.30111e-05
-0.0155721,0.31838099999999997,0.24214000000000002,0.000957998,-0.00184387,0.0008231999999999997
-0.0165583,0.132078,0.08915819999999999,0.00111481,-0.00159666,5.25371e-06
-0.00470564,0.00654719,-0.036987599999999995,-0.000684177,-0.00118947,-0.000418909
-0.0200983,0.121796,0.0829648,-0.00130925,-0.00139343,-0.000418909
-0.021330099999999998,0.44935600000000003,0.318671,0.0015247,-0.0015827999999999999,-3.71356e-05
-0.0102027,0.29728499999999997,0.218389,0.000158626,-0.00207987,0.00102254
-0.0305724,0.362693,0.312508,0.00141132,-0.0022719999999999997,0.000313521
-0.023117500000000003,0.166641,0.06460319999999999,0.00047789699999999997,-0.00139519,-0.000588078
-0.0379239,0.41124099999999997,0.36645500000000003,0.00010185200000000004,-0.00233625,-0.00029995200000000003
-0.0167418,0.32427,0.246779,0.000941498,-0.00146802,0.000469709
-0.00997715,0.19479100000000002,0.10728900000000001,-0.000324771,-0.000981426,-0.000380804
-0.00838374,0.197305,0.135741,-0.000987835,-0.00128808,-0.000380804
-0.0211076,0.4681,0.420753,6.28792e-05,-0.00202269,-0.00023393400000000001
-0.00333529,0.162352,0.09032749999999999,-0.0009238569999999999,-0.00114383,-0.0009199989999999999
-0.00337433,0.0983441,0.0605762,-0.000450676,-0.00107313,-0.000979392
-0.0250807,0.36401700000000003,0.294404,-0.000303427,-0.001731,-0.000592568
-0.0197082,0.222104,0.125187,-0.00125384,-0.00132468,-0.000979393
-0.028387799999999998,0.0923822,-0.00214006,-0.00105755,-0.00137415,-0.00132395
-0.0416567,0.29012899999999997,0.114389,-0.00113171,-0.00199972,-0.000979393
-0.018539,0.255684,0.0509796,0.000944572,-0.00142555,-0.000979392
-0.0171481,0.24901399999999999,0.155637,0.00022223400000000003,-0.00193444,-0.000577065
-0.00992414,0.186693,-0.0711822,-0.00032020299999999997,-0.00165037,-0.0008814219999999998
-0.00189989,-0.015071200000000002,-0.18049400000000002,0.000799288,-0.00183547,-0.000639175
-0.0242723,0.31104899999999996,0.163426,0.00042845,-0.00222449,-0.0003609
-0.0292315,0.215848,0.0646695,0.00122653,-0.00200133,-0.000918949
-0.00227904,0.11865899999999999,-0.0147101,0.000790268,-0.00156018,-0.0006423269999999999
-0.0225209,0.186944,0.0490774,0.00129982,-0.00180999,-0.000979393
-0.007562209999999998,0.18698399999999998,0.0468342,0.00141908,-0.00140013,-0.000377071
-0.011958700000000001,0.24127800000000002,0.09162460000000001,0.000736254,-0.00125811,-0.0005396530000000001
0.0013827,0.23207399999999997,0.09525449999999999,0.0020196999999999997,-0.0013516400000000005,-0.00014184200000000002
0.00977964,0.178694,0.0512485,0.00156339,-0.00152873,-0.000183334
-0.008336869999999998,0.197968,0.00250263,0.0018695,-0.00140303,-0.000435948
-0.00588257,0.286691,0.156447,0.000916264,-0.00131656,-6.5427e-05
-0.0101694,0.24177800000000002,0.0949342,0.0005662330000000001,-0.00104257,-0.000136006
-0.0155404,0.119978,0.0199398,0.000825964,-0.00104257,-0.000162396
-0.015507399999999998,0.217152,0.0386486,0.00176423,-0.00132136,-0.000493079
-0.0156571,0.02171,-0.155853,0.00133877,-0.00146364,-0.00105805
-0.038602,0.331117,0.18147,0.0009584589999999999,-0.00217761,-0.0006702069999999999
-0.042579,0.236436,0.0571915,0.0005294480000000001,-0.0017869,-0.000979393
-0.038454199999999994,0.241383,0.059162900000000004,0.0008304519999999998,-0.00120142,-0.000597214
-0.041612199999999995,0.280674,0.0616668,0.0008758149999999997,-0.00129905,-0.000736302
