0.00621196,0.07416169999999997,0.082959,0.000162946,0.000228714,-9.056590000000003e-06
0.0012787,0.09673430000000001,0.0985447,0.00069871,0.000237655,8.413979999999999e-05
-0.00159763,0.101748,0.0865911,0.00123879,0.00013087100000000001,3.7773300000000002e-06
-0.011322,0.07441189999999999,0.052342599999999996,0.0020985,-0.000235346,-5.7349099999999996e-05
-0.0218027,0.132648,0.13106600000000002,0.00184207,1.6781099999999998e-05,-0.000206305
-0.021784599999999998,0.0938258,0.0995452,0.00233044,-8.67375e-05,-0.000256405
-0.021795699999999998,0.104621,0.0892318,0.0022541999999999996,0.000177569,-9.46685e-05
-0.0218354,0.12297999999999999,0.08913099999999999,0.00218882,0.00038675199999999997,-0.00040992
-0.0281942,0.0806664,0.045609,0.00296897,0.000264597,-0.000500489
-0.021756099999999997,0.135104,0.08574389999999997,0.00210772,0.00020240700000000002,-6.6864e-05
-0.021759999999999998,0.08944259999999997,0.07116660000000001,0.00248424,5.1209e-05,-8.03373e-05
-0.011164,0.1302,0.121401,0.00137158,6.54616e-05,-3.2827999999999997e-06
-0.012828,0.09353389999999999,0.080209,0.00114199,-4.32696e-05,0.00010923700000000001
-0.00516816,0.11134300000000001,0.0749187,0.000644533,-8.023599999999998e-05,-1.4535e-06
-0.014474,0.0739708,0.0013755,3.56774e-05,-0.000105221,0.000260292
-0.014132599999999999,-0.011923399999999999,-0.058472300000000005,-0.0008881689999999999,-0.0007276169999999997,0.00019539099999999997
-0.00900728,0.0570499,-0.00260312,-0.00210963,-0.000416721,0.000193077
-0.0111871,-0.146269,-0.220478,-0.00260458,-0.0015221499999999995,0.000538589
-0.00551249,-0.0341303,-0.030114699999999998,-0.00467244,-0.0011779300000000006,0.000372663
-0.00178139,-0.10537300000000001,-0.273939,-0.00663452,-0.00183076,0.000372663
0.00462038,-0.0493029,-0.07479960000000001,-0.00594082,-0.0015317,0.000372663
0.00635393,-0.07038639999999999,-0.241191,-0.00531658,-0.00270523,0.000631733
0.00707433,-0.0940049,-0.12132000000000001,-0.0059875,-0.00191681,0.000372663
0.0183696,-0.023009599999999998,-0.0771436,-0.00651334,-0.00177822,0.000492144
0.008904999999999998,-0.0503396,-0.044540699999999996,-0.00599667,-0.00209558,0.000550803
0.0184391,-0.00768188,-0.047925699999999995,-0.00684008,-0.00169024,0.000372663
0.0034063,-0.046715,0.00379126,-0.00689586,-0.00218545,0.000372663
0.0258004,-0.028985900000000005,-0.051963999999999996,-0.00767363,-0.00198914,0.000372663
0.0177514,-0.0400208,0.00384691,-0.007358209999999999,-0.00191406,0.000519555
0.022229099999999998,-0.060860000000000004,-0.033511,-0.007855499999999998,-0.00188284,0.000372663
0.0229549,-0.0251123,0.0131048,-0.00786589,-0.00204235,0.000372663
-0.0389986,-0.44304499999999997,-0.593579,-0.011344499999999999,-0.00521669,-0.00021764
-0.0423573,-0.449693,-0.584769,-0.0148828,-0.00476041,-0.000337345
-0.0371136,-0.300211,-0.4189,-0.0125854,-0.0036365000000000004,-0.000611339
-0.0295611,-0.395969,-0.541043,-0.013802799999999999,-0.00313142,-0.00017608
-0.0425848,-0.409472,-0.54411,-0.0127643,-0.00391423,-0.00040196
-0.0501482,-0.455545,-0.666316,-0.0121836,-0.00370277,-0.000642026
-0.0474399,-0.253258,-0.344856,-0.0135553,-0.00297327,-0.0007841460000000001
-0.041027,-0.358387,-0.5315770000000001,-0.0137222,-0.00354985,-0.0006716410000000001
-0.041770800000000004,-0.410588,-0.588408,-0.0112806,-0.00373039,-0.000528268
-0.0380539,-0.351321,-0.5682470000000001,-0.0125455,-0.00324778,-0.000719622
-0.0334337,-0.41193500000000005,-0.6090479999999999,-0.014159200000000002,-0.00355162,-0.000260164
-0.0213914,-0.287457,-0.44613400000000003,-0.013122799999999999,-0.00354008,-8.483219999999999e-05
-0.0480631,-0.49364399999999997,-0.8050819999999999,-0.00838415,-0.00469085,-0.000575557
-0.033373,-0.348109,-0.534665,-0.0117759,-0.00397677,-0.00017242400000000001
-0.0294969,-0.339125,-0.500707,-0.013305700000000002,-0.00376472,-9.616790000000001e-05
-0.0626501,-0.555396,-1.0605799999999999,-0.0080149,-0.00568939,-3.7284000000000004e-05
-0.0305784,-0.385022,-0.6837300000000001,-0.011053499999999999,-0.00473813,9.69433e-05
-0.0178385,-0.407911,-0.70396,-0.0117979,-0.0042331,0.00035708699999999996
-0.0233816,-0.454342,-0.734835,-0.0099712,-0.004437300000000001,0.00014167
0.00433675,-0.349717,-0.660419,-0.012392499999999999,-0.00456197,0.000511191
-0.00901183,-0.480691,-0.6639470000000001,-0.0125015,-0.00465678,0.000593283
0.00240296,-0.371179,-0.567861,-0.014333199999999999,-0.00503476,0.000619373
0.00571415,-0.37143200000000004,-0.405422,-0.0134679,-0.00491049,0.0008893259999999999
0.0187361,-0.294713,-0.462645,-0.014399,-0.00481254,0.0005570659999999999
0.0181162,-0.33516599999999996,-0.35121399999999997,-0.0140762,-0.00481364,0.000923005
0.0257043,-0.271567,-0.41440200000000005,-0.014813499999999999,-0.00434815,0.0008618289999999999
0.026060000000000003,-0.298606,-0.278171,-0.013876099999999999,-0.00454483,0.0010744900000000002
0.038585,-0.25404499999999997,-0.35296,-0.0146107,-0.00476467,0.00110107
0.0296059,-0.270737,-0.22780999999999998,-0.0135596,-0.00512694,0.00112023
0.018493,-0.336847,-0.46699799999999997,-0.013818899999999999,-0.00505707,0.0009092789999999999
-0.013590999999999999,-0.34826799999999997,-0.436958,-0.0131898,-0.0058119,0.000517047
0.013775299999999999,-0.255845,-0.35637399999999997,-0.013456799999999998,-0.00413555,0.0005513730000000001
0.00432285,-0.321581,-0.5111979999999999,-0.0130842,-0.00443479,0.000408796
0.00016054,-0.32231,-0.44158500000000006,-0.00985858,-0.00383103,0.000473099
0.00957179,-0.270944,-0.42868199999999995,-0.011315700000000001,-0.00386823,0.0007886789999999999
0.016246,-0.34570300000000004,-0.509977,-0.0103514,-0.00397466,0.0009580999999999999
0.0155221,-0.241871,-0.46120200000000006,-0.011902,-0.00440962,0.00101803
0.0228892,-0.332156,-0.505524,-0.010700200000000002,-0.00415948,0.00108743
0.0293703,-0.25409499999999996,-0.498436,-0.011285700000000001,-0.00412227,0.000994981
0.0186488,-0.353998,-0.569778,-0.00956399,-0.00430835,0.0007681469999999997
0.0170791,-0.220621,-0.40884499999999996,-0.010240299999999999,-0.003933,0.000869332
-0.00700252,-0.36961900000000003,-0.743409,-0.00818272,-0.00484979,0.000253448
0.00122489,-0.287412,-0.518229,-0.00890869,-0.00399793,0.000727917
0.0197307,-0.25747600000000004,-0.5063979999999999,-0.008288659999999998,-0.00380643,0.000748658
0.00194185,-0.252182,-0.7427630000000001,-0.00385445,-0.00364382,0.0006557819999999999
0.011156600000000001,-0.29114,-0.5546770000000001,-0.00679048,-0.0047753,0.0009506860000000001
0.0363238,-0.202069,-0.530985,-0.008545779999999998,-0.00437632,0.0007694709999999997
0.0311411,-0.323619,-0.779233,-0.00623953,-0.00528747,0.0012480900000000005
0.0237453,-0.21845100000000003,-0.554401,-0.00572621,-0.00442677,0.00117251
0.023834,-0.311587,-0.713234,-0.00602485,-0.00461657,0.00107739
0.0240673,-0.257313,-0.5564859999999999,-0.00517679,-0.00435791,0.000853895
0.017449099999999995,-0.225057,-0.5516409999999999,-0.00486287,-0.00423172,0.000916825
0.024163499999999997,-0.211088,-0.44138900000000003,-0.00466435,-0.00410034,0.0007694699999999999
0.0126518,-0.210939,-0.561578,-0.00509423,-0.00398279,0.000935238
0.013397899999999999,-0.169351,-0.464879,-0.00416194,-0.00445628,0.0009268330000000001
0.00982143,-0.211446,-0.468463,-0.00350591,-0.0044409,0.0007694699999999999
0.0159577,-0.154178,-0.456844,-0.00431001,-0.00406062,0.0007694699999999999
0.00920038,-0.195918,-0.42730500000000005,-0.00312719,-0.00399518,0.0007694699999999999
0.00834991,-0.151766,-0.41648500000000005,-0.00356539,-0.00440745,0.0007694699999999999
-0.00598145,-0.26853699999999997,-0.5626399999999999,-0.00315918,-0.00475482,0.000478681
-0.00476188,-0.19400499999999998,-0.546212,-0.00213354,-0.00454767,0.000623829
-0.0007349789999999998,-0.234382,-0.61616,-0.00219517,-0.00429861,0.000314216
-0.0008518369999999999,-0.189662,-0.4656,-0.0036351,-0.00422702,0.000761622
0.013673200000000005,-0.188421,-0.521626,-0.00485176,-0.00389147,0.0008703360000000001
0.0132825,-0.27157,-0.6059859999999999,-0.00437996,-0.00442247,0.0008684539999999997
0.0202426,-0.180328,-0.54457,-0.00473227,-0.00358473,0.000594011
0.00787924,-0.257684,-0.591392,-0.00428167,-0.00400608,0.00047604099999999996
0.0197312,-0.172067,-0.517247,-0.00447644,-0.00377548,0.00057777
0.00935017,-0.203948,-0.554088,-0.00535997,-0.00426274,0.000852373
0.00669016,-0.21095100000000003,-0.47898500000000005,-0.00261965,-0.00382691,0.00069157
0.0192571,-0.1631,-0.47719799999999996,-0.00321506,-0.003928,0.000852908
-0.00302459,-0.262939,-0.6700550000000001,-0.00253132,-0.00473759,0.000314216
-0.0104334,-0.218284,-0.52591,-0.00245288,-0.00444149,0.000314216
-0.008463629999999998,-0.165749,-0.491975,-0.0008915689999999999,-0.00361525,6.84825e-05
-0.024214799999999998,-0.263024,-0.767237,-0.00027483200000000003,-0.00509098,-0.00024145
-0.0182229,-0.236672,-0.597338,-0.000135405,-0.00489536,0.000432884
0.00854679,-0.154968,-0.477975,-0.00148337,-0.00469089,0.000616199
0.00473311,-0.24248699999999998,-0.721508,-0.00163949,-0.00522371,0.00072249
0.00341091,-0.14436099999999996,-0.620962,-0.00016695,-0.00438369,0.000773255
0.00565518,-0.256221,-0.733059,-0.00010318,-0.00418736,0.0007630639999999999
0.00564508,-0.18561,-0.546575,-0.00119063,-0.00419273,0.000903762
0.013073699999999999,-0.20003900000000002,-0.569148,-0.00107008,-0.00419696,0.000903762
0.01523,-0.150725,-0.47259700000000004,-0.0008039519999999999,-0.00387526,0.000903762
0.021737700000000002,-0.150426,-0.565028,-0.00136052,-0.00369102,0.000903762
0.0114223,-0.150679,-0.440434,-0.0010374,-0.00411612,0.000903762
0.0204549,-0.12103900000000001,-0.512789,-0.00158983,-0.00404138,0.000903762
0.00763004,-0.150858,-0.409038,-0.000514846,-0.00419892,0.000903762
0.016596699999999995,-0.12734100000000004,-0.47234799999999993,-0.00114674,-0.00379301,0.000903762
0.00567615,-0.15059,-0.43837299999999996,-0.00131157,-0.00403022,0.000903762
0.0115177,-0.201153,-0.637093,-0.00212857,-0.00442157,0.0010342900000000002
0.015733100000000003,-0.15026199999999998,-0.46591099999999996,-0.00131964,-0.00334225,0.000903762
0.034804400000000006,-0.151318,-0.5883520000000001,-0.000296077,-0.00420799,0.000903762
0.0198579,-0.141005,-0.445719,-0.00123758,-0.00386563,0.000903762
0.0275522,-0.14735299999999998,-0.48627700000000007,-0.000982861,-0.00350618,0.0008509019999999997
0.00960429,-0.182354,-0.43478900000000004,-0.00212167,-0.00358256,0.000667633
0.0199845,-0.115579,-0.403975,-0.00257282,-0.00353155,0.000903762
0.0322952,-0.291497,-0.63254,-0.00693392,-0.0056963000000000005,0.00105563
0.0265557,-0.20659499999999997,-0.547415,-0.00680956,-0.00568109,0.0013491200000000005
0.0138123,-0.0959385,-0.517035,-0.00119295,-0.00247867,0.0006371759999999999
0.0199637,-0.231994,-0.7728629999999999,-0.00187825,-0.00310068,0.000903762
0.017971599999999997,-0.117129,-0.589144,-0.000500173,-0.00227625,0.000903762
0.017739399999999995,-0.208296,-0.810654,4.88339e-06,-0.00283557,0.000469169
0.0113277,-0.148591,-0.655587,0.000776256,-0.00274175,0.00046917
0.017987799999999998,-0.170049,-0.701288,0.0013721400000000006,-0.00232534,0.00046917
0.0179206,-0.19563599999999998,-0.595875,0.000391574,-0.00232534,0.000835633
0.017798599999999998,-0.08948819999999999,-0.597824,-0.000174202,-0.00278258,0.000536166
0.0032461999999999994,-0.165904,-0.520482,0.00153227,-0.0030253,0.00031949400000000003
-0.00956539,-0.128717,-0.574307,-0.000346997,-0.00339859,0.00046917
-0.028622500000000002,-0.196417,-0.674704,-0.000314166,-0.00401868,9.66272e-05
-0.0190953,-0.166449,-0.546395,-0.00040156800000000004,-0.00370895,0.00014184200000000002
-0.000383456,-0.10578199999999999,-0.6354029999999999,0.00102459,-0.00370895,0.000486375
-0.00675019,-0.139536,-0.523844,0.00113345,-0.00287782,0.000348867
-0.00363734,-0.07313709999999997,-0.5125350000000001,0.000247923,-0.00289779,0.000305124
-0.011255200000000002,-0.128168,-0.519126,0.00144594,-0.00272266,0.00043976
-0.000454491,-0.08158589999999999,-0.5484600000000001,0.000421372,-0.00284038,0.000181507
-0.00636231,-0.15745699999999999,-0.505622,0.00153627,-0.00249056,0.000154157
-0.00447457,-0.0873406,-0.559771,0.0009067330000000001,-0.00236147,0.00021825299999999999
-0.00462232,-0.172066,-0.477867,0.00260017,-0.00263139,0.00033788599999999997
-0.00445709,-0.124965,-0.634988,0.00198142,-0.00238827,0.00029198099999999997
-0.00484036,-0.205418,-0.7718629999999999,0.00122233,-0.00305527,0.000199973
-0.0208611,-0.14120700000000005,-0.581504,0.00316191,-0.00242967,0.00013508200000000002
-0.020913400000000002,-0.12826600000000002,-0.761158,0.00067033,-0.00276081,8.164499999999996e-06
-0.0246607,-0.128545,-0.543342,0.00139135,-0.00263293,8.16058e-05
-0.015534000000000001,-0.09129839999999999,-0.597815,0.000386082,-0.0021085,8.164499999999996e-06
-0.018757299999999998,-0.148573,-0.7500439999999999,0.000612949,-0.00250676,-0.000189978
-0.0218533,-0.139508,-0.608025,0.00173026,-0.00236924,-9.185790000000001e-05
-0.0208531,-0.10702,-0.597835,0.0012889100000000005,-0.00244613,-9.613709999999998e-05
-0.0133459,-0.224906,-0.9001139999999999,0.00298758,-0.00304064,-0.000315903
-0.025881,-0.169518,-0.8557139999999999,0.00101341,-0.00295259,-9.986549999999999e-05
-0.0375832,-0.242598,-0.8568629999999999,0.00136333,-0.0028896,-0.000788022
-0.033005099999999996,-0.15673399999999998,-0.6645800000000001,0.00142157,-0.00228459,-0.00034493800000000004
-0.0186019,-0.138,-0.841095,0.000906334,-0.00312219,-0.000351201
-0.016813400000000003,-0.156808,-0.686986,0.000777331,-0.00259286,-0.000425679
-0.00818074,-0.157829,-0.796647,0.000294948,-0.00264226,-0.00041371199999999994
-0.0209789,-0.229897,-0.8735139999999999,0.00198538,-0.00274395,-0.0005407519999999999
-0.011532200000000001,-0.16109300000000001,-0.7839359999999999,0.0009117989999999999,-0.00206867,-0.000364497
-0.0269187,-0.22483899999999998,-0.8803860000000001,0.00256861,-0.00275051,-0.00041058699999999996
-0.021123,-0.167437,-0.8595939999999999,0.00301151,-0.00238643,-0.000715116
-0.0326542,-0.24093299999999998,-0.9309780000000001,0.00303528,-0.00264333,-0.00067598
-0.0210972,-0.11175,-0.7213429999999998,0.00146821,-0.00172329,-0.000557856
-0.0116459,-0.128676,-0.657496,0.00136295,-0.0024281,-0.00038479300000000003
-0.0127329,-0.100731,-0.647543,0.000663705,-0.00198866,-0.00020559
-0.0173767,-0.14133900000000002,-0.66037,0.00212532,-0.00198866,-0.00020559
-0.0128165,-0.11121500000000001,-0.630441,0.00294105,-0.00242729,-0.000142291
-0.0118896,-0.150587,-0.6161220000000001,0.0024789,-0.0021625,-7.76912e-05
-0.00363028,-0.0934195,-0.608988,0.0016065299999999995,-0.00240127,5.1621499999999994e-05
-0.00364388,-0.14182800000000004,-0.5822390000000001,0.00229355,-0.002408,-3.754e-05
-0.00635354,-0.08914839999999999,-0.5964430000000001,0.0013876,-0.00235726,-0.00020559
-0.0318442,-0.217323,-0.861425,0.00232955,-0.00352387,-0.000784132
-0.0295483,-0.136897,-0.745229,0.00211479,-0.0027578000000000004,-0.000617466
-0.0436164,-0.07197730000000001,-0.533552,0.00292504,-0.00171361,-0.000960853
-0.0427096,-0.151317,-0.667435,0.00271131,-0.00242514,-0.000903991
-0.027576099999999996,-0.13660000000000005,-0.7639209999999999,0.00137618,-0.0024607,-0.000784132
-0.0249051,-0.175136,-0.679607,0.00212336,-0.00274535,-0.000784132
-0.010426399999999999,-0.106727,-0.6472760000000001,0.00198553,-0.00267533,-0.00026111200000000003
-0.007114499999999999,-0.191102,-0.814884,0.00340038,-0.00292652,-0.000406002
-0.0248454,-0.16535999999999998,-0.6522600000000001,0.00369581,-0.00264451,-0.00027206400000000003
-0.00665109,-0.12141500000000001,-0.696876,0.0034827,-0.00211141,-0.00047649599999999997
-0.00725575,-0.15730999999999998,-0.7907119999999999,0.00364516,-0.00276355,-0.000395402
-0.0249115,-0.19496,-0.8053,0.00441585,-0.00289543,-0.000455186
-0.0181142,-0.127408,-0.6996939999999999,0.00382137,-0.00242533,-0.00041959699999999996
-0.012588799999999999,-0.16486900000000002,-0.911609,0.00663031,-0.00410409,-0.000784132
-0.0398914,-0.224171,-0.9003419999999999,0.008523279999999998,-0.00490332,-0.00104502
-0.00306763,-0.158756,-0.8475469999999999,0.00516795,-0.00394035,-0.00023783
-0.0257142,-0.187437,-0.794242,0.0055983000000000005,-0.00408347,-0.0005016080000000001
-0.0109352,-0.141778,-0.8206129999999999,0.00420811,-0.00354767,-0.00038510599999999997
-0.0191914,-0.154007,-0.7332420000000001,0.00304165,-0.00333278,-0.0006471690000000001
-0.014740600000000001,-0.11714200000000001,-0.745263,0.00297682,-0.00328997,-0.000660722
-0.022154499999999997,-0.18748599999999999,-0.792723,0.0039234000000000005,-0.0035469,-0.000781184
-0.012078799999999999,-0.12150799999999999,-0.6569619999999999,0.00313086,-0.00343388,-0.00045725599999999996
0.00348908,-0.10105499999999999,-0.811442,0.00353519,-0.00291811,-0.00048741800000000004
-0.0119897,-0.149315,-0.684345,0.00537922,-0.00300321,-0.000162634
-0.009262780000000005,-0.0958427,-0.6623140000000001,0.00464673,-0.00332645,-1.0236000000000003e-05
-0.0116814,-0.131125,-0.6476430000000001,0.00558902,-0.00360945,-0.000143839
-0.0124225,-0.11616300000000002,-0.609321,0.00557977,-0.00304545,-0.000199708
-0.005718600000000001,-0.07865839999999999,-0.664509,0.00484316,-0.00296284,-0.000199708
-0.0109048,-0.10849500000000001,-0.655612,0.00542613,-0.00307034,-0.00010434200000000001
-0.00430318,-0.0648185,-0.657774,0.00455535,-0.00307034,-8.35795e-05
-0.00259474,-0.15175999999999998,-0.8567110000000001,0.00499105,-0.00307034,0.00023333900000000002
-0.0007897549999999997,-0.11628,-0.734371,0.00543745,-0.00307034,-0.000199708
-0.00121925,-0.16435999999999998,-0.85345,0.00451851,-0.00366546,-0.000199708
-0.010811200000000002,-0.120299,-0.6437930000000001,0.00363876,-0.0038123000000000007,-0.000199708
-0.00095992,-0.090999,-0.678421,0.00345499,-0.00311043,-0.000199708
-0.0178852,-0.19872599999999999,-0.8071209999999999,0.00497949,-0.00366449,-0.000546656
-0.00106463,-0.0962263,-0.6601520000000001,0.00395271,-0.00321735,-0.00019450900000000002
-0.0317806,-0.148008,-0.78814,0.00193712,-0.00396194,-0.0007191560000000001
-0.0204109,-0.10212,-0.6171399999999999,0.00267275,-0.00366775,-0.00024107099999999998
0.0007347969999999999,-0.152333,-0.8734639999999999,0.00206168,-0.004259000000000001,-0.000150303
-0.0130558,-0.113041,-0.744004,0.00352859,-0.00306328,-0.00017518400000000002
0.00435606,-0.061489,-0.722673,0.00324483,-0.0027251,-0.000156855
0.0010216200000000002,-0.122454,-0.800517,0.0028929000000000003,-0.00289562,-0.000193377
-0.00266874,-0.139473,-0.7920010000000001,0.00363663,-0.00289562,-0.00026313
0.00825664,-0.149355,-0.745527,0.00272229,-0.00235544,-1.19422e-06
-0.00304639,-0.147216,-0.761304,0.00251449,-0.0032991,-0.00012545700000000002
-0.0203267,-0.149006,-0.888652,0.00213872,-0.00480712,-0.000780023
-0.037101,-0.18495599999999998,-0.852582,-0.00054237,-0.00534407,-0.000438023
-0.0339233,-0.150197,-0.721035,0.000942832,-0.00408773,-0.00045849800000000005
-0.0217701,-0.198242,-0.8439270000000001,0.00158684,-0.00424899,-0.0008400619999999999
-0.0453849,-0.145401,-0.705311,0.00304822,-0.0038539,-0.0008400619999999999
-0.0178882,-0.102692,-0.690135,0.00200056,-0.00380346,-0.00024349400000000002
-0.0211136,-0.117153,-0.601901,0.0033036999999999997,-0.00363487,-0.000122943
-0.019905799999999998,-0.07407849999999999,-0.658341,0.00256339,-0.00387884,-0.00022128599999999998
-0.0144783,-0.11679500000000001,-0.6044350000000001,0.00258473,-0.00356709,-0.000115905
-0.00514214,-0.0697648,-0.657337,0.00186042,-0.0034741999999999998,0.00011170400000000005
-0.013654099999999999,-0.129047,-0.601374,0.00328117,-0.00339744,4.9249600000000004e-05
-0.0137624,-0.0717353,-0.614477,0.00232494,-0.00366873,-9.45501e-05
-0.0212835,-0.134972,-0.616025,0.00324512,-0.00368138,-6.5306e-05
-0.013737200000000001,-0.08304989999999997,-0.6254529999999999,0.00272116,-0.0037634,0.00011975299999999999
-0.013526499999999999,-0.139069,-0.7916189999999999,0.00298998,-0.00352751,-0.00022683099999999998
-0.00691207,-0.11617899999999999,-0.737089,0.00213539,-0.00316558,8.5083e-05
-0.0135214,-0.14044600000000002,-0.7863979999999999,0.00310732,-0.00356561,-0.000109152
-0.00696339,-0.08791939999999998,-0.675175,0.00312439,-0.00349602,3.69425e-05
-0.00458189,-0.1442,-0.908934,0.00357291,-0.00303223,-0.000130496
-0.013322399999999998,-0.136951,-0.888833,0.00399621,-0.00340303,-0.00019988900000000002
-0.00389691,-0.107089,-0.782885,0.00379794,-0.00275285,-0.000317871
-0.013207900000000002,-0.166178,-0.909567,0.00302509,-0.00301014,-0.00016436
-0.013296299999999999,-0.121656,-0.795683,0.00399681,-0.00292722,-0.00012270100000000002
-0.0131224,-0.0949789,-0.7613769999999999,0.00409769,-0.00261625,-0.000238756
-0.0377126,-0.168328,-0.737823,-0.00178122,-0.00538721,-0.00139911
-0.0371198,-0.11264900000000005,-0.8071689999999999,0.000410838,-0.00428453,-0.00123723
-0.0370308,-0.1998,-0.9342720000000002,0.0034989000000000005,-0.00428737,-0.000798153
-0.012292,-0.136863,-0.8858729999999999,0.00223892,-0.00382652,-0.00044766300000000005
-0.00778828,-0.155606,-0.8547739999999999,0.0023668,-0.00418826,1.82799e-05
-0.00783083,-0.101396,-0.7353689999999999,0.00262546,-0.00401309,-0.000118463
-0.00911739,-0.18290599999999999,-1.12965,0.00352073,-0.0054078,-0.00124096
-0.030262599999999997,-0.203646,-1.16941,0.00460417,-0.00558591,-0.00145688
-0.036691900000000006,-0.11005699999999999,-0.9919540000000001,0.00430479,-0.00436083,-0.00119027
-0.0303764,-0.176596,-1.13983,0.00456023,-0.004843500000000001,-0.00113877
-0.030290300000000003,-0.156592,-0.916091,0.00329668,-0.00414166,-0.0009326289999999999
-0.0260346,-0.0966504,-0.930837,0.00272045,-0.00395662,-0.000968856
-0.0221325,-0.126866,-0.8205409999999999,0.00326124,-0.00424511,-0.000647557
-0.0201027,-0.106924,-0.85695,0.00299947,-0.00423921,-0.0006407709999999999
-0.0152592,-0.132395,-0.76078,0.00361691,-0.00358886,-0.000355036
-0.0105032,-0.103421,-0.829327,0.00267902,-0.00380508,-0.00037654800000000004
-0.014421000000000002,-0.14161600000000002,-0.790362,0.00271217,-0.00394595,-0.00030341900000000003
-0.00856023,-0.0986403,-0.6942699999999999,0.0021592,-0.00401895,-0.000107331
-0.00574774,-0.0728197,-0.746468,0.00198165,-0.00371538,-0.000135373
-0.016456099999999998,-0.187539,-0.9539110000000001,0.00304433,-0.00458188,-0.000282984
-0.0270908,-0.184324,-0.982809,0.00403508,-0.00429173,-0.00064077
-0.010285899999999999,-0.11003199999999999,-0.9483990000000002,0.00318256,-0.00331598,-0.000499975
-0.0509964,-0.301433,-1.35001,0.00364519,-0.00618202,-0.00108816
-0.0290743,-0.149224,-0.99336,0.00527838,-0.00470855,-0.000412625
-0.0471041,-0.220092,-1.34569,0.00364519,-0.00644643,-0.00111398
-0.0332604,-0.207713,-0.986266,0.00126956,-0.00592628,-0.00109811
-0.08876929999999998,-0.45975699999999997,-1.4289,-0.00021208700000000002,-0.0102632,-0.00170125
-0.0573899,-0.323434,-1.19736,0.00202231,-0.0064762,-0.00140904
-0.050486300000000005,-0.235093,-1.2112100000000001,0.00222363,-0.00579446,-0.00146256
-0.0800651,-0.33303699999999997,-1.3915600000000001,0.00436963,-0.00744382,-0.00188311
-0.0463081,-0.21450999999999998,-1.01899,-0.0007947609999999997,-0.00650043,-0.00126281
-0.030079599999999998,-0.295299,-1.29311,-3.97239e-05,-0.00477759,-0.00125606
-0.0520486,-0.23837399999999997,-1.25072,0.00197102,-0.0050097,-0.00161922
-0.07083500000000001,-0.296675,-1.40238,0.00266611,-0.00510554,-0.00197778
-0.0555962,-0.24001799999999998,-1.0514700000000001,-0.00020133599999999998,-0.00481682,-0.00154104
-0.04631180000000001,-0.166871,-1.04401,-0.0008557219999999997,-0.00497589,-0.0015300999999999997
-0.05857230000000001,-0.259181,-1.2127,-0.0011009000000000001,-0.00572359,-0.00136209
-0.054366599999999994,-0.241483,-1.0498100000000001,-0.00260427,-0.00494102,-0.00140098
-0.0386356,-0.198552,-1.01291,-0.00392497,-0.0049265,-0.00120306
-0.08077869999999998,-0.33029400000000003,-1.29569,-0.00399822,-0.00660153,-0.0013970999999999999
-0.0483854,-0.213871,-0.954259,-0.00360707,-0.00475098,-0.00132476
-0.041453699999999996,-0.194609,-0.931889,-0.00335096,-0.00463428,-0.00113012
-0.0361749,-0.175121,-0.8858459999999999,-0.00367282,-0.00423046,-0.000944163
-0.032211000000000004,-0.19409,-0.8605399999999999,-0.00416198,-0.00441367,-0.000851517
-0.028944499999999998,-0.169429,-0.8835649999999999,-0.00394073,-0.004503,-0.0008778289999999999
-0.036624699999999996,-0.17035699999999998,-0.7996689999999999,-0.00302456,-0.0050042,-0.000768377
-0.014898699999999999,-0.142558,-0.8311199999999999,-0.00336331,-0.00458803,-0.000748463
-0.0244287,-0.171678,-0.776537,-0.00287763,-0.00451031,-0.000582092
-0.0198328,-0.14238900000000002,-0.834318,-0.00351955,-0.00444128,-0.0006296
-0.03464,-0.144809,-0.9160360000000001,-0.00366061,-0.0057023,-0.00045104300000000004
-0.0495406,-0.279968,-1.0514,-0.00201351,-0.00536526,-0.000861302
-0.045136199999999994,-0.342526,-1.24146,-0.00146492,-0.00548665,-0.000944163
-0.037212999999999996,-0.291405,-1.0096100000000001,-0.0035448999999999997,-0.00452335,-0.0008559619999999999
-0.0642267,-0.37090500000000004,-1.36825,0.000235503,-0.00586561,-0.00142038
-0.049059,-0.220229,-0.961405,-0.00305497,-0.00472632,-0.0009707180000000001
-0.0418906,-0.17741700000000002,-0.931206,-0.00526816,-0.00491305,-0.00111205
-0.07412599999999997,-0.2713,-1.2153,-0.00233722,-0.00570304,-0.00136611
-0.0490486,-0.19575,-0.8925269999999998,-0.00285742,-0.00472338,-0.00136611
-0.044862,-0.168693,-0.9468489999999999,-0.00387182,-0.00523389,-0.00128685
-0.0536759,-0.195328,-0.9973799999999999,-0.00348742,-0.00548104,-0.00126666
-0.0585153,-0.293004,-1.21985,-0.000455936,-0.00640718,-0.00136611
-0.0545654,-0.273355,-1.1911399999999999,-0.00156053,-0.00544548,-0.00136611
-0.0401657,-0.25312399999999996,-1.11081,-0.00373257,-0.00488675,-0.00107626
-0.0367281,-0.35889899999999997,-1.30301,-0.00318444,-0.00543638,-0.00119272
-0.0368273,-0.293149,-1.09502,-0.00403299,-0.00491942,-0.00101949
-0.018790099999999997,-0.270069,-1.10524,-0.00360236,-0.00544722,-0.000949981
-0.0377578,-0.25716500000000003,-1.12099,-0.00400694,-0.00534846,-0.00106281
-0.027902099999999996,-0.162511,-0.9104969999999999,-0.005186100000000001,-0.00477256,-0.000676994
-0.0185364,-0.234138,-1.11693,-0.00458164,-0.0047257,-0.0007369899999999998
-0.0173175,-0.267269,-1.0911799999999998,-0.00478021,-0.00456451,-0.00048028599999999996
-0.0034652999999999997,-0.26305300000000004,-0.977686,-0.004289,-0.00469173,-0.00022658
-0.00865097,-0.22453,-0.9487399999999999,-0.00411914,-0.00465017,7.32835e-05
-0.008548939999999998,-0.238986,-0.8289309999999999,-0.00272936,-0.00437123,7.328339999999997e-05
0.00701596,-0.18633,-0.918219,-0.00297981,-0.00437522,7.32835e-05
-0.012301500000000005,-0.24591999999999997,-0.807384,-0.00156211,-0.00421958,7.32835e-05
0.000445816,-0.18828599999999998,-0.8728,-0.00278878,-0.00422398,-2.35154e-05
-0.00433747,-0.225226,-0.7871749999999998,-0.00191281,-0.004183699999999999,7.32835e-05
0.00659427,-0.154427,-0.893766,-0.00221348,-0.00413224,7.32835e-05
-0.00738543,-0.22385700000000003,-0.9578399999999999,-0.00118513,-0.0050341,7.328339999999997e-05
-0.00699911,-0.27465,-1.2488299999999999,0.0008493119999999999,-0.0048530000000000005,-0.000285227
-0.0005110119999999999,-0.192109,-1.05021,-0.000306191,-0.00446262,0.000179323
-0.0316216,-0.27157,-1.1759600000000001,-0.00297876,-0.00558485,-0.0009654069999999999
-0.0258993,-0.236131,-0.9336350000000002,-0.00279866,-0.00501703,-0.0009654069999999999
-0.0491974,-0.336094,-1.35295,-0.0008567409999999997,-0.00626273,-0.00162577
-0.058204099999999995,-0.272251,-1.0454299999999999,-0.00324403,-0.00578263,-0.00124866
-0.0472539,-0.190048,-0.9948450000000001,-0.00361037,-0.00538628,-0.0009614210000000001
-0.0584259,-0.297858,-1.3201399999999999,-0.00157702,-0.00589676,-0.00127903
-0.0565942,-0.295009,-1.04674,-0.00334606,-0.00575542,-0.00152444
-0.055015499999999995,-0.343697,-1.5020200000000001,-0.0028832,-0.00745718,-0.00171557
-0.0433394,-0.28030900000000003,-1.2206700000000001,-0.0027713,-0.00627327,-0.00122001
-0.0461945,-0.281048,-1.09489,-0.00461302,-0.00605683,-0.00116138
-0.0783772,-0.372935,-1.57566,-0.000605109,-0.007646639999999999,-0.00163052
-0.0631972,-0.312681,-1.17054,-0.00237034,-0.00612089,-0.00133139
-0.039691699999999996,-0.248896,-1.12659,-0.0033489000000000006,-0.00640023,-0.00104835
-0.0472168,-0.314393,-1.3871200000000001,-0.00215186,-0.00647773,-0.00128746
-0.0474949,-0.26154099999999997,-1.1378700000000002,-0.00209681,-0.00664339,-0.0011532300000000005
-0.047142199999999995,-0.304383,-1.3088600000000001,-0.000973903,-0.00652251,-0.00135369
-0.0325192,-0.267807,-1.16724,-0.00284581,-0.00591421,-0.00128746
-0.0271204,-0.295995,-1.35238,-0.00107782,-0.00591607,-0.00128746
-0.036738400000000004,-0.29028400000000004,-1.1724700000000001,-0.00177268,-0.0058828000000000005,-0.0009566240000000002
-0.015164500000000001,-0.239536,-1.08461,-0.00159195,-0.00537867,-0.000716429
-0.00883277,-0.225892,-0.981349,-5.5121400000000004e-05,-0.00532674,-2.18054e-05
-0.00728292,-0.184962,-0.9265950000000001,-0.00100602,-0.00564665,3.64336e-05
-0.00710204,-0.22494,-0.9480620000000001,-0.00142728,-0.00530839,0.00011607100000000001
-0.00716278,-0.218453,-0.883608,-0.00195507,-0.00535342,0.00020877599999999998
-0.00243235,-0.22501999999999997,-0.9768959999999999,-0.00134266,-0.00557812,3.64336e-05
-0.000872041,-0.21359299999999998,-0.8978290000000001,-0.000236147,-0.00528771,3.64336e-05
0.00045637,-0.235335,-1.08585,-0.000496958,-0.00518403,3.64336e-05
-0.0310622,-0.336821,-1.37626,0.00443284,-0.00668743,-0.000822094
-0.030209500000000004,-0.26562199999999997,-1.17314,0.00135648,-0.00544193,-0.000758306
-0.024169299999999998,-0.24222800000000003,-1.11514,0.00183496,-0.00520226,-0.000493172
-0.029914499999999997,-0.259707,-1.32568,0.00376102,-0.00524208,-0.000862571
-0.030077999999999997,-0.19359,-1.04657,0.000968615,-0.00503057,-0.000552524
-0.0297868,-0.248784,-1.26525,0.00096931,-0.00507405,-0.00114537
-0.030004400000000004,-0.258666,-1.16915,0.0009382360000000001,-0.00524238,-0.00127381
-0.030375799999999998,-0.226791,-1.15002,-0.00159071,-0.00569137,-0.000976357
-0.0252685,-0.2736,-1.35486,0.00315029,-0.00544143,-0.0007298959999999997
-0.029887,-0.30334,-1.37184,0.00353356,-0.00542541,-0.00127381
-0.112695,-0.480659,-1.67518,-0.000237625,-0.0084086,-0.00201104
-0.0585765,-0.27052,-1.24526,0.0009112320000000002,-0.00623731,-0.00125552
-0.0369551,-0.23952800000000002,-1.25883,-0.00045940099999999996,-0.00676164,-0.00103278
-0.0727936,-0.144762,-1.44425,0.007937399999999999,-0.00829869,-0.00173298
-0.0551714,-0.235139,-1.33588,0.00675837,-0.00730655,-0.00125552
-0.0676184,-0.259046,-1.61205,0.00491962,-0.00941755,-0.00157254
-0.060633000000000006,-0.258761,-1.25684,0.00451906,-0.008253099999999998,-0.00145446
-0.06725310000000001,-0.2588,-1.4042700000000001,0.00456027,-0.00896183,-0.00150271
-0.0607341,-0.21785300000000002,-1.23993,0.0017175999999999995,-0.008120159999999998,-0.00149287
-0.0607881,-0.22770300000000002,-1.3804900000000002,0.00213526,-0.008472200000000001,-0.0015292699999999995
-0.08046499999999998,-0.33039,-1.55664,0.00293956,-0.00845543,-0.00154225
-0.0564481,-0.21075100000000002,-1.09094,0.00205889,-0.00741918,-0.0009148820000000002
-0.0406404,-0.174311,-1.0237100000000001,0.00218346,-0.00645372,-0.0006192459999999999
-0.034985199999999994,-0.16478900000000002,-0.928926,0.00218346,-0.00551145,-0.000330449
-0.0229834,-0.15545,-0.993016,0.00178307,-0.00544587,-0.000489653
-0.027419299999999997,-0.16062399999999996,-0.8872200000000001,0.00218346,-0.00533423,-0.000370338
-0.014472200000000001,-0.13528800000000002,-0.937644,0.00106253,-0.00532273,-0.00041691199999999997
-0.0160031,-0.169514,-0.8884729999999998,0.00178087,-0.00504436,-0.000106368
-0.00594347,-0.158527,-0.954835,0.0018972000000000001,-0.00463269,-0.000113881
-0.0131183,-0.158358,-0.912984,0.00169271,-0.004675899999999999,-0.00020350400000000002
-0.013195900000000005,-0.242017,-1.2591500000000002,0.00211165,-0.00532183,-0.00023441
-0.0121284,-0.22952199999999998,-1.15666,0.00472362,-0.00494747,-0.0005759890000000001
-0.022615,-0.245563,-1.26255,0.00589739,-0.00541162,-0.0005823569999999999
-0.0242901,-0.22396,-1.15995,0.00309489,-0.00588413,-0.00068357
-0.018886299999999998,-0.17415999999999998,-1.12073,0.00303696,-0.00595407,-0.000320652
-0.0230473,-0.24118,-1.20078,0.00335451,-0.0054711000000000004,-0.000614355
-0.0266466,-0.170717,-1.0256,0.00299831,-0.00510632,-0.000706986
-0.0229446,-0.193685,-1.27372,0.008381999999999999,-0.0063541000000000005,-0.00127046
-0.0628138,-0.272557,-1.46099,0.00843258,-0.00671944,-0.00173891
-0.0356011,-0.255685,-1.36808,0.00951328,-0.00545911,-0.0009027639999999999
-0.052792,-0.214891,-1.22406,0.008697639999999998,-0.00506708,-0.00119413
-0.039899300000000006,-0.203952,-1.31544,0.00818549,-0.00502367,-0.00108613
-0.042390699999999996,-0.243759,-1.19913,0.00949393,-0.00495007,-0.000884916
-0.0232697,-0.16576300000000002,-1.22672,0.008302679999999998,-0.00437292,-0.000871018
-0.0194407,-0.258291,-1.33554,0.008290449999999998,-0.00481836,-0.00108495
-0.017281,-0.237198,-1.26215,0.00644822,-0.00465003,-0.000905986
-0.0249701,-0.20536,-1.18095,0.00578245,-0.00444996,-0.000932129
-0.0298519,-0.21861999999999998,-1.2866799999999998,0.00459356,-0.00656954,-0.00108958
-0.0268147,-0.23317100000000002,-1.11584,0.00494183,-0.00524914,-0.0010794
-0.0346425,-0.23067,-1.17008,0.00412728,-0.00574037,-0.00115445
-0.0415954,-0.21706599999999998,-1.09812,0.00515004,-0.0058875,-0.00114967
-0.0337581,-0.146813,-1.0321799999999999,0.00497164,-0.00582041,-0.0008644519999999999
-0.03653869999999999,-0.187327,-1.02391,0.00646681,-0.00542924,-0.0008578369999999999
-0.0301587,-0.12328299999999999,-1.0073200000000002,0.00586558,-0.00535394,-0.000880865
-0.036026,-0.167621,-1.01029,0.00692506,-0.00474215,-0.0008066459999999997
-0.030443900000000003,-0.128575,-0.990401,0.00611799,-0.00501816,-0.0007596849999999999
-0.032862,-0.179241,-0.9771190000000001,0.007585869999999998,-0.00495305,-0.0008762389999999999
-0.036688599999999995,-0.145955,-0.969259,0.00647664,-0.0055177,-0.0008642279999999997
-0.03629280000000001,-0.17308199999999999,-1.00801,0.00730071,-0.00496918,-0.0007692860000000001
-0.0360091,-0.179644,-1.1183900000000002,0.008005339999999998,-0.0048018,-0.000654296
-0.038076099999999995,-0.214232,-1.26024,0.00746325,-0.00492544,-0.00108956
-0.038687900000000004,-0.174869,-1.11819,0.00809047,-0.0039935000000000005,-0.000802457
-0.0534379,-0.219462,-1.3455800000000002,0.00690422,-0.00546587,-0.00129739
-0.0633379,-0.209693,-1.2325100000000002,0.0062611,-0.0062005,-0.00140867
-0.0626593,-0.228183,-1.1148200000000001,0.008385639999999998,-0.00501294,-0.00153238
-0.0697205,-0.165051,-1.17157,0.00666567,-0.00582332,-0.00151487
-0.0627876,-0.193429,-1.08334,0.008414049999999998,-0.00485752,-0.00141326
-0.0371409,-0.180873,-1.2294200000000002,0.00769107,-0.00446697,-0.00100538
-0.05357290000000001,-0.188699,-1.04494,0.00671467,-0.00510883,-0.00145202
-0.0483774,-0.180527,-1.12829,0.00589459,-0.00489248,-0.00170448
-0.07257310000000002,-0.239621,-1.3091899999999999,0.00763091,-0.00557985,-0.00216119
-0.07132630000000001,-0.231785,-1.13469,0.008534700000000001,-0.00479932,-0.00189613
-0.0630364,-0.185199,-1.2614299999999998,0.0067102,-0.005167199999999999,-0.00183334
-0.06301169999999999,-0.24239699999999997,-1.32694,0.007694109999999999,-0.00534278,-0.00180356
-0.059854,-0.194703,-1.18816,0.00692312,-0.0044732,-0.00173838
-0.0623384,-0.20751599999999998,-1.34285,0.007493149999999999,-0.00454452,-0.00170903
-0.0625118,-0.21224899999999997,-1.16959,0.00872813,-0.0044533,-0.00164813
-0.055461500000000004,-0.188743,-1.36515,0.008352119999999998,-0.00483291,-0.0016028
-0.0588632,-0.221104,-1.33989,0.00744278,-0.00433887,-0.00177612
-0.0624956,-0.232202,-1.38235,0.00764526,-0.00460917,-0.00159529
-0.044978199999999996,-0.21935900000000003,-1.19593,0.007620639999999999,-0.00451726,-0.001472
-0.0330577,-0.19323099999999999,-1.1831,0.00716018,-0.00443897,-0.00111188
-0.0303784,-0.192406,-1.05976,0.00746972,-0.00439148,-0.0009588169999999999
-0.022556200000000002,-0.151518,-1.11032,0.00750714,-0.00458806,-0.0008572229999999997
-0.027239299999999998,-0.186909,-1.0108,0.00806832,-0.00476661,-0.000883203
-0.024694999999999998,-0.15141400000000002,-1.1008,0.00666223,-0.00455613,-0.000725761
-0.0343325,-0.19226500000000002,-1.01948,0.00866099,-0.0042892,-0.00071406
-0.0251368,-0.152007,-1.11113,0.00726539,-0.00455249,-0.000831569
-0.0372832,-0.21048899999999998,-1.05074,0.007931729999999998,-0.00483998,-0.00074297
-0.049113199999999996,-0.226127,-1.4014,0.00767445,-0.00561603,-0.00116933
-0.055882900000000006,-0.26045999999999997,-1.32198,0.00833351,-0.00525959,-0.00116933
-0.0456756,-0.15956999999999996,-1.02285,0.0072087,-0.00513793,-0.00116933
-0.0544062,-0.20362,-1.17414,0.00956992,-0.00506472,-0.00178604
-0.07549589999999999,-0.210308,-1.3412,0.00927642,-0.00486842,-0.00183924
-0.08750729999999997,-0.18333,-1.1949900000000002,0.0108928,-0.00450785,-0.00185197
-0.122787,-0.364041,-1.66071,0.010506399999999999,-0.00408226,-0.00399096
-0.0695972,-0.212758,-1.4033799999999998,0.010204099999999999,-0.0058324,-0.00191641
-0.055711300000000005,-0.203487,-1.26083,0.00339802,-0.00739963,-0.00184197
-0.07737059999999997,-0.189201,-1.0757,0.00573528,-0.00672173,-0.00183928
-0.111774,-0.281563,-1.49302,0.010976999999999999,-0.00801246,-0.00279255
-0.142181,-0.26262199999999997,-1.3345200000000002,0.00996462,-0.00915287,-0.00303969
-0.13566199999999998,-0.21073699999999998,-1.3777700000000002,0.00762528,-0.00943899,-0.00303968
-0.129395,-0.239744,-1.36513,0.00749351,-0.00998276,-0.00279077
-0.162114,-0.230981,-1.33039,0.00723545,-0.011880400000000001,-0.00264117
-0.149583,-0.23893499999999998,-1.27385,0.00676001,-0.0107755,-0.00303969
-0.138224,-0.186548,-1.36933,0.00604271,-0.009955640000000005,-0.00248967
-0.18235,-0.5099859999999999,-1.8827599999999998,0.00401465,-0.013422000000000005,-0.00305951
-0.13981400000000002,-0.187449,-1.32307,0.00585813,-0.010697000000000002,-0.00291636
-0.129936,-0.16325699999999999,-1.3584100000000001,0.00574756,-0.00991895,-0.00285772
-0.160179,-0.24786100000000003,-1.45852,0.009170999999999999,-0.0138582,-0.00301746
-0.11855299999999999,-0.18528699999999998,-1.2395200000000002,0.007648409999999999,-0.00973734,-0.0023953000000000004
-0.101809,-0.165076,-1.24749,0.00716436,-0.00900447,-0.00201233
-0.07772310000000002,-0.159777,-1.14192,0.007841489999999998,-0.00760119,-0.00130723
-0.05584600000000001,-0.161414,-1.17535,0.00812579,-0.00667182,-0.000671352
-0.0507869,-0.168899,-1.07936,0.00854189,-0.00668629,-0.0007695669999999998
-0.0502268,-0.151868,-1.08352,0.00778763,-0.00613662,-0.00116262
-0.045326,-0.132115,-1.0089,0.00638054,-0.0058452,-0.0006940739999999999
-0.036684800000000004,-0.147206,-1.0310800000000002,0.00659914,-0.00595162,-0.0006969389999999999
-0.0349398,-0.133614,-1.0097399999999999,0.00605434,-0.00595162,-0.000498126
-0.0270714,-0.221721,-1.27433,0.00732834,-0.00626423,-0.000547891
-0.025832499999999998,-0.16808399999999998,-1.10026,0.00723016,-0.00554082,-0.00046030400000000003
-0.0321625,-0.195796,-1.18173,0.00696272,-0.00667003,-0.000570002
-0.0306373,-0.122579,-1.03783,0.007235369999999999,-0.00569545,-0.00017864400000000002
-0.0518424,-0.16778499999999996,-1.2201899999999999,0.00799521,-0.007768019999999999,-0.00102982
-0.040084800000000004,-0.194019,-0.9732350000000001,0.00449039,-0.00637062,-0.000746511
-0.0221606,-0.07747619999999998,-0.973608,0.00468941,-0.00587445,-0.000295919
-0.052019100000000006,-0.198701,-1.12134,0.00445421,-0.00777147,-0.0013067
-0.0668702,-0.177377,-0.960211,0.00344962,-0.00669741,-0.00125655
-0.0555935,-0.09571310000000001,-0.9398920000000001,0.00133042,-0.00700833,-0.00131336
-0.051136,-0.186155,-0.9450400000000002,0.00103995,-0.00674147,-0.00105808
-0.0506029,-0.134105,-0.8355360000000001,0.0019851,-0.00580979,-0.00105808
-0.0509,-0.139721,-1.01805,0.00151078,-0.00622314,-0.00105808
-0.0505852,-0.112759,-0.9205610000000001,0.00234276,-0.00570619,-0.0011595000000000002
-0.0192623,-0.126941,-0.93748,0.00230509,-0.00530188,-0.000610312
-0.043574,-0.196687,-1.07044,0.00191713,-0.00639501,-0.00122649
-0.050827699999999996,-0.11128299999999999,-0.908315,0.0020528,-0.00617967,-0.00149814
-0.0672221,-0.197062,-1.0796,0.00361839,-0.00728525,-0.00149814
-0.06784950000000001,-0.20058299999999998,-1.03799,0.00355165,-0.007268359999999998,-0.00165854
-0.06766810000000001,-0.22506199999999998,-1.06691,0.00353901,-0.00718143,-0.00184475
-0.0672538,-0.19786099999999998,-1.01976,0.00481955,-0.00660851,-0.00182692
-0.06478210000000001,-0.123271,-0.986518,0.00453095,-0.00650182,-0.00134975
-0.060936300000000006,-0.149849,-0.961765,0.00353901,-0.00622586,-0.00143342
-0.0667189,-0.09659930000000004,-0.904475,0.0040453,-0.0058538999999999996,-0.00158855
-0.056233500000000006,-0.11901300000000001,-0.988858,0.00428644,-0.00588877,-0.0013435500000000006
-0.0606999,-0.11682000000000001,-0.8884989999999999,0.00395252,-0.00611924,-0.0007801689999999999
-0.0487119,-0.117754,-0.908558,0.00380427,-0.00582067,-0.0011112
-0.0513325,-0.116809,-0.8548799999999999,0.00354241,-0.00573833,-0.00121083
-0.0490168,-0.124852,-0.94237,0.00279392,-0.00575452,-0.00111023
-0.0674824,-0.176776,-1.03156,0.00407804,-0.00681367,-0.00121083
-0.08694939999999997,-0.219925,-1.20105,0.00465647,-0.00887649,-0.00183839
-0.067049,-0.175718,-1.03662,0.00519837,-0.00639593,-0.00146337
-0.059974,-0.142264,-1.2680200000000001,0.00432607,-0.00612027,-0.00131012
-0.0698006,-0.14699700000000002,-1.0152299999999999,0.00636331,-0.00590759,-0.00158597
-0.0579434,-0.12493499999999999,-1.03416,0.00570526,-0.00564178,-0.00153957
-0.10928399999999999,-0.219264,-1.25217,0.00738081,-0.008384209999999998,-0.00238136
-0.08304459999999997,-0.21139899999999998,-1.18066,0.00673764,-0.00749626,-0.00108485
-0.079226,-0.205315,-1.32545,0.0059637,-0.00817034,-0.00145653
-0.075822,-0.18673199999999998,-1.11781,0.00528623,-0.00643942,-0.00125686
-0.06817260000000001,-0.16552,-1.2245,0.00744965,-0.00795648,-0.00165642
-0.0787408,-0.165614,-1.07917,0.00608934,-0.00719966,-0.00161176
-0.0623485,-0.16497799999999999,-1.19147,0.00596342,-0.00654608,-0.00133253
-0.06388880000000001,-0.208412,-1.14351,0.00677794,-0.00662747,-0.00120987
-0.0645254,-0.14922,-1.03312,0.00442321,-0.00648934,-0.00129652
-0.0946037,-0.282015,-1.3764900000000002,0.00439414,-0.00627659,-0.00291793
-0.08605559999999997,-0.209385,-1.24475,0.00685152,-0.00595137,-0.00218313
-0.0642277,-0.146293,-1.0861399999999999,0.00432396,-0.00515943,-0.00170245
-0.0692334,-0.193245,-1.19179,0.00346049,-0.00576034,-0.0017031
-0.055643200000000004,-0.148091,-1.07434,0.00403738,-0.00564811,-0.0017801099999999997
-0.044910000000000005,-0.20630500000000002,-1.2720799999999999,0.00552481,-0.0054651000000000005,-0.00160766
-0.0455443,-0.198527,-1.0482200000000002,0.00533995,-0.00587713,-0.00136421
-0.0416386,-0.175326,-1.18903,0.00501785,-0.00617682,-0.0008544139999999997
-0.0359345,-0.171506,-1.01052,0.00677743,-0.00558202,-0.000634681
-0.0258983,-0.125354,-1.07114,0.00507064,-0.00506961,-0.0006353919999999999
-0.0313486,-0.155617,-0.9915700000000001,0.0053834,-0.00504415,-0.000545783
-0.027792599999999997,-0.129945,-1.00434,0.00414954,-0.00507573,-0.000354045
-0.030974099999999997,-0.163099,-0.9972409999999999,0.00547153,-0.00481613,-0.000423679
-0.021102799999999998,-0.117523,-1.01989,0.00467423,-0.00509123,-0.000343734
-0.032546,-0.170152,-1.05469,0.00434346,-0.00516594,-3.1736e-06
-0.0609366,-0.201627,-1.15761,0.00570786,-0.00580342,-0.00125065
-0.047305099999999996,-0.140766,-0.949259,0.00504001,-0.00537247,-0.00109386
-0.027357099999999995,-0.168658,-1.26295,0.00351433,-0.00613991,-0.00046448800000000004
-0.0377908,-0.20620100000000002,-1.0964,0.00558078,-0.00533605,-0.00058567
-0.0191488,-0.161603,-1.23404,0.00479289,-0.00507099,-0.00043961
-0.0252149,-0.23129899999999998,-1.11776,0.00623339,-0.00492868,-0.0007021439999999999
-0.010018,-0.126945,-1.20559,0.00540589,-0.00420341,-0.00031491799999999997
-0.0359844,-0.23275500000000002,-1.19155,0.00682288,-0.00460879,-0.0008621539999999999
-0.031370499999999996,-0.148342,-1.1155,0.00764522,-0.00472142,-0.000622257
-0.0314969,-0.187613,-1.26909,0.009357299999999999,-0.00515112,-0.000499981
-0.032907900000000004,-0.190627,-1.1231200000000001,0.00708159,-0.00483513,-0.0007472739999999999
-0.0642929,-0.371856,-1.62885,0.0138276,-0.0100616,-0.00184152
-0.07898919999999998,-0.274465,-1.39399,0.0123496,-0.00692046,-0.00204176
-0.039465,-0.159379,-1.2753299999999999,0.0102309,-0.00608578,-0.00111705
-0.0389472,-0.245376,-1.33896,0.00968994,-0.007360079999999998,-0.0011223
-0.037972000000000006,-0.232977,-1.25026,0.010422200000000001,-0.00601054,-0.0010325000000000002
-0.023415400000000003,-0.183864,-1.27163,0.00994202,-0.0059001,-0.0009044639999999999
-0.038581800000000006,-0.26814899999999997,-1.39104,0.0103951,-0.00680716,-0.00110069
-0.03796769999999999,-0.17061300000000001,-1.20325,0.009606300000000005,-0.00590741,-0.00102382
-0.008659409999999998,-0.217358,-1.34722,0.00938397,-0.00483883,-0.0008897539999999998
-0.0148601,-0.251416,-1.35591,0.00966293,-0.00499608,-0.0009525289999999999
-0.024188499999999998,-0.22616399999999998,-1.2063,0.00949317,-0.00512323,-0.000924758
-0.023274400000000004,-0.193605,-1.18791,0.00929888,-0.00476788,-0.0007389379999999999
-0.0300613,-0.203185,-1.10476,0.010293900000000002,-0.0052854,-0.000714453
-0.0217751,-0.16631600000000002,-1.14866,0.008893379999999998,-0.00514009,-0.0007171980000000001
-0.0264567,-0.190719,-1.12221,0.00915332,-0.00532126,-0.0007979989999999998
-0.0219841,-0.149925,-1.18079,0.008553359999999998,-0.00544254,-0.0007784209999999997
-0.037655900000000006,-0.190313,-1.09597,0.00940454,-0.00568524,-0.000932126
-0.0181938,-0.14996699999999996,-1.17756,0.009201730000000002,-0.0052008,-0.0008639089999999999
-0.0226089,-0.20825700000000003,-1.1879,0.00849532,-0.0053213,-0.000890355
-0.07110810000000001,-0.24170999999999998,-1.3806,0.00642321,-0.00716467,-0.00180228
-0.0322541,-0.241862,-1.2006,0.00743028,-0.00536816,-0.000999598
-0.0371855,-0.214441,-1.1362,0.00183679,-0.00643028,-0.00113972
-0.037052499999999995,-0.220764,-1.1920600000000001,0.00450737,-0.00631908,-0.00102735
-0.0296012,-0.206177,-1.05965,0.00503274,-0.00540638,-0.000637305
-0.019887900000000003,-0.18207,-1.2201,0.00445001,-0.00618435,-0.000716944
-0.033163,-0.194139,-1.09283,0.00717595,-0.0054018,-0.0009182960000000001
-0.0365426,-0.177089,-1.23106,0.00705076,-0.00526454,-0.000874876
-0.036389300000000006,-0.160288,-1.09589,0.00810871,-0.00505502,-0.00102649
-0.024181400000000002,-0.11896199999999998,-1.1922,0.00848741,-0.00475074,-0.00093317
-0.037404400000000004,-0.24858000000000002,-1.2789700000000002,0.00949678,-0.0064068,-0.0011851
-0.032196499999999996,-0.17191999999999996,-1.24248,0.0115776,-0.0050364,-0.00081284
-0.0280918,-0.18613,-1.19747,0.010378700000000001,-0.00460949,-0.0007292009999999999
-0.07432619999999998,-0.404857,-1.66661,0.014683199999999999,-0.00918425,-0.00187339
-0.0517674,-0.22535500000000003,-1.2593299999999998,0.0116988,-0.00590279,-0.00133333
-0.048008300000000004,-0.193075,-1.2178000000000002,0.011102899999999999,-0.00560584,-0.00134226
-0.0437444,-0.202051,-1.1571300000000002,0.010923200000000001,-0.00532425,-0.0009996010000000001
-0.0228405,-0.22541999999999998,-1.25262,0.00929194,-0.00586021,-0.000911977
-0.03996040000000001,-0.194063,-1.1180299999999999,0.00904398,-0.00599495,-0.000858203
-0.0221804,-0.17707,-1.26381,0.00907437,-0.00515336,-0.000743488
-0.0452121,-0.224798,-1.2268500000000002,0.0117881,-0.00491983,-0.000955538
-0.047894,-0.150814,-1.23232,0.0109319,-0.00478603,-0.0011370000000000002
