0.012908000000000001,0.033238699999999996,-0.012726000000000001,-0.00147121,0.000217873,0.000626901
0.00812351,0.094122,-0.0129984,0.00159236,0.000217873,0.000524842
0.00156227,-0.00662906,0.0191425,0.00197825,-0.00025885700000000003,0.000195062
0.00712185,0.044688099999999994,0.0143119,0.00109867,-0.000162535,7.09596e-05
0.011581200000000002,0.00367047,0.00417554,0.00133051,-0.000373261,5.289e-05
0.0111536,0.09156289999999999,-0.0314056,0.00153005,-0.000385957,0.00022864400000000002
0.007254929999999999,-0.0093098,0.026080000000000002,0.00152511,-0.000699575,0.000150099
0.015551599999999999,0.10918,0.0338354,0.000549989,-0.000390616,0.000181803
0.0113691,0.024538499999999998,0.0319685,0.00101978,-0.000638199,1.86212e-05
0.0235084,0.061548900000000004,0.0261569,0.000399383,-0.000777515,1.86212e-05
0.011145100000000002,0.0538043,0.0107064,0.000513331,-0.000699576,-0.000594815
0.00651731,0.112685,0.026156400000000003,0.00045646,-0.00059979,-8.202889999999999e-05
0.013146399999999999,0.0653507,-0.00240511,0.00107064,-0.00042414300000000004,0.000256086
0.00348845,-0.0400157,0.0262725,0.00151469,-0.000849383,1.28444e-06
0.0160211,0.101246,-0.0007669299999999998,0.000994825,-0.0005109730000000001,0.000609823
0.00414587,-0.00914458,-0.0258061,0.00180936,-0.000530679,0.000179475
0.00609066,-0.00336819,-0.00510058,0.0019146,-0.000404341,2.51397e-05
0.00929571,0.109721,0.011815299999999999,0.00157625,-9.573129999999999e-05,0.000410137
-0.00536584,-0.0120028,-0.029751299999999998,0.00191367,-0.00041029,-2.1718400000000002e-05
-0.00750434,0.0409712,0.00952121,0.00124001,-0.0005970190000000001,-0.00017272400000000002
-0.00111915,0.0974374,-0.0142395,0.000971306,-0.00034466900000000003,-9.11633e-05
0.0061146,-0.00849353,-0.0225261,0.00145556,-0.000424304,-0.00037665800000000004
0.00110344,0.0239043,-0.0225276,0.00106834,-0.000262465,-0.000519948
-5.030810000000001e-05,0.041650599999999996,-0.0142308,0.0009289760000000001,-0.000211676,-0.000383329
0.013451300000000001,0.103545,0.0207464,0.000733151,0.00021663799999999998,0.000197362
0.00616757,0.05585509999999999,0.020758000000000002,0.000733516,0.000143008,0.00013686200000000002
0.049652499999999995,0.18526199999999998,0.10469200000000001,0.0010283,0.0013163,0.00109638
0.053059800000000004,0.144569,0.121092,0.00174408,0.00108133,0.0015777
0.0370595,-0.07406410000000001,0.0794399,0.00120471,0.000553455,0.000940977
0.041502199999999996,-0.07228689999999999,0.0587394,0.000977268,-0.000201623,0.0007553010000000001
0.025240799999999997,0.0503178,0.0696572,0.00103365,-3.91378e-05,0.000248942
0.0120193,0.0681158,0.0540138,0.00124586,0.000655807,-0.00037503199999999997
0.00637185,0.0578783,0.12768,0.00367701,0.00122407,-0.0007335210000000001
0.00613594,0.094014,0.10631900000000001,0.00291369,0.000823238,-0.0009367160000000001
0.018628,0.0746849,0.145108,0.00353856,0.000386503,-0.0010107999999999998
0.00116679,0.138274,0.17511099999999996,0.00315426,0.00093369,-0.00126294
-0.00280786,0.021911,0.16424,0.00296068,0.000538075,-0.00155364
-0.00753189,-0.010068100000000002,0.164602,0.00255703,0.000449322,-0.00170681
0.0013664000000000003,0.0205801,0.0975183,0.00229647,0.00038293,-0.00170206
-0.015698799999999995,-0.0230735,0.112246,0.00306865,0.000518393,-0.00190568
-0.0158549,0.031854900000000005,0.103362,0.00338111,0.00129714,-0.00177098
-0.0158386,-0.0399243,0.124599,0.0043619,0.00129714,-0.00186138
0.000946473,0.0178269,0.124578,0.00406602,0.00156156,-0.00186738
0.0010286,-0.0110009,0.11978699999999999,0.00388261,0.00111076,-0.00221969
0.00099519,0.057757,0.141098,0.00406503,0.00129714,-0.00197571
-0.00982527,0.0645304,0.12459200000000001,0.00358,0.00145984,-0.00153364
-0.008016429999999998,0.00672117,0.14796600000000001,0.00520427,0.00129714,-0.00191504
-0.00471894,0.0879987,0.176502,0.00613407,0.00143896,-0.0014065999999999998
-0.012123700000000001,0.0253554,0.174859,0.00579465,0.00165691,-0.00152156
-0.007951899999999998,-0.000277044,0.166138,0.00568392,0.00129714,-0.00152156
-0.014316700000000003,0.0763472,0.187887,0.00517002,0.00156101,-0.00135995
-0.0165754,-0.038962699999999996,0.16617,0.00566562,0.00129714,-0.00152156
-0.013818899999999999,-0.0158454,0.139167,0.00364235,0.000657895,-0.00152156
-0.0138813,0.0870562,0.129994,0.00296666,0.00040456,-0.00106137
-0.013455000000000005,0.025629500000000003,0.132644,0.00273176,6.27551e-05,-0.00112983
-0.0288626,0.12451300000000001,0.180809,0.0023645,0.000391666,-0.00119839
-0.028164299999999996,0.0709931,0.19911500000000001,0.00224611,0.00036160099999999997,-0.00112141
-0.03445619999999999,0.115693,0.199147,0.00180378,0.00034748900000000003,-0.00127066
-0.034563300000000005,0.0965779,0.21205300000000002,0.00110292,0.000782968,-0.00100879
-0.046694900000000004,0.0572471,0.19910899999999998,0.00256648,0.000650127,-0.0013324700000000005
-0.0312853,0.128093,0.16775699999999996,0.00308385,0.00110531,-0.00126572
-0.029077199999999997,0.0381286,0.17422,0.00455021,0.00166275,-0.0013324700000000005
-0.029063299999999997,0.0669758,0.173968,0.00341814,0.00176381,-0.0013324700000000005
-0.0289748,-0.00195148,0.15648499999999999,0.00270467,0.00131064,-0.00188218
-0.017789099999999995,0.040538,0.159851,0.00236371,0.00133198,-0.00176509
-0.029050599999999996,0.11816800000000001,0.19528199999999998,0.00291437,0.00159474,-0.00154892
-0.029043799999999998,0.058595,0.225215,0.00310413,0.001452,-0.00187412
-0.037561699999999996,0.158901,0.225171,0.00342092,0.001452,-0.00176509
-0.034828899999999996,0.0750866,0.20422300000000002,0.0036455,0.001452,-0.00176509
-0.0331495,0.0578163,0.199675,0.00326296,0.00169255,-0.00194737
-0.0291244,0.15398499999999998,0.207254,0.00310177,0.00178844,-0.00149532
-0.029230900000000004,0.0280207,0.195185,0.00394418,0.00151775,-0.00160554
-0.0446582,0.09175889999999999,0.21175700000000003,0.00345392,0.00183985,-0.00164335
-0.0330748,0.0443643,0.18473900000000001,0.00502971,0.00212593,-0.00183936
-0.0253263,0.0246543,0.169451,0.00611847,0.00228574,-0.0009480440000000002
-0.0219957,0.11623199999999999,0.202784,0.00632618,0.0022034000000000003,-0.0007153130000000001
-0.029122000000000002,0.0318366,0.21447399999999997,0.00545878,0.00200772,-0.00110301
-0.0220163,0.121995,0.24334499999999998,0.00493153,0.00209062,-0.00114483
-0.027704200000000002,0.08010969999999999,0.25219400000000003,0.00479328,0.00212596,-0.00108978
-0.03148309999999999,0.113041,0.265948,0.0042565,0.002125,-0.0012312000000000002
-0.0234217,0.0815362,0.198372,0.00415784,0.0017077000000000001,-0.00110602
-0.0239817,0.0945444,0.252,0.0033028,0.00149043,-0.00111919
-0.019534400000000004,0.122466,0.26124899999999995,0.00322341,0.0009225030000000001,-0.00113702
-0.0127863,0.0690595,0.238905,0.00172951,0.000781723,-0.00151642
-0.029097500000000002,0.144303,0.273969,0.00253438,0.00163264,-0.00166287
-0.0229718,0.0743125,0.199964,0.00233968,0.00112381,-0.00176375
-0.0245754,0.130527,0.264306,0.00224229,0.00174338,-0.00135129
-0.023734900000000003,0.0853687,0.25768800000000003,0.00221444,0.00161633,-0.00139904
-0.014368100000000003,0.15915299999999996,0.311911,0.00151017,0.0019186,-0.00108152
-0.0108967,0.0935724,0.26612199999999997,0.00188065,0.0018434999999999999,-0.00137334
-0.0297117,0.14456,0.242254,0.0055196,0.00215754,-0.00108152
-0.028883299999999997,0.11336199999999999,0.28875,0.00477228,0.00226811,-0.00108152
-0.028909300000000002,0.09943370000000004,0.280611,0.00462442,0.00226811,-0.00131227
-0.0378449,0.029504000000000002,0.257183,0.00325333,0.00202568,-0.00170297
-0.037320599999999995,0.150819,0.28888600000000003,0.00313321,0.00226811,-0.0012071600000000005
-0.0313371,0.0721411,0.270397,0.00373353,0.00226811,-0.00153616
-0.0288855,0.0721432,0.293227,0.0037070000000000002,0.00221705,-0.00136351
-0.032634199999999995,0.11842799999999999,0.338654,0.00350442,0.00231976,-0.00151209
-0.028941700000000004,0.0936559,0.273084,0.00404084,0.00245759,-0.00133526
-0.0368775,0.0475815,0.28174,0.00328837,0.00226811,-0.00145297
-0.0303629,0.15722,0.33011599999999997,0.0035415999999999998,0.00255525,-0.00155279
-0.0245506,0.11331400000000001,0.303619,0.00389904,0.00272787,-0.00152299
-0.015710299999999996,0.0651411,0.334542,0.0061103,0.00301313,-0.00133019
-0.012404700000000001,0.149612,0.36848600000000004,0.00568575,0.00254173,-0.00128383
-0.0113514,0.057516899999999996,0.32516999999999996,0.00507023,0.00269172,-0.00144202
-0.017202900000000004,0.157666,0.367209,0.00480771,0.00313527,-0.00170297
-0.00429229,0.061264099999999995,0.341673,0.00398582,0.00333409,-0.00158544
-0.0037284999999999996,0.118592,0.342948,0.00499861,0.00299329,-0.00155707
-0.0035827,0.07691979999999997,0.27822199999999997,0.00557372,0.00273773,-0.00147197
-0.0126227,0.15845999999999996,0.34925700000000004,0.00536473,0.00299931,-0.00141571
-0.00473576,0.0473234,0.247758,0.0050991000000000005,0.00246505,-0.00138051
-0.00533954,0.120331,0.271812,0.00473427,0.00234472,-0.00110785
-0.0135225,0.06439059999999999,0.258297,0.00324259,0.00175609,-0.001064
-0.011780400000000005,0.13863600000000004,0.298768,0.00273732,0.0015693,-0.00114178
-0.017165,0.0956355,0.29801500000000003,0.00367527,0.00188702,-0.00134076
-0.0323411,0.149169,0.317325,0.0025918000000000004,0.00186052,-0.00131091
-0.0401025,0.07410119999999999,0.268344,0.00314004,0.00154373,-0.00175666
-0.0183584,0.144239,0.26841,0.00266206,0.00140316,-0.00175666
-0.0362312,0.08968769999999998,0.26609099999999997,0.00261097,0.00140316,-0.00175666
-0.036373,0.174371,0.318771,0.0033183,0.00193826,-0.00143876
-0.0410444,0.0500194,0.212769,0.00415941,0.0020063,-0.00175666
-0.04195619999999999,0.163953,0.278715,0.00482514,0.00214125,-0.00133173
-0.0497973,0.07948469999999999,0.296103,0.00647046,0.00222765,-0.00130289
-0.0415128,0.14324,0.305299,0.00659832,0.00216039,-0.0013517999999999998
-0.042292699999999996,0.06568880000000002,0.315823,0.00706348,0.00267441,-0.0013517999999999998
-0.04650719999999999,0.0821586,0.296162,0.00620393,0.00236103,-0.0013517999999999998
-0.0365411,0.147971,0.355702,0.00704286,0.00262318,-0.00121776
-0.0235303,0.10341099999999999,0.355772,0.00655675,0.00262318,-0.001572
-0.032492,0.17433900000000002,0.374317,0.00755227,0.00297654,-0.00142482
-0.032526799999999995,0.0724287,0.26556199999999996,0.00717596,0.0030278,-0.00149238
-0.037737,0.158316,0.288483,0.00691635,0.00295851,-0.00122066
-0.041977,0.0720339,0.26109299999999996,0.0071224999999999995,0.00285157,-0.00110301
-0.0357272,0.18720599999999998,0.32609299999999997,0.00715275,0.00289806,-0.000969685
-0.031890800000000004,0.10503499999999999,0.34125300000000003,0.00836213,0.00324335,-0.00115997
-0.039151099999999994,0.0753338,0.287032,0.007593600000000001,0.00323713,-0.000983595
-0.048722,0.133148,0.342213,0.00754963,0.00318383,-0.00122871
-0.0394163,0.117252,0.360577,0.008742369999999998,0.0032335999999999997,-0.00117164
-0.0418665,0.0837534,0.255833,0.007826589999999998,0.00324434,-0.00125296
-0.041701199999999994,0.129652,0.325776,0.00823394,0.0034560000000000003,-0.000975897
-0.029456,0.10945999999999999,0.335804,0.00869638,0.0036299999999999995,-0.00119285
-0.0317719,0.131651,0.325752,0.008557469999999998,0.00328167,-0.0009432510000000001
0.00440549,0.340935,0.380591,0.009240700000000001,0.00395846,0.0008657739999999999
-0.0224705,0.219334,0.363383,0.00767506,0.00262318,0.00108164
-0.0254425,0.100312,0.397056,0.00857253,0.00284697,0.0012127100000000005
-0.0287228,0.0920714,0.412492,0.0118839,0.00235067,0.00035746199999999996
-0.013818200000000001,0.149802,0.369343,0.00910382,0.0012607400000000006,0.0007903869999999999
-0.0208174,0.131045,0.23481100000000002,0.00594054,0.00122438,0.000914106
-0.0294443,0.20219700000000002,0.229346,0.00540029,0.0016464000000000001,0.0008476610000000001
-0.0363627,0.20692800000000003,0.201211,0.00467413,0.00188947,0.00035746199999999996
-0.0371561,0.270514,0.22817300000000001,0.00567199,0.0025819000000000003,0.000740525
-0.0433358,0.185394,0.22960999999999998,0.00707151,0.00233387,0.000590615
-0.0494591,0.217389,0.20393699999999998,0.00770867,0.00235176,0.000690981
-0.050864599999999996,0.11065,0.230672,0.00837066,0.00235176,0.000790584
-0.037194599999999994,0.206222,0.28999,0.008388859999999998,0.00299092,0.00140189
-0.051478699999999995,0.10835399999999999,0.276316,0.0082353,0.00307305,0.000997592
-0.0541332,0.09206089999999999,0.28283800000000003,0.008250799999999999,0.00268088,0.000664592
-0.060922300000000006,0.209763,0.322397,0.008101489999999998,0.00263089,0.0010951200000000002
-0.0562235,0.14236,0.308035,0.008346249999999998,0.00268001,0.0006440630000000001
-0.0412346,0.15746400000000002,0.26610700000000004,0.00802119,0.00259421,0.000473625
-0.045399699999999994,0.267803,0.314087,0.008009,0.00253954,0.00123974
-0.0411792,0.158641,0.23695300000000002,0.00866661,0.00254991,0.000622656
-0.0393548,0.235641,0.281646,0.008324659999999998,0.00291444,0.00105556
-0.0394158,0.19350599999999998,0.256914,0.00851969,0.00310406,0.00112105
-0.039442000000000005,0.157876,0.247534,0.00851969,0.00315223,0.00111478
-0.0567492,0.169304,0.26343,0.00889957,0.00318893,0.00139168
-0.06596619999999999,0.137303,0.291987,0.00939446,0.00313747,0.00150465
-0.06294119999999999,0.154669,0.25861300000000004,0.00930217,0.00312528,0.00140631
-0.05674149999999999,0.0711144,0.224525,0.00965452,0.00334263,0.0013284
-0.05991369999999999,0.163917,0.226748,0.0088304,0.00294337,0.00158856
-0.0554362,0.204812,0.200708,0.00938261,0.00325365,0.00169372
-0.0553321,0.131556,0.237675,0.00914969,0.00280645,0.00161821
-0.05528290000000001,0.149488,0.20083800000000002,0.00819189,0.00248986,0.00139081
-0.0647502,0.221338,0.21950300000000003,0.007289119999999999,0.00281477,0.00162189
-0.06417569999999999,0.168053,0.186661,0.00779088,0.00291032,0.0015726
-0.0716139,0.207298,0.202293,0.00726791,0.00270662,0.00180811
-0.07592219999999998,0.150777,0.172654,0.007208479999999998,0.00291521,0.001547
-0.0677771,0.130654,0.135904,0.00745339,0.00296281,0.00139081
-0.07608149999999997,0.137969,0.135578,0.00805601,0.00310581,0.0016587
-0.07299809999999997,0.107027,0.125371,0.00800733,0.00310581,0.00156336
-0.0730315,0.173703,0.117843,0.008080739999999998,0.00350113,0.00157572
-0.07303229999999998,0.104861,0.14591400000000002,0.00824513,0.00332141,0.00153727
-0.0729425,0.18405,0.111277,0.008243679999999998,0.0035685,0.00190344
-0.07296419999999999,0.08517860000000001,0.12951400000000002,0.00861042,0.00310581,0.00165059
-0.07289629999999997,0.193483,0.141305,0.00763126,0.00311002,0.00187577
-0.0634265,0.19350699999999998,0.0877668,0.00824648,0.00300145,0.00183127
-0.0634529,0.0815679,0.12725799999999998,0.00998026,0.00316164,0.00188052
-0.0471742,0.181292,0.147895,0.015532299999999997,0.00392662,0.00278281
-0.065109,0.158822,0.0881042,0.012501799999999999,0.00348315,0.00238726
-0.0650139,0.23518200000000003,0.129166,0.011591500000000001,0.00349555,0.00232596
-0.0650674,0.147786,0.162634,0.0116665,0.0038103,0.00238726
-0.0650911,0.202927,0.152876,0.0109749,0.00387566,0.00229944
-0.08495269999999999,0.11785999999999999,0.159446,0.010851600000000001,0.00357439,0.00231152
-0.08280169999999999,0.169703,0.151311,0.0105779,0.00332566,0.00238726
-0.07726199999999997,0.17482,0.123846,0.010381200000000002,0.00332566,0.00238726
-0.07926329999999998,0.0774134,0.149757,0.0105197,0.00332566,0.00198054
-0.0770529,0.167216,0.182927,0.00908468,0.00321462,0.00198054
-0.0810965,0.23028200000000001,0.146173,0.00902499,0.00322319,0.00222856
-0.0775632,0.11326300000000002,0.0997575,0.00970045,0.003198,0.00147033
-0.0793205,0.182719,0.127372,0.0101584,0.00335037,0.00183014
-0.0773465,0.142738,0.108733,0.0106904,0.0031058,0.00198054
-0.08228869999999999,0.181133,0.13231700000000002,0.00988854,0.00343123,0.00189205
-0.0837962,0.16373900000000002,0.16435,0.0108616,0.00328788,0.00198054
-0.0965643,0.178428,0.165181,0.0105049,0.00327954,0.00224824
-0.09499850000000004,0.166446,0.161377,0.0105049,0.00343881,0.00222601
-0.09238389999999999,0.157525,0.167603,0.010571100000000002,0.00328073,0.00211246
-0.0916656,0.15295599999999998,0.13914,0.011603299999999999,0.00360137,0.0020434999999999997
-0.09507719999999999,0.15525799999999998,0.163468,0.0113574,0.0036835,0.00198054
-0.08569169999999998,0.181963,0.172396,0.0106243,0.00352259,0.00215798
-0.0904073,0.13436700000000001,0.168677,0.0115191,0.00361359,0.00198054
-0.09477630000000001,0.109079,0.0454657,0.010043700000000001,0.00318963,0.00156025
-0.08157269999999997,0.261353,0.137777,0.0108427,0.00290522,0.00229773
-0.082656,0.18456,0.134011,0.0118887,0.00290522,0.00235418
-0.0645794,0.08117560000000001,0.13536800000000002,0.011619599999999999,0.00328755,0.00162029
-0.07419589999999998,0.191545,0.14136500000000002,0.0115291,0.00290522,0.00198054
-0.0606911,0.12895000000000004,0.122741,0.0126594,0.00340164,0.0020756
-0.07773719999999999,0.211198,0.149225,0.0122588,0.00338349,0.00217258
-0.06801180000000001,0.156249,0.144065,0.0114076,0.00350952,0.00215346
-0.0751898,0.162141,0.14423,0.0123704,0.00363052,0.00223448
-0.0767276,0.167169,0.165535,0.0124564,0.00357911,0.00223417
-0.07675419999999998,0.209392,0.181804,0.0125808,0.0039267,0.00239166
-0.07456079999999997,0.157032,0.204529,0.0140416,0.00391419,0.00234259
-0.07796789999999999,0.088755,0.10198600000000001,0.011252600000000001,0.00339574,0.00209723
-0.07581169999999998,0.22705,0.148325,0.013270100000000005,0.00376638,0.00234815
-0.0758278,0.107612,0.0829348,0.0119804,0.0042797,0.00248824
-0.07596339999999999,0.160254,0.12803900000000001,0.0106262,0.00487345,0.00296853
-0.07593669999999997,0.200965,0.18371500000000002,0.0123059,0.00481656,0.00304712
-0.0645691,0.118825,0.146895,0.014327100000000002,0.00521993,0.00296853
-0.048857,0.13086500000000004,0.216777,0.0141493,0.00518614,0.00354247
-0.048465499999999995,0.23172199999999998,0.195083,0.015150899999999998,0.004699,0.00347162
-0.05746180000000001,0.141138,0.213723,0.015171200000000001,0.0051148999999999995,0.00296853
-0.0689504,0.21888200000000002,0.18162999999999999,0.0138813,0.00503394,0.00296853
-0.08511119999999997,0.145248,0.196685,0.0151835,0.00458869,0.00277875
-0.0934635,0.239252,0.22400100000000003,0.013603,0.00392026,0.00280595
-0.107085,0.14967,0.17183900000000002,0.012652799999999999,0.0036494,0.0026962
-0.107204,0.21016999999999997,0.19825299999999998,0.0119131,0.004017,0.00256658
-0.10718,0.206171,0.209103,0.0124538,0.00389261,0.00256658
-0.10718,0.22594899999999998,0.194884,0.0117363,0.0038244999999999998,0.00256658
-0.107125,0.174201,0.198715,0.0127355,0.00351732,0.00250507
-0.107201,0.22286399999999998,0.147452,0.012150200000000002,0.00359796,0.00224102
-0.107084,0.156936,0.149104,0.012933600000000005,0.00299442,0.00215992
-0.10710399999999999,0.232886,0.148096,0.011819,0.00289195,0.00214433
-0.109671,0.152117,0.13910999999999998,0.012534899999999998,0.00260674,0.00220604
-0.104538,0.240749,0.157124,0.011779800000000005,0.00276165,0.00240259
-0.09495700000000004,0.179725,0.100303,0.0118029,0.00257372,0.00240259
-0.101617,0.116166,0.134231,0.0125513,0.00290936,0.00206727
-0.10763699999999998,0.266906,0.15343900000000002,0.011470600000000001,0.00274919,0.00265635
-0.10329200000000001,0.150097,0.127669,0.012175600000000005,0.00290245,0.00240259
-0.09651970000000004,0.11823199999999999,0.108999,0.012260600000000005,0.00317418,0.00192105
-0.11071600000000001,0.245245,0.119154,0.011371299999999999,0.0032153,0.00230394
-0.09727480000000001,0.147493,0.130825,0.012245299999999999,0.0032982,0.00219136
-0.0985401,0.175362,0.130678,0.0131387,0.0032982,0.00220865
-0.10903199999999999,0.156941,0.08868789999999999,0.0122029,0.00283615,0.00225349
-0.092025,0.26600300000000004,0.128603,0.0124355,0.00339848,0.0025445999999999997
-0.112044,0.15865,0.110553,0.011904999999999999,0.00309036,0.00240259
-0.125627,0.0908591,0.0496795,0.0112081,0.00283616,0.00240259
-0.09152239999999999,0.211209,0.103229,0.0118328,0.00389304,0.00279702
-0.0914624,0.102596,0.117727,0.011278,0.00354433,0.00221321
-0.09691439999999998,0.219627,0.199852,0.0113455,0.00408265,0.00240259
-0.100716,0.144707,0.145869,0.010985300000000002,0.00424698,0.00222867
-0.103325,0.129522,0.154712,0.011236500000000002,0.00425558,0.00196577
-0.0984922,0.198782,0.153719,0.010919799999999999,0.00409954,0.0021406
-0.112303,0.17313699999999999,0.118777,0.010880200000000001,0.00414019,0.00196578
-0.115168,0.179465,0.0931878,0.010236,0.00415882,0.00196578
-0.112206,0.143999,0.0715125,0.010054,0.00346446,0.00154035
-0.11968500000000006,0.168275,0.0978996,0.00950536,0.00333987,0.00176619
-0.108992,0.15642,0.092033,0.00932977,0.00344766,0.0018127
-0.126077,0.239715,0.112382,0.008446469999999998,0.00316141,0.00203624
-0.126115,0.128864,0.110248,0.010125700000000001,0.0037654000000000003,0.0020326
-0.103362,0.18548499999999998,0.123271,0.012139,0.00502682,0.00220723
-0.11204800000000001,0.11652100000000006,0.144599,0.0164047,0.00517282,0.00199587
-0.11195899999999999,0.21587800000000001,0.167848,0.016528399999999995,0.00461117,0.00220723
-0.11208,0.14022300000000001,0.165098,0.015315899999999999,0.00489174,0.00182789
-0.11515,0.15984699999999996,0.119375,0.014245600000000002,0.00461117,0.00157908
-0.11716199999999999,0.19805,0.15693,0.0133276,0.00493051,0.00157908
-0.130526,0.144788,0.114527,0.0130213,0.00510456,0.0011232000000000002
-0.1346,0.229871,0.179949,0.013492100000000005,0.00599657,0.00147706
-0.11118299999999999,0.101748,0.030272300000000002,0.0137394,0.005672,0.00124402
-0.10896900000000001,0.224946,0.127128,0.013887799999999999,0.00521586,0.00133118
-0.11533399999999999,0.205197,0.173537,0.014858600000000001,0.00580782,0.00162168
-0.11083399999999999,0.09459830000000001,0.119112,0.0144889,0.00567431,0.0017755099999999997
-0.112632,0.193775,0.19883699999999999,0.0147029,0.00582469,0.00196634
-0.109484,0.103302,0.17704,0.0139233,0.0059161000000000005,0.00224292
-0.0889447,0.0790951,0.105843,0.01495,0.00590604,0.00231171
-0.08847779999999998,0.186394,0.163466,0.015295,0.00608881,0.00272085
-0.09832610000000004,0.0723028,0.182016,0.014515299999999998,0.00597859,0.00205318
-0.100391,0.221453,0.226269,0.014734700000000002,0.00612832,0.00229958
-0.0910877,0.0965217,0.18368099999999998,0.014105000000000001,0.0059486,0.00190892
-0.10391900000000001,0.25148899999999996,0.183775,0.0138942,0.00520377,0.00190892
-0.09618589999999999,0.11885699999999999,0.241554,0.013410399999999998,0.00625325,0.00209505
-0.0820489,0.220428,0.26271700000000003,0.011599600000000002,0.00571562,0.00221789
-0.0747232,0.125397,0.243171,0.012913999999999998,0.00504438,0.00204914
-0.08223039999999998,0.20027799999999998,0.240668,0.0118516,0.00504438,0.00252439
-0.09146180000000001,0.144619,0.26309099999999996,0.0111428,0.00504438,0.00221223
-0.08999960000000001,0.18121800000000002,0.29741999999999996,0.0119353,0.00504438,0.00204914
-0.08802129999999997,0.161943,0.249718,0.010129299999999999,0.004571,0.00204914
-0.09673810000000001,0.23420300000000002,0.265813,0.010409200000000002,0.00422566,0.00192405
-0.09383689999999999,0.145023,0.168152,0.0100821,0.00434846,0.00163317
-0.09736310000000001,0.23750300000000002,0.22550599999999998,0.010678000000000002,0.00470001,0.00163317
-0.10099999999999999,0.144463,0.180258,0.0137118,0.00475335,0.00121706
-0.114771,0.15934500000000001,0.171705,0.0133525,0.00471054,0.000939293
-0.11721600000000001,0.203848,0.155275,0.012563600000000001,0.00476583,0.0007775479999999998
-0.107846,0.043069699999999995,0.138801,0.0124522,0.00434565,0.000374304
-0.0876768,0.10007,0.06877170000000002,0.0145822,0.00464839,0.0017649999999999999
-0.08644839999999998,0.133608,0.0688679,0.013916299999999998,0.00462145,0.00148277
-0.09620110000000001,0.201516,0.091316,0.0132854,0.00474309,0.00206397
-0.09007439999999999,0.145094,0.10518699999999999,0.014544999999999999,0.00554234,0.00198055
-0.108872,0.147573,0.12250899999999999,0.013859,0.00518479,0.00199207
-0.0999762,0.21447600000000003,0.10396500000000002,0.0138417,0.00509398,0.00217373
-0.07846,0.020218299999999998,-0.030271199999999998,0.012438600000000001,0.00472902,0.00191279
-0.0994298,0.181136,0.07956889999999997,0.0127488,0.00472902,0.00243216
-0.11753499999999999,0.115103,0.09608789999999999,0.0142196,0.00545094,0.00206397
-0.10566700000000001,0.15820599999999999,0.113624,0.013102200000000001,0.00472902,0.00206397
-0.118216,0.13808,0.104353,0.0123554,0.00549979,0.00187518
-0.122049,0.129804,0.15795599999999999,0.0125373,0.00520062,0.00165919
-0.12750899999999998,0.202694,0.194011,0.013538900000000001,0.00594495,0.00211847
-0.133732,0.0971598,0.167028,0.0159869,0.00581966,0.00214742
-0.134036,0.19726300000000002,0.180996,0.0140828,0.00573593,0.00206397
-0.14127,0.12539800000000004,0.118808,0.014160800000000001,0.00539296,0.00162608
-0.130053,0.11812,0.104502,0.0132631,0.00499706,0.00156782
-0.128917,0.172,0.133129,0.0132036,0.00547514,0.00190804
-0.125343,0.12238099999999999,0.0971307,0.0127676,0.00534899,0.00146672
-0.133625,0.150025,0.104328,0.0130678,0.0054036,0.00142584
-0.12526700000000002,0.158197,0.1187,0.012436,0.00580328,0.00150263
-0.11720599999999999,0.14189100000000002,0.111953,0.012006200000000002,0.00518985,0.00132951
-0.11722900000000006,0.155224,0.103746,0.0123374,0.00474718,0.00090395
-0.114222,0.189408,0.09733660000000001,0.0118819,0.00474718,0.00121397
-0.0926098,0.126085,0.0335864,0.0118834,0.00436846,0.00145823
-0.102265,0.224282,0.104476,0.0131257,0.00474718,0.00192994
-0.111784,0.146455,0.154265,0.016260399999999998,0.00474718,0.00192994
-0.09417339999999999,0.20634499999999997,0.144733,0.016353099999999995,0.00574908,0.00225393
-0.09767569999999999,0.100373,0.113598,0.0166705,0.00580573,0.00173671
-0.10963599999999998,0.206736,0.160132,0.0156251,0.00578067,0.00160049
-0.104122,0.125386,0.14738900000000002,0.016391699999999995,0.00593526,0.00149151
-0.113249,0.132696,0.147057,0.0158182,0.00574773,0.0013555100000000005
-0.114428,0.21344000000000002,0.171264,0.016481799999999998,0.00609476,0.00142588
-0.11515,0.171323,0.17839100000000002,0.0168176,0.00643827,0.00128339
-0.12233,0.22562800000000002,0.194659,0.016982499999999998,0.00643827,0.00142588
-0.125655,0.170747,0.191871,0.016659200000000002,0.00629465,0.00142588
-0.131696,0.16321,0.19326300000000002,0.0166167,0.00614435,0.00142588
-0.129442,0.19581199999999999,0.189227,0.0176525,0.006762399999999999,0.00171556
-0.13386300000000004,0.135578,0.18828599999999998,0.017765699999999995,0.00647797,0.00162422
-0.135943,0.187656,0.182903,0.0173322,0.00624401,0.00173225
-0.136551,0.148578,0.20921599999999999,0.016965,0.00637698,0.00164368
-0.136594,0.221106,0.243628,0.0175115,0.00655942,0.00173225
-0.137301,0.127339,0.15003699999999998,0.0156077,0.00693022,0.0009189819999999999
-0.130102,0.164662,0.23524899999999999,0.016951400000000002,0.00705336,0.000649443
-0.14616499999999996,0.280174,0.278317,0.0182053,0.007621600000000001,0.00111447
-0.13583300000000004,0.141251,0.21454299999999998,0.0193186,0.007930609999999998,0.000954953
-0.12673399999999999,0.167237,0.160081,0.0190234,0.00787873,0.00142511
-0.12551700000000002,0.148899,0.162166,0.019271700000000003,0.00748456,0.0012586
-0.117623,0.20432,0.25353400000000004,0.018712299999999998,0.007421149999999999,0.0012179300000000005
-0.13612,0.164774,0.211875,0.0197355,0.00744236,0.00133728
-0.14662999999999998,0.24047,0.22011799999999998,0.017930099999999997,0.00746819,0.00142511
-0.0868995,0.30859899999999996,0.22169899999999998,0.0185065,0.00798792,0.0025255
-0.0684058,0.283434,0.26204099999999997,0.0155529,0.007261649999999999,0.00215077
-0.0920734,0.160332,0.354605,0.0159146,0.00707286,0.00139029
-0.09229250000000004,0.174792,0.46693999999999997,0.016652599999999997,0.00733005,0.0007455549999999999
-0.141953,0.195961,0.358658,0.014320300000000001,0.0066024000000000005,-0.00113119
-0.15931099999999998,0.308014,0.40576999999999996,0.0143477,0.00576136,-0.00107899
-0.16289800000000002,0.389703,0.42508599999999996,0.0153556,0.00602905,-0.00123366
-0.15129700000000001,0.288628,0.473562,0.0153505,0.00570237,-0.00153216
-0.13885699999999998,0.319771,0.45238999999999996,0.014330200000000001,0.005231399999999999,-0.00120279
-0.13963399999999998,0.264106,0.436854,0.014261099999999999,0.00541978,-0.0016120000000000002
-0.14998,0.32312399999999997,0.455427,0.014252500000000001,0.00618343,-0.00123919
-0.155863,0.250921,0.445672,0.014788999999999998,0.00657521,-0.00123919
-0.154461,0.185301,0.45436499999999996,0.0148166,0.00673517,-0.00123919
-0.156885,0.23883000000000001,0.413004,0.014773900000000001,0.00677373,-0.00123919
-0.15548999999999996,0.179091,0.377805,0.0151912,0.00626904,-0.00123919
-0.165434,0.34142100000000003,0.40993999999999997,0.014999100000000001,0.00616053,-0.00117888
-0.157274,0.21310900000000002,0.355714,0.0181543,0.00662196,-0.0014010400000000005
-0.14324,0.196139,0.338485,0.0168576,0.00634798,-0.00167088
-0.143285,0.26353699999999997,0.24695999999999999,0.016223500000000002,0.00668322,-0.00158608
-0.143251,0.21754600000000002,0.278179,0.0168802,0.00645746,-0.00167794
-0.104878,0.332976,0.290475,0.017372299999999997,0.00703444,-0.000288045
-0.134442,0.226399,0.289605,0.0168615,0.00630947,-0.00127079
-0.135473,0.264498,0.326781,0.0171293,0.00581339,-0.0009892310000000001
-0.138007,0.24553899999999998,0.320668,0.0176053,0.00613733,-0.0006646789999999999
-0.140505,0.16053499999999998,0.255204,0.0173144,0.00652922,-0.0011242000000000001
-0.136231,0.207675,0.22358699999999998,0.0171819,0.0065582999999999995,-0.0013924000000000002
-0.112926,0.162178,0.107031,0.0162984,0.00573002,-0.00166347
-0.108252,0.188564,0.0958621,0.015306499999999999,0.00498207,-0.00166347
-0.09438830000000001,0.171219,0.12486100000000006,0.0132096,0.0043995,-0.0009424310000000001
-0.09944750000000001,0.302361,0.156299,0.012654299999999999,0.00431646,-0.000910467
-0.106572,0.221198,0.143767,0.013842400000000001,0.00445766,-0.0010531
-0.11198599999999999,0.223821,0.18111,0.013837799999999999,0.00438222,-0.000955085
-0.113099,0.325824,0.190224,0.0131209,0.00445766,-0.000955085
-0.129626,0.137482,0.206756,0.0174177,0.00518065,-0.000955085
-0.09063919999999999,0.106332,0.146144,0.0220136,0.00588108,0.000397601
-0.10263499999999999,0.25783,0.209152,0.0206813,0.00536663,-0.000277721
-0.108457,0.179255,0.184806,0.0196753,0.00555781,-0.000997413
-0.113179,0.22102199999999997,0.276945,0.0185627,0.00568413,-0.00146189
-0.113363,0.24816999999999997,0.298052,0.0191548,0.00650028,-0.0013428400000000005
-0.101829,0.22628299999999998,0.305155,0.020017700000000003,0.00645612,-0.00106566
-0.11241400000000001,0.267904,0.274019,0.018532299999999998,0.00524195,-0.00110525
-0.10753299999999999,0.248712,0.263137,0.019127599999999998,0.00581167,-0.0012345999999999998
-0.11372,0.161136,0.242416,0.020138299999999998,0.00594833,-0.0011317999999999999
-0.121603,0.192685,0.250635,0.019466999999999998,0.00597018,-0.0011317999999999999
-0.111525,0.167598,0.248846,0.019428,0.00649442,-0.0011317999999999999
-0.126209,0.22292800000000002,0.21411,0.018363400000000002,0.00615251,-0.0011317999999999999
-0.122834,0.173771,0.206688,0.019264700000000003,0.00585973,-0.0011317999999999999
-0.12191800000000001,0.25739,0.23374699999999998,0.018769,0.00589977,-0.00100667
-0.12088099999999999,0.14545999999999998,0.244635,0.019245099999999998,0.00693924,-0.0011317999999999999
-0.125307,0.201215,0.203824,0.0177671,0.00634079,-0.0011317999999999999
-0.12799700000000006,0.185132,0.222804,0.0180136,0.006601300000000001,-0.0011317999999999999
-0.11958099999999999,0.13328800000000002,0.153472,0.0159898,0.00650144,-0.0011317999999999999
-0.121904,0.221318,0.185701,0.016687299999999995,0.00577486,-0.000764467
-0.1185,0.214376,0.219968,0.0163824,0.00570555,-0.00136726
-0.119619,0.15188800000000002,0.21172,0.015883399999999995,0.00617715,-0.00154371
-0.11633199999999999,0.192748,0.16555699999999998,0.0156852,0.00587494,-0.00154371
-0.111265,0.140756,0.13886400000000002,0.015137200000000002,0.00525977,-0.00154371
-0.130546,0.255342,0.16473199999999996,0.0158504,0.00514947,-0.00146987
-0.12826300000000002,0.10567599999999999,0.197901,0.0163291,0.0050254,-0.00181623
-0.129546,0.23486300000000002,0.23935,0.014620699999999999,0.00552639,-0.00207867
-0.138173,0.159696,0.201639,0.014622399999999999,0.00562704,-0.00250236
-0.14896700000000002,0.26719899999999996,0.23016399999999998,0.013921200000000002,0.00625871,-0.00232124
-0.152952,0.191701,0.256094,0.014271500000000001,0.00630666,-0.00207867
-0.135986,0.20850700000000003,0.216508,0.015121700000000002,0.00625837,-0.0020044
-0.132915,0.15003,0.218698,0.0178472,0.00695256,-0.0013555
-0.127409,0.204576,0.209038,0.014914700000000001,0.006772499999999999,-0.00141746
-0.12768800000000002,0.217748,0.269683,0.0160176,0.00781142,-0.0013259
-0.12778299999999998,0.206905,0.30548600000000004,0.016882599999999998,0.008046279999999998,-0.00149683
-0.111482,0.197499,0.31498699999999996,0.016210299999999997,0.008609119999999998,-0.00105563
-0.12091500000000001,0.164797,0.321751,0.0154778,0.00803816,-0.0009590890000000002
-0.105736,0.23416399999999998,0.365798,0.016263999999999997,0.008194039999999998,-0.000666052
-0.10576500000000001,0.134588,0.276223,0.0146629,0.00788139,-0.00142302
-0.132519,0.27584000000000003,0.314369,0.0157094,0.008194039999999998,-0.00142303
-0.132519,0.175276,0.220396,0.015381,0.008194039999999998,-0.00142302
-0.132385,0.209414,0.231285,0.014354200000000001,0.007564119999999999,-0.00142302
-0.12670200000000004,0.268898,0.336607,0.015836600000000003,0.00815592,-0.00108056
-0.132433,0.167666,0.279546,0.014147,0.007895000000000001,-0.00168394
-0.132477,0.23696799999999998,0.287954,0.0139648,0.00802033,-0.00158545
-0.132418,0.21641300000000002,0.23617,0.0144817,0.00790709,-0.00158545
-0.13259300000000002,0.20989000000000002,0.287649,0.0138151,0.008677509999999998,-0.00158545
-0.12728500000000004,0.24181,0.29892399999999997,0.0141089,0.0087831,-0.00114359
-0.132402,0.187306,0.315362,0.013413900000000001,0.008363219999999998,-0.0009207000000000002
-0.13269,0.22865100000000002,0.381379,0.0141089,0.00919155,-0.00116731
-0.114093,0.0986444,0.176523,0.0117808,0.008363219999999998,-0.000619746
-0.112168,0.18370999999999998,0.185081,0.0117555,0.00669815,0.000249673
-0.117125,0.112452,0.188546,0.0121447,0.00678781,-0.00029168099999999996
-0.10896900000000001,0.206792,0.254519,0.012637700000000005,0.00652395,0.00010130200000000001
-0.08275010000000001,0.13459100000000002,0.21583400000000003,0.012562100000000001,0.00618847,0.00047426
-0.0919901,0.221729,0.313127,0.013249,0.006758800000000001,0.000182272
-0.0848416,0.174281,0.300892,0.013297100000000001,0.0064932,-9.850479999999999e-05
-0.08456860000000001,0.269831,0.327547,0.014297899999999999,0.00658563,0.000290375
-0.0846762,0.170982,0.339013,0.0139213,0.00661933,0.00047981099999999996
-0.0691556,0.247653,0.348384,0.014706100000000001,0.00666422,0.00106173
-0.0719712,0.240141,0.309776,0.0158262,0.00766267,0.00077097
-0.0922293,0.184126,0.273968,0.0137286,0.00675875,0.00042400099999999997
-0.08477859999999998,0.256114,0.265102,0.0153155,0.00699713,0.00033976
-0.0941152,0.12665,0.278316,0.0158182,0.00662916,0.000219325
-0.08753589999999999,0.22581700000000002,0.245509,0.016143999999999995,0.00680085,0.000621853
-0.0949347,0.22183000000000003,0.261658,0.015688399999999998,0.00679578,0.000256004
-0.0915567,0.16491,0.30944699999999997,0.0165427,0.00723292,0.000484912
-0.08738589999999999,0.270146,0.275625,0.0157937,0.00705279,0.000530777
-0.0947364,0.16002,0.302307,0.017741299999999998,0.00718632,0.00010840100000000001
-0.0873375,0.230979,0.258629,0.019181599999999997,0.00717685,0.000621853
-0.0874022,0.17346,0.24895799999999998,0.016524,0.00716014,0.00038998099999999996
-0.0873694,0.26406,0.286202,0.016732,0.00705081,0.000621853
-0.100976,0.188654,0.273309,0.0168695,0.00684198,0.00041831400000000003
-0.10466600000000001,0.177618,0.254713,0.015453399999999999,0.00673402,0.000211187
-0.105591,0.234382,0.292238,0.0154649,0.00686572,0.00028125299999999997
-0.107642,0.143924,0.264671,0.0155907,0.00673402,-0.000138653
-0.10532899999999999,0.250785,0.28786100000000003,0.0156477,0.00654014,0.00018605099999999998
-0.09829,0.253865,0.26276900000000003,0.0154548,0.00658219,0.000439563
-0.08732579999999998,0.16383,0.247321,0.016097399999999998,0.00636378,0.000112095
-0.0873091,0.21117800000000003,0.256116,0.0145197,0.00630858,0.00016388900000000002
-0.0872566,0.20636300000000002,0.241387,0.013766299999999999,0.00592664,5.02577e-06
-0.105206,0.24638200000000002,0.321096,0.013524000000000001,0.00592664,-0.000532654
-0.10441600000000001,0.247423,0.27684200000000003,0.011846299999999999,0.00496316,-0.000659392
-0.09354100000000004,0.23655700000000002,0.26669,0.0120706,0.00443915,-0.000659392
-0.0954556,0.201829,0.253861,0.0104479,0.0041971000000000005,-0.000659392
-0.104872,0.22216999999999998,0.250502,0.0112008,0.00410571,-0.000659392
-0.104585,0.185226,0.23502399999999998,0.0113923,0.00434687,-0.000659392
-0.102896,0.225135,0.22531199999999998,0.0106802,0.00369493,-0.000659392
-0.104332,0.159909,0.244534,0.011113799999999998,0.00315111,-0.000659392
-0.10391600000000001,0.324964,0.290628,0.0118249,0.00416623,-0.000659392
-0.110825,0.17488299999999998,0.268057,0.0143694,0.00438098,-0.000659392
-0.10666300000000001,0.265423,0.283667,0.015428299999999999,0.00455503,-0.000659392
-0.10170499999999999,0.170284,0.260866,0.0167975,0.00530015,-0.0008124
-0.11146199999999999,0.276223,0.30189499999999997,0.0165463,0.005631499999999999,-0.000659392
-0.12218,0.230544,0.334293,0.017134299999999998,0.00575137,-0.0009530560000000001
-0.149268,0.161194,0.291046,0.0171725,0.00648366,-0.000659392
-0.137985,0.250881,0.2981,0.0158369,0.00662721,-0.000659392
-0.148298,0.196043,0.298198,0.014880100000000002,0.00615918,-0.00107389
-0.148056,0.237137,0.329904,0.0149179,0.00618074,-0.00107651
-0.144551,0.221061,0.27219699999999997,0.014831899999999999,0.00653509,-0.0009776740000000002
-0.132657,0.21841799999999997,0.273872,0.015284299999999999,0.00653303,-0.000599501
-0.125659,0.284576,0.339832,0.0139566,0.00583576,-0.000599501
-0.11506199999999998,0.264016,0.361834,0.014127299999999999,0.00596804,-0.000599501
-0.115102,0.184791,0.304942,0.016138999999999997,0.00617582,-0.000599501
-0.12947899999999998,0.284985,0.306023,0.0154175,0.00627442,-0.0005995
-0.137186,0.163221,0.24322399999999997,0.014924399999999999,0.00607357,-0.00105871
-0.129159,0.24353200000000003,0.28227199999999997,0.015594299999999998,0.00556473,-0.00122649
-0.13526400000000002,0.296809,0.295404,0.0151483,0.00619085,-0.00105871
-0.14091200000000004,0.224638,0.320135,0.0152317,0.00651312,-0.00124109
-0.14571900000000002,0.293271,0.306753,0.014154499999999999,0.00651312,-0.00105871
-0.13242400000000001,0.180214,0.297888,0.0144144,0.00667994,-0.00105871
-0.149783,0.27300100000000005,0.266079,0.013388999999999998,0.00605006,-0.00134331
-0.139678,0.16681299999999996,0.22568600000000003,0.0135649,0.00568561,-0.00151497
-0.132214,0.227861,0.21776700000000002,0.0116829,0.00568561,-0.00110298
-0.132407,0.191852,0.224719,0.012051000000000001,0.00623698,-0.00136887
-0.132163,0.221002,0.22111999999999998,0.0103325,0.00535078,-0.00135092
-0.13206400000000001,0.22607199999999997,0.230769,0.00927366,0.00492376,-0.00117518
-0.132037,0.22910100000000003,0.244689,0.00900443,0.00456519,-0.00138903
-0.13205900000000004,0.268438,0.259044,0.0087655,0.00473494,-0.00127664
-0.132196,0.273036,0.241286,0.010243700000000001,0.00512315,-0.00144636
-0.132189,0.205675,0.24337399999999998,0.0110472,0.00473494,-0.00183325
-0.13211199999999998,0.256849,0.211204,0.011078900000000001,0.00485648,-0.00144636
-0.127907,0.16301,0.24866999999999997,0.013156000000000001,0.00505252,-0.00157137
-0.127256,0.266802,0.218533,0.012683400000000001,0.00473494,-0.00144636
-0.128827,0.185168,0.17416700000000002,0.0120368,0.00496815,-0.00123683
-0.133209,0.182758,0.261793,0.0134046,0.00481729,-0.00143166
-0.125865,0.270536,0.19186199999999998,0.0122331,0.00479595,-0.00124028
-0.132655,0.151583,0.233671,0.0135203,0.00498765,-0.00139865
-0.137382,0.27279200000000003,0.215856,0.013730200000000001,0.00473494,-0.00139023
-0.125874,0.21425100000000002,0.212517,0.0140124,0.00473494,-0.00133784
-0.12334200000000001,0.181624,0.22183899999999998,0.014676,0.00512234,-0.00137003
-0.12715,0.273077,0.205508,0.0140351,0.00473494,-0.00113633
-0.127676,0.168669,0.193625,0.0140326,0.00473494,-0.00134319
-0.11954300000000001,0.22506700000000002,0.2202,0.0125333,0.00473494,-0.00153959
-0.117951,0.276704,0.20591900000000002,0.014075,0.004967,-0.00149417
-0.11731200000000006,0.191408,0.25659899999999997,0.0145275,0.00511161,-0.0014339
-0.118216,0.24033600000000002,0.247406,0.014488,0.00541269,-0.00134319
-0.12681900000000002,0.131706,0.19911900000000002,0.015057399999999999,0.00513197,-0.00134319
-0.12961199999999998,0.282798,0.258443,0.0144031,0.00508727,-0.00134319
-0.12445899999999999,0.19546,0.257806,0.0161635,0.00534088,-0.00151617
-0.102448,0.261506,0.278258,0.0152484,0.00546847,-0.00108965
-0.08982280000000001,0.348595,0.174644,0.015180700000000002,0.00521854,-0.000409676
-0.112874,0.19927,0.213227,0.016190099999999995,0.00493088,-0.00092109
-0.13178299999999998,0.170291,0.338401,0.017117,0.00473494,-0.0012230000000000001
-0.153924,0.182667,0.364282,0.0169798,0.00473494,-0.00160781
-0.149695,0.248889,0.347019,0.0160322,0.00531246,-0.00219673
-0.153003,0.277001,0.311619,0.015094899999999998,0.00500984,-0.00261838
-0.14285599999999998,0.30054000000000003,0.282777,0.013797299999999998,0.00473494,-0.00271847
-0.143023,0.269382,0.228692,0.0136453,0.00447223,-0.00348606
-0.109346,0.20052,0.0666523,0.0155905,0.00562614,-0.0028488000000000003
-0.12443299999999999,0.28967,0.0913848,0.0134524,0.00457451,-0.00237237
-0.127805,0.26844,0.102908,0.014918,0.0041157,-0.00209005
-0.11463,0.14044500000000001,0.188628,0.015453799999999998,0.00360615,-0.00209005
-0.108054,0.192166,0.213971,0.013599100000000001,0.00315084,-0.00209005
-0.10806800000000001,0.20581,0.191025,0.011835300000000005,0.00321229,-0.00209005
-0.10423199999999999,0.147845,0.22048600000000002,0.013697399999999998,0.00264797,-0.00209005
-0.115632,0.223688,0.215173,0.0139119,0.00314795,-0.00215988
-0.11889100000000001,0.204947,0.22243000000000002,0.014218399999999999,0.00355677,-0.00254637
-0.11594000000000002,0.268467,0.206668,0.0130142,0.0037158,-0.00297382
-0.11776400000000001,0.291971,0.23307600000000003,0.0141534,0.0035891999999999994,-0.00243768
-0.123248,0.352244,0.25135599999999997,0.014266399999999999,0.0036655,-0.00243042
-0.13555899999999999,0.253238,0.26084,0.013890399999999999,0.00358685,-0.0029041
-0.13839500000000002,0.253046,0.223619,0.013219499999999999,0.00375034,-0.00308969
-0.13724900000000004,0.297067,0.209312,0.013112200000000001,0.00379896,-0.0030513000000000003
-0.138735,0.18012,0.20665799999999998,0.0141068,0.00380169,-0.00333145
-0.131772,0.260809,0.24429,0.0138774,0.00403371,-0.00317669
-0.12223699999999998,0.222268,0.18879400000000002,0.0132143,0.00399293,-0.00317669
-0.107555,0.160972,0.17189000000000002,0.0136115,0.00354889,-0.00317669
-0.126056,0.277519,0.20497800000000002,0.0146875,0.00412547,-0.00300952
-0.12601199999999999,0.195785,0.185635,0.0152055,0.00392317,-0.00328002
-0.12198800000000005,0.229609,0.15607299999999996,0.0150578,0.00385193,-0.00312649
-0.12018599999999999,0.22328499999999998,0.146575,0.014722899999999999,0.00347109,-0.00331187
-0.117559,0.243815,0.154775,0.0140291,0.00367837,-0.00346134
-0.11769,0.268867,0.174763,0.014726900000000001,0.0037990000000000003,-0.00302006
-0.128262,0.255108,0.185778,0.0143429,0.00421966,-0.00312649
-0.130395,0.21841999999999998,0.146452,0.0128175,0.00389903,-0.00328082
-0.132096,0.22276500000000002,0.11904400000000001,0.0121728,0.00358808,-0.00304857
-0.133947,0.212968,0.139409,0.0127093,0.00378864,-0.0028767
-0.12877,0.23265500000000003,0.153574,0.013525,0.00409651,-0.00287328
-0.12874000000000002,0.187866,0.143929,0.014919799999999999,0.00366969,-0.00299105
-0.128638,0.243585,0.185076,0.0144959,0.00330283,-0.00258488
-0.128671,0.254023,0.12105,0.013682699999999999,0.00314496,-0.00273865
-0.12878499999999998,0.169211,0.163892,0.014180799999999999,0.0033263000000000004,-0.00315946
-0.136945,0.283516,0.17260599999999998,0.0134154,0.0033799999999999998,-0.00285616
-0.13855599999999998,0.21584299999999998,0.152203,0.014071700000000001,0.00363368,-0.00307457
-0.148391,0.280648,0.191615,0.0143253,0.00382468,-0.00285616
-0.145682,0.22954000000000002,0.16005,0.0145631,0.00338297,-0.00321156
-0.147778,0.264033,0.15865399999999996,0.013058100000000001,0.00384838,-0.00285616
-0.147423,0.251106,0.168258,0.0134202,0.00317795,-0.00276058
-0.14618599999999998,0.183496,0.174023,0.0133369,0.00343912,-0.00270394
-0.141329,0.278174,0.23375300000000002,0.0137125,0.00339535,-0.00273721
-0.146756,0.162803,0.190382,0.0144311,0.00362928,-0.00308996
-0.146471,0.268558,0.173814,0.013897799999999998,0.00359018,-0.00278729
-0.14760399999999999,0.22046100000000002,0.207715,0.013519899999999998,0.00343876,-0.00293089
-0.148172,0.27571799999999996,0.20924,0.0126758,0.00343314,-0.00261945
-0.14624799999999996,0.233658,0.20075,0.013858100000000005,0.00372642,-0.00279691
-0.176652,0.157458,0.118175,0.0134518,0.00315343,-0.00322551
-0.16156799999999996,0.293064,0.17266700000000001,0.013045,0.00355961,-0.00265337
-0.17134000000000002,0.226333,0.150483,0.012891899999999998,0.00324233,-0.00286812
-0.15581199999999998,0.22040900000000002,0.15500999999999998,0.013427200000000002,0.003421,-0.00309627
-0.156135,0.232404,0.16630599999999998,0.014126099999999999,0.00344242,-0.00343154
