-0.00655216,-0.000705265,-0.0237113,0.000605105,-0.0,-0.000220433
-0.00149611,0.048904,-0.0163107,0.00116087,1.6964399999999996e-23,7.82345e-05
0.008030779999999998,-0.00357757,0.0205371,0.0008048979999999999,-0.0,0.0
0.00514961,0.039335,0.013029599999999999,0.000107766,0.0005707819999999999,0.0
0.00984725,-0.0022725,-0.00763152,0.0008181609999999998,0.000318185,0.0
0.00962596,-0.00238437,0.00167111,0.000310958,0.00017325,-0.000330186
-0.000557852,0.0386529,0.0156945,0.000268674,0.000374773,-0.00050063
0.026568599999999998,-0.0397915,-0.0964118,-1.27676e-05,-0.000579405,-0.00034494800000000003
0.016724799999999998,0.0602591,0.0225193,-0.000581976,-0.000150923,0.00028656900000000003
0.0193606,0.011891200000000001,0.00778375,7.972709999999997e-05,-0.000435783,-4.11026e-05
0.021486099999999998,0.037799599999999996,0.0225671,-0.000428905,-0.000151912,-2.0484699999999997e-05
0.019444,0.00509883,-0.00585881,-0.000111754,-0.00044562599999999996,-0.00017748099999999998
0.014740200000000002,0.0589168,0.0429274,-0.00047893,-6.17586e-06,0.000100559
0.0200721,0.0157375,-0.0118756,-0.00037327,-0.000321103,-1.10076e-05
0.0095745,-0.0238363,-0.00910259,-0.00011498899999999999,-0.000254647,-0.000308917
0.0095522,0.056477599999999996,0.042986500000000004,-0.000708108,8.15008e-05,-0.000154325
0.0181696,-0.00501034,0.011765600000000001,-0.000566742,-0.00043947400000000003,-0.000308917
0.0242521,0.008156699999999998,0.031202499999999998,0.000140017,-0.000311704,2.40506e-05
0.0169787,0.06256779999999999,0.0312334,-0.000498441,-6.17586e-06,-3.04923e-05
0.0247778,-0.026985000000000002,-0.0138005,0.000109437,-0.000436817,-0.00022387400000000002
0.0204293,0.0778466,0.013861000000000002,-0.000401347,-0.000436818,0.00018309900000000002
0.030092700000000003,0.0422629,0.0174382,-0.000202468,-0.000334791,0.000146352
0.0292703,0.07223810000000001,0.0621525,-0.000752732,1.90623e-05,0.000207664
0.0292297,0.0272509,0.0814161,-0.0010651,1.83907e-05,0.000232328
0.0292764,0.0793672,0.0683687,-0.000591853,-0.000436817,-0.000308918
0.0193933,0.034098800000000005,0.0416417,4.41971e-05,3.32391e-05,-0.000308918
0.0125478,0.0903607,0.100709,-0.00130463,0.000327233,-0.000308918
0.00979663,0.025062599999999997,0.0698924,-0.0008961089999999998,-5.45695e-05,-0.000435657
0.00978703,0.08760819999999997,0.0726565,-0.0008961089999999998,0.00011286,-0.000374924
0.00971676,0.039726,0.0498523,-0.0006201669999999999,7.34633e-05,-0.000308918
0.016302899999999995,0.0934409,0.0498243,-0.000462619,0.000370166,-0.00016966599999999998
0.028312900000000002,0.0453184,0.032842199999999995,0.0005909859999999999,-0.000116209,0.000196927
0.0364142,0.07237339999999999,0.0617924,0.000220447,9.897979999999999e-05,0.000402864
0.035867500000000004,0.048254000000000005,0.04649930000000001,-1.55141e-05,7.05952e-05,0.000402864
0.0407594,0.035393400000000005,0.0549918,9.197280000000001e-05,-0.000209495,0.000161744
0.0347034,0.0461196,0.0498496,-0.00024051400000000002,-0.000308863,0.000402864
0.0379592,0.0216743,0.0782707,-0.000356253,-0.000494815,0.000402864
0.03274,0.0795569,0.0979495,-0.000524575,-0.000115608,0.0006477890000000001
0.0301284,0.0530939,0.120715,-0.00135563,9.55517e-05,0.0008018549999999998
0.0214879,0.00701842,0.097959,-2.1586e-05,-0.000195135,9.35695e-05
0.0232856,0.07333109999999997,0.0979338,-0.000166055,-0.000115608,0.000285061
0.029531,-0.00501522,0.0950676,0.000654249,-0.000115608,0.00020867900000000003
0.0255295,0.0996669,0.113908,-3.20099e-05,-0.000115608,0.00038686199999999997
0.0262909,0.019746400000000004,0.106108,-0.000216515,4.0599e-05,0.000132244
0.025144999999999997,0.032636700000000005,0.0980145,-0.000649807,0.000299611,-2.7905300000000002e-05
0.0264613,0.09598989999999999,0.121522,-0.000796736,0.000709487,1.11483e-05
0.029991399999999998,0.028299599999999998,0.11208299999999999,0.00035162199999999995,0.00023605400000000003,-2.0596399999999998e-05
0.028440499999999997,0.09150499999999999,0.140693,-0.00023365400000000002,0.000291875,0.000173263
0.0324106,0.0461932,0.13351300000000002,2.54565e-06,0.000225043,0.00038686199999999997
0.0358615,0.0578462,0.0975308,-0.000262139,0.00020919,0.00038686199999999997
0.0491703,0.013399800000000005,0.111097,-0.00043061900000000003,-9.733490000000001e-07,0.000187722
0.0491531,0.0629892,0.117568,-0.000408396,0.000147736,0.00046208800000000004
0.053323300000000004,-0.0169842,0.11447,-0.000452053,8.197459999999996e-06,2.8654099999999997e-05
0.04915719999999999,0.067797,0.12461900000000001,-0.00030396599999999997,0.000103837,0.00010709700000000001
0.0393474,-0.015947799999999998,0.111697,-0.000809881,6.72066e-05,-0.000542609
0.0404464,0.06833339999999999,0.121367,-0.00103486,0.00015907,-0.00019271099999999998
0.0420717,-0.018811,0.11013099999999999,-0.00115579,-0.00014083,-0.000244217
0.038111,0.0556827,0.110114,-0.00146412,-0.000169121,-0.000244217
0.0417466,-0.0136673,0.0955574,-0.00120697,-0.00038123300000000003,-0.000302016
0.044563599999999995,0.026016200000000003,0.0968887,-0.00180633,-0.000280995,-0.000311887
0.0492459,-0.0187965,0.110251,-0.0009913419999999999,-0.000280995,-0.000244218
0.0520597,0.0107022,0.10548099999999999,-0.0009902889999999999,-0.00068792,-0.000244218
0.0551236,0.033804400000000005,0.110303,-0.00123863,-0.000280995,8.793989999999998e-05
0.046692000000000004,-0.0083949,0.0675689,-0.0014981,-0.000805248,-4.6806000000000006e-05
0.049426,-0.031004900000000002,0.0369932,-0.0011642200000000005,-0.00108663,-0.000265415
0.045843,0.0559166,0.0801322,-0.00161372,-0.000508083,-8.616029999999998e-05
0.0492604,-0.0100985,0.07059960000000001,-0.00196215,-0.000524496,-0.00022783900000000003
0.0492594,0.0505536,0.0992687,-0.00182544,-0.000288224,-8.616029999999998e-05
0.0397422,-0.017513499999999998,0.0859921,-0.00127019,-0.000693532,-0.000276466
0.0400633,0.050517400000000004,0.122084,-0.00127424,-0.00028995700000000003,6.91294e-05
0.0332461,-0.013821000000000005,0.108803,-0.0009344939999999999,-0.000430826,-8.616029999999998e-05
0.0294707,0.026081299999999998,0.108779,-0.00134237,-0.000422694,-0.000332196
0.0235337,0.0233605,0.0990354,-0.0008516169999999999,-0.000836558,-8.616029999999998e-05
0.026574599999999997,-0.00657835,0.09247799999999999,-0.000154171,-0.000972293,-2.46156e-05
0.0251304,0.0275166,0.12826500000000002,-0.00115782,-0.000566519,0.00014847
0.033251300000000004,-0.0214308,0.0132623,-0.0009092060000000001,-0.00129246,-8.277299999999999e-05
0.0332604,0.0173092,0.0521552,-0.00122352,-0.00133355,4.6623100000000004e-05
0.0332222,0.039900599999999994,0.0628063,-0.0011495,-0.00118241,0.000306453
0.0309681,-0.0125775,0.0432317,-0.000720057,-0.00157128,0.000306453
0.025976099999999995,0.06524869999999999,0.08516069999999999,-0.00108114,-0.00118241,0.000477384
0.0308923,-0.021857299999999996,0.046438099999999996,-0.000494987,-0.00158279,0.000306453
0.0260818,-0.00641287,0.0359655,-0.000495936,-0.00134951,0.000306453
0.0190537,0.0345639,0.0548788,-0.00122795,-0.00129365,0.00011508200000000001
0.0121726,0.0214576,0.024884,-0.0009765,-0.00124972,0.000306453
0.012154799999999999,0.0353814,0.038018500000000004,-0.00122158,-0.000985617,0.000306453
0.00492921,0.052620600000000003,0.07295089999999999,-0.00123351,-0.0009797360000000001,0.000306453
0.012087899999999999,0.0189074,0.0402786,-0.000890316,-0.0010609800000000002,0.000306453
0.00585607,0.0482487,0.0243108,-0.000680335,-0.0012735200000000006,0.00015968799999999998
0.012114299999999998,0.0369528,0.039827499999999995,-0.000635505,-0.00124612,0.000236906
0.00690813,0.0430662,0.049919599999999995,-0.0005381790000000001,-0.0013074400000000006,0.000306453
0.00586099,0.058717,0.0446781,-0.0005381790000000001,-0.00114513,0.000736977
0.0121435,0.0437103,0.061280600000000005,-0.0008305399999999997,-0.00162474,0.00061745
0.012121799999999999,0.037968699999999994,0.042361300000000005,-0.0005381790000000001,-0.0016222,0.0006882769999999999
0.0121221,0.0243984,0.0633949,-0.0005381790000000001,-0.00153334,0.00077187
0.0120943,0.0851658,0.0701632,-0.00150888,-0.00127608,0.000601579
0.0233108,-0.023935599999999998,0.0506311,-0.0013259,-0.0013318300000000006,0.0007718689999999999
0.0120766,0.0613943,0.06129169999999999,-0.00122896,-0.0013601100000000005,0.000830745
0.0199375,0.00690174,0.06130069999999999,-0.0015757,-0.00128178,0.0007718689999999999
0.012112399999999999,0.0722358,0.08746719999999998,-0.00119503,-0.00158968,0.0007718689999999999
0.0121254,0.0462355,0.060136,-0.00144983,-0.00167699,0.0009120160000000001
0.0120891,0.031383,0.099565,-0.0017752899999999997,-0.00145036,0.0007718689999999999
0.017960499999999997,0.0671192,0.112817,-0.00200015,-0.00158968,0.0009166039999999999
0.021171400000000003,0.0372006,0.117306,-0.00226628,-0.00158968,0.00106011
0.0149614,0.030833299999999998,0.117343,-0.00200978,-0.00172952,0.0007718689999999999
0.0121443,0.05722619999999999,0.11264500000000001,-0.00196651,-0.00180669,0.0007718689999999999
0.02264,0.065775,0.0887897,-0.00200477,-0.00152641,0.00117531
0.0300177,0.0033266,0.10541800000000001,-0.00164478,-0.00173549,0.000988121
0.0209103,0.082375,0.12103399999999999,-0.00243082,-0.00167474,0.00126179
0.0204397,0.0131596,0.0844328,-0.00197041,-0.00168283,0.000967295
0.0122933,0.0738908,0.10017899999999999,-0.00236467,-0.00189384,0.000779573
0.0239858,0.047827499999999995,0.07002739999999999,-0.00223641,-0.00172355,0.000920107
0.019524200000000002,0.047833099999999996,0.11424300000000001,-0.00189274,-0.00190481,0.00111398
0.021590599999999998,0.0301149,0.11140699999999999,-0.00255911,-0.00175269,0.0007831089999999999
0.024012000000000002,0.045743400000000004,0.08421159999999997,-0.00241694,-0.00165382,0.000850182
0.025293799999999998,0.0272286,0.0707618,-0.0018338,-0.00188209,0.0007899989999999999
0.019867700000000002,0.06265130000000001,0.08419580000000002,-0.00234512,-0.00171529,0.000850182
0.021937400000000003,0.0106343,0.0841636,-0.0027248000000000003,-0.00179644,0.000850182
0.020406099999999996,0.03681280000000001,0.0765377,-0.00274515,-0.00165927,0.000758613
0.022319799999999997,0.020372499999999998,0.0652286,-0.00244488,-0.00177739,0.000850182
0.0250357,0.0227072,0.0639498,-0.00185456,-0.00174242,0.000850182
0.0312336,0.0199435,0.0756866,-0.00280885,-0.00192636,0.0007257689999999999
0.029304000000000004,0.0368381,0.0963048,-0.00291105,-0.00168464,0.000850182
0.019119499999999998,0.014606200000000001,0.058957,-0.0024928,-0.00186709,0.0005365869999999999
0.026214799999999996,0.06597280000000001,0.0805607,-0.00272966,-0.00147687,0.000699655
0.0191076,0.04353730000000001,0.0959378,-0.00318129,-0.00188091,0.000850182
0.0503026,-0.0436492,-0.045612400000000004,-0.003332,-0.00227101,0.000589283
0.0343329,0.0491907,0.0340759,-0.00363533,-0.00177936,0.000850182
0.038025800000000005,0.00831536,-0.00255728,-0.00316539,-0.00201218,0.000686212
0.041299199999999994,0.0383646,-0.000582673,-0.00262972,-0.00206774,0.000764438
0.018776499999999998,0.058444,0.058896300000000006,-0.00288013,-0.00168125,0.000850182
0.0209671,0.00659659,0.0500325,-0.00245793,-0.00183341,0.0009347639999999999
0.023265400000000002,0.026127299999999996,0.0441455,-0.00281313,-0.00185789,0.000850182
0.023993200000000003,0.032049,0.037906199999999994,-0.0026045,-0.00191087,0.0009739589999999999
0.018828400000000002,0.033885000000000005,0.0618879,-0.00224683,-0.00168086,0.0008501810000000001
0.018882200000000002,0.042722300000000005,0.0688536,-0.00224683,-0.00193271,0.0008501810000000001
0.011021600000000001,0.0106271,0.0487707,-0.00181781,-0.00180065,0.0009124920000000002
0.0120041,0.0648014,0.07499589999999999,-0.00269103,-0.00179926,0.00104897
0.018866900000000002,0.0214963,0.0687831,-0.00258398,-0.00174579,0.0008501810000000001
0.012552500000000001,0.0752071,0.0857658,-0.00273464,-0.0016521699999999995,0.00101902
0.0262468,0.0330957,0.03766869999999999,-0.00239604,-0.00179117,0.00116327
0.0188738,0.0252931,0.0459411,-0.00247977,-0.00193497,0.00103477
0.0100508,0.06201569999999999,0.0875933,-0.00321994,-0.00187301,0.0008501810000000001
0.0154894,-0.00738254,0.057694100000000005,-0.00341095,-0.00184804,0.0008501810000000001
0.00418092,0.06969539999999999,0.0787641,-0.00372943,-0.00163813,0.0008501810000000001
-0.000521168,0.014745600000000001,0.0617087,-0.00294963,-0.00152168,0.000651719
0.00318269,0.065853,0.0788265,-0.00365995,-0.00120178,0.000686227
0.0008270629999999997,0.0265218,0.05504780000000001,-0.00211478,-0.00144614,0.000525555
-0.00039199,0.0621115,0.08958689999999997,-0.00339786,-0.00127386,0.000540194
-0.000654297,0.0167168,0.057454599999999995,-0.00244045,-0.00135692,0.000495317
-0.00321999,0.075419,0.057490099999999995,-0.0029936,-0.00121031,0.0008501810000000001
-0.00324274,0.0227357,0.052948699999999994,-0.00216651,-0.000996129,0.0008501810000000001
-0.00322154,0.07956739999999997,0.07797089999999998,-0.00285556,-0.0012459,0.0007496109999999999
-0.00313043,-0.008467779999999998,-0.00975365,-0.00246266,-0.00185705,0.00043998800000000004
-0.0132672,0.08372939999999998,0.040571499999999996,-0.00267159,-0.00145967,0.000389122
-0.015157599999999999,0.0565784,0.0501594,-0.00279912,-0.00124396,0.000389122
-0.00325199,-0.00565888,0.0138549,-0.00139305,-0.00160948,0.000245465
-0.0007520119999999999,0.0614514,0.06559169999999999,-0.0027903000000000003,-0.00125817,0.000504896
-0.0122912,0.0472996,0.07559069999999997,-0.0030021,-0.00158771,0.00060733
-0.00336478,0.016983,0.0765711,-0.00305727,-0.00132962,0.0005848159999999999
-0.0033273000000000005,0.0260031,0.0693956,-0.00226525,-0.00158771,0.000543807
-0.0033753,0.0575753,0.0710437,-0.00296288,-0.0012418,0.00066833
-0.012229799999999999,0.020636599999999998,0.084844,-0.00297115,-0.0015089,0.0007970139999999998
-0.00332849,0.0762294,0.0883592,-0.00344767,-0.00158771,0.000893951
-0.013923900000000001,0.035662400000000004,0.10315,-0.00299637,-0.00155005,0.00112723
-0.00035068800000000004,0.055343100000000006,0.0654571,-0.00335761,-0.00143659,0.000889755
0.00383525,0.010765,0.027393200000000003,-0.00272656,-0.00163597,0.000889755
-0.012663299999999999,0.06687639999999999,0.0640425,-0.00299102,-0.0013141,0.000889755
-0.00656745,0.0107626,0.0707207,-0.00227427,-0.00150614,0.000889755
-0.009050430000000002,0.0876898,0.10831700000000001,-0.0035349000000000005,-0.0014021000000000005,0.000889755
0.00277033,-0.007217979999999999,0.0287045,-0.00275355,-0.00179214,0.000889755
0.0027622,0.05429880000000001,0.047736400000000005,-0.0031689,-0.00186265,0.000889755
-0.00643454,0.0222018,0.0407365,-0.00271601,-0.00172077,0.000889755
0.00272083,0.0498598,0.0487274,-0.00332602,-0.00148919,0.00100701
0.00272059,0.0418258,0.0387666,-0.00281744,-0.00163025,0.000889755
-0.00037737599999999996,0.058817499999999995,0.054103399999999996,-0.00348782,-0.00146387,0.000889755
-0.000927738,0.022346599999999998,0.0311825,-0.00281559,-0.00160384,0.000889755
-0.00779436,0.07776469999999999,0.052503999999999995,-0.003139,-0.00148327,0.000889755
0.00268887,0.0173467,0.0270184,-0.00248683,-0.00160443,0.0006600760000000001
-0.00640849,0.07257410000000002,0.0521773,-0.00301653,-0.0011675800000000005,0.000487446
-0.00414278,0.0842586,0.0855229,-0.00213597,-0.0007267299999999998,0.000802706
0.00249232,0.0417856,0.06721469999999999,-0.00242255,-0.000694497,0.000487446
0.00258087,0.0357395,0.0385858,-0.0028886,-0.00132683,0.00040036900000000003
-0.010233200000000001,0.028124700000000002,0.03773119999999999,-0.00227547,-0.00138336,0.000268141
-0.014253600000000003,0.0591249,0.0467278,-0.00264247,-0.00108282,0.000293315
-0.00708278,0.0377551,0.043620599999999995,-0.00239033,-0.00109414,0.00019037900000000001
-0.01174,0.07671569999999997,0.0697196,-0.0026619,-0.00107252,0.000201258
-0.00697395,0.0500699,0.045767,-0.00320654,-0.00109476,0.000487446
-0.00985213,0.0157635,0.0377578,-0.00320869,-0.00117981,0.000487446
-0.0193396,0.0839564,0.06740089999999999,-0.00356608,-0.00131342,0.000487445
-0.0107708,-0.0379227,0.0233328,-0.00385731,-0.00152516,0.000171332
-0.0167732,0.0458212,0.046985,-0.00339918,-0.00124724,0.000276042
-0.0193432,0.0022315,0.0274803,-0.00339918,-0.00124724,0.00012636600000000002
-0.00627064,0.0399679,0.0229077,-0.0028572,-0.00120198,0.000487446
-0.00514488,-0.00658521,0.0427926,-0.00401597,-0.00127493,0.000190953
0.000648092,0.05442999999999999,0.040903300000000004,-0.00449025,-0.00116559,0.00022622
-0.00563721,-0.011448999999999999,0.0342444,-0.00338784,-0.0014227100000000006,0.000165692
-0.00565287,0.0638536,0.0576061,-0.00400003,-0.00141517,0.00029124
0.0012843100000000005,-0.00492242,0.034764300000000005,-0.00294094,-0.00150233,1.72564e-05
-0.011017299999999999,0.0845607,0.0613875,-0.00360504,-0.00123799,0.00018571400000000002
-0.00931311,0.0174873,0.0385855,-0.00342335,-0.00142487,0.00021632400000000002
0.00106289,0.00559806,0.0385647,-0.00311309,-0.000967335,0.000487446
0.0069061999999999995,0.0624071,0.0765972,-0.0046411,-0.000946613,0.000487446
0.00327767,0.000904785,0.058601099999999996,-0.00359451,-0.00102126,0.000261516
-0.00224189,0.0817847,0.10366600000000001,-0.00516658,-0.000627078,0.000279885
0.00319307,0.000353619,0.070141,-0.004575899999999999,-0.00116632,1.32625e-05
0.00319716,0.033206599999999996,0.0865101,-0.00507926,-0.00116632,-7.58723e-05
-0.013557399999999999,0.00464224,0.0560366,-0.00464438,-0.00116632,-0.00016989299999999998
-0.00499217,0.0387871,0.0609467,-0.00524427,-0.0007674809999999997,-0.00016989299999999998
0.00443234,0.0100006,0.0370095,-0.00434233,-0.00100898,-0.00016989299999999998
0.007379499999999998,0.0469111,0.0623321,-0.00349488,-0.0009508689999999999,0.00046382199999999996
0.015386000000000002,0.025822300000000003,0.0580706,-0.00385274,-0.00100623,0.000597962
0.00909358,0.0225838,0.0377491,-0.00419619,-0.00116188,0.000493134
0.00338546,0.000238812,0.055679700000000006,-0.00417708,-0.00113416,0.000333144
-0.0135135,0.032489699999999996,0.0606106,-0.00428816,-0.00113416,0.000251465
-9.20684e-05,-0.035097,0.0188981,-0.00452698,-0.00154068,-1.8071199999999997e-05
-0.0135249,0.034523000000000005,0.0358717,-0.00364469,-0.00098088,2.54337e-05
-0.013469700000000001,-0.0170488,-0.00415244,-0.00396807,-0.00116785,-0.00015630399999999999
-0.0135043,0.0411974,0.0251856,-0.00397895,-0.00130395,0.000122486
-0.0135,0.000857718,0.0112646,-0.00399631,-0.00150158,0.000251465
-0.0135025,-0.014707099999999999,0.0380892,-0.00364469,-0.00141106,0.000251465
-0.013498,0.0476129,0.052529,-0.00459394,-0.00142093,0.000334515
-0.013482,0.0159314,0.0159696,-0.00433547,-0.0013058700000000006,0.000251465
-0.00763337,0.010064700000000001,0.022937,-0.00356271,-0.00157244,0.000251465
-0.010616,0.031042300000000002,0.00726902,-0.00395268,-0.00154437,0.00034197
-0.013459200000000001,-0.0130801,0.013280600000000002,-0.00372807,-0.00162471,0.000511374
-0.029581299999999998,-0.0130572,0.0110558,-0.00337383,-0.00140215,0.000500531
-0.027997,-0.0682165,-0.035375699999999996,-0.00368621,-0.00160283,0.000251465
-0.030257,0.00612401,0.0102275,-0.00441779,-0.00181587,0.000251465
-0.0187386,-0.0455221,-0.0236573,-0.00451529,-0.00202895,0.000251465
-0.011469400000000001,-0.0335763,-0.07747339999999997,-0.00368856,-0.00147337,0.000251465
-0.032743400000000006,0.0590018,0.00664013,-0.00377465,-0.00147337,0.000479101
-0.022978799999999997,-0.032599500000000003,0.029594799999999997,-0.00400145,-0.00147337,0.000312708
-0.0180534,-0.0503858,-0.0321295,-0.00404712,-0.00109169,2.65796e-05
-0.013022200000000001,-0.0104121,-0.0288033,-0.00453817,-0.00137698,-9.40572e-05
-0.011127600000000001,-0.0271957,-0.0504586,-0.00413811,-0.00180643,-0.00012046
-0.0214676,0.022196599999999997,-0.017004,-0.00480362,-0.00191081,-6.691439999999999e-05
-0.018084400000000004,-0.017152,-0.014627100000000002,-0.00505558,-0.00181522,7.60951e-05
-0.0205707,-0.017146,-0.0324451,-0.00481082,-0.00226582,0.000294644
-0.0140433,0.0349277,-0.00579367,-0.00493859,-0.00206812,0.000294644
-0.014048500000000002,-0.00572986,-0.0356774,-0.00494397,-0.00184794,0.000294644
-0.014030500000000001,0.00415433,-0.00662296,-0.00549478,-0.00231026,0.000294644
-0.0256203,-0.030466900000000005,-0.0446815,-0.0037664,-0.00153212,5.4471e-05
-0.0318864,0.0394515,-0.0287421,-0.00444154,-0.00184437,0.000294644
-0.0193305,-0.0320397,-0.0633114,-0.00425128,-0.00184437,0.000294644
-0.038996699999999995,0.0184069,-0.0371849,-0.00381174,-0.00133494,0.000294644
-0.050631199999999994,0.024291099999999996,-0.036439,-0.00388236,-0.00150174,0.000294644
-0.0432849,-0.022979,-0.11273599999999999,-0.00367094,-0.00191423,8.13377e-05
-0.042288599999999996,0.0259694,-0.0482607,-0.00433175,-0.0017924,-0.000211635
-0.0499752,0.025991200000000002,-0.048202499999999995,-0.00456372,-0.00154389,-4.0335e-05
-0.045571,-0.0183096,-0.0783779,-0.00346265,-0.00162701,-0.000112317
-0.053742599999999995,0.0640516,-0.0358557,-0.0036345999999999995,-0.00146591,-6.78862e-05
-0.0476686,-0.021356200000000002,-0.038139599999999996,-0.00346728,-0.00146486,0.000187385
-0.0514596,0.0325541,-0.0574212,-0.00378406,-0.00138387,0.000294644
-0.0470581,-0.027526299999999997,-0.06945520000000001,-0.00248355,-0.00128226,0.000294644
-0.0545268,0.050824400000000006,-0.0347147,-0.00332827,-0.00116403,0.000294644
-0.054942099999999994,-0.0020589000000000002,-0.053273900000000006,-0.0027323,-0.00156328,0.000294644
-0.054949,0.0201838,-0.0410898,-0.00271223,-0.00163782,0.000294644
-0.061770500000000006,0.0438202,-0.0373874,-0.00271223,-0.00128417,0.000294644
-0.0481973,-0.0185565,-0.097006,-0.00282814,-0.00179745,0.000294644
-0.041687300000000004,0.031903100000000004,-0.056465999999999995,-0.00204847,-0.0017498000000000001,0.000394508
-0.046717400000000006,-0.00165932,-0.052035000000000005,-0.00217273,-0.00200531,0.000173444
-0.0466945,0.0321599,-0.0332628,-0.00246527,-0.00171413,0.000184091
-0.0416985,0.0194417,-0.06653880000000001,-0.00215469,-0.00198331,0.000294645
-0.0467536,0.0437652,-0.0429509,-0.00195085,-0.00164949,0.00036790900000000003
-0.0350185,0.043773400000000004,-0.045642800000000004,-0.00220265,-0.00188723,0.000294645
-0.033643400000000004,0.0437556,-0.028732,-0.00237981,-0.00182658,0.000294645
-0.033663099999999994,0.00062238,-0.06467490000000001,-0.00119457,-0.00206714,0.000294645
-0.0395516,0.0538509,-0.0435985,-0.00230884,-0.00192924,0.000465959
-0.019669299999999997,-0.0111913,-0.0839291,-0.00152497,-0.00221673,0.000758392
-0.0372528,0.071239,-0.0477673,-0.00216559,-0.00187746,0.0008324889999999997
-0.0414604,0.0313077,-0.05857090000000001,-0.00190652,-0.00215585,0.000572289
-0.022822799999999997,-0.0122455,-0.111204,-0.0022653,-0.00243372,0.000572289
-0.041706,0.10931199999999999,-0.044194199999999996,-0.0017613,-0.00210495,0.000938075
-0.0405967,0.0346069,-0.07131080000000001,-0.00133697,-0.00220509,0.000572289
-0.048916900000000006,0.0832813,-0.0373451,-0.00154992,-0.00195987,0.000572289
-0.0433903,0.051324800000000004,-0.040900599999999995,-0.00149387,-0.00174821,0.0009272410000000001
-0.0433492,0.051364599999999996,-0.0346362,-0.00170427,-0.00191679,0.0007545319999999999
-0.043364,0.06854389999999999,-0.0513457,-0.00144761,-0.00208595,0.0008404559999999997
-0.022148599999999997,-0.0248421,-0.06940260000000001,-0.0016487000000000001,-0.00249755,0.000572289
-0.032162,0.06327140000000002,-0.0360821,-0.00199865,-0.00206899,0.0012584400000000006
-0.0343867,0.05456669999999999,-0.0397244,-0.00220676,-0.00218908,0.00143666
-0.030494999999999998,0.0108624,-0.033067900000000004,-0.000919808,-0.00237827,0.00104305
-0.030432999999999998,0.0649258,-0.061311199999999996,-0.0009600460000000001,-0.00195593,0.00130257
-0.0382786,0.0319254,-0.031115800000000002,-0.00134667,-0.00208214,0.00124154
-0.0415122,0.07825029999999998,-0.0393962,-0.00168223,-0.00202463,0.00107776
-0.0335211,0.00711819,-0.0473045,-0.00170395,-0.00243429,0.0009208110000000001
-0.0399341,0.0726118,-0.030934899999999998,-0.00166278,-0.00209238,0.00109172
-0.0416601,0.030254400000000004,-0.029266300000000002,-0.00142803,-0.00214541,0.000959595
-0.0243076,0.0261501,-0.044535000000000005,-0.00116903,-0.00175027,0.00101562
-0.0337953,0.0704628,-0.018262900000000002,-0.00149946,-0.00174393,0.00124154
-0.037839199999999996,0.0378661,-0.0106292,-0.00181879,-0.00174393,0.00107793
-0.04158819999999999,0.0598337,-0.034526999999999995,-0.00185431,-0.00194457,0.0008293619999999999
-0.042369199999999996,0.080885,-0.0616779,-0.00145432,-0.00171011,0.00106133
-0.042779199999999996,0.0700813,-0.0396402,-0.00179465,-0.00210273,0.00110383
-0.0427867,0.0512326,-0.031304900000000004,-0.00192084,-0.00219727,0.00102485
-0.0504636,0.0876696,-0.013585900000000001,-0.00210624,-0.0018227999999999999,0.00120769
-0.0423162,0.041827300000000005,-0.042125300000000004,-0.00155492,-0.0019847000000000003,0.00100734
-0.0412044,0.0739859,-0.0164532,-0.00238632,-0.0015589,0.00150945
-0.0574562,0.0647917,-0.00707115,-0.00218782,-0.0015519,0.00125795
-0.0574149,0.090406,-0.0270175,-0.00240108,-0.00154393,0.00104917
-0.07111060000000001,0.053424400000000004,-0.0285132,-0.00136683,-0.00169002,0.0008293619999999999
-0.06708099999999999,0.06786730000000002,-0.0106424,-0.00169893,-0.00177917,0.0008293619999999999
-0.068516,0.0498875,-0.0193777,-0.0009787980000000001,-0.0018474000000000001,0.0008293619999999999
-0.06160740000000001,0.09029580000000001,-0.00230077,-0.00172801,-0.00189823,0.00109463
-0.0624067,0.0725827,-0.0176247,-0.00186182,-0.00205134,0.00130512
-0.061023400000000005,0.05309169999999999,-0.0147827,-0.00179641,-0.00195025,0.00112962
-0.0617722,0.0725828,-0.009866840000000005,-0.0021369,-0.00208862,0.0011729100000000005
-0.0453926,0.0544807,-0.045844,-0.00179967,-0.00225452,0.00107061
-0.0453876,0.043934,-0.0157184,-0.0021369,-0.00208862,0.0008293619999999999
-0.05690599999999999,0.09798970000000004,-0.026383799999999995,-0.00169793,-0.00205758,0.00102333
-0.058813599999999994,0.033462,-0.0351531,-0.00165215,-0.00234608,0.0008293619999999999
-0.06658430000000001,0.11923299999999999,0.0121138,-0.00185031,-0.00195,0.00118201
-0.059050099999999994,0.0436791,-0.00693602,-0.00187594,-0.00198111,0.000989947
-0.063479,0.0601842,0.00457685,-0.0019172,-0.00223403,0.0008293619999999999
-0.0634871,0.0970962,0.0125185,-0.00220324,-0.0021128,0.00146164
-0.0634817,0.04253869999999999,-0.011786399999999999,-0.00153443,-0.00223403,0.00117884
-0.055879599999999995,0.057725900000000004,-0.007903,-0.00211161,-0.00211372,0.00108871
-0.05412569999999999,0.05773430000000001,-0.029335200000000002,-0.00148665,-0.00208155,0.00108471
-0.055927,0.057687800000000004,-0.0161194,-0.00170632,-0.00231889,0.0008293619999999999
-0.0654343,0.08777339999999999,0.005800199999999999,-0.0026623000000000003,-0.00198323,0.0008293629999999997
-0.07372919999999998,0.0709656,0.00139536,-0.0026623000000000003,-0.00205545,0.0008293619999999999
-0.0737357,0.115683,0.014139600000000002,-0.0027201,-0.00182368,0.00101899
-0.0794811,0.0793183,1.2164400000000005e-05,-0.0026623000000000003,-0.00205545,0.0008293619999999999
-0.0656423,0.0965949,0.000544525,-0.00302985,-0.00177571,0.00122302
-0.07458439999999998,0.08664379999999999,0.00187536,-0.00263552,-0.0019309000000000002,0.0012235700000000006
-0.0707903,0.073115,-0.00340647,-0.00230018,-0.00208221,0.0012567
-0.0707549,0.0806348,0.00414091,-0.00254968,-0.00227645,0.0013648000000000006
-0.0622749,0.0829991,-0.0082886,-0.00181648,-0.00255707,0.00123471
-0.0496712,0.0786483,-0.0007528639999999999,-0.00143782,-0.00251023,0.00148415
-0.0565062,0.090783,-0.016072,-0.00189079,-0.00261344,0.00104523
-0.0546798,0.0472148,-0.0286666,-0.00134443,-0.00253749,0.00112915
-0.061339099999999994,0.11778699999999999,0.021027599999999997,-0.0020447,-0.00243594,0.00154071
-0.0534942,0.030022700000000003,-0.027044400000000003,-0.00230811,-0.00261344,0.00118125
-0.049814300000000006,0.09305189999999999,0.0162406,-0.00179808,-0.00205911,0.00119451
-0.057494500000000004,0.12436100000000005,0.0303869,-0.00267806,-0.002096,0.00134389
-0.058785500000000004,0.059398,0.0141025,-0.00205973,-0.00228521,0.00133693
-0.049840499999999996,0.0915716,0.0336851,-0.00238674,-0.00228521,0.00134909
-0.042478300000000004,0.10711199999999999,0.0542696,-0.00236589,-0.00192512,0.0016642199999999995
-0.045456,0.111221,0.09214989999999999,-0.00231538,-0.00200047,0.0016642199999999995
-0.062295500000000004,0.11606,0.09013550000000001,-0.00289631,-0.00221779,0.00211732
-0.0602886,0.052976199999999994,0.0152045,-0.00208227,-0.00237379,0.00151898
-0.07027639999999999,0.08916889999999998,0.058344799999999995,-0.00279497,-0.00237379,0.00143774
-0.07557429999999997,0.0411438,0.00269797,-0.00219016,-0.00270735,0.00107073
-0.051998199999999994,0.0572222,-0.0277398,-0.00330049,-0.00269203,0.00143157
-0.0702421,0.1413,0.0109021,-0.00307518,-0.00248151,0.00123807
-0.07455149999999999,0.0465543,-0.00688768,-0.00206253,-0.00225436,0.00103082
-0.07611219999999999,0.128532,0.030613599999999998,-0.00331549,-0.00254237,0.00123807
-0.0760933,0.0188462,-0.010787999999999999,-0.0033955999999999995,-0.0026923999999999997,0.00123807
-0.07607619999999997,0.0433653,0.00583374,-0.00302641,-0.0028507,0.00123807
-0.0662408,0.04335630000000001,-0.032509699999999996,-0.00278233,-0.00316539,0.00123807
-0.060474599999999996,0.0746324,-0.007882719999999998,-0.00303049,-0.0027829,0.00123807
-0.06351960000000001,0.030331999999999998,-0.016225,-0.00304414,-0.00291498,0.00123807
-0.0730576,0.0878872,-0.019041299999999997,-0.00323472,-0.00291498,0.00123807
-0.0654467,0.05656080000000001,-0.0365847,-0.00300002,-0.00277719,0.00110805
-0.0750741,0.058958500000000004,-0.017546400000000004,-0.00284378,-0.00289263,0.00123807
-0.0750577,0.07244889999999997,-0.0139846,-0.00306648,-0.00275453,0.00123807
-0.07505889999999997,0.048197500000000004,-0.0312534,-0.00250517,-0.00279923,0.00129229
-0.0750575,0.07209739999999999,-0.027141200000000004,-0.00172759,-0.00279923,0.00123807
-0.0618636,0.0378661,-0.0174645,-0.00175522,-0.00279923,0.0010464
-0.0559328,0.0851461,-0.00255996,-0.00217845,-0.00283107,0.00123807
-0.055901599999999996,0.00021527900000000002,-0.037089300000000006,-0.0026171999999999996,-0.00322981,0.00123807
-0.06870219999999999,0.07799099999999999,-0.00187537,-0.00303651,-0.00265639,0.00123807
-0.055901599999999996,0.00389294,-0.101771,-0.00228818,-0.00322981,0.00123807
-0.0527597,0.0377741,-0.0658638,-0.00242087,-0.00255169,0.00123807
-0.058239400000000004,0.0664425,-0.033468,-0.00260191,-0.00239653,0.00123807
-0.0650872,0.0515711,-0.0243179,-0.00225622,-0.00275042,0.00123807
-0.0532039,0.06647560000000001,-0.0456833,-0.00250641,-0.00272291,0.00123807
-0.041938699999999995,0.0231109,-0.059354,-0.00194928,-0.00284367,0.00123807
-0.0553128,0.102392,-0.016442,-0.00222228,-0.00284367,0.00163964
-0.06321449999999999,0.06742419999999999,-0.0386478,-0.00225416,-0.00284367,0.00153997
-0.0638858,0.0399254,-0.0506679,-0.00262641,-0.00327779,0.00149476
-0.059181500000000005,0.0465339,-0.0503413,-0.00253123,-0.0029264,0.00183205
-0.063807,0.016950599999999996,-0.0664632,-0.00193953,-0.0031311,0.00166089
-0.0638646,0.0772392,-0.0515534,-0.00251089,-0.00288485,0.00168921
-0.0638258,0.00231606,-0.065963,-0.00218529,-0.0029736999999999997,0.00150808
-0.0638536,0.0650885,-0.0360855,-0.00266003,-0.00324955,0.00209483
-0.0638408,0.0426316,-0.0355071,-0.00232616,-0.00319366,0.00187208
-0.063821,0.00953925,-0.0706637,-0.00227477,-0.00327221,0.00176814
-0.0638559,0.0792386,-0.046069099999999995,-0.00279469,-0.00304526,0.00189537
-0.0638429,0.0435097,-0.045536900000000005,-0.0025234000000000003,-0.00320677,0.00187451
-0.0638245,0.0679467,-0.022796900000000002,-0.00316866,-0.00304526,0.0015314599999999995
-0.0638184,0.034792800000000006,-0.0517359,-0.00245068,-0.00304526,0.00167665
-0.06121519999999999,0.08292629999999998,-0.044744,-0.00262577,-0.00304526,0.001703
-0.0638426,0.0240047,-0.06919,-0.00181719,-0.00304526,0.00179607
-0.061761300000000005,0.07443239999999998,-0.0377437,-0.00253834,-0.00282916,0.00187455
-0.0601851,0.017149,-0.0432294,-0.00215368,-0.00278793,0.00182019
-0.060313900000000004,0.07047769999999999,-0.034308,-0.00237151,-0.00278044,0.00194761
-0.047897800000000004,0.011872700000000005,-0.10863800000000001,-0.00109942,-0.00308487,0.00266677
-0.05223330000000001,0.09985790000000004,-0.0459554,-0.00170589,-0.00266687,0.00256053
-0.0460707,0.014437899999999998,-0.110858,-0.00107523,-0.00316047,0.00260713
-0.039533,0.0602726,-0.055398,-0.00209812,-0.00316047,0.00256636
-0.052757500000000006,0.0602654,-0.0421129,-0.00244146,-0.00316047,0.0026945999999999997
-0.052715,0.000172155,-0.0651755,-0.00169917,-0.00316047,0.00259532
-0.058670299999999995,0.07068430000000002,-0.0309171,-0.00180965,-0.00316047,0.00241803
-0.052711400000000005,0.05253680000000001,-0.07521669999999997,-0.00165629,-0.00362013,0.0024841999999999998
-0.0527173,0.033037699999999996,-0.053942899999999995,-0.00180965,-0.00356446,0.00254471
-0.0579559,0.05577530000000001,-0.025941500000000003,-0.00180965,-0.00324382,0.00259532
-0.052722500000000005,0.027985000000000003,-0.008424219999999998,-0.00180965,-0.00347861,0.00253237
-0.0527457,0.0810211,-0.011628500000000005,-0.00214476,-0.00324134,0.00259532
-0.0527664,0.025172,-0.0150907,-0.00219947,-0.00315683,0.00259532
-0.061246400000000006,0.101275,0.0257027,-0.00290465,-0.00288976,0.00280135
-0.0527484,0.062489499999999996,-0.017287599999999997,-0.00214481,-0.00336997,0.00259532
-0.05274349999999999,0.037951900000000004,-0.010900100000000001,-0.00260791,-0.00351101,0.00273703
-0.052752,0.10863699999999998,0.029381,-0.00272426,-0.0031988000000000003,0.00299645
-0.0527634,0.061385800000000004,0.0329139,-0.00272426,-0.0031988000000000003,0.00299545
-0.052753699999999994,0.0496213,0.0134722,-0.00213028,-0.00321106,0.00254219
-0.0571683,0.09037289999999999,0.030907099999999996,-0.0029951,-0.00297271,0.00294539
-0.0527648,0.043007199999999995,0.0188708,-0.00235389,-0.00328047,0.00259532
-0.0528132,0.062244900000000006,0.046000400000000004,-0.00237024,-0.00297271,0.0026812
-0.0528251,0.05802,0.05442090000000001,-0.00330543,-0.00294917,0.00268456
-0.0527678,0.0679625,0.0500805,-0.00322182,-0.00347375,0.00245253
-0.059025,0.039814499999999996,0.00415557,-0.00320603,-0.00310938,0.00218843
-0.06633330000000001,0.0686772,-0.016272,-0.00324172,-0.00334917,0.00203622
-0.06846619999999999,0.09013049999999999,-0.0325282,-0.0039333,-0.00364306,0.00203622
-0.0636684,0.0845067,-0.00839252,-0.00396198,-0.00347438,0.00203622
-0.0642148,0.060590099999999994,0.0156781,-0.00378551,-0.00373168,0.00229883
-0.06840830000000002,0.124358,0.0158796,-0.00196507,-0.00304866,0.00235559
-0.0585396,0.00633315,0.00469996,-0.00217333,-0.00327066,0.00203623
-0.0596904,0.100467,-0.00692512,-0.00243136,-0.00361599,0.00256779
-0.0508096,0.0102803,-0.0289476,-0.00211133,-0.00365401,0.00203623
-0.0668294,0.0778772,0.029686700000000003,-0.00201943,-0.00341616,0.00203623
-0.0691425,0.08373469999999998,0.0237189,-0.00283108,-0.00373249,0.00253012
-0.050723500000000005,0.053770500000000006,-0.0193875,-0.00272951,-0.0037014,0.00231949
-0.0513794,0.0202247,-0.0240603,-0.00279636,-0.00415059,0.00223
-0.031203500000000002,0.05275930000000001,-0.102932,-0.00282942,-0.00439746,0.00217788
-0.054682100000000004,0.08558980000000001,-0.035530599999999996,-0.00193067,-0.00395314,0.0021397
-0.0683892,0.08956460000000001,-0.0160164,-0.0021308000000000004,-0.00387757,0.00237267
-0.054527099999999995,0.0103439,-0.0769841,-0.00264725,-0.00384091,0.00228032
-0.05455830000000001,0.0197083,-0.0532283,-0.00248142,-0.00384091,0.0023503
-0.0668763,0.07944470000000001,-0.0550581,-0.00197586,-0.00384091,0.00225941
-0.054559699999999996,-0.0051136,-0.056945,-0.00168889,-0.00373488,0.00225941
-0.0673443,0.0829747,-0.0300276,-0.00231073,-0.00384091,0.00241911
-0.06712439999999999,0.0425313,-0.0642237,-0.00183697,-0.00394724,0.00225941
-0.0698179,0.07805969999999998,-0.0274542,-0.00195087,-0.00376595,0.00225941
-0.0616069,0.0667154,-0.024371,-0.00155612,-0.00376595,0.00251264
-0.071309,0.06647810000000001,-0.0029096,-0.00204517,-0.00389952,0.00259347
-0.0620427,0.06641760000000001,-0.0458073,-0.00199959,-0.00376595,0.00225941
-0.0603188,0.0323018,-0.041785199999999995,-0.00145192,-0.0038835999999999996,0.00225941
-0.06410700000000001,0.06623580000000001,-0.0340579,-0.00178582,-0.00389132,0.00251373
-0.05823590000000001,0.0375764,-0.042408,-0.00132181,-0.00370029,0.00225941
-0.0565817,0.0710382,-0.0207111,-0.0016285099999999995,-0.00408491,0.00225941
-0.06237190000000001,0.0207808,-0.0417355,-0.00116789,-0.00448568,0.00225941
-0.0623898,0.07613389999999999,-0.0252878,-0.00156314,-0.00431755,0.00262309
-0.062377199999999994,0.0412778,-0.0324165,-0.0013049000000000001,-0.00445388,0.00225941
-0.06242819999999999,0.0811102,-0.00944848,-0.00215146,-0.00420598,0.00257702
-0.0553217,0.0218379,-0.058986500000000004,-0.00173421,-0.00411415,0.00250322
-0.0515243,0.08771910000000001,-0.0523368,-0.00170072,-0.00434704,0.00249706
-0.058214699999999994,0.0640498,-0.030547700000000004,-0.00151379,-0.00419195,0.00225941
-0.0619237,0.0944962,-0.0365985,-0.00165343,-0.00414647,0.00225941
-0.034649599999999996,0.0100301,-0.116797,-0.0013189,-0.00439971,0.0021939
-0.056153499999999995,0.024416099999999996,-0.0935878,-0.0016957299999999995,-0.0042824,0.00185333
-0.080002,0.08866749999999997,-0.0584893,-0.00174168,-0.0040095999999999994,0.00185333
-0.0751613,0.0127624,-0.0626452,-0.00128638,-0.00401548,0.00135397
-0.07932589999999999,0.101573,-0.016594399999999995,-0.00185546,-0.00431459,0.00181731
-0.0739641,0.0461155,-0.0302598,-0.00188065,-0.00409076,0.00179565
-0.06524490000000001,0.0355913,-0.037402,-0.00124477,-0.00401844,0.00212933
-0.0602182,0.0673779,-0.032362,-0.00178104,-0.00428838,0.00212933
-0.0603543,0.044064,-0.0155162,-0.00203142,-0.0038984,0.00195552
-0.0636593,0.0636473,-0.10394300000000001,-0.000483055,-0.00426432,0.0016054
-0.06431469999999999,0.06666180000000001,-0.0579342,-0.00179128,-0.0039473,0.00167595
-0.0511316,0.05966369999999999,-0.07033610000000001,-0.0020636,-0.00441785,0.00167595
-0.0577011,0.00671952,-0.0629602,-0.00116237,-0.00405572,0.00167595
-0.0630934,0.0849743,-0.0405994,-0.00203818,-0.00394635,0.00167595
-0.053813,0.0006706580000000001,-0.07141439999999999,-0.00291179,-0.00427955,0.00145915
-0.0550246,0.028018,-0.053014599999999995,-0.00264626,-0.00408978,0.00123778
-0.053837699999999995,0.0512572,-0.0548854,-0.00271614,-0.00401691,0.00123778
-0.0524294,-0.0134041,-0.08193289999999999,-0.00319132,-0.00401554,0.00123778
-0.047506599999999996,-0.000587402,-0.07347460000000001,-0.00346543,-0.00399618,0.0010083
-0.0653767,0.06991939999999999,-0.0477702,-0.00382775,-0.00382189,0.00098182
-0.0592097,0.00013113000000000005,-0.07035939999999999,-0.00355133,-0.00407435,0.0008753949999999997
-0.0593793,0.0652009,-0.052328999999999994,-0.00420101,-0.00379386,0.00117318
-0.062428899999999996,0.0144335,-0.0875075,-0.00395101,-0.00404664,0.00104727
-0.06535820000000002,0.0610942,-0.0694363,-0.00429036,-0.00350593,0.00123778
-0.0653174,0.0231483,-0.08102829999999997,-0.00420101,-0.00412014,0.0008149729999999998
-0.065337,0.018718799999999997,-0.0822697,-0.00399342,-0.00389601,0.0008149729999999998
-0.06298630000000001,0.0498019,-0.05702,-0.00420101,-0.00381136,0.00115678
-0.06203530000000001,0.00976367,-0.07863339999999999,-0.00348634,-0.00383884,0.0008149729999999998
-0.0622789,0.0403294,-0.0728288,-0.00357974,-0.00377488,0.00120419
-0.0640755,-0.0107491,-0.0808607,-0.00293857,-0.00396641,0.00096827
-0.07602359999999997,0.0545203,-0.0310575,-0.00340842,-0.00368363,0.00130127
-0.06009930000000001,-0.00697376,-0.09755680000000004,-0.00379539,-0.00425427,0.00098931
-0.06550890000000001,-0.0123498,-0.08672499999999997,-0.00291036,-0.00439525,0.00101342
-0.0698341,0.0235763,-0.057459199999999995,-0.00327798,-0.00418956,0.00116732
-0.060160000000000005,0.0595788,-0.04552659999999999,-0.00333104,-0.00410929,0.00140676
-0.060141499999999994,-0.0071021,-0.036017,-0.00302967,-0.00402345,0.00124483
-0.07484599999999997,0.0575499,-0.034002,-0.00314829,-0.00419302,0.00129736
-0.0572735,-0.020352000000000002,-0.0624578,-0.00399797,-0.00464512,0.00111003
-0.06958500000000001,0.044727800000000005,-0.0334034,-0.00359348,-0.00432875,0.00120256
-0.0616274,-0.011787899999999999,-0.0746811,-0.0033753999999999998,-0.00432875,0.00101855
-0.057362,0.041542199999999994,-0.0253612,-0.00379618,-0.0041339,0.001242
-0.0770642,0.0325639,-0.039592,-0.00465789,-0.00475244,0.00151079
-0.05943240000000001,-0.015840899999999998,-0.04675630000000001,-0.00333918,-0.00442195,0.00120028
-0.06550830000000002,0.0616639,-0.0190578,-0.00386244,-0.00417693,0.00140676
-0.060304899999999995,0.0119641,-0.06785830000000001,-0.00333324,-0.00466836,0.0014597999999999998
-0.043173800000000005,-0.00166697,-0.0321121,-0.00405299,-0.00469429,0.00156007
-0.0494148,0.0575743,-0.0326123,-0.00403268,-0.00445324,0.00140676
-0.040848800000000005,-0.0169558,-0.0436641,-0.00332641,-0.00425836,0.00157566
-0.043156099999999996,0.0206855,-0.0327479,-0.00466825,-0.00473158,0.00164479
-0.043142900000000005,-0.017434900000000003,-0.0625274,-0.00349604,-0.00467097,0.00140676
-0.0431603,0.0171043,-0.0323939,-0.004557899999999999,-0.00448018,0.00140676
-0.043088699999999994,-0.00263565,-0.0700385,-0.00384137,-0.00471056,0.0008830179999999998
-0.0567612,0.038524800000000005,-0.064374,-0.00425801,-0.00453121,0.00111673
-0.0564929,0.00183378,-0.0582158,-0.00425801,-0.00466463,0.00140676
-0.062210699999999994,0.017144,-0.0693301,-0.00425801,-0.00472737,0.0010867000000000001
-0.0600349,0.0258981,-0.034161500000000004,-0.00450436,-0.0043001,0.0012556
-0.060022000000000006,0.03395580000000001,-0.0678902,-0.00333961,-0.00456047,0.00117469
-0.0600362,0.018094299999999997,-0.0356153,-0.00299247,-0.004305699999999999,0.000989233
-0.0652543,0.033931300000000005,-0.0319653,-0.00346617,-0.00440831,0.00111752
-0.0300305,-0.051101,-0.184568,-0.0037346,-0.00549176,0.0009969710000000001
-0.058093200000000005,0.0433481,-0.07658999999999999,-0.00261728,-0.00446045,0.00140676
-0.05807819999999999,0.043325300000000004,-0.06671189999999999,-0.00276692,-0.00436704,0.00110721
-0.043732,-0.034957300000000004,-0.11395699999999999,-0.00280189,-0.00491224,0.000791472
-0.0576529,0.0648082,-0.0341064,-0.00274642,-0.00439742,0.00132488
-0.05511030000000001,-0.00229634,-0.0548522,-0.00257342,-0.00477953,0.00120352
-0.0576241,0.0439971,-0.0387505,-0.00219676,-0.00436444,0.00115282
-0.057564300000000006,-0.000544074,-0.064096,-0.00235432,-0.00477903,0.0009479719999999999
-0.057703,0.0470638,-0.022424799999999998,-0.00224464,-0.00421567,0.00108472
-0.057701499999999996,0.017845,-0.048838599999999996,-0.00225134,-0.00458209,0.0010661
-0.0576876,0.00143364,-0.06521390000000002,-0.0016648,-0.00470423,0.0009479719999999999
-0.0737914,0.060273900000000005,-0.044468400000000005,-0.00241097,-0.00440123,0.0009479719999999999
-0.0503159,-0.034482900000000004,-0.08285310000000001,-0.00220732,-0.0047084,0.0009479719999999999
-0.057272,0.045172699999999996,-0.0123509,-0.00189999,-0.00440003,0.00119139
-0.0572504,0.0366316,-0.025893799999999998,-0.00169142,-0.00418727,0.00111819
-0.0487925,-0.0172065,-0.0628112,-0.00216054,-0.00475763,0.0009479730000000001
-0.0590096,0.0736745,-0.012257899999999999,-0.00206903,-0.00422055,0.0011684200000000005
-0.061801699999999994,0.0182244,-0.0588609,-0.000811616,-0.0047047,0.00141294
-0.0590102,-0.00753917,-0.0493156,-0.0015935,-0.00462642,0.00121297
-0.0690268,0.067953,-0.0314599,-0.00258012,-0.00444848,0.00123654
-0.0736672,0.0445725,-0.0629193,-0.00202889,-0.00401817,0.000897946
-0.0763145,0.0674049,-0.037528,-0.00197083,-0.00389483,0.00105973
-0.0762965,0.0478271,-0.033627300000000006,-0.00242169,-0.0041387,0.00105973
-0.0688346,0.00386235,-0.05839580000000001,-0.00217205,-0.00428498,0.000853951
-0.0698384,0.0521066,-0.05128919999999999,-0.00246961,-0.00396523,0.0007944889999999999
-0.0766135,0.008739959999999998,-0.08229079999999997,-0.0017864999999999997,-0.00396344,0.000689837
-0.0767413,0.0593651,-0.033516199999999996,-0.00222046,-0.00365844,0.0008038989999999997
-0.0652404,-0.00203533,-0.06328020000000001,-0.00142671,-0.00398613,0.000676626
-0.0698971,0.0365337,-0.055057400000000006,-0.00143001,-0.00383081,0.000607916
-0.0698671,0.010867700000000001,-0.0866978,-0.0009624770000000002,-0.00440861,0.000607916
-0.07663699999999997,0.0119473,-0.058940599999999996,-0.00167715,-0.00364818,0.000607916
-0.0841142,0.0283769,-0.0609997,-0.00147809,-0.0038513000000000006,0.000607916
-0.08001989999999999,0.028386200000000004,-0.0540456,-0.00129582,-0.00367887,0.000607916
-0.08407109999999997,0.0457329,-0.0735258,-0.00117842,-0.0038835000000000002,0.000529374
-0.07999769999999999,-0.022062000000000002,-0.08440779999999999,-0.0013165,-0.00405161,0.000373952
-0.0870171,0.05505840000000001,-0.032088599999999995,-0.00170948,-0.00352838,0.000607916
-0.0870173,-0.0240144,-0.04928130000000001,-0.000546809,-0.00348199,0.000607916
-0.08705139999999999,0.0451298,-0.0401098,-0.000625958,-0.00325705,0.000607916
-0.05963330000000001,0.000366626,-0.1309,-0.0007495119999999999,-0.00393364,0.000607916
-0.0680678,0.00335664,-0.0915304,-0.000758984,-0.00386498,0.000607916
-0.0818446,0.041076,-0.0523895,-0.0011690200000000006,-0.00376514,0.000827872
-0.0418494,-0.0280127,-0.0807195,-0.0009617439999999999,-0.00351186,0.0006079169999999999
-0.06855789999999999,0.0383079,-0.0443694,-0.000957704,-0.00353192,0.000714095
-0.0685433,0.0264728,-0.06259690000000001,-0.00119057,-0.00353192,0.0006079169999999999
-0.068548,-0.013219299999999998,-0.0675456,-0.0007254039999999999,-0.0033884,0.0006079169999999999
-0.08548960000000001,0.0645423,-0.0468465,-0.0008880339999999999,-0.0031327,0.000607916
-0.08547869999999999,-0.00253779,-0.0630645,-0.000601744,-0.00356288,0.000684058
-0.0886691,-0.0118354,-0.0917246,0.0005616000000000001,-0.00362687,0.0006079169999999999
-0.0897966,0.0136792,-0.06262380000000001,-0.0006912289999999999,-0.003725,0.000607916
-0.0893434,-0.00259722,-0.0692602,-0.00117131,-0.00414147,0.000607916
-0.0854845,0.016360399999999997,-0.10300799999999999,-0.00123289,-0.00405742,0.000702685
-0.08547010000000001,0.0286474,-0.124203,-0.0007871539999999997,-0.0038196999999999997,0.0006079169999999999
-0.100201,0.07102739999999999,-0.0716933,-0.00117772,-0.00357278,0.000607916
-0.09563350000000001,0.0109741,-0.08851010000000001,-0.00103365,-0.00364921,0.000450892
-0.102142,0.057188300000000004,-0.0657349,-0.00112647,-0.00345293,0.00049137
-0.0905615,0.00727147,-0.08319019999999999,-0.00096314,-0.00365424,0.000473199
-0.0828618,0.017363999999999997,-0.0797092,-0.00150525,-0.0036961,0.000587198
-0.08275789999999998,0.00718972,-0.124305,-0.0007472979999999998,-0.00360594,0.00017851599999999998
-0.082842,0.007230089999999998,-0.08134119999999999,-0.00150661,-0.00347642,0.000757848
-0.07290109999999997,0.00101712,-0.164132,0.000164057,-0.00410772,0.000383451
-0.059160199999999996,-0.0411305,-0.148856,-0.000397383,-0.00399529,0.0005785569999999999
-0.0751493,0.0395224,-0.08847519999999999,-0.0014279000000000002,-0.0036491,0.000596721
-0.075918,-0.0280895,-0.12223599999999998,-0.00126641,-0.00373394,0.00014822200000000002
-0.07596089999999997,0.0371879,-0.07942339999999999,-0.00143199,-0.00364441,0.000499607
-0.07595409999999997,0.000614683,-0.09900089999999999,-0.00129072,-0.00381125,0.000275752
-0.07598259999999997,0.00715045,-0.09468240000000004,-0.00247541,-0.00391348,0.000526476
-0.0847937,0.0492207,-0.08597460000000001,-0.00266807,-0.00389314,0.0007250209999999997
-0.0758428,-0.0567245,-0.129996,-0.00189082,-0.00424992,0.00032885300000000004
-0.07592419999999997,0.0010309000000000002,-0.105457,-0.00225672,-0.00394133,0.000608363
-0.07596129999999998,0.0271683,-0.117802,-0.00225672,-0.00398018,0.0008162839999999999
-0.05889590000000001,-0.0641766,-0.10931400000000001,-0.00236289,-0.00409391,0.0007311919999999998
-0.0759456,0.03621919999999999,-0.0993264,-0.00225672,-0.00401433,0.000916811
-0.06712739999999999,-0.0253007,-0.156952,-0.00161636,-0.00462466,0.000608363
-0.0753819,0.0221868,-0.0934263,-0.00205116,-0.00441183,0.0009515389999999999
-0.069613,-0.012379799999999998,-0.136453,-0.0016843,-0.00465606,0.000814336
-0.06959810000000001,-0.00695695,-0.128579,-0.00165878,-0.00458177,0.000608363
-0.0696675,0.0375305,-0.108802,-0.00175916,-0.00440348,0.00110615
-0.0695804,-0.0441036,-0.100261,-0.00150591,-0.00443724,0.000859755
-0.066035,0.0313735,-0.09775130000000004,-0.00174786,-0.00436417,0.00104041
