Subject	ROI_seed	ROI_target	Cats_rest	Cats_Counting
001_JE	LAG1	Insula	4.516900e-01	-1.888342e-02
001_JE	LAG1	Insula1	3.068570e-01	-4.396187e-02
001_JE	LAG1	Insula2	3.947732e-01	1.106298e-01
001_JE	LAG1	Insula3	2.217415e-01	1.897600e-01
001_JE	LAG1	Insula4	4.286362e-01	1.988332e-01
001_JE	LAG1	dACC	3.841121e-01	2.740691e-01
001_JE	LAG1	RInsula	4.697614e-01	2.373037e-01
001_JE	LAG1	RInsula1	3.330565e-01	2.588974e-02
001_JE	LAG1	SPL	-1.036146e-03	-3.089012e-02
001_JE	LAG1	SPL1	2.441705e-01	-1.966036e-01
001_JE	LAG1	SPL2	1.054557e-01	8.872894e-02
001_JE	LAG1	RMFG	4.331793e-01	2.202156e-01
001_JE	LAG1	RMFG1	4.483841e-01	1.725347e-01
001_JE	LAG1	RMFG2	1.440057e-01	1.405467e-01
001_JE	LAG1	RTempPole	2.292233e-01	1.111747e-01
001_JE	LAG1	RTempPole1	2.547913e-01	1.085995e-01
001_JE	LAG1	RPrec	5.033328e-01	3.156966e-01
001_JE	LAG1	RPrec1	3.257527e-01	1.721123e-02
001_JE	LAG1	RPrec2	2.273762e-01	-1.605052e-01
001_JE	LAG1	MTG	1.650931e-01	1.711986e-02
001_JE	LAG1	MTG1	2.904109e-01	-2.828212e-02
001_JE	LAG1	ACing	6.918787e-02	-1.277967e-01
001_JE	LAG1	ACing1	2.382609e-01	1.573061e-01
001_JE	LAG1	LAG	5.243096e-01	1.513726e-02
001_JE	LAG1	LAG2	2.931151e-01	8.149311e-02
001_JE	LAG1	LAG3	1.479867e-01	-2.094929e-01
001_JE	LAG1	LAG4	5.656658e-01	7.784297e-02
001_JE	LAG1	RAG	6.926355e-01	9.930335e-02
001_JE	LAG1	RAG1	5.365178e-01	-8.056150e-02
001_JE	LAG1	RAG2	3.503033e-01	5.418359e-02
002_JE	LAG1	Insula	2.777379e-01	5.240142e-01
002_JE	LAG1	Insula1	3.865854e-01	6.426157e-01
002_JE	LAG1	Insula2	3.475762e-01	5.426452e-01
002_JE	LAG1	Insula3	1.467692e-01	3.304984e-01
002_JE	LAG1	Insula4	3.851531e-01	9.180645e-01
002_JE	LAG1	dACC	3.253118e-02	2.825694e-01
002_JE	LAG1	RInsula	4.539694e-01	7.860286e-01
002_JE	LAG1	RInsula1	3.658879e-01	4.288800e-01
002_JE	LAG1	SPL	3.403436e-01	6.375426e-01
002_JE	LAG1	SPL1	2.138719e-01	5.962623e-01
002_JE	LAG1	SPL2	2.762862e-01	5.019450e-01
002_JE	LAG1	RMFG	2.633792e-01	4.244298e-01
002_JE	LAG1	RMFG1	4.720468e-01	6.733391e-01
002_JE	LAG1	RMFG2	1.122097e-01	2.909425e-01
002_JE	LAG1	RTempPole	2.936607e-01	2.510069e-01
002_JE	LAG1	RTempPole1	4.849226e-02	8.234304e-02
002_JE	LAG1	RPrec	3.432798e-01	3.272388e-01
002_JE	LAG1	RPrec1	3.647642e-01	3.135663e-01
002_JE	LAG1	RPrec2	3.846124e-01	2.899480e-01
002_JE	LAG1	MTG	1.799999e-01	2.028753e-01
002_JE	LAG1	MTG1	2.269055e-01	1.424165e-01
002_JE	LAG1	ACing	-4.849795e-02	-1.256667e-01
002_JE	LAG1	ACing1	2.270822e-01	1.897733e-01
002_JE	LAG1	LAG	4.316182e-01	2.349884e-01
002_JE	LAG1	LAG2	2.133302e-01	6.260793e-02
002_JE	LAG1	LAG3	7.575955e-02	1.385520e-01
002_JE	LAG1	LAG4	2.716108e-01	1.484367e-01
002_JE	LAG1	RAG	2.142251e-01	2.909943e-01
002_JE	LAG1	RAG1	2.883462e-01	2.694189e-01
002_JE	LAG1	RAG2	2.050033e-01	3.106861e-01
003_JE	LAG1	Insula	3.438758e-02	-6.345581e-02
003_JE	LAG1	Insula1	2.062987e-01	1.791195e-01
003_JE	LAG1	Insula2	2.799460e-01	9.943714e-02
003_JE	LAG1	Insula3	5.966322e-02	1.137826e-01
003_JE	LAG1	Insula4	4.707953e-01	2.416528e-01
003_JE	LAG1	dACC	2.606291e-01	1.251896e-01
003_JE	LAG1	RInsula	1.096201e-01	-9.849570e-03
003_JE	LAG1	RInsula1	-9.470589e-02	3.024340e-02
003_JE	LAG1	SPL	1.327934e-01	4.792978e-02
003_JE	LAG1	SPL1	3.903130e-01	1.989884e-01
003_JE	LAG1	SPL2	3.347732e-01	1.454840e-01
003_JE	LAG1	RMFG	4.390654e-01	1.296535e-01
003_JE	LAG1	RMFG1	6.682827e-01	4.127033e-03
003_JE	LAG1	RMFG2	2.059404e-01	-6.881976e-02
003_JE	LAG1	RTempPole	8.017983e-02	-4.476383e-02
003_JE	LAG1	RTempPole1	1.428808e-01	1.464452e-01
003_JE	LAG1	RPrec	2.159894e-01	1.771329e-01
003_JE	LAG1	RPrec1	4.486127e-01	3.202300e-01
003_JE	LAG1	RPrec2	4.791475e-01	8.058151e-03
003_JE	LAG1	MTG	5.119831e-02	-7.710834e-02
003_JE	LAG1	MTG1	1.551301e-01	-6.565682e-02
003_JE	LAG1	ACing	6.520640e-02	2.102498e-01
003_JE	LAG1	ACing1	1.577867e-01	1.140041e-01
003_JE	LAG1	LAG	1.616824e-01	-1.716315e-01
003_JE	LAG1	LAG2	1.277726e-02	-7.636227e-02
003_JE	LAG1	LAG3	5.040268e-03	-1.984272e-01
003_JE	LAG1	LAG4	1.870229e-01	2.938641e-02
003_JE	LAG1	RAG	1.606368e-01	-4.607840e-02
003_JE	LAG1	RAG1	1.758180e-01	-4.328248e-02
003_JE	LAG1	RAG2	1.682248e-01	2.496634e-02
004_JE	LAG1	Insula	2.308535e-01	-3.844779e-02
004_JE	LAG1	Insula1	1.701927e-01	3.505697e-02
004_JE	LAG1	Insula2	3.369995e-01	9.807651e-02
004_JE	LAG1	Insula3	1.782870e-01	1.538783e-01
004_JE	LAG1	Insula4	5.210019e-01	3.766640e-01
004_JE	LAG1	dACC	-3.921961e-01	-1.418349e-01
004_JE	LAG1	RInsula	3.175403e-01	2.171008e-01
004_JE	LAG1	RInsula1	3.510794e-01	2.647421e-01
004_JE	LAG1	SPL	-1.268549e-02	-9.172086e-02
004_JE	LAG1	SPL1	1.847591e-01	-1.014605e-01
004_JE	LAG1	SPL2	1.248930e-01	-3.285468e-02
004_JE	LAG1	RMFG	2.414978e-01	2.033269e-01
004_JE	LAG1	RMFG1	1.570263e-01	1.240338e-01
004_JE	LAG1	RMFG2	6.812075e-02	9.316747e-02
004_JE	LAG1	RTempPole	3.391350e-01	1.468893e-01
004_JE	LAG1	RTempPole1	1.590478e-01	6.585749e-02
004_JE	LAG1	RPrec	4.094567e-01	1.041288e-01
004_JE	LAG1	RPrec1	5.290224e-01	3.457507e-02
004_JE	LAG1	RPrec2	6.899362e-01	1.806147e-02
004_JE	LAG1	MTG	3.507449e-01	9.656439e-02
004_JE	LAG1	MTG1	-5.589103e-03	-2.308123e-01
004_JE	LAG1	ACing	-3.500526e-03	1.570223e-01
004_JE	LAG1	ACing1	6.772457e-01	2.734727e-01
004_JE	LAG1	LAG	1.112632e+00	1.878561e-01
004_JE	LAG1	LAG2	1.551168e-01	7.018441e-02
004_JE	LAG1	LAG3	8.454781e-01	-5.210696e-01
004_JE	LAG1	LAG4	7.559753e-01	-5.705915e-01
004_JE	LAG1	RAG	7.191363e-01	-1.533067e-01
004_JE	LAG1	RAG1	4.624491e-01	-1.201238e-01
004_JE	LAG1	RAG2	5.231296e-01	-1.609055e-01
005_JE	LAG1	Insula	-5.999052e-02	1.052270e-01
005_JE	LAG1	Insula1	1.513400e-01	4.711968e-02
005_JE	LAG1	Insula2	7.181891e-02	1.043963e-01
005_JE	LAG1	Insula3	1.561134e-01	1.525561e-01
005_JE	LAG1	Insula4	2.930652e-01	2.124816e-01
005_JE	LAG1	dACC	1.393858e-02	4.830809e-02
005_JE	LAG1	RInsula	5.497788e-02	1.927805e-01
005_JE	LAG1	RInsula1	1.039004e-01	1.793939e-01
005_JE	LAG1	SPL	8.180217e-02	1.867040e-01
005_JE	LAG1	SPL1	5.565799e-02	1.009498e-01
005_JE	LAG1	SPL2	1.987784e-01	2.278104e-01
005_JE	LAG1	RMFG	1.866348e-01	1.216211e-01
005_JE	LAG1	RMFG1	3.631507e-01	3.772679e-01
005_JE	LAG1	RMFG2	1.020999e-02	3.063369e-02
005_JE	LAG1	RTempPole	1.725025e-01	9.572039e-02
005_JE	LAG1	RTempPole1	3.251918e-01	8.034103e-02
005_JE	LAG1	RPrec	1.879313e-01	5.812954e-02
005_JE	LAG1	RPrec1	2.132096e-01	6.681140e-02
005_JE	LAG1	RPrec2	3.289604e-01	9.224748e-02
005_JE	LAG1	MTG	3.040352e-01	2.265061e-01
005_JE	LAG1	MTG1	1.822064e-01	2.682105e-01
005_JE	LAG1	ACing	-1.788336e-02	-1.977365e-02
005_JE	LAG1	ACing1	-1.713740e-02	8.649760e-02
005_JE	LAG1	LAG	1.559869e-01	7.976977e-02
005_JE	LAG1	LAG2	2.503461e-01	1.064867e-01
005_JE	LAG1	LAG3	2.079079e-01	1.250383e-01
005_JE	LAG1	LAG4	5.531526e-01	1.060792e-01
005_JE	LAG1	RAG	1.456570e-01	1.752680e-02
005_JE	LAG1	RAG1	3.152548e-02	-2.443924e-02
005_JE	LAG1	RAG2	2.206764e-01	1.813842e-01
007_JE	LAG1	Insula	2.825814e-01	2.754487e-01
007_JE	LAG1	Insula1	4.076609e-01	3.767601e-01
007_JE	LAG1	Insula2	1.091440e-01	2.229683e-01
007_JE	LAG1	dACC	-9.071051e-03	1.129746e-01
007_JE	LAG1	RInsula	2.964193e-01	3.454690e-01
007_JE	LAG1	SPL	1.569798e-01	2.339459e-01
007_JE	LAG1	RMFG	7.325488e-02	1.849399e-01
007_JE	LAG1	RMFG1	2.453818e-01	3.007455e-01
007_JE	LAG1	RMFG2	4.214432e-02	5.678695e-02
007_JE	LAG1	RTempPole	1.300550e-01	1.928105e-02
007_JE	LAG1	RTempPole1	1.633460e-01	4.089065e-02
007_JE	LAG1	RPrec	1.269134e-01	-4.339803e-02
007_JE	LAG1	RPrec1	3.007955e-01	-3.861471e-02
007_JE	LAG1	RPrec2	2.022221e-01	-2.777468e-01
007_JE	LAG1	MTG	1.177314e-01	1.064675e-02
007_JE	LAG1	MTG1	7.084052e-02	-1.932339e-02
007_JE	LAG1	ACing	-7.150770e-04	-7.621459e-02
007_JE	LAG1	ACing1	3.632303e-01	1.752458e-01
007_JE	LAG1	LAG	3.339701e-01	2.192264e-01
007_JE	LAG1	LAG2	1.792134e-01	1.863292e-01
007_JE	LAG1	LAG3	3.334377e-01	1.337605e-01
007_JE	LAG1	LAG4	5.129973e-01	-2.195294e-02
007_JE	LAG1	RAG	3.092186e-01	5.043000e-02
007_JE	LAG1	RAG1	3.108335e-01	2.110779e-01
007_JE	LAG1	RAG2	4.254068e-01	2.119870e-01
007_JE	LAG1	Insula3	2.275096e-01	1.780975e-01
007_JE	LAG1	Insula4	4.136094e-01	5.491354e-01
007_JE	LAG1	RInsula1	2.373378e-01	3.833702e-01
007_JE	LAG1	SPL1	1.809385e-01	2.769878e-01
007_JE	LAG1	SPL2	4.005614e-02	1.160022e-01
008_JE	LAG1	Insula	-5.607560e-02	1.225168e-01
008_JE	LAG1	Insula1	5.006355e-01	2.359177e-01
008_JE	LAG1	Insula2	1.507610e-01	6.083109e-02
008_JE	LAG1	dACC	1.822432e-01	-9.775018e-02
008_JE	LAG1	RInsula	-3.766710e-01	-3.493467e-01
008_JE	LAG1	SPL	1.145198e-01	-1.977188e-01
008_JE	LAG1	RMFG	2.448920e-01	-3.514319e-02
008_JE	LAG1	RMFG1	-2.264569e-02	2.112191e-01
008_JE	LAG1	RMFG2	-1.850491e-02	-1.748506e-01
008_JE	LAG1	RTempPole	3.404449e-01	1.927538e-01
008_JE	LAG1	RTempPole1	3.506470e-01	7.156150e-02
008_JE	LAG1	RPrec	3.232304e-01	-3.730109e-01
008_JE	LAG1	RPrec1	4.274710e-01	3.892395e-02
008_JE	LAG1	RPrec2	6.859742e-01	1.625520e-01
008_JE	LAG1	MTG	1.643575e-01	9.627509e-02
008_JE	LAG1	MTG1	2.224508e-01	-3.505106e-02
008_JE	LAG1	ACing	1.927927e-01	1.492654e-01
008_JE	LAG1	ACing1	2.485436e-01	8.879668e-02
008_JE	LAG1	LAG	3.924602e-01	3.067735e-01
008_JE	LAG1	LAG2	5.880225e-02	-1.142915e-01
008_JE	LAG1	LAG3	4.680121e-01	5.560951e-02
008_JE	LAG1	LAG4	2.928545e-01	-6.105205e-02
008_JE	LAG1	RAG	2.446866e-01	-5.870782e-03
008_JE	LAG1	RAG1	1.279909e-02	-3.982277e-01
008_JE	LAG1	RAG2	2.156953e-01	-2.401905e-01
008_JE	LAG1	Insula3	-1.823789e-03	3.433671e-02
008_JE	LAG1	Insula4	4.118688e-01	8.146529e-02
008_JE	LAG1	RInsula1	-9.857555e-02	-4.349524e-01
008_JE	LAG1	SPL1	1.722091e-01	-9.682323e-02
008_JE	LAG1	SPL2	1.323262e-01	-2.810511e-01
009_JE	LAG1	Insula	-1.301441e-01	-5.135656e-02
009_JE	LAG1	Insula1	-3.227101e-02	-2.566863e-01
009_JE	LAG1	Insula2	-1.603859e-01	9.336513e-03
009_JE	LAG1	dACC	3.314585e-03	6.594007e-03
009_JE	LAG1	RInsula	1.147985e-02	1.426515e-01
009_JE	LAG1	SPL	5.586056e-02	1.091693e-01
009_JE	LAG1	RMFG	-7.239189e-02	2.203072e-01
009_JE	LAG1	RMFG1	-2.908703e-02	-2.168391e-01
009_JE	LAG1	RMFG2	-1.680658e-02	1.097113e-01
009_JE	LAG1	RTempPole	-7.846377e-02	-7.856695e-02
009_JE	LAG1	RTempPole1	8.144756e-02	-8.532222e-02
009_JE	LAG1	RPrec	2.362655e-01	-2.906514e-01
009_JE	LAG1	RPrec1	3.409112e-01	-2.553407e-01
009_JE	LAG1	RPrec2	6.846981e-01	-3.346312e-01
009_JE	LAG1	MTG	1.405126e-01	1.783433e-02
009_JE	LAG1	MTG1	1.132627e-01	2.445057e-02
009_JE	LAG1	ACing	-4.031117e-01	-6.755411e-01
009_JE	LAG1	ACing1	2.321077e-01	-1.364106e-01
009_JE	LAG1	LAG	2.654506e-01	8.078561e-02
009_JE	LAG1	LAG2	3.372813e-01	1.437466e-01
009_JE	LAG1	LAG3	6.190549e-01	-2.338538e-02
009_JE	LAG1	LAG4	2.827472e-01	2.069986e-01
009_JE	LAG1	RAG	4.820009e-01	-1.795659e-01
009_JE	LAG1	RAG1	2.801310e-01	-8.250025e-02
009_JE	LAG1	RAG2	7.072730e-01	-1.284005e-01
009_JE	LAG1	Insula3	1.105013e-01	9.564655e-02
009_JE	LAG1	Insula4	5.912636e-02	8.457798e-02
009_JE	LAG1	RInsula1	-1.190483e-02	1.192821e-01
009_JE	LAG1	SPL1	2.180835e-01	1.476287e-01
009_JE	LAG1	SPL2	3.876146e-01	2.624935e-01
010_JE	LAG1	LAG	3.651508e-01	-1.591400e-01
010_JE	LAG1	LAG2	3.291478e-01	5.710048e-02
010_JE	LAG1	LAG3	2.412197e-01	-5.601741e-02
010_JE	LAG1	LAG4	3.755171e-01	-6.026525e-02
010_JE	LAG1	RAG	4.306190e-01	-7.217779e-02
010_JE	LAG1	RAG1	3.634661e-01	2.253224e-01
010_JE	LAG1	RAG2	3.606609e-01	2.156431e-01
010_JE	LAG1	Insula3	2.347338e-02	1.910136e-01
010_JE	LAG1	Insula4	2.169399e-01	3.870579e-01
010_JE	LAG1	RInsula1	7.407286e-02	2.455390e-01
010_JE	LAG1	SPL1	1.475566e-01	2.664538e-01
010_JE	LAG1	SPL2	-7.585148e-02	1.289547e-01
010_JE	LAG1	Insula	2.305401e-02	2.790988e-01
010_JE	LAG1	Insula1	2.804718e-02	2.747963e-01
010_JE	LAG1	Insula2	5.041233e-02	2.467009e-01
010_JE	LAG1	dACC	-4.225072e-01	-1.214665e-01
010_JE	LAG1	RInsula	6.432754e-02	2.794674e-01
010_JE	LAG1	SPL	1.429605e-01	3.148454e-01
010_JE	LAG1	RMFG	1.765681e-01	2.053950e-01
010_JE	LAG1	RMFG1	2.091765e-01	2.576914e-01
010_JE	LAG1	RMFG2	2.674226e-02	1.086777e-01
010_JE	LAG1	RTempPole	2.019913e-01	1.980442e-02
010_JE	LAG1	RTempPole1	1.562183e-01	-6.401539e-02
010_JE	LAG1	RPrec	4.165374e-01	2.145809e-01
010_JE	LAG1	RPrec1	4.150847e-01	-3.046876e-02
010_JE	LAG1	RPrec2	2.874198e-01	6.261675e-02
010_JE	LAG1	MTG	-8.469040e-02	-6.304729e-02
010_JE	LAG1	MTG1	5.019235e-02	-9.000857e-02
010_JE	LAG1	ACing	7.665765e-02	-1.094469e-01
010_JE	LAG1	ACing1	2.973156e-01	3.178658e-01
012_JE	LAG1	Insula	3.097840e-02	2.542762e-01
012_JE	LAG1	Insula1	7.370280e-02	2.877836e-01
012_JE	LAG1	Insula2	-9.547263e-02	7.342068e-02
012_JE	LAG1	dACC	-1.932328e-01	-1.693012e-01
012_JE	LAG1	RInsula	-1.155276e-02	3.213799e-01
012_JE	LAG1	SPL	3.320011e-02	1.229654e-01
012_JE	LAG1	RMFG	2.049177e-01	1.586827e-01
012_JE	LAG1	RMFG1	1.770806e-01	2.950993e-01
012_JE	LAG1	RMFG2	1.018713e-01	5.857083e-02
012_JE	LAG1	RTempPole	6.330067e-02	7.871458e-02
012_JE	LAG1	RTempPole1	-5.506415e-03	2.169477e-02
012_JE	LAG1	RPrec	1.654032e-01	-5.085679e-02
012_JE	LAG1	RPrec1	1.776614e-01	2.185178e-02
012_JE	LAG1	RPrec2	3.664623e-01	-7.518576e-02
012_JE	LAG1	MTG	1.224234e-01	8.564240e-02
012_JE	LAG1	MTG1	1.569862e-01	9.928573e-02
012_JE	LAG1	ACing	-2.661914e-01	-1.650241e-01
012_JE	LAG1	ACing1	-1.438689e-01	-8.828210e-02
012_JE	LAG1	LAG	1.041778e-01	4.846947e-02
012_JE	LAG1	LAG2	1.788053e-01	7.032897e-02
012_JE	LAG1	LAG3	7.330057e-02	-4.214181e-02
012_JE	LAG1	LAG4	4.646628e-01	1.251065e-01
012_JE	LAG1	RAG	8.572117e-02	4.676114e-02
012_JE	LAG1	RAG1	4.097190e-01	2.726223e-01
012_JE	LAG1	RAG2	2.448324e-01	-6.258338e-02
012_JE	LAG1	Insula3	-2.128661e-02	1.593083e-01
012_JE	LAG1	Insula4	9.599136e-02	2.692410e-01
012_JE	LAG1	RInsula1	-5.478831e-03	2.600094e-01
012_JE	LAG1	SPL1	5.909771e-02	3.713207e-02
012_JE	LAG1	SPL2	1.664370e-01	1.810852e-01
013_JE	LAG1	Insula	1.854003e-03	2.548000e-01
013_JE	LAG1	Insula1	-4.564199e-02	1.734002e-02
013_JE	LAG1	Insula2	1.202338e-01	2.529549e-01
013_JE	LAG1	dACC	-3.094780e-02	-3.109303e-02
013_JE	LAG1	RInsula	8.577341e-02	4.103386e-01
013_JE	LAG1	SPL	1.857463e-02	2.423575e-01
013_JE	LAG1	RMFG	9.936684e-02	2.746300e-01
013_JE	LAG1	RMFG1	1.773490e-01	1.519429e-01
013_JE	LAG1	RMFG2	9.950759e-02	1.688324e-01
013_JE	LAG1	RTempPole	2.898620e-01	5.417556e-02
013_JE	LAG1	RTempPole1	2.098947e-01	9.565483e-02
013_JE	LAG1	RPrec	3.361824e-01	3.042535e-01
013_JE	LAG1	RPrec1	7.930126e-01	1.680128e-01
013_JE	LAG1	RPrec2	5.839014e-01	-6.264911e-02
013_JE	LAG1	MTG	3.170417e-01	-7.792260e-02
013_JE	LAG1	MTG1	1.448700e-01	-5.174548e-02
013_JE	LAG1	ACing	1.807169e-01	6.152057e-02
013_JE	LAG1	ACing1	3.587958e-01	2.259882e-01
013_JE	LAG1	LAG	5.663666e-02	7.997389e-02
013_JE	LAG1	LAG2	3.177353e-01	1.590769e-01
013_JE	LAG1	LAG3	4.272320e-01	3.525719e-02
013_JE	LAG1	LAG4	5.612788e-01	-1.675796e-01
013_JE	LAG1	RAG	2.655258e-01	-5.073128e-02
013_JE	LAG1	RAG1	3.674840e-01	2.690862e-01
013_JE	LAG1	RAG2	4.598148e-01	9.825571e-02
013_JE	LAG1	Insula3	1.353259e-01	2.360120e-01
013_JE	LAG1	Insula4	2.302234e-01	4.182500e-01
013_JE	LAG1	RInsula1	1.274170e-01	3.845129e-01
013_JE	LAG1	SPL1	-9.176675e-02	-1.314142e-01
013_JE	LAG1	SPL2	-3.343431e-02	3.222872e-01
014_JE	LAG1	Insula	3.305763e-01	-1.173547e-02
014_JE	LAG1	Insula1	7.349133e-01	2.322746e-01
014_JE	LAG1	Insula2	8.334086e-01	5.152089e-01
014_JE	LAG1	dACC	-9.960632e-02	-2.116480e-01
014_JE	LAG1	RInsula	6.199297e-01	1.913044e-01
014_JE	LAG1	SPL	1.092825e-01	-2.592908e-02
014_JE	LAG1	RMFG	4.158622e-01	-3.020627e-02
014_JE	LAG1	RMFG1	6.783952e-01	1.345638e-01
014_JE	LAG1	RMFG2	2.864386e-01	7.385667e-02
014_JE	LAG1	RTempPole	4.223025e-01	1.088208e-01
014_JE	LAG1	RTempPole1	2.027553e-01	3.141389e-02
014_JE	LAG1	RPrec	4.720336e-01	3.945116e-01
014_JE	LAG1	RPrec1	4.056107e-01	1.597134e-01
014_JE	LAG1	RPrec2	5.997770e-01	5.082859e-01
014_JE	LAG1	MTG	2.409355e-01	1.145838e-01
014_JE	LAG1	MTG1	3.316450e-01	1.517847e-01
014_JE	LAG1	ACing	-8.313693e-01	-4.746290e-01
014_JE	LAG1	ACing1	-1.652890e-01	-1.629946e-01
014_JE	LAG1	LAG	5.603990e-01	3.153155e-01
014_JE	LAG1	LAG2	5.084474e-01	-2.322886e-03
014_JE	LAG1	LAG3	2.731006e-01	1.583051e-01
014_JE	LAG1	LAG4	1.763024e-01	8.239126e-02
014_JE	LAG1	RAG	4.447522e-01	3.395359e-01
014_JE	LAG1	RAG1	8.627245e-01	2.936809e-01
014_JE	LAG1	RAG2	3.635457e-01	1.327569e-01
014_JE	LAG1	Insula3	4.978772e-01	1.722925e-01
014_JE	LAG1	Insula4	1.069151e+00	2.617316e-01
014_JE	LAG1	RInsula1	6.029143e-01	1.876432e-01
014_JE	LAG1	SPL1	1.737185e-01	-5.990339e-02
014_JE	LAG1	SPL2	1.787864e-01	1.794843e-01
015_JE	LAG1	Insula	1.106322e-01	3.658459e-01
015_JE	LAG1	Insula1	1.137539e-01	-1.102023e-01
015_JE	LAG1	Insula2	1.603757e-01	2.487271e-02
015_JE	LAG1	dACC	5.184447e-01	7.174427e-01
015_JE	LAG1	RInsula	1.654390e-01	3.552464e-01
015_JE	LAG1	SPL	1.386300e-01	3.311952e-01
015_JE	LAG1	RMFG	1.692487e-02	2.398432e-01
015_JE	LAG1	RMFG1	2.322325e-01	5.740588e-01
015_JE	LAG1	RMFG2	1.082142e-01	1.723539e-01
015_JE	LAG1	RTempPole	1.830059e-01	7.219654e-02
015_JE	LAG1	RTempPole1	2.334841e-01	-5.171907e-02
015_JE	LAG1	RPrec	1.833664e-01	-3.825855e-02
015_JE	LAG1	RPrec1	3.303173e-01	1.393431e-02
015_JE	LAG1	RPrec2	5.273938e-01	-6.263544e-02
015_JE	LAG1	MTG	1.570366e-01	9.338131e-02
015_JE	LAG1	MTG1	2.070149e-01	-9.649482e-03
015_JE	LAG1	ACing	-2.497330e-01	-3.358589e-01
015_JE	LAG1	ACing1	1.982561e-01	-5.637964e-02
015_JE	LAG1	LAG	1.622802e-01	-1.025775e-01
015_JE	LAG1	LAG2	1.397445e-01	2.543090e-01
015_JE	LAG1	LAG3	2.382846e-01	3.401144e-02
015_JE	LAG1	LAG4	5.007549e-01	-3.164805e-01
015_JE	LAG1	RAG	3.729881e-01	-4.614371e-02
015_JE	LAG1	RAG1	3.503382e-01	6.683479e-02
015_JE	LAG1	RAG2	3.010905e-01	2.989242e-01
015_JE	LAG1	Insula3	3.453558e-01	5.212026e-01
015_JE	LAG1	Insula4	6.883384e-01	8.683586e-01
015_JE	LAG1	RInsula1	3.407547e-01	5.765000e-01
015_JE	LAG1	SPL1	1.407136e-01	2.919860e-01
015_JE	LAG1	SPL2	7.297381e-02	2.324898e-01
016_JE	LAG1	Insula	2.218879e-01	4.152125e-01
016_JE	LAG1	Insula1	2.572579e-01	3.195534e-01
016_JE	LAG1	Insula2	1.258418e-01	3.623561e-01
016_JE	LAG1	dACC	2.089977e-01	3.632507e-01
016_JE	LAG1	RInsula	9.638215e-02	3.985550e-01
016_JE	LAG1	SPL	1.893975e-01	3.535643e-01
016_JE	LAG1	RMFG	1.858762e-01	2.723059e-01
016_JE	LAG1	RMFG1	3.047825e-01	3.300766e-01
016_JE	LAG1	RMFG2	1.786832e-01	2.174675e-01
016_JE	LAG1	RTempPole	8.251953e-02	4.200814e-02
016_JE	LAG1	RTempPole1	2.366845e-01	1.242245e-01
016_JE	LAG1	RPrec	2.913608e-01	7.515004e-02
016_JE	LAG1	RPrec1	2.353072e-01	-1.257977e-02
016_JE	LAG1	RPrec2	2.649943e-01	-3.007900e-02
016_JE	LAG1	MTG	1.878015e-01	9.093418e-02
016_JE	LAG1	MTG1	5.787620e-02	5.119484e-02
016_JE	LAG1	ACing	-2.966610e-02	1.859648e-02
016_JE	LAG1	ACing1	4.930527e-02	1.302854e-01
016_JE	LAG1	LAG	2.687954e-01	2.881292e-02
016_JE	LAG1	LAG2	2.797112e-01	2.046070e-02
016_JE	LAG1	LAG3	2.117868e-01	-2.441614e-02
016_JE	LAG1	LAG4	3.097014e-01	-1.519829e-01
016_JE	LAG1	RAG	1.169133e-01	6.369768e-05
016_JE	LAG1	RAG1	1.631481e-01	1.136141e-01
016_JE	LAG1	RAG2	2.634158e-01	1.865653e-01
016_JE	LAG1	Insula3	2.753394e-01	2.688352e-01
016_JE	LAG1	Insula4	4.104979e-01	6.115508e-01
016_JE	LAG1	RInsula1	4.093902e-02	1.277692e-01
016_JE	LAG1	SPL1	1.347537e-01	4.107565e-01
016_JE	LAG1	SPL2	2.097905e-01	4.151407e-01
018_JE	LAG1	Insula	1.004293e-01	-2.178893e-01
018_JE	LAG1	Insula1	1.300383e-01	-4.189977e-01
018_JE	LAG1	Insula2	-1.837521e-01	-4.611803e-01
018_JE	LAG1	dACC	-5.894905e-04	-9.526687e-02
018_JE	LAG1	RInsula	1.927007e-03	-2.710883e-01
018_JE	LAG1	SPL	5.944071e-02	2.111752e-02
018_JE	LAG1	RMFG	-2.267402e-02	-2.484295e-01
018_JE	LAG1	RMFG1	-1.784954e-02	-6.672100e-01
018_JE	LAG1	RMFG2	-7.010000e-02	-1.568918e-01
018_JE	LAG1	RTempPole	4.967926e-02	-5.119341e-01
018_JE	LAG1	RTempPole1	6.765024e-02	-2.373344e-01
018_JE	LAG1	RPrec	2.453855e-02	-3.991113e-01
018_JE	LAG1	RPrec1	-5.306125e-03	-3.184198e-01
018_JE	LAG1	RPrec2	3.181803e-01	-1.577302e-01
018_JE	LAG1	MTG	1.012764e-01	-6.234389e-02
018_JE	LAG1	MTG1	1.074545e-01	-9.849647e-02
018_JE	LAG1	ACing	6.623954e-02	-3.326300e-01
018_JE	LAG1	ACing1	1.186982e-01	-3.364090e-01
018_JE	LAG1	LAG	-4.501529e-02	-1.826549e-01
018_JE	LAG1	LAG2	2.378857e-03	-3.506770e-01
018_JE	LAG1	LAG3	7.909554e-02	-1.163352e-01
018_JE	LAG1	LAG4	1.089946e-01	-3.105647e-02
018_JE	LAG1	RAG	-1.572200e-01	-4.569288e-01
018_JE	LAG1	RAG1	-5.324311e-02	-4.228297e-01
018_JE	LAG1	RAG2	1.833859e-01	-4.166917e-02
018_JE	LAG1	Insula3	3.526979e-02	-2.817115e-01
018_JE	LAG1	Insula4	2.716548e-01	-3.632945e-01
018_JE	LAG1	RInsula1	5.710192e-02	-2.164268e-01
018_JE	LAG1	SPL1	9.664725e-02	-1.164386e-01
018_JE	LAG1	SPL2	2.241688e-01	-1.538050e-01
019_JE	LAG1	Insula	-6.988666e-02	-1.141482e-01
019_JE	LAG1	Insula1	-1.830275e-01	-4.519127e-01
019_JE	LAG1	Insula2	6.946581e-02	-1.117735e-01
019_JE	LAG1	dACC	-3.803143e-02	-2.141398e-01
019_JE	LAG1	RInsula	1.187244e-01	-5.715674e-02
019_JE	LAG1	SPL	1.609795e-01	1.470593e-02
019_JE	LAG1	RMFG	3.231900e-01	6.801962e-02
019_JE	LAG1	RMFG1	6.065055e-01	1.488050e-01
019_JE	LAG1	RMFG2	9.086250e-02	-3.527585e-02
019_JE	LAG1	RTempPole	2.924508e-01	2.591460e-02
019_JE	LAG1	RTempPole1	1.999300e-01	2.075066e-02
019_JE	LAG1	RPrec	3.782290e-01	-1.404376e-01
019_JE	LAG1	RPrec1	2.536377e-01	-5.919656e-02
019_JE	LAG1	RPrec2	5.692185e-01	-1.530178e-02
019_JE	LAG1	MTG	8.731542e-02	1.693673e-01
019_JE	LAG1	MTG1	-3.670747e-02	2.159074e-01
019_JE	LAG1	ACing	-7.845384e-03	-1.326605e-01
019_JE	LAG1	ACing1	-2.566396e-01	-3.390610e-01
019_JE	LAG1	LAG	3.481624e-01	-1.529294e-02
019_JE	LAG1	LAG2	2.476235e-01	8.084829e-04
019_JE	LAG1	LAG3	4.445407e-01	-1.487150e-01
019_JE	LAG1	LAG4	8.022898e-01	3.096055e-02
019_JE	LAG1	RAG	1.074600e-01	6.497684e-02
019_JE	LAG1	RAG1	1.524487e-01	-1.136922e-01
019_JE	LAG1	RAG2	1.306213e-01	-1.027869e-01
019_JE	LAG1	Insula3	2.147693e-02	-1.363482e-03
019_JE	LAG1	Insula4	-9.942550e-02	-3.609992e-01
019_JE	LAG1	RInsula1	2.132954e-01	-4.446729e-02
019_JE	LAG1	SPL1	2.416781e-01	-2.055781e-01
019_JE	LAG1	SPL2	2.297340e-01	1.401242e-02
020_JE	LAG1	Insula	5.795159e-01	4.374405e-01
020_JE	LAG1	Insula1	1.174718e+00	1.065391e+00
020_JE	LAG1	Insula2	7.667790e-01	4.624024e-01
020_JE	LAG1	dACC	8.098158e-01	6.635787e-01
020_JE	LAG1	RInsula	4.014248e-01	5.189128e-01
020_JE	LAG1	SPL	3.489707e-01	3.695285e-01
020_JE	LAG1	RMFG	5.162848e-01	6.457378e-01
020_JE	LAG1	RMFG1	6.518423e-01	6.157634e-01
020_JE	LAG1	RMFG2	3.808617e-01	2.570182e-01
020_JE	LAG1	RTempPole	3.388489e-01	9.318456e-02
020_JE	LAG1	RTempPole1	5.428525e-01	6.125946e-03
020_JE	LAG1	RPrec	7.525944e-01	-7.730205e-02
020_JE	LAG1	RPrec1	7.308757e-01	-1.965471e-01
020_JE	LAG1	RPrec2	9.286953e-01	-2.615057e-01
020_JE	LAG1	MTG	3.934662e-01	4.737346e-02
020_JE	LAG1	MTG1	2.262200e-01	7.618119e-03
020_JE	LAG1	ACing	2.524902e-01	2.641498e-01
020_JE	LAG1	ACing1	2.018311e-01	-5.221270e-02
020_JE	LAG1	LAG	7.546005e-01	2.360944e-01
020_JE	LAG1	LAG2	7.839466e-01	2.249513e-01
020_JE	LAG1	LAG3	9.155045e-01	6.039525e-02
020_JE	LAG1	LAG4	7.339778e-01	2.256850e-01
020_JE	LAG1	RAG	5.391801e-01	1.226571e-01
020_JE	LAG1	RAG1	4.976678e-01	3.135710e-01
020_JE	LAG1	RAG2	6.565422e-01	4.118586e-01
020_JE	LAG1	Insula3	4.172503e-01	3.756223e-01
020_JE	LAG1	Insula4	7.977917e-01	8.371541e-01
020_JE	LAG1	RInsula1	3.543616e-01	5.828076e-01
020_JE	LAG1	SPL1	7.079230e-01	4.297848e-01
020_JE	LAG1	SPL2	4.993200e-01	6.617213e-01
021_JE	LAG1	Insula	3.372062e-01	9.738667e-03
021_JE	LAG1	Insula1	4.213220e-01	-9.134701e-02
021_JE	LAG1	Insula2	6.458418e-02	4.502384e-02
021_JE	LAG1	dACC	1.983996e-01	-4.831799e-02
021_JE	LAG1	RInsula	3.547373e-01	1.488948e-01
021_JE	LAG1	SPL	7.948214e-02	1.133181e-02
021_JE	LAG1	RMFG	-8.816454e-03	-2.829179e-01
021_JE	LAG1	RMFG1	1.641037e-01	-3.223489e-01
021_JE	LAG1	RMFG2	1.137144e-01	-3.476886e-03
021_JE	LAG1	RTempPole	2.833044e-01	3.808095e-02
021_JE	LAG1	RTempPole1	1.832506e-01	1.991759e-01
021_JE	LAG1	RPrec	2.710917e-01	-1.103797e-01
021_JE	LAG1	RPrec1	2.374117e-01	-2.592747e-01
021_JE	LAG1	RPrec2	5.545137e-01	-1.750230e-01
021_JE	LAG1	MTG	2.521846e-01	4.938455e-02
021_JE	LAG1	MTG1	1.923507e-01	5.072131e-02
021_JE	LAG1	ACing	3.830256e-01	4.653225e-01
021_JE	LAG1	ACing1	5.090684e-01	2.693407e-02
021_JE	LAG1	LAG	4.860271e-01	-1.995416e-02
021_JE	LAG1	LAG2	1.004887e-01	4.225543e-02
021_JE	LAG1	LAG3	4.784342e-01	8.186406e-02
021_JE	LAG1	LAG4	5.305085e-01	-1.222081e-01
021_JE	LAG1	RAG	3.092063e-01	-1.286466e-01
021_JE	LAG1	RAG1	5.185944e-01	-1.696390e-01
021_JE	LAG1	RAG2	5.875916e-01	2.321955e-02
021_JE	LAG1	Insula3	2.717700e-01	6.156258e-02
021_JE	LAG1	Insula4	4.134739e-01	-1.032298e-01
021_JE	LAG1	RInsula1	3.796457e-01	5.214299e-02
021_JE	LAG1	SPL1	9.100441e-02	-2.724192e-02
021_JE	LAG1	SPL2	2.465374e-01	8.950930e-03
022_JE	LAG1	Insula	3.323750e-01	2.721859e-01
022_JE	LAG1	Insula1	2.610710e-01	3.014046e-01
022_JE	LAG1	Insula2	1.922823e-01	1.600006e-01
022_JE	LAG1	dACC	4.701403e-01	3.451699e-01
022_JE	LAG1	RInsula	4.754594e-01	3.072565e-01
022_JE	LAG1	SPL	1.629684e-01	7.675030e-02
022_JE	LAG1	RMFG	2.169305e-01	1.270944e-01
022_JE	LAG1	RMFG1	2.350906e-01	4.103620e-02
022_JE	LAG1	RMFG2	9.517191e-02	1.050970e-03
022_JE	LAG1	RTempPole	-1.300341e-04	-6.614303e-02
022_JE	LAG1	RTempPole1	1.947499e-01	-3.968953e-02
022_JE	LAG1	RPrec	-4.492446e-03	-1.070611e-01
022_JE	LAG1	RPrec1	1.492240e-01	-1.176054e-01
022_JE	LAG1	RPrec2	3.086801e-01	-2.175970e-02
022_JE	LAG1	MTG	2.057796e-01	6.310718e-02
022_JE	LAG1	MTG1	1.105528e-01	-1.605117e-01
022_JE	LAG1	ACing	-1.702281e-01	7.472015e-02
022_JE	LAG1	ACing1	1.325350e-01	2.211671e-01
022_JE	LAG1	LAG	2.217447e-01	-1.457933e-01
022_JE	LAG1	LAG2	1.831959e-01	8.244355e-03
022_JE	LAG1	LAG3	1.992963e-01	5.235969e-02
022_JE	LAG1	LAG4	2.030298e-01	5.975836e-03
022_JE	LAG1	RAG	3.662481e-01	-7.648300e-02
022_JE	LAG1	RAG1	2.633781e-01	1.413392e-01
022_JE	LAG1	RAG2	1.992645e-01	6.257534e-02
022_JE	LAG1	Insula3	1.681586e-01	2.118918e-01
022_JE	LAG1	Insula4	6.258486e-01	5.918763e-01
022_JE	LAG1	RInsula1	3.392720e-01	2.649122e-01
022_JE	LAG1	SPL1	2.476437e-01	3.488675e-01
022_JE	LAG1	SPL2	7.507095e-02	3.157731e-02
023_JE	LAG1	Insula	4.171102e-01	-5.332779e-02
023_JE	LAG1	Insula1	5.203143e-01	1.890415e-01
023_JE	LAG1	Insula2	4.449787e-01	-5.287919e-02
023_JE	LAG1	dACC	-1.008913e-01	4.003851e-02
023_JE	LAG1	RInsula	2.696421e-01	-3.902503e-01
023_JE	LAG1	SPL	2.424049e-01	1.409077e-01
023_JE	LAG1	RMFG	1.836946e-01	1.078331e-01
023_JE	LAG1	RMFG1	3.282926e-01	1.829648e-01
023_JE	LAG1	RMFG2	8.686058e-02	1.697040e-01
023_JE	LAG1	RTempPole	1.213238e-01	7.342062e-02
023_JE	LAG1	RTempPole1	2.298888e-01	1.720824e-01
023_JE	LAG1	RPrec	2.509764e-01	3.853686e-01
023_JE	LAG1	RPrec1	3.038164e-01	2.450821e-01
023_JE	LAG1	RPrec2	4.783463e-01	7.019186e-01
023_JE	LAG1	MTG	4.826596e-01	4.163221e-01
023_JE	LAG1	MTG1	2.156452e-01	2.668894e-01
023_JE	LAG1	ACing	5.297008e-02	-7.856339e-02
023_JE	LAG1	ACing1	4.083056e-01	4.578901e-01
023_JE	LAG1	LAG	2.165811e-01	2.132865e-01
023_JE	LAG1	LAG2	5.095033e-01	2.490635e-01
023_JE	LAG1	LAG3	5.509056e-01	5.911729e-01
023_JE	LAG1	LAG4	6.847151e-01	7.518557e-01
023_JE	LAG1	RAG	2.886698e-01	1.699669e-01
023_JE	LAG1	RAG1	2.254136e-01	4.458866e-02
023_JE	LAG1	RAG2	2.303770e-01	-1.582312e-01
023_JE	LAG1	Insula3	9.509462e-02	1.129945e-01
023_JE	LAG1	Insula4	3.630197e-01	3.541954e-02
023_JE	LAG1	RInsula1	3.542306e-01	1.806883e-01
023_JE	LAG1	SPL1	2.614199e-01	9.946331e-02
023_JE	LAG1	SPL2	2.399861e-01	-1.290154e-01
024_JE	LAG1	Insula	3.560022e-01	1.662055e-01
024_JE	LAG1	Insula1	5.908469e-01	2.164644e-02
024_JE	LAG1	Insula2	6.563165e-01	2.035434e-01
024_JE	LAG1	dACC	7.040402e-01	2.063900e-01
024_JE	LAG1	RInsula	3.611654e-01	2.364313e-01
024_JE	LAG1	SPL	4.051841e-01	1.345598e-01
024_JE	LAG1	RMFG	3.986508e-01	3.837747e-01
024_JE	LAG1	RMFG1	4.880995e-01	2.691603e-01
024_JE	LAG1	RMFG2	1.385637e-01	1.694954e-01
024_JE	LAG1	RTempPole	2.661417e-01	2.085746e-01
024_JE	LAG1	RTempPole1	2.414358e-01	3.248616e-01
024_JE	LAG1	RPrec	6.783065e-01	1.600790e-02
024_JE	LAG1	RPrec1	4.633186e-01	4.269705e-02
024_JE	LAG1	RPrec2	6.381548e-01	-8.230016e-03
024_JE	LAG1	MTG	2.157171e-01	1.109845e-01
024_JE	LAG1	MTG1	1.719875e-01	7.852425e-03
024_JE	LAG1	ACing	-5.402822e-02	3.414613e-01
024_JE	LAG1	ACing1	1.863625e-01	3.086752e-02
024_JE	LAG1	LAG	4.414205e-01	-5.739563e-02
024_JE	LAG1	LAG2	1.347115e-01	-1.688773e-01
024_JE	LAG1	LAG3	6.307415e-01	-1.940399e-02
024_JE	LAG1	LAG4	4.762772e-01	-1.156884e-02
024_JE	LAG1	RAG	3.509277e-01	1.459167e-01
024_JE	LAG1	RAG1	2.731148e-01	1.745248e-01
024_JE	LAG1	RAG2	4.514506e-01	1.075675e-01
024_JE	LAG1	Insula3	2.368545e-01	1.548966e-01
024_JE	LAG1	Insula4	9.903509e-01	4.082487e-01
024_JE	LAG1	RInsula1	3.690335e-01	1.782550e-01
024_JE	LAG1	SPL1	3.850488e-01	1.622525e-01
024_JE	LAG1	SPL2	6.076833e-01	2.242303e-01
011_JE	LAG1	Insula	2.580273e-01	5.291647e-02
011_JE	LAG1	Insula1	8.659865e-02	-2.034902e-01
011_JE	LAG1	Insula2	2.928789e-01	-1.571795e-01
011_JE	LAG1	dACC	-1.521133e-01	-9.094009e-02
011_JE	LAG1	RInsula	4.673865e-01	5.639547e-02
011_JE	LAG1	SPL	2.106753e-02	-1.341072e-01
011_JE	LAG1	RMFG	1.314850e-01	-4.343376e-02
011_JE	LAG1	RMFG1	2.315146e-01	-1.456300e-01
011_JE	LAG1	RMFG2	1.080484e-01	7.540389e-02
011_JE	LAG1	RTempPole	-1.422627e-01	-1.563224e-01
011_JE	LAG1	RTempPole1	-3.921072e-03	-2.567645e-01
011_JE	LAG1	RPrec	3.314219e-01	2.370754e-02
011_JE	LAG1	RPrec1	4.188701e-01	6.647155e-02
011_JE	LAG1	RPrec2	3.416816e-01	9.145140e-02
011_JE	LAG1	MTG	8.611825e-02	7.577497e-02
011_JE	LAG1	MTG1	1.223002e-01	6.361267e-02
011_JE	LAG1	ACing	8.781140e-02	5.878634e-02
011_JE	LAG1	ACing1	5.772272e-01	2.702391e-01
011_JE	LAG1	LAG	6.788436e-01	7.343112e-03
011_JE	LAG1	LAG2	2.128545e-01	-3.496591e-02
011_JE	LAG1	LAG3	2.850883e-01	7.721479e-02
011_JE	LAG1	LAG4	4.033323e-01	7.166465e-02
011_JE	LAG1	RAG	2.588993e-01	3.547030e-02
011_JE	LAG1	RAG1	4.295728e-01	2.381469e-01
011_JE	LAG1	RAG2	2.685340e-01	5.373192e-02
011_JE	LAG1	Insula3	1.468894e-01	2.992346e-02
011_JE	LAG1	Insula4	2.115569e-01	-1.597309e-02
011_JE	LAG1	RInsula1	3.267417e-01	6.295997e-02
011_JE	LAG1	SPL1	-5.658860e-03	-3.014459e-01
011_JE	LAG1	SPL2	1.035318e-02	-2.852702e-01
026_JE	LAG1	Insula	9.623573e-03	2.396705e-01
026_JE	LAG1	Insula1	4.706147e-01	4.849111e-01
026_JE	LAG1	Insula2	2.202135e-01	4.157314e-01
026_JE	LAG1	dACC	4.907169e-02	1.329239e-01
026_JE	LAG1	RInsula	3.170229e-01	6.838051e-01
026_JE	LAG1	SPL	-5.705345e-03	3.218497e-01
026_JE	LAG1	RMFG	2.660627e-01	5.200727e-01
026_JE	LAG1	RMFG1	7.960375e-01	7.184625e-01
026_JE	LAG1	RMFG2	2.515122e-01	3.833293e-01
026_JE	LAG1	RTempPole	4.667851e-01	4.950952e-01
026_JE	LAG1	RTempPole1	1.873567e-01	2.122961e-01
026_JE	LAG1	RPrec	3.037443e-01	1.687848e-01
026_JE	LAG1	RPrec1	2.724691e-01	2.933386e-01
026_JE	LAG1	RPrec2	3.492566e-01	3.395181e-01
026_JE	LAG1	MTG	4.235388e-01	3.045567e-01
026_JE	LAG1	MTG1	1.862348e-01	1.258247e-01
026_JE	LAG1	ACing	-1.271301e-01	-2.460256e-01
026_JE	LAG1	ACing1	1.720242e-01	2.408169e-01
026_JE	LAG1	LAG	3.222678e-01	1.474894e-02
026_JE	LAG1	LAG2	1.607648e-01	-2.281640e-02
026_JE	LAG1	LAG3	2.943473e-01	-8.421880e-02
026_JE	LAG1	LAG4	7.579168e-01	-2.278390e-01
026_JE	LAG1	RAG	2.697729e-01	2.777073e-02
026_JE	LAG1	RAG1	1.763392e-01	2.984687e-01
026_JE	LAG1	RAG2	2.183828e-01	3.246992e-01
026_JE	LAG1	Insula3	2.863784e-01	4.345212e-01
026_JE	LAG1	Insula4	5.724566e-01	9.511433e-01
026_JE	LAG1	RInsula1	3.999178e-01	5.775292e-01
026_JE	LAG1	SPL1	7.251103e-02	2.296060e-01
026_JE	LAG1	SPL2	-1.679478e-01	2.030433e-01
027_JE	LAG1	Insula	-3.371781e-02	2.539865e-01
027_JE	LAG1	Insula1	3.114916e-01	5.325576e-01
027_JE	LAG1	Insula2	3.159101e-01	3.545884e-01
027_JE	LAG1	dACC	2.349725e-01	5.242825e-01
027_JE	LAG1	RInsula	7.140010e-02	3.831293e-01
027_JE	LAG1	SPL	-1.027049e-02	1.160810e-01
027_JE	LAG1	RMFG	2.201069e-01	5.551163e-01
027_JE	LAG1	RMFG1	4.022375e-01	6.071682e-01
027_JE	LAG1	RMFG2	3.496948e-01	6.737318e-01
027_JE	LAG1	RTempPole	4.620696e-01	3.568829e-01
027_JE	LAG1	RTempPole1	4.891676e-01	4.112659e-01
027_JE	LAG1	RPrec	4.783599e-01	5.235866e-01
027_JE	LAG1	RPrec1	4.271329e-01	2.378556e-01
027_JE	LAG1	RPrec2	5.000851e-01	5.853062e-03
027_JE	LAG1	MTG	-1.386899e-01	1.216751e-01
027_JE	LAG1	MTG1	1.578164e-01	1.390780e-02
027_JE	LAG1	ACing	-1.428893e-01	2.159750e-02
027_JE	LAG1	ACing1	2.246621e-01	4.096675e-01
027_JE	LAG1	LAG	3.491045e-01	2.330142e-01
027_JE	LAG1	LAG2	2.185141e-01	8.874750e-02
027_JE	LAG1	LAG3	2.751379e-01	-3.152131e-01
027_JE	LAG1	LAG4	3.551074e-01	-1.305991e-03
027_JE	LAG1	RAG	2.060527e-01	1.121160e-01
027_JE	LAG1	RAG1	3.445649e-01	3.337400e-01
027_JE	LAG1	RAG2	3.772132e-01	6.714763e-02
027_JE	LAG1	Insula3	1.439931e-01	2.685197e-01
027_JE	LAG1	Insula4	2.489744e-01	4.997533e-01
027_JE	LAG1	RInsula1	3.375087e-01	5.882893e-01
027_JE	LAG1	SPL1	6.650483e-02	1.138950e-01
027_JE	LAG1	SPL2	2.227229e-02	1.145477e-02
028_JE	LAG1	Insula	1.399578e-01	2.762764e-01
028_JE	LAG1	Insula1	2.216310e-01	1.101633e-01
028_JE	LAG1	Insula2	1.155219e-01	2.411234e-01
028_JE	LAG1	dACC	-1.410765e-01	6.476757e-03
028_JE	LAG1	RInsula	1.121106e-01	3.059395e-01
028_JE	LAG1	SPL	4.796250e-02	2.028710e-01
028_JE	LAG1	RMFG	2.620493e-01	4.560773e-01
028_JE	LAG1	RMFG1	3.035265e-01	4.589799e-01
028_JE	LAG1	RMFG2	4.595326e-02	1.005107e-01
028_JE	LAG1	RTempPole	1.721665e-01	4.243293e-02
028_JE	LAG1	RTempPole1	3.837692e-01	4.803149e-01
028_JE	LAG1	RPrec	3.736906e-01	4.155110e-01
028_JE	LAG1	RPrec1	1.690489e-01	-7.627135e-03
028_JE	LAG1	RPrec2	4.695753e-01	-3.797554e-02
028_JE	LAG1	MTG	1.925288e-01	1.877197e-01
028_JE	LAG1	MTG1	1.711203e-01	6.857194e-02
028_JE	LAG1	ACing	1.955110e-01	1.450877e-01
028_JE	LAG1	ACing1	3.359245e-01	2.823046e-01
028_JE	LAG1	LAG	2.841197e-01	3.400072e-02
028_JE	LAG1	LAG2	2.723607e-01	-1.965033e-03
028_JE	LAG1	LAG3	2.987198e-01	1.030595e-03
028_JE	LAG1	LAG4	6.209499e-01	-4.931002e-02
028_JE	LAG1	RAG	2.829064e-01	1.332936e-01
028_JE	LAG1	RAG1	2.129342e-01	1.881558e-01
028_JE	LAG1	RAG2	3.872773e-01	2.806223e-01
028_JE	LAG1	Insula3	1.233178e-01	1.441432e-01
028_JE	LAG1	Insula4	1.526479e-01	2.836838e-01
028_JE	LAG1	RInsula1	3.417586e-02	2.725397e-01
028_JE	LAG1	SPL1	1.202073e-01	2.299048e-01
028_JE	LAG1	SPL2	1.301979e-01	8.724423e-02
029_JE	LAG1	Insula	6.656700e-01	4.783774e-01
029_JE	LAG1	Insula1	9.867749e-01	1.069773e+00
029_JE	LAG1	Insula2	9.120123e-01	6.853312e-01
029_JE	LAG1	dACC	3.879309e-01	2.797629e-01
029_JE	LAG1	RInsula	5.245129e-01	3.707805e-01
029_JE	LAG1	SPL	5.094418e-01	3.781338e-01
029_JE	LAG1	RMFG	3.366845e-01	1.612826e-01
029_JE	LAG1	RMFG1	5.483571e-01	2.606930e-01
029_JE	LAG1	RMFG2	2.731702e-01	8.027478e-02
029_JE	LAG1	RTempPole	3.356696e-01	1.381639e-01
029_JE	LAG1	RTempPole1	2.479052e-01	-1.267923e-01
029_JE	LAG1	RPrec	4.945712e-01	4.564619e-02
029_JE	LAG1	RPrec1	4.030612e-01	-2.478912e-01
029_JE	LAG1	RPrec2	4.098492e-01	-2.487474e-01
029_JE	LAG1	MTG	4.421906e-01	-1.824920e-03
029_JE	LAG1	MTG1	2.505413e-01	1.915631e-02
029_JE	LAG1	ACing	-5.164441e-01	5.388689e-01
029_JE	LAG1	ACing1	4.151721e-01	2.878600e-01
029_JE	LAG1	LAG	5.945564e-01	-1.139283e-01
029_JE	LAG1	LAG2	5.327185e-01	2.728345e-01
029_JE	LAG1	LAG3	4.606300e-01	-4.482074e-02
029_JE	LAG1	LAG4	4.186632e-01	1.582639e-02
029_JE	LAG1	RAG	1.842545e-01	-7.980610e-02
029_JE	LAG1	RAG1	6.795032e-01	2.468106e-01
029_JE	LAG1	RAG2	4.896281e-01	-7.773911e-02
029_JE	LAG1	Insula3	5.052280e-01	2.741501e-01
029_JE	LAG1	Insula4	4.218811e-01	5.449949e-01
029_JE	LAG1	RInsula1	9.309423e-01	5.098236e-01
029_JE	LAG1	SPL1	2.940415e-01	3.232577e-01
029_JE	LAG1	SPL2	5.022422e-01	3.598636e-01
030_JE	LAG1	Insula	7.444840e-01	6.098501e-01
030_JE	LAG1	Insula1	8.730671e-01	7.067491e-01
030_JE	LAG1	Insula2	6.615340e-01	5.144753e-01
030_JE	LAG1	dACC	1.195852e+00	8.135686e-01
030_JE	LAG1	RInsula	5.707605e-01	6.174439e-01
030_JE	LAG1	SPL	4.047969e-01	3.617849e-01
030_JE	LAG1	RMFG	5.565623e-01	5.107974e-01
030_JE	LAG1	RMFG1	1.005502e+00	8.782829e-01
030_JE	LAG1	RMFG2	3.322574e-01	3.065648e-01
030_JE	LAG1	RTempPole	4.780339e-01	8.186490e-02
030_JE	LAG1	RTempPole1	7.170292e-01	1.401308e-01
030_JE	LAG1	RPrec	3.209636e-01	1.126728e-01
030_JE	LAG1	RPrec1	5.243121e-01	-6.758117e-03
030_JE	LAG1	RPrec2	7.880492e-01	2.779406e-02
030_JE	LAG1	MTG	3.851119e-01	6.486304e-02
030_JE	LAG1	MTG1	3.264415e-01	4.669021e-02
030_JE	LAG1	ACing	5.788756e-02	1.357921e-01
030_JE	LAG1	ACing1	5.269419e-01	3.381570e-01
030_JE	LAG1	LAG	6.091223e-01	1.586370e-01
030_JE	LAG1	LAG2	3.529246e-01	2.106691e-02
030_JE	LAG1	LAG3	4.571103e-01	-5.411345e-02
030_JE	LAG1	LAG4	8.076291e-01	2.205355e-01
030_JE	LAG1	RAG	3.277945e-01	-6.347584e-02
030_JE	LAG1	RAG1	4.754508e-01	1.139336e-01
030_JE	LAG1	RAG2	2.623120e-01	9.103892e-02
030_JE	LAG1	Insula3	6.444147e-01	5.808189e-01
030_JE	LAG1	Insula4	9.729449e-01	8.559278e-01
030_JE	LAG1	RInsula1	7.962823e-01	7.007137e-01
030_JE	LAG1	SPL1	3.862644e-01	2.697317e-01
030_JE	LAG1	SPL2	8.874496e-02	7.225813e-02
