Subject	ROI_seed	ROI_target	Cats_rest	Cats_Counting
002	dACC	Insula	-1.537853e-01	-2.939520e-02
002	dACC	Insula1	-2.095644e-01	1.493490e-01
002	dACC	Insula2	-1.673584e-01	1.053410e-01
002	dACC	Insula3	-1.665418e-01	-4.316569e-02
002	dACC	Insula4	-1.632785e-01	7.873309e-02
002	dACC	RInsula	-4.172714e-02	2.033635e-01
002	dACC	RInsula1	-2.457707e-01	1.295280e-01
002	dACC	SPL	-3.749186e-02	2.391978e-01
002	dACC	SPL1	-2.134115e-01	8.023084e-02
002	dACC	SPL2	-1.465756e-01	7.623363e-02
002	dACC	RMFG	-1.376619e-02	1.032915e-01
002	dACC	RMFG1	1.587752e-01	-7.011623e-03
002	dACC	RMFG2	2.046833e-01	-3.150482e-02
002	dACC	RTempPole	-3.191775e-02	-1.735718e-01
002	dACC	RTempPole1	-2.773643e-01	-1.006375e-01
002	dACC	RPrec	-3.060037e-01	6.452032e-02
002	dACC	RPrec1	-1.113459e-01	9.682173e-02
002	dACC	RPrec2	-1.357978e-01	-2.647618e-02
002	dACC	MTG	-2.317041e-01	-1.624319e-01
002	dACC	MTG1	-4.741499e-02	-1.718601e-01
002	dACC	ACing	-5.874245e-01	-1.593855e-01
002	dACC	ACing1	-5.626628e-01	-3.762650e-01
002	dACC	LAG	-2.133315e-01	-2.288955e-01
002	dACC	LAG1	-2.378653e-01	-1.508090e-01
002	dACC	LAG2	-1.825769e-01	-2.214277e-02
002	dACC	LAG3	-2.913827e-01	-3.440922e-01
002	dACC	LAG4	-2.756122e-01	-1.298983e-01
002	dACC	RAG	-1.264544e-01	-3.672389e-02
002	dACC	RAG1	-1.291916e-01	3.506406e-01
002	dACC	RAG2	-2.182753e-01	-5.262626e-02
003	dACC	Insula	5.246335e-02	-3.775569e-02
003	dACC	Insula1	1.167784e-01	1.558448e-01
003	dACC	Insula2	-1.191647e-03	-1.347038e-03
003	dACC	Insula3	2.717140e-01	2.083220e-01
003	dACC	Insula4	1.959647e-01	1.290379e-01
003	dACC	RInsula	2.645378e-01	2.084565e-01
003	dACC	RInsula1	2.429935e-01	2.291766e-01
003	dACC	SPL	-5.851952e-02	-6.731630e-02
003	dACC	SPL1	6.691962e-02	5.073041e-02
003	dACC	SPL2	1.019122e-01	1.969679e-02
003	dACC	RMFG	5.998868e-02	5.746611e-02
003	dACC	RMFG1	1.488843e-01	2.152992e-01
003	dACC	RMFG2	1.585462e-01	2.149105e-01
003	dACC	RTempPole	6.842018e-02	1.253162e-03
003	dACC	RTempPole1	1.672674e-01	3.434838e-02
003	dACC	RPrec	1.075949e-01	2.132959e-02
003	dACC	RPrec1	2.589889e-02	1.795496e-02
003	dACC	RPrec2	1.072918e-01	1.847653e-01
003	dACC	MTG	-4.734553e-03	4.510500e-02
003	dACC	MTG1	1.753903e-01	1.721644e-01
003	dACC	ACing	-6.239982e-01	2.292969e-01
003	dACC	ACing1	5.569309e-01	9.959498e-01
003	dACC	LAG	-2.377765e-02	-5.411558e-03
003	dACC	LAG1	3.661660e-02	-5.377781e-02
003	dACC	LAG2	-6.397803e-03	5.699773e-02
003	dACC	LAG3	1.409242e-02	5.029761e-02
003	dACC	LAG4	1.457679e-01	1.706503e-01
003	dACC	RAG	2.220235e-02	-3.120036e-02
003	dACC	RAG1	3.885718e-02	1.048360e-01
003	dACC	RAG2	-8.547770e-03	1.073932e-02
004	dACC	Insula	1.587376e-01	2.776921e-01
004	dACC	Insula1	3.676494e-01	-4.546801e-02
004	dACC	Insula2	4.069389e-01	1.695831e-01
004	dACC	Insula3	1.840788e-01	-1.244829e-01
004	dACC	Insula4	3.436115e-01	-1.711214e-01
004	dACC	RInsula	-1.959656e-02	8.758025e-02
004	dACC	RInsula1	2.657515e-01	-2.140553e-01
004	dACC	SPL	1.697145e-01	-9.112118e-03
004	dACC	SPL1	3.874182e-01	5.499244e-02
004	dACC	SPL2	2.122485e-01	-9.400685e-02
004	dACC	RMFG	5.114684e-02	1.109448e-01
004	dACC	RMFG1	1.937502e-02	-2.573121e-01
004	dACC	RMFG2	1.127688e-03	1.154035e-01
004	dACC	RTempPole	8.411908e-02	-2.773330e-01
004	dACC	RTempPole1	-1.798840e-01	-1.745399e-01
004	dACC	RPrec	1.774409e-01	-3.157789e-01
004	dACC	RPrec1	4.830014e-03	-2.375708e-01
004	dACC	RPrec2	1.806579e-01	9.291100e-03
004	dACC	MTG	-3.051009e-01	2.266400e-01
004	dACC	MTG1	-1.079929e-01	-6.950016e-02
004	dACC	ACing	6.696279e-02	2.417986e-02
004	dACC	ACing1	-9.189094e-02	-1.009941e-01
004	dACC	LAG	2.294611e-01	-1.113291e-01
004	dACC	LAG1	1.971602e-01	3.630573e-02
004	dACC	LAG2	1.205498e-01	-1.216218e-02
004	dACC	LAG3	5.506978e-01	1.781938e-01
004	dACC	LAG4	1.897995e-01	-2.541569e-01
004	dACC	RAG	3.213927e-02	-1.602371e-01
004	dACC	RAG1	1.009123e-01	-2.455088e-01
004	dACC	RAG2	9.117793e-02	-3.059162e-01
005	dACC	Insula	5.096742e-01	-4.759532e-02
005	dACC	Insula1	3.969968e-01	-1.432434e-01
005	dACC	Insula2	6.071626e-01	-3.030945e-01
005	dACC	Insula3	3.082953e-01	-3.804210e-02
005	dACC	Insula4	4.629422e-01	-1.690217e-01
005	dACC	RInsula	4.700763e-01	-1.796058e-01
005	dACC	RInsula1	5.128298e-01	-8.940707e-02
005	dACC	SPL	2.779065e-01	-2.363047e-01
005	dACC	SPL1	2.556548e-01	-3.341104e-02
005	dACC	SPL2	4.314281e-01	-6.395945e-02
005	dACC	RMFG	1.669435e-01	-2.067586e-01
005	dACC	RMFG1	4.796069e-01	-1.393986e-01
005	dACC	RMFG2	1.360508e-01	-1.884838e-01
005	dACC	RTempPole	9.543214e-02	-2.790399e-02
005	dACC	RTempPole1	5.080788e-01	1.002571e-01
005	dACC	RPrec	2.066535e-01	8.393442e-02
005	dACC	RPrec1	1.021149e-01	8.117006e-02
005	dACC	RPrec2	6.191890e-02	3.806201e-02
005	dACC	MTG	5.791776e-02	1.388373e-02
005	dACC	MTG1	1.093580e-01	-1.459938e-02
005	dACC	ACing	8.049330e-02	2.221733e-01
005	dACC	ACing1	-1.064723e-01	-1.022767e-01
005	dACC	LAG	7.278920e-02	1.318258e-01
005	dACC	LAG1	-2.137741e-02	5.918939e-02
005	dACC	LAG2	-5.499432e-02	-3.324584e-03
005	dACC	LAG3	7.485434e-02	7.730334e-02
005	dACC	LAG4	-4.977081e-02	-9.085931e-02
005	dACC	RAG	1.399368e-01	-7.948250e-02
005	dACC	RAG1	-6.735007e-02	-1.102866e-01
005	dACC	RAG2	1.081586e-01	-1.349980e-01
006	dACC	Insula	5.175047e-01	2.606006e-01
006	dACC	Insula1	2.400205e-01	1.133988e-01
006	dACC	Insula2	5.075360e-01	3.467757e-01
006	dACC	Insula3	1.834255e-01	2.240705e-01
006	dACC	Insula4	2.219121e-01	1.894657e-01
006	dACC	RInsula	5.174635e-01	4.610583e-01
006	dACC	RInsula1	5.030240e-01	4.744329e-01
006	dACC	SPL	3.868780e-01	2.785661e-01
006	dACC	SPL1	1.354066e-01	1.826367e-01
006	dACC	SPL2	3.601711e-01	3.815356e-01
006	dACC	RMFG	2.035199e-01	1.923759e-01
006	dACC	RMFG1	3.043731e-01	1.379690e-01
006	dACC	RMFG2	1.066343e-02	-8.878304e-02
006	dACC	RTempPole	1.057186e-01	3.187189e-01
006	dACC	RTempPole1	2.226713e-01	2.492066e-01
006	dACC	RPrec	1.494418e-01	2.948666e-01
006	dACC	RPrec1	2.840444e-01	2.531827e-01
006	dACC	RPrec2	3.217346e-01	1.512977e-01
006	dACC	MTG	2.392562e-01	1.789582e-01
006	dACC	MTG1	1.566231e-01	2.433375e-02
006	dACC	ACing	1.110928e+00	5.039454e-01
006	dACC	ACing1	7.424448e-02	2.696286e-01
006	dACC	LAG	2.911524e-01	7.806771e-02
006	dACC	LAG1	1.488388e-01	5.622825e-02
006	dACC	LAG2	9.903353e-02	-2.605205e-02
006	dACC	LAG3	2.282942e-01	5.180224e-03
006	dACC	LAG4	1.010843e-02	1.405913e-01
006	dACC	RAG	1.648090e-01	7.602258e-02
006	dACC	RAG1	5.206141e-02	-9.022544e-02
006	dACC	RAG2	2.290357e-01	1.441918e-01
007	dACC	Insula	8.066648e-02	8.360616e-02
007	dACC	Insula1	1.630177e-01	9.642596e-02
007	dACC	Insula2	1.036073e-01	1.581930e-01
007	dACC	Insula3	1.008594e-01	4.962094e-02
007	dACC	Insula4	3.307387e-01	1.086547e-01
007	dACC	RInsula	3.283972e-02	1.207143e-01
007	dACC	RInsula1	1.128319e-01	4.677965e-02
007	dACC	SPL	1.852088e-01	1.154040e-01
007	dACC	SPL1	9.864290e-02	1.455977e-01
007	dACC	SPL2	2.004717e-01	6.036966e-02
007	dACC	RMFG	5.798222e-02	6.049300e-02
007	dACC	RMFG1	3.788620e-02	1.141874e-01
007	dACC	RMFG2	8.305111e-02	-1.017294e-02
007	dACC	RTempPole	1.159925e-01	6.219334e-02
007	dACC	RTempPole1	2.385856e-01	1.150863e-01
007	dACC	RPrec	1.231038e-01	1.692650e-01
007	dACC	RPrec1	1.313219e-01	9.942017e-02
007	dACC	RPrec2	2.191490e-01	9.991746e-02
007	dACC	MTG	1.274358e-01	3.669892e-02
007	dACC	MTG1	1.148093e-01	1.906374e-02
007	dACC	ACing	5.334144e-03	7.635838e-02
007	dACC	ACing1	1.202976e-01	8.186393e-02
007	dACC	LAG	2.303379e-02	1.141203e-01
007	dACC	LAG1	1.122239e-01	1.421680e-01
007	dACC	LAG2	1.152800e-01	8.304488e-02
007	dACC	LAG3	1.139224e-01	1.349110e-01
007	dACC	LAG4	2.700634e-01	8.859514e-02
007	dACC	RAG	-4.297038e-02	1.148570e-01
007	dACC	RAG1	1.951639e-01	2.047947e-01
007	dACC	RAG2	3.694449e-01	1.631924e-01
008	dACC	Insula	1.247318e-01	-2.616295e-01
008	dACC	Insula1	3.018328e-01	3.051165e-01
008	dACC	Insula2	1.850415e-01	1.661888e-01
008	dACC	Insula3	1.936492e-01	1.709657e-01
008	dACC	Insula4	2.293130e-01	2.231407e-01
008	dACC	RInsula	-1.349032e-01	-1.321266e-01
008	dACC	RInsula1	4.604596e-01	1.145765e-01
008	dACC	SPL	-9.838170e-02	-2.357763e-01
008	dACC	SPL1	6.429433e-02	-1.394194e-01
008	dACC	SPL2	5.187941e-02	-2.368388e-02
008	dACC	RMFG	2.301863e-03	1.016724e-01
008	dACC	RMFG1	7.743506e-02	-1.224362e+00
008	dACC	RMFG2	2.023739e-01	3.395200e-01
008	dACC	RTempPole	7.294366e-01	2.384441e-01
008	dACC	RTempPole1	2.379512e-01	2.266493e-01
008	dACC	RPrec	1.298341e-01	-4.023495e-02
008	dACC	RPrec1	-1.757012e-02	-2.290519e-02
008	dACC	RPrec2	2.059565e-01	1.020390e-01
008	dACC	MTG	9.757824e-02	1.872162e-01
008	dACC	MTG1	2.667021e-01	3.790126e-01
008	dACC	ACing	-8.793638e-01	-1.219714e-01
008	dACC	ACing1	5.811552e-01	5.947524e-01
008	dACC	LAG	6.958454e-02	-6.441753e-02
008	dACC	LAG1	-6.704661e-02	-1.064047e-01
008	dACC	LAG2	1.523861e-01	-1.142631e-01
008	dACC	LAG3	-2.459132e-01	-3.652824e-01
008	dACC	LAG4	-2.654605e-01	-2.337121e-01
008	dACC	RAG	9.411232e-02	-4.690502e-02
008	dACC	RAG1	1.087124e-01	1.479288e-02
008	dACC	RAG2	7.557215e-02	-8.775145e-02
009	dACC	Insula	3.137242e-01	-2.588028e-01
009	dACC	Insula1	2.687726e-01	-1.680974e-01
009	dACC	Insula2	2.184226e-01	-2.164788e-02
009	dACC	Insula3	1.655936e-01	-5.436944e-02
009	dACC	Insula4	2.404777e-01	-2.137909e-01
009	dACC	RInsula	1.843722e-01	-2.140823e-01
009	dACC	RInsula1	1.786942e-01	-5.632789e-02
009	dACC	SPL	1.485251e-01	-6.206160e-02
009	dACC	SPL1	2.435259e-01	5.817973e-02
009	dACC	SPL2	2.222950e-01	9.322926e-03
009	dACC	RMFG	2.175921e-01	1.390159e-02
009	dACC	RMFG1	1.144088e-01	-1.927988e-01
009	dACC	RMFG2	9.531870e-02	-8.489069e-02
009	dACC	RTempPole	-1.138757e-01	-1.997827e-02
009	dACC	RTempPole1	1.588343e-01	-1.418893e-01
009	dACC	RPrec	1.293908e-01	-1.058853e-02
009	dACC	RPrec1	2.337039e-01	1.440529e-01
009	dACC	RPrec2	9.626150e-02	-1.488458e-01
009	dACC	MTG	1.802019e-01	1.087534e-01
009	dACC	MTG1	1.243489e-01	4.769929e-02
009	dACC	ACing	6.019359e-02	2.475422e-02
009	dACC	ACing1	3.093532e-02	1.541759e-01
009	dACC	LAG	1.584536e-01	4.423779e-03
009	dACC	LAG1	1.302306e-01	9.308116e-02
009	dACC	LAG2	2.047798e-01	1.347323e-01
009	dACC	LAG3	1.487325e-01	3.149471e-02
009	dACC	LAG4	2.175623e-01	1.712286e-01
009	dACC	RAG	2.115479e-01	1.070789e-01
009	dACC	RAG1	2.103053e-01	6.205382e-02
009	dACC	RAG2	1.491270e-01	-1.587760e-01
011	dACC	Insula	-2.050812e-02	7.059061e-02
011	dACC	Insula1	4.553970e-02	8.656662e-02
011	dACC	Insula2	4.023846e-01	8.373468e-02
011	dACC	Insula3	-8.338505e-02	5.890106e-02
011	dACC	Insula4	-2.973560e-01	3.306463e-02
011	dACC	RInsula	-1.853132e-01	8.760166e-03
011	dACC	RInsula1	1.575941e-01	-2.409679e-02
011	dACC	SPL	-3.067333e-01	3.603314e-02
011	dACC	SPL1	5.803065e-02	1.058237e-01
011	dACC	SPL2	1.002370e-01	1.875016e-01
011	dACC	RMFG	-2.925433e-02	6.781552e-02
011	dACC	RMFG1	1.120785e-01	2.382261e-02
011	dACC	RMFG2	1.083109e-01	4.240543e-02
011	dACC	RTempPole	-5.532169e-01	-6.484037e-02
011	dACC	RTempPole1	-1.383805e-01	-5.400577e-02
011	dACC	RPrec	3.757934e-01	-3.894809e-02
011	dACC	RPrec1	-2.684511e-01	-1.527773e-01
011	dACC	RPrec2	-2.505710e-01	-1.524370e-01
011	dACC	MTG	-1.484209e-01	-1.100367e-02
011	dACC	MTG1	-1.995703e-01	-2.344993e-02
011	dACC	ACing	5.525504e-01	7.291162e-02
011	dACC	ACing1	2.092358e-01	-3.011969e-02
011	dACC	LAG	-1.643655e-01	-1.803836e-02
011	dACC	LAG1	1.210557e-01	3.167713e-02
011	dACC	LAG2	-2.161203e-01	-1.850744e-01
011	dACC	LAG3	1.486233e-01	1.291464e-01
011	dACC	LAG4	7.916155e-02	3.251731e-02
011	dACC	RAG	-3.448895e-01	-9.475069e-02
011	dACC	RAG1	2.887257e-01	2.767732e-02
011	dACC	RAG2	2.338306e-01	2.660859e-02
017	dACC	Insula	-9.501207e-02	3.655313e-02
017	dACC	Insula1	6.178193e-03	9.252043e-02
017	dACC	Insula2	2.437264e-01	-6.954558e-02
017	dACC	Insula3	-2.734444e-03	1.429558e-02
017	dACC	Insula4	1.797607e-01	-4.376829e-02
017	dACC	RInsula	-1.288516e-01	-2.142927e-02
017	dACC	RInsula1	1.734846e-02	-9.232942e-02
017	dACC	SPL	2.370719e-01	1.018234e-01
017	dACC	SPL1	7.295526e-02	8.882142e-02
017	dACC	SPL2	4.286236e-01	2.005272e-01
017	dACC	RMFG	1.751720e-01	5.153303e-02
017	dACC	RMFG1	2.428877e-01	-1.856935e-03
017	dACC	RMFG2	2.216870e-01	1.938676e-02
017	dACC	RTempPole	-8.978963e-02	1.653044e-02
017	dACC	RTempPole1	8.664917e-02	-3.114369e-02
017	dACC	RPrec	3.131480e-01	1.103336e-01
017	dACC	RPrec1	7.862077e-02	6.581057e-02
017	dACC	RPrec2	2.190121e-01	8.826397e-02
017	dACC	MTG	1.166707e-01	6.385749e-02
017	dACC	MTG1	2.127458e-01	2.599296e-02
017	dACC	ACing	1.686141e-02	4.028761e-02
017	dACC	ACing1	8.144407e-02	-9.145674e-03
017	dACC	LAG	2.940250e-01	1.260777e-01
017	dACC	LAG1	2.128505e-02	-4.954112e-02
017	dACC	LAG2	4.169067e-01	2.215332e-01
017	dACC	LAG3	3.336489e-01	2.360430e-01
017	dACC	LAG4	5.364943e-02	4.343015e-02
017	dACC	RAG	2.708017e-01	2.137031e-01
017	dACC	RAG1	8.286101e-02	-4.137162e-02
017	dACC	RAG2	4.187798e-01	2.263815e-01
012	dACC	Insula	3.452681e-01	1.831763e-01
012	dACC	Insula1	4.024380e-01	-1.804790e-01
012	dACC	Insula2	7.486070e-01	1.313000e-02
012	dACC	Insula3	7.289999e-01	2.380771e-01
012	dACC	Insula4	4.265004e-01	1.336387e-01
012	dACC	RInsula	4.376302e-01	4.202957e-01
012	dACC	RInsula1	7.132914e-01	2.832766e-01
012	dACC	SPL	1.558103e-01	-1.864075e-02
012	dACC	SPL1	8.939848e-02	-2.260582e-02
012	dACC	SPL2	4.715805e-01	8.048132e-02
012	dACC	RMFG	1.890658e-01	6.526277e-01
012	dACC	RMFG1	8.386020e-01	-2.067136e-01
012	dACC	RMFG2	5.045469e-01	8.746988e-03
012	dACC	RTempPole	1.910175e-01	-2.760473e-01
012	dACC	RTempPole1	8.505229e-03	-1.621560e-01
012	dACC	RPrec	3.208300e-01	-1.889114e-01
012	dACC	RPrec1	1.051875e-01	-8.757013e-01
012	dACC	RPrec2	2.575337e-01	-1.047391e+00
012	dACC	MTG	2.017165e-01	5.203034e-02
012	dACC	MTG1	4.019773e-01	-1.971252e-01
012	dACC	ACing	-9.667006e-02	-5.234088e-01
012	dACC	ACing1	4.468940e-01	-1.905712e-01
012	dACC	LAG	2.296439e-01	-3.320501e-01
012	dACC	LAG1	2.740552e-01	-4.660116e-01
012	dACC	LAG2	2.750674e-01	-3.104167e-01
012	dACC	LAG3	3.455634e-01	-3.492486e-01
012	dACC	LAG4	-2.091528e-01	-6.576873e-01
012	dACC	RAG	-4.274447e-02	-3.056963e-01
012	dACC	RAG1	5.295611e-02	-4.777976e-01
012	dACC	RAG2	1.884430e-01	-5.347915e-01
013	dACC	Insula	3.310087e-01	1.661076e-01
013	dACC	Insula1	7.528395e-01	6.937661e-01
013	dACC	Insula2	5.016332e-01	1.532640e-01
013	dACC	Insula3	3.911182e-01	2.394604e-01
013	dACC	Insula4	7.731578e-01	7.701671e-01
013	dACC	RInsula	2.614419e-01	1.475635e-01
013	dACC	RInsula1	4.412215e-01	2.319371e-01
013	dACC	SPL	5.163905e-01	1.485040e-01
013	dACC	SPL1	4.990892e-01	2.399578e-01
013	dACC	SPL2	3.346313e-01	1.770744e-01
013	dACC	RMFG	4.908116e-01	4.242860e-02
013	dACC	RMFG1	1.776033e-01	-1.549966e-01
013	dACC	RMFG2	1.889842e-01	-1.608996e-01
013	dACC	RTempPole	1.578677e-01	-6.175000e-02
013	dACC	RTempPole1	2.515171e-01	1.615839e-01
013	dACC	RPrec	3.981954e-01	3.987606e-01
013	dACC	RPrec1	3.849675e-01	4.424699e-01
013	dACC	RPrec2	5.067008e-01	7.012841e-01
013	dACC	MTG	3.195474e-01	1.658691e-01
013	dACC	MTG1	1.697848e-01	5.822940e-02
013	dACC	ACing	1.317910e-01	4.732875e-01
013	dACC	ACing1	1.930962e-01	1.203102e-01
013	dACC	LAG	3.767994e-01	3.943721e-01
013	dACC	LAG1	2.391382e-01	2.757682e-01
013	dACC	LAG2	2.501919e-01	3.874935e-01
013	dACC	LAG3	1.831811e-01	2.488434e-02
013	dACC	LAG4	3.622737e-01	2.430042e-01
013	dACC	RAG	3.502942e-01	4.499243e-01
013	dACC	RAG1	4.127496e-01	2.732207e-01
013	dACC	RAG2	3.127895e-01	1.311771e-02
014	dACC	Insula	2.835157e-01	1.651193e-02
014	dACC	Insula1	4.997028e-01	1.105936e-01
014	dACC	Insula2	4.728902e-01	-1.363539e-01
014	dACC	Insula3	2.065303e-01	7.608885e-02
014	dACC	Insula4	4.996925e-01	9.314423e-02
014	dACC	RInsula	3.358892e-01	9.912364e-02
014	dACC	RInsula1	3.775806e-01	1.149933e-01
014	dACC	SPL	1.920468e-01	-3.352559e-02
014	dACC	SPL1	3.134502e-01	-1.462105e-01
014	dACC	SPL2	2.941090e-01	3.091771e-02
014	dACC	RMFG	3.098881e-01	5.120355e-02
014	dACC	RMFG1	3.352859e-01	1.041510e-01
014	dACC	RMFG2	1.363640e-01	1.309146e-01
014	dACC	RTempPole	2.253395e-01	3.243851e-02
014	dACC	RTempPole1	1.065865e-01	3.296655e-02
014	dACC	RPrec	3.126857e-01	3.204360e-02
014	dACC	RPrec1	2.027096e-01	2.929183e-02
014	dACC	RPrec2	3.021545e-01	1.398132e-01
014	dACC	MTG	2.338126e-01	1.947814e-01
014	dACC	MTG1	2.317937e-01	1.281101e-01
014	dACC	ACing	4.672350e-02	-3.190179e-01
014	dACC	ACing1	-4.283293e-02	1.933347e-02
014	dACC	LAG	2.294857e-01	7.218441e-02
014	dACC	LAG1	2.569238e-01	9.618879e-02
014	dACC	LAG2	2.282121e-01	7.489307e-02
014	dACC	LAG3	2.359812e-01	5.458361e-03
014	dACC	LAG4	4.527761e-01	9.902835e-02
014	dACC	RAG	1.417725e-01	3.627658e-02
014	dACC	RAG1	2.863111e-01	2.538190e-02
014	dACC	RAG2	1.657709e-01	7.287257e-02
015	dACC	Insula	2.690709e-01	-1.156526e-01
015	dACC	Insula1	4.686870e-01	1.788273e-01
015	dACC	Insula2	3.115710e-01	-1.048174e-01
015	dACC	Insula3	3.521937e-01	6.055331e-02
015	dACC	Insula4	7.072428e-01	-9.226625e-02
015	dACC	RInsula	5.301042e-01	1.430330e-01
015	dACC	RInsula1	4.191525e-01	3.040863e-02
015	dACC	SPL	3.519483e-01	1.414049e-01
015	dACC	SPL1	3.770338e-01	-1.522288e-01
015	dACC	SPL2	2.391705e-01	-7.087647e-02
015	dACC	RMFG	5.183577e-01	8.972920e-02
015	dACC	RMFG1	6.003939e-01	2.510886e-01
015	dACC	RMFG2	3.043047e-01	7.674179e-02
015	dACC	RTempPole	4.404198e-01	1.310615e-01
015	dACC	RTempPole1	2.662658e-01	1.454083e-01
015	dACC	RPrec	1.364097e-01	-2.934574e-01
015	dACC	RPrec1	2.454667e-01	5.282156e-02
015	dACC	RPrec2	4.006007e-01	2.567283e-01
015	dACC	MTG	3.848700e-01	7.193476e-03
015	dACC	MTG1	4.853625e-01	2.216607e-01
015	dACC	ACing	2.581314e-01	-2.913119e-01
015	dACC	ACing1	-2.975149e-01	-1.574906e-01
015	dACC	LAG	4.690320e-01	1.902616e-01
015	dACC	LAG1	4.359161e-01	1.194223e-01
015	dACC	LAG2	4.185012e-01	3.059096e-01
015	dACC	LAG3	4.059746e-01	2.008948e-01
015	dACC	LAG4	1.673918e-01	1.776205e-01
015	dACC	RAG	3.576418e-01	6.814422e-02
015	dACC	RAG1	3.240579e-01	-5.503503e-02
015	dACC	RAG2	5.646349e-01	3.238473e-01
018	dACC	Insula	7.480288e-01	7.523632e-01
018	dACC	Insula1	7.048507e-01	4.385045e-01
018	dACC	Insula2	3.412195e-01	3.953209e-01
018	dACC	Insula3	1.057092e-02	-2.129392e-01
018	dACC	Insula4	3.666768e-01	2.552336e-01
018	dACC	RInsula	5.112997e-01	6.011712e-01
018	dACC	RInsula1	4.989339e-01	5.196488e-01
018	dACC	SPL	1.580065e-01	2.150108e-02
018	dACC	SPL1	2.551720e-01	-5.603088e-02
018	dACC	SPL2	4.075263e-01	5.266849e-01
018	dACC	RMFG	4.314810e-01	4.558306e-01
018	dACC	RMFG1	6.946064e-02	-6.836047e-02
018	dACC	RMFG2	6.739198e-02	6.228722e-02
018	dACC	RTempPole	7.316843e-02	2.365794e-02
018	dACC	RTempPole1	3.985103e-01	2.960666e-01
018	dACC	RPrec	-4.730335e-02	-7.235945e-02
018	dACC	RPrec1	1.472444e-01	-3.824756e-01
018	dACC	RPrec2	4.295581e-01	-1.136392e-01
018	dACC	MTG	-1.746590e-01	-4.314553e-01
018	dACC	MTG1	-1.689620e-01	-3.642103e-01
018	dACC	ACing	1.222322e-01	-2.712151e-02
018	dACC	ACing1	-9.272036e-02	-8.836444e-02
018	dACC	LAG	1.532567e-01	-1.260456e-01
018	dACC	LAG1	2.821631e-01	1.486344e-02
018	dACC	LAG2	1.220185e-01	-2.737998e-01
018	dACC	LAG3	4.939227e-01	3.673621e-01
018	dACC	LAG4	3.742375e-01	2.456173e-01
018	dACC	RAG	9.408115e-02	-1.161639e-01
018	dACC	RAG1	4.030270e-01	-1.016667e-01
018	dACC	RAG2	3.275470e-01	2.247574e-01
019	dACC	Insula	1.211691e-01	7.181173e-02
019	dACC	Insula1	2.830859e-01	1.332147e-01
019	dACC	Insula2	1.929591e-01	8.944596e-02
019	dACC	Insula3	6.980323e-02	2.083484e-02
019	dACC	Insula4	2.113479e-01	1.074410e-01
019	dACC	RInsula	1.604274e-01	7.931285e-02
019	dACC	RInsula1	1.057762e-01	8.388196e-02
019	dACC	SPL	7.217321e-02	3.775840e-02
019	dACC	SPL1	1.261232e-01	9.824124e-02
019	dACC	SPL2	4.633388e-02	1.978670e-02
019	dACC	RMFG	9.615219e-02	5.956939e-02
019	dACC	RMFG1	1.951100e-01	2.275509e-02
019	dACC	RMFG2	9.400025e-02	2.086666e-02
019	dACC	RTempPole	3.106906e-02	-3.529823e-03
019	dACC	RTempPole1	6.916740e-02	6.011052e-02
019	dACC	RPrec	1.015801e-01	6.715326e-02
019	dACC	RPrec1	9.648433e-02	7.832783e-02
019	dACC	RPrec2	1.306197e-01	-4.842380e-03
019	dACC	MTG	3.960647e-02	1.823427e-02
019	dACC	MTG1	1.662850e-02	-1.953215e-02
019	dACC	ACing	-2.845191e-01	9.614801e-02
019	dACC	ACing1	4.320899e-02	-3.585843e-02
019	dACC	LAG	1.083531e-01	3.829277e-03
019	dACC	LAG1	4.879817e-02	-4.185763e-03
019	dACC	LAG2	7.443455e-02	4.630787e-02
019	dACC	LAG3	7.784509e-02	-4.679300e-03
019	dACC	LAG4	9.042341e-02	-6.560939e-02
019	dACC	RAG	9.324076e-02	-8.158246e-04
019	dACC	RAG1	1.163474e-01	5.210143e-02
019	dACC	RAG2	1.055434e-01	1.429186e-02
020	dACC	Insula	1.188045e-01	6.381553e-02
020	dACC	Insula1	-1.539275e-01	1.311254e-01
020	dACC	Insula2	-1.133859e-01	7.411782e-02
020	dACC	Insula3	1.797053e-01	9.651223e-02
020	dACC	Insula4	-3.460303e-01	7.833046e-02
020	dACC	RInsula	1.312838e-01	1.273109e-01
020	dACC	RInsula1	-2.853193e-02	1.345691e-01
020	dACC	SPL	-1.080854e-01	1.069053e-01
020	dACC	SPL1	1.133006e-01	1.864912e-02
020	dACC	SPL2	-1.750765e-02	-4.480121e-02
020	dACC	RMFG	6.200493e-02	1.979163e-02
020	dACC	RMFG1	-3.110182e-02	-5.788293e-02
020	dACC	RMFG2	2.372157e-01	-9.659608e-03
020	dACC	RTempPole	-1.944437e-01	1.568485e-01
020	dACC	RTempPole1	1.521399e-01	9.422182e-02
020	dACC	RPrec	-1.883214e-01	9.340804e-03
020	dACC	RPrec1	-1.382533e-01	3.141540e-02
020	dACC	RPrec2	9.263673e-02	2.785591e-02
020	dACC	MTG	1.496858e-01	5.278083e-02
020	dACC	MTG1	-1.046636e-01	7.245138e-03
020	dACC	ACing	2.555660e-02	5.743242e-02
020	dACC	ACing1	-1.776198e-01	-1.606966e-01
020	dACC	LAG	9.208202e-02	-5.764126e-02
020	dACC	LAG1	7.016840e-02	1.519976e-01
020	dACC	LAG2	3.932749e-01	1.049843e-01
020	dACC	LAG3	-1.580431e-01	1.032538e-01
020	dACC	LAG4	2.226461e-02	8.351985e-02
020	dACC	RAG	6.295650e-02	1.093150e-01
020	dACC	RAG1	-1.771718e-02	2.183715e-01
020	dACC	RAG2	-5.605255e-02	1.103163e-03
021	dACC	Insula	-2.380838e-01	-9.376728e-02
021	dACC	Insula1	2.764017e-01	3.529409e-01
021	dACC	Insula2	2.403328e-01	1.278046e-01
021	dACC	Insula3	4.583827e-02	5.608967e-02
021	dACC	Insula4	3.159774e-01	1.618145e-01
021	dACC	RInsula	1.335922e-02	-2.593362e-02
021	dACC	RInsula1	2.728556e-01	-3.030157e-03
021	dACC	SPL	2.368256e-01	1.276739e-01
021	dACC	SPL1	2.062061e-01	2.527717e-01
021	dACC	SPL2	2.666143e-01	1.013731e-01
021	dACC	RMFG	-6.442370e-02	5.007131e-02
021	dACC	RMFG1	2.810208e-01	1.941998e-01
021	dACC	RMFG2	8.124571e-02	1.724259e-01
021	dACC	RTempPole	-1.901230e-01	1.052575e-01
021	dACC	RTempPole1	-1.792764e-01	-1.087343e-01
021	dACC	RPrec	3.524506e-01	3.084883e-01
021	dACC	RPrec1	4.808880e-01	3.522610e-01
021	dACC	RPrec2	5.462810e-01	4.386663e-01
021	dACC	MTG	1.307628e-01	8.589385e-02
021	dACC	MTG1	1.129555e-01	1.302433e-01
021	dACC	ACing	-6.996835e-02	-6.400013e-01
021	dACC	ACing1	-1.748683e-01	-2.882801e-01
021	dACC	LAG	-7.784245e-02	-3.447151e-02
021	dACC	LAG1	2.491049e-01	2.039424e-01
021	dACC	LAG2	-2.912734e-02	-5.958079e-02
021	dACC	LAG3	1.154283e-01	7.391900e-02
021	dACC	LAG4	2.545165e-01	2.464176e-01
021	dACC	RAG	6.862657e-02	1.571139e-01
021	dACC	RAG1	2.256043e-01	2.065656e-01
021	dACC	RAG2	1.415712e-01	1.003526e-01
022	dACC	Insula	1.110849e-01	2.832428e-02
022	dACC	Insula1	1.212084e-01	3.159294e-02
022	dACC	Insula2	1.232533e-01	3.100114e-02
022	dACC	Insula3	4.569054e-02	4.720071e-02
022	dACC	Insula4	1.675448e-01	9.029495e-02
022	dACC	RInsula	2.163520e-02	1.203692e-02
022	dACC	RInsula1	6.378333e-02	1.125488e-01
022	dACC	SPL	1.137558e-01	1.982562e-02
022	dACC	SPL1	2.948854e-02	9.401792e-02
022	dACC	SPL2	1.516991e-01	2.514384e-02
022	dACC	RMFG	6.461827e-02	2.189149e-02
022	dACC	RMFG1	1.347308e-01	1.089822e-01
022	dACC	RMFG2	6.616180e-02	-3.309532e-03
022	dACC	RTempPole	5.462857e-02	1.360286e-02
022	dACC	RTempPole1	2.019255e-01	8.080594e-03
022	dACC	RPrec	-8.744592e-05	2.905999e-02
022	dACC	RPrec1	8.946493e-02	2.908562e-02
022	dACC	RPrec2	1.379382e-01	-3.869697e-03
022	dACC	MTG	1.189880e-01	2.721440e-02
022	dACC	MTG1	7.449068e-02	-6.407299e-04
022	dACC	ACing	-2.475156e-02	-7.466302e-02
022	dACC	ACing1	-8.345543e-02	9.632566e-02
022	dACC	LAG	4.755152e-02	-1.397179e-02
022	dACC	LAG1	1.215673e-01	8.499305e-03
022	dACC	LAG2	1.823857e-01	-2.660509e-02
022	dACC	LAG3	1.032998e-01	2.011131e-02
022	dACC	LAG4	-8.098322e-02	1.350982e-01
022	dACC	RAG	3.639093e-02	5.752310e-02
022	dACC	RAG1	1.410203e-01	1.224169e-01
022	dACC	RAG2	1.078565e-01	6.944421e-02
023	dACC	Insula	3.415556e-01	2.244762e-01
023	dACC	Insula1	3.822295e-01	-1.846402e-01
023	dACC	Insula2	3.595992e-01	8.620609e-02
023	dACC	Insula3	2.470159e-01	-6.923990e-02
023	dACC	Insula4	4.358335e-01	4.275545e-02
023	dACC	RInsula	2.370886e-01	7.864489e-02
023	dACC	RInsula1	1.360204e-01	-5.305541e-02
023	dACC	SPL	3.542261e-01	2.525494e-01
023	dACC	SPL1	4.413682e-01	7.148291e-02
023	dACC	SPL2	3.057835e-01	2.504810e-01
023	dACC	RMFG	2.787445e-01	-7.397355e-02
023	dACC	RMFG1	3.699698e-01	3.162813e-01
023	dACC	RMFG2	1.956631e-02	-1.530276e-02
023	dACC	RTempPole	-1.208533e-01	-5.047048e-02
023	dACC	RTempPole1	2.057140e-01	2.744319e-02
023	dACC	RPrec	2.576560e-01	-2.419859e-01
023	dACC	RPrec1	3.656233e-01	7.950233e-02
023	dACC	RPrec2	3.694252e-01	-8.516348e-02
023	dACC	MTG	-2.252522e-03	-1.783811e-01
023	dACC	MTG1	-7.173717e-03	-1.506544e-01
023	dACC	ACing	8.835559e-02	-3.603427e-01
023	dACC	ACing1	-8.695429e-02	-4.552211e-01
023	dACC	LAG	2.518334e-01	-1.720506e-02
023	dACC	LAG1	2.875065e-01	-6.474270e-02
023	dACC	LAG2	2.791930e-01	-1.889432e-01
023	dACC	LAG3	3.773435e-01	-3.415823e-01
023	dACC	LAG4	3.431261e-01	-1.752875e-01
023	dACC	RAG	4.167812e-01	6.214055e-02
023	dACC	RAG1	3.743023e-01	1.327266e-01
023	dACC	RAG2	2.785252e-01	-1.455767e-01
024	dACC	Insula	1.316864e-01	1.680157e-01
024	dACC	Insula1	2.525686e-01	2.326955e-02
024	dACC	Insula2	2.217914e-01	-7.233877e-02
024	dACC	Insula3	4.516712e-02	-1.924081e-01
024	dACC	Insula4	1.573122e-01	1.171887e-01
024	dACC	RInsula	-8.943469e-02	-2.014610e-02
024	dACC	RInsula1	-2.093644e-02	7.429195e-02
024	dACC	SPL	9.125949e-02	6.761534e-02
024	dACC	SPL1	2.328829e-01	7.803940e-02
024	dACC	SPL2	1.246997e-01	3.392633e-02
024	dACC	RMFG	-6.004171e-02	-3.005777e-01
024	dACC	RMFG1	-1.494664e-01	-7.325999e-02
024	dACC	RMFG2	-1.767504e-01	1.096687e-01
024	dACC	RTempPole	2.297598e-01	2.006315e-01
024	dACC	RTempPole1	1.233821e-01	-7.298529e-02
024	dACC	RPrec	5.050554e-01	1.284099e-01
024	dACC	RPrec1	1.158320e-01	-2.262022e-01
024	dACC	RPrec2	3.450088e-02	-2.267793e-01
024	dACC	MTG	1.735286e-02	-8.069261e-02
024	dACC	MTG1	-1.605544e-01	1.581805e-01
024	dACC	ACing	-3.289268e-01	-9.280813e-02
024	dACC	ACing1	-2.906251e-01	2.058262e-01
024	dACC	LAG	2.843662e-01	3.671555e-02
024	dACC	LAG1	-4.555985e-03	-1.547281e-01
024	dACC	LAG2	3.097278e-02	-1.414361e-01
024	dACC	LAG3	2.481854e-01	5.587519e-02
024	dACC	LAG4	3.775400e-01	5.252903e-02
024	dACC	RAG	5.344054e-02	2.600293e-03
024	dACC	RAG1	2.737279e-01	7.597333e-02
024	dACC	RAG2	7.749258e-02	2.266101e-02
025	dACC	Insula	1.295282e-01	1.657443e-01
025	dACC	Insula1	5.363345e-02	1.592503e-01
025	dACC	Insula2	-1.992419e-02	1.297238e-01
025	dACC	Insula3	8.622007e-02	3.333313e-01
025	dACC	Insula4	-2.763587e-02	6.384824e-02
025	dACC	RInsula	1.779521e-01	1.480298e-01
025	dACC	RInsula1	1.019029e-01	1.329348e-01
025	dACC	SPL	-1.246752e-02	-1.111286e-01
025	dACC	SPL1	2.223035e-02	-5.857350e-03
025	dACC	SPL2	4.967454e-02	7.054574e-02
025	dACC	RMFG	6.997782e-02	1.504030e-01
025	dACC	RMFG1	3.151756e-01	1.599936e-01
025	dACC	RMFG2	1.551546e-01	9.476214e-03
025	dACC	RTempPole	7.948596e-02	5.583059e-02
025	dACC	RTempPole1	4.697375e-02	3.554844e-02
025	dACC	RPrec	-1.391874e-01	7.310459e-02
025	dACC	RPrec1	4.965619e-02	3.583325e-02
025	dACC	RPrec2	6.652963e-03	-1.359179e-02
025	dACC	MTG	1.472630e-02	8.290677e-02
025	dACC	MTG1	3.676372e-02	-1.941471e-02
025	dACC	ACing	1.042953e-02	-1.660838e-01
025	dACC	ACing1	2.695512e-01	1.075738e-01
025	dACC	LAG	-2.965690e-02	3.719566e-02
025	dACC	LAG1	4.695605e-02	2.670871e-02
025	dACC	LAG2	1.313361e-01	1.055345e-01
025	dACC	LAG3	5.733899e-02	1.722502e-01
025	dACC	LAG4	-1.079005e-01	3.775038e-02
025	dACC	RAG	-5.790843e-02	1.153151e-01
025	dACC	RAG1	3.976118e-02	1.282706e-01
025	dACC	RAG2	-5.279053e-03	6.330673e-02
027	dACC	Insula	3.323722e-01	-4.199462e-02
027	dACC	Insula1	4.108151e-01	1.347791e-01
027	dACC	Insula2	5.689538e-01	1.514237e-01
027	dACC	Insula3	5.502496e-01	2.737549e-01
027	dACC	Insula4	3.795674e-01	1.857881e-01
027	dACC	RInsula	3.867748e-01	6.293793e-02
027	dACC	RInsula1	2.679994e-01	9.220695e-03
027	dACC	SPL	1.904576e-01	-8.188221e-03
027	dACC	SPL1	1.147122e-01	-1.078779e-01
027	dACC	SPL2	9.624317e-02	-3.089343e-02
027	dACC	RMFG	3.454579e-01	3.938008e-02
027	dACC	RMFG1	1.834129e-01	-4.561192e-02
027	dACC	RMFG2	5.248985e-02	-1.820917e-01
027	dACC	RTempPole	7.893419e-02	1.086056e-01
027	dACC	RTempPole1	5.515238e-02	1.854719e-01
027	dACC	RPrec	2.932169e-01	-6.827531e-02
027	dACC	RPrec1	4.622869e-01	-3.309801e-02
027	dACC	RPrec2	3.381129e-01	-1.286183e-01
027	dACC	MTG	9.168526e-02	8.535613e-02
027	dACC	MTG1	-7.342824e-03	-5.973077e-02
027	dACC	ACing	6.246805e-01	4.633163e-02
027	dACC	ACing1	1.969756e-01	-2.318296e-01
027	dACC	LAG	1.759551e-01	-7.828034e-02
027	dACC	LAG1	2.863335e-01	-1.032905e-01
027	dACC	LAG2	4.838526e-03	-1.305125e-01
027	dACC	LAG3	1.253514e-01	8.105702e-02
027	dACC	LAG4	1.192894e-01	8.017187e-02
027	dACC	RAG	1.490246e-01	-2.517461e-02
027	dACC	RAG1	4.276120e-01	-6.479636e-02
027	dACC	RAG2	5.488528e-02	-1.064420e-01
028	dACC	Insula	1.299975e-01	1.406351e-01
028	dACC	Insula1	7.865028e-02	1.026704e-01
028	dACC	Insula2	9.295057e-02	6.071269e-02
028	dACC	Insula3	4.529964e-02	6.862654e-02
028	dACC	Insula4	-8.354598e-03	1.281259e-01
028	dACC	RInsula	3.684996e-02	5.574041e-02
028	dACC	RInsula1	1.690531e-02	5.483902e-02
028	dACC	SPL	4.901841e-02	3.877957e-02
028	dACC	SPL1	9.671813e-02	4.609182e-02
028	dACC	SPL2	6.523159e-02	4.626760e-02
028	dACC	RMFG	6.281371e-02	7.664172e-02
028	dACC	RMFG1	6.311028e-02	7.550945e-02
028	dACC	RMFG2	1.267472e-01	2.351940e-02
028	dACC	RTempPole	4.504065e-02	-2.545499e-02
028	dACC	RTempPole1	5.531549e-02	1.071592e-01
028	dACC	RPrec	2.736629e-02	2.978059e-03
028	dACC	RPrec1	9.754807e-02	-2.313685e-03
028	dACC	RPrec2	6.901978e-02	-6.757663e-02
028	dACC	MTG	-4.519710e-03	-2.507393e-02
028	dACC	MTG1	5.547215e-02	1.812079e-02
028	dACC	ACing	-2.998147e-02	7.042940e-02
028	dACC	ACing1	1.298768e-01	1.172737e-01
028	dACC	LAG	1.714758e-02	-5.622727e-03
028	dACC	LAG1	4.597792e-02	-3.007909e-02
028	dACC	LAG2	8.211258e-02	3.721049e-03
028	dACC	LAG3	4.179193e-02	-1.148508e-02
028	dACC	LAG4	1.145815e-01	1.542273e-02
028	dACC	RAG	5.827715e-02	1.884088e-02
028	dACC	RAG1	5.104348e-02	3.775888e-02
028	dACC	RAG2	5.630235e-02	6.068224e-03
029	dACC	Insula	8.014432e-01	2.219780e-01
029	dACC	Insula1	5.402371e-01	-6.677475e-02
029	dACC	Insula2	8.240504e-01	6.768212e-02
029	dACC	Insula3	5.344745e-01	-2.686918e-03
029	dACC	Insula4	7.373915e-01	3.331370e-02
029	dACC	RInsula	7.004015e-01	1.616955e-01
029	dACC	RInsula1	9.029106e-01	2.711517e-01
029	dACC	SPL	4.531039e-01	1.747183e-02
029	dACC	SPL1	4.471952e-01	2.016974e-02
029	dACC	SPL2	3.230807e-01	-4.835880e-03
029	dACC	RMFG	3.408460e-01	4.196366e-02
029	dACC	RMFG1	5.946803e-01	5.517652e-02
029	dACC	RMFG2	2.283546e-01	5.868524e-02
029	dACC	RTempPole	2.680011e-01	-1.230432e-01
029	dACC	RTempPole1	2.609148e-01	1.929583e-02
029	dACC	RPrec	3.561848e-01	-9.454742e-02
029	dACC	RPrec1	4.383551e-01	-4.423778e-02
029	dACC	RPrec2	4.913486e-01	-3.796312e-02
029	dACC	MTG	3.454880e-01	1.604582e-01
029	dACC	MTG1	2.637194e-01	3.370628e-02
029	dACC	ACing	2.015672e-01	3.327886e-02
029	dACC	ACing1	1.334048e-01	2.021977e-01
029	dACC	LAG	3.964621e-01	-5.212649e-02
029	dACC	LAG1	2.801930e-01	3.670547e-02
029	dACC	LAG2	1.771993e-01	-1.146595e-01
029	dACC	LAG3	3.842962e-01	-1.722647e-02
029	dACC	LAG4	4.103320e-01	-6.853366e-02
029	dACC	RAG	4.680707e-01	-8.865365e-02
029	dACC	RAG1	4.974327e-01	-2.323887e-02
029	dACC	RAG2	4.208991e-01	-6.621562e-02
030	dACC	Insula	6.736389e-01	1.437489e-01
030	dACC	Insula1	5.554725e-01	1.979736e-01
030	dACC	Insula2	8.854343e-01	1.007816e-01
030	dACC	Insula3	4.005215e-01	-1.798242e-02
030	dACC	Insula4	4.032367e-01	-5.223228e-02
030	dACC	RInsula	4.443771e-01	-1.437851e-01
030	dACC	RInsula1	3.947004e-01	1.426138e-02
030	dACC	SPL	4.141696e-01	-4.536167e-02
030	dACC	SPL1	3.873818e-01	-2.939672e-01
030	dACC	SPL2	5.410178e-01	-4.379258e-02
030	dACC	RMFG	3.562549e-01	1.110486e-01
030	dACC	RMFG1	5.377643e-01	2.307428e-01
030	dACC	RMFG2	2.725155e-01	1.295464e-01
030	dACC	RTempPole	4.314451e-01	3.099388e-01
030	dACC	RTempPole1	4.802426e-01	1.492665e-01
030	dACC	RPrec	2.582524e-01	-1.451656e-01
030	dACC	RPrec1	3.267915e-01	-5.367757e-02
030	dACC	RPrec2	3.080185e-01	2.114122e-03
030	dACC	MTG	4.077586e-01	1.479549e-01
030	dACC	MTG1	3.989448e-01	1.755737e-01
030	dACC	ACing	2.599233e-01	-6.553296e-02
030	dACC	ACing1	1.066127e+00	4.609662e-01
030	dACC	LAG	2.515610e-01	1.702459e-02
030	dACC	LAG1	2.338014e-01	1.082190e-01
030	dACC	LAG2	4.648038e-02	-1.864494e-01
030	dACC	LAG3	2.934343e-01	-9.992513e-02
030	dACC	LAG4	1.915480e-01	-9.589534e-02
030	dACC	RAG	8.656413e-02	4.585546e-02
030	dACC	RAG1	4.643865e-01	1.127140e-01
030	dACC	RAG2	2.491229e-01	-1.561673e-01
031	dACC	Insula	1.311288e-01	2.393564e-02
031	dACC	Insula1	5.560855e-02	1.612483e-01
031	dACC	Insula2	-7.032235e-02	4.374638e-02
031	dACC	Insula3	-2.516202e-04	3.360513e-02
031	dACC	Insula4	6.900443e-02	1.010320e-01
031	dACC	RInsula	3.073791e-01	1.422004e-01
031	dACC	RInsula1	-7.483551e-03	7.117044e-02
031	dACC	SPL	1.334789e-02	-6.666306e-02
031	dACC	SPL1	-6.067811e-02	-1.917917e-02
031	dACC	SPL2	-2.509806e-01	-9.186612e-02
031	dACC	RMFG	-2.268147e-03	-6.940897e-02
031	dACC	RMFG1	5.700605e-02	-5.337301e-03
031	dACC	RMFG2	4.872760e-02	9.318453e-02
031	dACC	RTempPole	9.154778e-02	1.326364e-01
031	dACC	RTempPole1	5.245733e-03	1.032592e-01
031	dACC	RPrec	-4.474364e-02	-1.863947e-01
031	dACC	RPrec1	-1.266656e-01	-9.319714e-02
031	dACC	RPrec2	1.112449e-02	-2.780463e-02
031	dACC	MTG	-2.456449e-01	-2.510782e-02
031	dACC	MTG1	-1.866784e-01	1.043629e-02
031	dACC	ACing	-1.064653e+00	-1.094739e-02
031	dACC	ACing1	-2.644215e-01	1.145297e-01
031	dACC	LAG	1.716319e-01	-3.288654e-02
031	dACC	LAG1	-7.675441e-02	-7.304063e-02
031	dACC	LAG2	3.316642e-03	-5.405504e-02
031	dACC	LAG3	-5.282136e-02	-4.083762e-02
031	dACC	LAG4	1.830940e-02	6.212449e-02
031	dACC	RAG	-2.180041e-02	-1.331468e-01
031	dACC	RAG1	-1.821687e-01	4.298860e-03
031	dACC	RAG2	-1.092397e-01	-4.019191e-02
