Subject	ROI_seed	ROI_target	Cats_rest	Cats_Counting
002	Insula	Insula1	6.357589e-01	2.618249e-01
002	Insula	Insula2	3.258345e-01	2.230368e-02
002	Insula	Insula3	3.905034e-01	9.546969e-02
002	Insula	Insula4	5.276253e-01	1.548590e-01
002	Insula	dACC	8.662880e-01	6.156246e-01
002	Insula	RInsula	5.718123e-01	4.286747e-02
002	Insula	RInsula1	5.122624e-01	-3.610746e-02
002	Insula	SPL	4.972831e-01	-3.385511e-02
002	Insula	SPL1	5.782712e-01	2.344598e-01
002	Insula	SPL2	4.522565e-01	-2.583850e-02
002	Insula	RMFG	4.446715e-01	-8.466332e-02
002	Insula	RMFG1	3.342972e-01	-1.355985e-01
002	Insula	RMFG2	3.138694e-01	-7.865134e-03
002	Insula	RTempPole	3.436224e-01	3.753396e-01
002	Insula	RTempPole1	5.019735e-01	4.335691e-01
002	Insula	RPrec	5.838591e-01	3.450465e-01
002	Insula	RPrec1	4.260605e-01	2.371235e-01
002	Insula	RPrec2	6.039893e-01	3.560258e-01
002	Insula	MTG	3.548263e-01	4.129216e-01
002	Insula	MTG1	2.762290e-01	4.342407e-01
002	Insula	ACing	-3.986651e-01	-3.082063e-01
002	Insula	ACing1	3.920578e-01	3.303704e-01
002	Insula	LAG	5.194527e-01	4.091458e-01
002	Insula	LAG1	5.407369e-01	7.104434e-01
002	Insula	LAG2	4.910901e-01	3.289265e-01
002	Insula	LAG3	5.527221e-01	7.763627e-01
002	Insula	LAG4	3.256165e-01	2.157843e-01
002	Insula	RAG	3.329449e-01	3.354745e-01
002	Insula	RAG1	6.799438e-01	-2.965627e-03
002	Insula	RAG2	4.850146e-01	3.163463e-01
003	Insula	Insula1	5.202797e-02	1.307209e-01
003	Insula	Insula2	-1.346528e-02	-1.023085e-01
003	Insula	Insula3	7.321223e-02	5.505528e-02
003	Insula	Insula4	6.115542e-02	1.301145e-01
003	Insula	dACC	2.744308e-01	-1.011652e-01
003	Insula	RInsula	5.479433e-02	-1.414251e-01
003	Insula	RInsula1	1.279894e-02	6.440293e-02
003	Insula	SPL	-2.405833e-02	-1.296946e-01
003	Insula	SPL1	-1.433873e-02	-7.602211e-02
003	Insula	SPL2	1.004305e-01	-2.100139e-01
003	Insula	RMFG	3.135575e-02	4.668705e-02
003	Insula	RMFG1	8.900042e-02	1.438084e-01
003	Insula	RMFG2	9.672338e-02	-4.521418e-02
003	Insula	RTempPole	-1.320982e-01	-8.654133e-02
003	Insula	RTempPole1	-3.882047e-04	-1.642553e-01
003	Insula	RPrec	4.924709e-02	-2.505122e-01
003	Insula	RPrec1	-9.223859e-04	-1.211381e-01
003	Insula	RPrec2	9.778084e-02	1.893261e-02
003	Insula	MTG	-9.818894e-02	-6.819108e-02
003	Insula	MTG1	1.865844e-03	6.292658e-02
003	Insula	ACing	-8.321487e-01	5.313910e-02
003	Insula	ACing1	-4.939958e-02	3.285884e-01
003	Insula	LAG	-1.555095e-02	-9.968040e-02
003	Insula	LAG1	6.263629e-02	-1.352924e-01
003	Insula	LAG2	7.610904e-02	-1.166930e-03
003	Insula	LAG3	1.566764e-01	1.105018e-01
003	Insula	LAG4	5.726742e-02	-1.176148e-01
003	Insula	RAG	-6.127156e-02	-1.161082e-01
003	Insula	RAG1	1.758334e-02	-6.023557e-02
003	Insula	RAG2	4.486164e-02	-7.681475e-02
004	Insula	Insula1	3.599552e-01	-9.386891e-02
004	Insula	Insula2	6.134038e-01	2.775820e-01
004	Insula	Insula3	1.520176e-01	-4.525457e-02
004	Insula	Insula4	3.701630e-01	-1.054886e-01
004	Insula	dACC	2.715907e-02	1.522977e-01
004	Insula	RInsula	7.122634e-02	-1.434323e-01
004	Insula	RInsula1	4.506061e-01	5.115936e-02
004	Insula	SPL	5.469164e-02	-1.527130e-01
004	Insula	SPL1	3.176348e-01	-1.085681e-02
004	Insula	SPL2	1.927947e-01	-1.890653e-01
004	Insula	RMFG	-5.767644e-02	-3.864568e-01
004	Insula	RMFG1	1.608627e-01	3.243723e-02
004	Insula	RMFG2	7.255557e-03	2.000549e-01
004	Insula	RTempPole	-2.738435e-02	-3.043094e-01
004	Insula	RTempPole1	-3.294618e-01	-1.094307e-01
004	Insula	RPrec	2.481370e-01	3.492435e-02
004	Insula	RPrec1	-2.182262e-01	3.849725e-02
004	Insula	RPrec2	-3.247378e-02	2.131629e-01
004	Insula	MTG	-4.312917e-01	-1.571314e-01
004	Insula	MTG1	-7.706230e-02	4.032286e-03
004	Insula	ACing	-2.724007e-02	1.827106e-01
004	Insula	ACing1	2.878557e-01	5.482229e-01
004	Insula	LAG	1.092521e-02	-1.094548e-01
004	Insula	LAG1	1.939162e-01	3.695065e-01
004	Insula	LAG2	-2.569715e-03	-2.891974e-02
004	Insula	LAG3	5.270210e-01	5.627616e-01
004	Insula	LAG4	2.415592e-01	4.873331e-02
004	Insula	RAG	-4.744847e-02	9.365269e-02
004	Insula	RAG1	2.165309e-02	-1.269674e-01
004	Insula	RAG2	-7.922198e-02	-1.660431e-01
005	Insula	Insula1	2.116833e-01	-2.110771e-01
005	Insula	Insula2	6.882007e-01	-2.476740e-01
005	Insula	Insula3	2.454721e-01	-1.975205e-01
005	Insula	Insula4	2.839122e-01	-2.468369e-01
005	Insula	dACC	4.702576e-01	-2.064315e-01
005	Insula	RInsula	3.794717e-01	-1.770158e-01
005	Insula	RInsula1	3.080550e-01	-8.679570e-02
005	Insula	SPL	1.562038e-01	-3.802027e-01
005	Insula	SPL1	1.236884e-04	-2.987261e-01
005	Insula	SPL2	1.843894e-01	-3.126359e-01
005	Insula	RMFG	1.958185e-01	-2.389024e-01
005	Insula	RMFG1	5.222225e-01	-7.867063e-02
005	Insula	RMFG2	1.903616e-01	-1.212793e-01
005	Insula	RTempPole	-1.256694e-02	2.633398e-02
005	Insula	RTempPole1	3.963151e-01	-8.747438e-02
005	Insula	RPrec	2.111939e-01	3.644079e-02
005	Insula	RPrec1	1.454831e-01	4.166928e-03
005	Insula	RPrec2	1.593542e-01	4.457515e-02
005	Insula	MTG	6.197507e-02	3.454823e-02
005	Insula	MTG1	5.227168e-02	7.453932e-02
005	Insula	ACing	1.729122e-01	2.915506e-01
005	Insula	ACing1	1.054871e-01	1.563091e-01
005	Insula	LAG	1.064554e-01	7.239826e-02
005	Insula	LAG1	3.882889e-02	-6.573070e-03
005	Insula	LAG2	-2.800645e-01	1.921433e-02
005	Insula	LAG3	8.539359e-02	1.165824e-01
005	Insula	LAG4	-1.171494e-01	-2.278031e-01
005	Insula	RAG	1.095268e-01	-1.370704e-01
005	Insula	RAG1	-1.217982e-01	-1.676721e-01
005	Insula	RAG2	4.123214e-02	-1.411463e-01
006	Insula	Insula1	2.787021e-01	3.720501e-02
006	Insula	Insula2	5.670804e-01	7.038328e-03
006	Insula	Insula3	-5.647161e-02	-5.414004e-02
006	Insula	Insula4	2.515315e-01	-2.294031e-02
006	Insula	dACC	1.945121e-01	1.621927e-01
006	Insula	RInsula	7.860053e-02	1.196587e-01
006	Insula	RInsula1	3.153633e-01	8.515433e-02
006	Insula	SPL	2.350695e-01	8.302562e-02
006	Insula	SPL1	3.347029e-02	-2.126371e-02
006	Insula	SPL2	1.807489e-01	-6.037802e-02
006	Insula	RMFG	2.054462e-03	-1.898197e-02
006	Insula	RMFG1	2.006351e-01	4.283785e-02
006	Insula	RMFG2	2.662408e-01	7.763192e-02
006	Insula	RTempPole	-4.472873e-02	-3.647552e-04
006	Insula	RTempPole1	9.892685e-02	-2.021763e-01
006	Insula	RPrec	-9.218783e-03	-3.110103e-02
006	Insula	RPrec1	5.676924e-02	-1.744516e-02
006	Insula	RPrec2	9.125060e-02	-2.852441e-02
006	Insula	MTG	2.511327e-01	2.227338e-02
006	Insula	MTG1	2.613736e-01	5.599152e-02
006	Insula	ACing	1.962880e-01	8.223628e-02
006	Insula	ACing1	-7.530614e-02	1.406625e-01
006	Insula	LAG	2.247221e-01	5.585757e-02
006	Insula	LAG1	1.197347e-01	2.680840e-02
006	Insula	LAG2	2.565811e-01	3.707796e-02
006	Insula	LAG3	2.331835e-01	-1.607066e-02
006	Insula	LAG4	6.541777e-03	1.134364e-02
006	Insula	RAG	8.046030e-02	8.497847e-02
006	Insula	RAG1	2.131709e-01	8.704800e-02
006	Insula	RAG2	7.175118e-02	-4.239913e-02
007	Insula	Insula1	3.566816e-01	3.447425e-01
007	Insula	Insula2	6.152536e-01	7.480275e-01
007	Insula	Insula3	1.212847e-01	8.128545e-02
007	Insula	Insula4	2.505016e-01	2.680386e-01
007	Insula	dACC	2.271239e-01	4.472180e-01
007	Insula	RInsula	2.141768e-01	3.995337e-01
007	Insula	RInsula1	2.021779e-01	2.295306e-01
007	Insula	SPL	2.223476e-01	3.024367e-01
007	Insula	SPL1	3.780052e-01	5.481907e-01
007	Insula	SPL2	3.433919e-01	2.581315e-01
007	Insula	RMFG	8.379592e-02	1.412247e-01
007	Insula	RMFG1	1.035488e-01	1.123281e-01
007	Insula	RMFG2	3.691041e-02	2.247144e-02
007	Insula	RTempPole	-2.678853e-01	-9.342512e-02
007	Insula	RTempPole1	-1.091343e-01	4.977280e-02
007	Insula	RPrec	1.506856e-01	2.508251e-01
007	Insula	RPrec1	1.025655e-01	2.588113e-01
007	Insula	RPrec2	1.818820e-01	1.960035e-01
007	Insula	MTG	8.793955e-02	1.675733e-01
007	Insula	MTG1	-1.831422e-02	4.723092e-02
007	Insula	ACing	-6.259654e-02	-5.493667e-02
007	Insula	ACing1	-1.869106e-01	-2.316528e-01
007	Insula	LAG	1.356735e-01	2.420457e-01
007	Insula	LAG1	3.277037e-01	3.475601e-01
007	Insula	LAG2	1.525280e-01	2.399658e-01
007	Insula	LAG3	1.113450e-01	3.065656e-01
007	Insula	LAG4	1.184140e-01	1.500086e-01
007	Insula	RAG	1.755535e-03	1.773837e-01
007	Insula	RAG1	2.647606e-01	4.151873e-01
007	Insula	RAG2	2.136670e-01	1.593264e-01
008	Insula	Insula1	1.382736e-01	2.010108e-01
008	Insula	Insula2	3.589345e-01	2.705925e-01
008	Insula	Insula3	7.278199e-02	5.847457e-02
008	Insula	Insula4	2.024723e-01	2.358586e-01
008	Insula	dACC	1.070148e-01	-1.547708e-01
008	Insula	RInsula	2.648810e-01	2.353533e-01
008	Insula	RInsula1	-4.500990e-02	9.851853e-02
008	Insula	SPL	6.431787e-02	-6.594934e-02
008	Insula	SPL1	1.318544e-01	-1.863031e-02
008	Insula	SPL2	5.503252e-02	-9.955263e-02
008	Insula	RMFG	1.148346e-01	1.016371e-01
008	Insula	RMFG1	-2.140149e-01	-3.507819e-01
008	Insula	RMFG2	9.729037e-02	2.735195e-02
008	Insula	RTempPole	7.917157e-02	-1.488021e-01
008	Insula	RTempPole1	7.530061e-02	-1.260467e-01
008	Insula	RPrec	1.195363e-01	1.557073e-02
008	Insula	RPrec1	8.838228e-02	-1.577939e-01
008	Insula	RPrec2	1.457713e-01	5.689804e-03
008	Insula	MTG	2.387700e-02	4.758767e-04
008	Insula	MTG1	1.222725e-01	-5.807881e-02
008	Insula	ACing	-7.232963e-02	2.785121e-02
008	Insula	ACing1	2.399476e-01	1.153673e-01
008	Insula	LAG	8.112323e-02	7.640497e-03
008	Insula	LAG1	7.081648e-02	-8.974893e-02
008	Insula	LAG2	1.649351e-01	1.049346e-01
008	Insula	LAG3	1.353293e-01	-1.473288e-01
008	Insula	LAG4	1.798270e-01	8.264341e-02
008	Insula	RAG	4.293291e-02	-8.242047e-02
008	Insula	RAG1	3.026131e-02	-1.465405e-01
008	Insula	RAG2	4.598802e-02	-1.560348e-01
009	Insula	Insula1	3.588705e-01	1.036735e-01
009	Insula	Insula2	3.734744e-01	1.429884e-01
009	Insula	Insula3	2.320479e-01	9.163760e-02
009	Insula	Insula4	4.146896e-01	2.112552e-01
009	Insula	dACC	6.401265e-02	1.118842e-01
009	Insula	RInsula	3.160228e-01	-2.485271e-02
009	Insula	RInsula1	3.072115e-01	1.228950e-01
009	Insula	SPL	6.105485e-02	-9.355964e-03
009	Insula	SPL1	1.684823e-01	4.590614e-02
009	Insula	SPL2	2.325610e-01	4.608882e-02
009	Insula	RMFG	3.022331e-01	7.054938e-02
009	Insula	RMFG1	1.619737e-01	1.498488e-01
009	Insula	RMFG2	1.280976e-01	-3.448092e-02
009	Insula	RTempPole	-1.320698e-01	-7.721650e-03
009	Insula	RTempPole1	3.633250e-02	1.720792e-01
009	Insula	RPrec	1.918505e-03	9.813319e-02
009	Insula	RPrec1	-4.838456e-03	3.355707e-01
009	Insula	RPrec2	1.355208e-02	1.670378e-01
009	Insula	MTG	6.945193e-02	1.050224e-01
009	Insula	MTG1	2.436715e-02	1.808865e-01
009	Insula	ACing	8.547273e-02	1.008917e-01
009	Insula	ACing1	1.471401e-01	2.537455e-01
009	Insula	LAG	9.717425e-02	2.237297e-01
009	Insula	LAG1	1.484327e-01	2.170544e-01
009	Insula	LAG2	9.820029e-02	1.672577e-01
009	Insula	LAG3	1.356382e-01	1.687314e-01
009	Insula	LAG4	2.041536e-01	2.617708e-01
009	Insula	RAG	1.280352e-01	1.815044e-01
009	Insula	RAG1	7.806340e-02	1.805645e-01
009	Insula	RAG2	2.551656e-02	-6.763812e-02
011	Insula	Insula1	-2.356160e-02	-3.058047e-03
011	Insula	Insula2	1.976207e-01	2.001032e-02
011	Insula	Insula3	3.766541e-02	-1.152573e-01
011	Insula	Insula4	4.188148e-01	2.403944e-01
011	Insula	dACC	-1.315507e-01	4.292346e-02
011	Insula	RInsula	2.808466e-01	1.366908e-01
011	Insula	RInsula1	3.134213e-01	1.003309e-01
011	Insula	SPL	-1.609964e-02	-6.717739e-02
011	Insula	SPL1	8.826398e-02	2.641933e-02
011	Insula	SPL2	1.160153e-01	-4.060971e-01
011	Insula	RMFG	1.818902e-01	2.741756e-02
011	Insula	RMFG1	2.467233e-01	-1.108294e-01
011	Insula	RMFG2	2.154018e-01	-1.233792e-01
011	Insula	RTempPole	-2.108387e-01	7.115035e-02
011	Insula	RTempPole1	4.168422e-02	4.956923e-02
011	Insula	RPrec	1.779085e-01	2.814714e-01
011	Insula	RPrec1	-3.994872e-02	1.590355e-01
011	Insula	RPrec2	1.227337e-01	1.584501e-01
011	Insula	MTG	1.103445e-01	1.807187e-01
011	Insula	MTG1	-3.402119e-02	1.791615e-01
011	Insula	ACing	3.091355e-01	3.690224e-02
011	Insula	ACing1	3.186451e-01	1.327139e-01
011	Insula	LAG	5.183701e-02	-6.825558e-02
011	Insula	LAG1	1.517756e-01	1.197121e-01
011	Insula	LAG2	-2.104517e-01	-6.894231e-02
011	Insula	LAG3	1.471912e-01	-9.373464e-02
011	Insula	LAG4	1.510003e-01	-1.790129e-01
011	Insula	RAG	-1.457325e-01	-3.105237e-02
011	Insula	RAG1	9.130191e-02	6.918313e-02
011	Insula	RAG2	1.940338e-02	2.390643e-01
012	Insula	Insula1	6.936219e-01	1.095021e-01
012	Insula	Insula2	5.288129e-01	2.778100e-01
012	Insula	Insula3	4.085060e-01	3.071743e-01
012	Insula	Insula4	6.534016e-01	2.792088e-01
012	Insula	dACC	1.799545e-01	5.645554e-02
012	Insula	RInsula	3.462014e-01	7.646372e-02
012	Insula	RInsula1	2.716430e-01	1.069883e-01
012	Insula	SPL	1.169103e-01	-2.192094e-02
012	Insula	SPL1	1.980587e-01	3.497003e-02
012	Insula	SPL2	3.703302e-02	-3.181826e-01
012	Insula	RMFG	-1.246757e-02	2.061828e-01
012	Insula	RMFG1	4.504812e-01	1.393442e-01
012	Insula	RMFG2	2.279099e-01	2.909985e-02
012	Insula	RTempPole	1.268802e-01	-9.088103e-02
012	Insula	RTempPole1	-1.052168e-01	-1.165124e-01
012	Insula	RPrec	2.451802e-01	1.334413e-01
012	Insula	RPrec1	2.153922e-01	7.398918e-02
012	Insula	RPrec2	1.231107e-01	-1.154430e-01
012	Insula	MTG	2.088513e-02	5.292778e-02
012	Insula	MTG1	1.548874e-02	3.832469e-02
012	Insula	ACing	1.007489e+00	1.064600e-01
012	Insula	ACing1	4.296634e-01	1.674377e-01
012	Insula	LAG	1.801038e-01	-8.366914e-02
012	Insula	LAG1	1.083746e-01	4.780604e-03
012	Insula	LAG2	-2.986107e-02	-9.014469e-02
012	Insula	LAG3	6.901573e-02	-2.828757e-02
012	Insula	LAG4	3.239505e-01	6.242664e-02
012	Insula	RAG	1.245540e-01	2.072495e-02
012	Insula	RAG1	1.582945e-01	-4.753002e-02
012	Insula	RAG2	1.538349e-01	-8.700514e-03
017	Insula	Insula1	1.806144e-01	4.691025e-02
017	Insula	Insula2	1.175130e-01	-9.099404e-04
017	Insula	Insula3	1.070887e-01	1.237815e-01
017	Insula	Insula4	1.408253e-01	-1.040855e-01
017	Insula	dACC	-4.101171e-02	-1.033761e-01
017	Insula	RInsula	1.052631e-01	3.995636e-02
017	Insula	RInsula1	2.844046e-01	-3.028692e-02
017	Insula	SPL	1.154122e-01	8.651340e-02
017	Insula	SPL1	1.965506e-01	9.047961e-02
017	Insula	SPL2	5.249559e-01	2.385904e-01
017	Insula	RMFG	1.572695e-01	-5.997671e-03
017	Insula	RMFG1	7.564248e-02	-1.805851e-01
017	Insula	RMFG2	2.621474e-02	-6.138150e-02
017	Insula	RTempPole	-3.468293e-03	1.215032e-01
017	Insula	RTempPole1	1.479165e-01	-8.404593e-02
017	Insula	RPrec	1.400868e-01	7.113630e-02
017	Insula	RPrec1	2.840635e-01	1.584821e-01
017	Insula	RPrec2	2.251009e-01	1.812315e-01
017	Insula	MTG	-2.440894e-02	-1.051749e-02
017	Insula	MTG1	-6.001424e-04	3.402144e-02
017	Insula	ACing	-1.014300e-01	2.938002e-01
017	Insula	ACing1	-1.236943e-01	-1.042279e-01
017	Insula	LAG	1.901566e-01	1.901444e-01
017	Insula	LAG1	-3.059093e-02	-1.186853e-01
017	Insula	LAG2	3.387457e-01	1.457859e-01
017	Insula	LAG3	2.731672e-01	2.162297e-01
017	Insula	LAG4	1.964841e-01	1.267756e-01
017	Insula	RAG	2.742193e-01	1.051349e-01
017	Insula	RAG1	-1.446270e-02	-1.173111e-01
017	Insula	RAG2	1.216007e-01	-3.290085e-02
012	Insula	Insula1	6.936219e-01	1.095021e-01
012	Insula	Insula2	5.288129e-01	2.778100e-01
012	Insula	Insula3	4.085060e-01	3.071743e-01
012	Insula	Insula4	6.534016e-01	2.792088e-01
012	Insula	dACC	1.799545e-01	5.645554e-02
012	Insula	RInsula	3.462014e-01	7.646372e-02
012	Insula	RInsula1	2.716430e-01	1.069883e-01
012	Insula	SPL	1.169103e-01	-2.192094e-02
012	Insula	SPL1	1.980587e-01	3.497003e-02
012	Insula	SPL2	3.703302e-02	-3.181826e-01
012	Insula	RMFG	-1.246757e-02	2.061828e-01
012	Insula	RMFG1	4.504812e-01	1.393442e-01
012	Insula	RMFG2	2.279099e-01	2.909985e-02
012	Insula	RTempPole	1.268802e-01	-9.088103e-02
012	Insula	RTempPole1	-1.052168e-01	-1.165124e-01
012	Insula	RPrec	2.451802e-01	1.334413e-01
012	Insula	RPrec1	2.153922e-01	7.398918e-02
012	Insula	RPrec2	1.231107e-01	-1.154430e-01
012	Insula	MTG	2.088513e-02	5.292778e-02
012	Insula	MTG1	1.548874e-02	3.832469e-02
012	Insula	ACing	1.007489e+00	1.064600e-01
012	Insula	ACing1	4.296634e-01	1.674377e-01
012	Insula	LAG	1.801038e-01	-8.366914e-02
012	Insula	LAG1	1.083746e-01	4.780604e-03
012	Insula	LAG2	-2.986107e-02	-9.014469e-02
012	Insula	LAG3	6.901573e-02	-2.828757e-02
012	Insula	LAG4	3.239505e-01	6.242664e-02
012	Insula	RAG	1.245540e-01	2.072495e-02
012	Insula	RAG1	1.582945e-01	-4.753002e-02
012	Insula	RAG2	1.538349e-01	-8.700514e-03
013	Insula	Insula1	5.711901e-01	1.243580e-01
013	Insula	Insula2	5.376185e-01	8.541384e-02
013	Insula	Insula3	3.425640e-01	3.959342e-02
013	Insula	Insula4	6.412691e-01	1.125334e-01
013	Insula	dACC	1.835281e-01	-2.215519e-02
013	Insula	RInsula	1.797489e-01	-5.422570e-02
013	Insula	RInsula1	3.717495e-01	1.874688e-01
013	Insula	SPL	6.325237e-01	-2.030334e-01
013	Insula	SPL1	4.159483e-01	-1.382082e-01
013	Insula	SPL2	2.213212e-01	-1.212797e-01
013	Insula	RMFG	5.012492e-01	-6.460607e-02
013	Insula	RMFG1	3.792171e-01	-2.272126e-02
013	Insula	RMFG2	3.170462e-01	-1.963963e-01
013	Insula	RTempPole	2.202380e-01	9.625084e-02
013	Insula	RTempPole1	2.372317e-01	3.600928e-02
013	Insula	RPrec	3.633198e-01	3.063349e-01
013	Insula	RPrec1	3.656493e-01	5.174492e-01
013	Insula	RPrec2	5.011196e-01	7.577699e-01
013	Insula	MTG	3.399475e-01	2.297881e-01
013	Insula	MTG1	2.400254e-01	1.836845e-01
013	Insula	ACing	3.239851e-01	5.826268e-01
013	Insula	ACing1	2.775211e-01	2.015333e-01
013	Insula	LAG	4.714494e-01	2.415421e-01
013	Insula	LAG1	2.427723e-01	1.714620e-01
013	Insula	LAG2	2.336427e-01	3.233708e-01
013	Insula	LAG3	2.452455e-01	5.636447e-02
013	Insula	LAG4	3.407660e-01	1.311308e-01
013	Insula	RAG	1.917122e-01	1.198951e-01
013	Insula	RAG1	4.508204e-01	5.216023e-02
013	Insula	RAG2	3.496395e-01	-9.253444e-02
014	Insula	Insula1	2.054863e-01	5.954631e-02
014	Insula	Insula2	3.978815e-01	-2.051215e-02
014	Insula	Insula3	1.040019e-01	-9.379831e-03
014	Insula	Insula4	7.967897e-02	-1.823139e-01
014	Insula	dACC	3.579069e-01	-1.982601e-01
014	Insula	RInsula	2.033477e-01	9.065864e-02
014	Insula	RInsula1	2.434078e-01	1.619864e-02
014	Insula	SPL	1.481113e-01	4.260746e-02
014	Insula	SPL1	1.996701e-01	-4.813384e-02
014	Insula	SPL2	1.842738e-01	-2.598087e-03
014	Insula	RMFG	2.562120e-01	2.211718e-02
014	Insula	RMFG1	1.794500e-01	-1.150733e-01
014	Insula	RMFG2	8.745546e-02	2.090110e-03
014	Insula	RTempPole	-4.831705e-02	-1.858012e-01
014	Insula	RTempPole1	1.579781e-01	-9.760548e-02
014	Insula	RPrec	1.901308e-02	-1.307851e-01
014	Insula	RPrec1	1.117710e-01	-1.138100e-01
014	Insula	RPrec2	2.008409e-01	-2.522662e-02
014	Insula	MTG	4.278801e-02	4.793492e-04
014	Insula	MTG1	1.248227e-01	-1.238558e-02
014	Insula	ACing	-4.613193e-01	-7.647167e-01
014	Insula	ACing1	-2.934716e-02	8.091959e-02
014	Insula	LAG	3.670673e-02	-4.961493e-02
014	Insula	LAG1	7.699122e-02	-8.048635e-02
014	Insula	LAG2	9.851243e-02	-1.092731e-01
014	Insula	LAG3	1.218796e-01	-9.771300e-02
014	Insula	LAG4	4.504180e-02	-2.244276e-01
014	Insula	RAG	9.020616e-02	-9.692240e-02
014	Insula	RAG1	1.027103e-01	-1.147624e-01
014	Insula	RAG2	8.967214e-02	-1.259920e-01
015	Insula	Insula1	7.719715e-01	5.109755e-02
015	Insula	Insula2	4.281929e-01	-1.865251e-01
015	Insula	Insula3	3.164287e-01	1.187348e-01
015	Insula	Insula4	6.031847e-01	1.035511e-01
015	Insula	dACC	3.208810e-01	1.040549e-01
015	Insula	RInsula	5.115446e-01	1.306850e-01
015	Insula	RInsula1	6.062651e-01	3.234580e-01
015	Insula	SPL	1.268786e-01	-1.598747e-01
015	Insula	SPL1	4.188982e-01	-1.388135e-01
015	Insula	SPL2	2.119626e-01	-1.027597e-01
015	Insula	RMFG	3.991289e-01	1.469140e-01
015	Insula	RMFG1	5.629198e-01	2.545325e-01
015	Insula	RMFG2	3.070164e-01	6.553367e-03
015	Insula	RTempPole	2.140775e-01	-1.080978e-01
015	Insula	RTempPole1	1.500380e-01	1.043167e-01
015	Insula	RPrec	1.926895e-01	-8.095744e-02
015	Insula	RPrec1	5.272775e-02	-8.760943e-03
015	Insula	RPrec2	3.044209e-01	1.283150e-01
015	Insula	MTG	2.169020e-01	6.178894e-02
015	Insula	MTG1	2.640535e-01	2.705322e-02
015	Insula	ACing	-8.673924e-02	-8.316699e-02
015	Insula	ACing1	3.418765e-02	-3.450550e-01
015	Insula	LAG	2.966522e-01	2.418322e-02
015	Insula	LAG1	3.615610e-01	1.863700e-01
015	Insula	LAG2	6.600585e-02	-1.310282e-02
015	Insula	LAG3	3.522304e-01	1.116358e-01
015	Insula	LAG4	1.996893e-01	1.190039e-01
015	Insula	RAG	1.086837e-01	1.358162e-02
015	Insula	RAG1	4.133884e-01	2.585106e-03
015	Insula	RAG2	4.480613e-01	1.205983e-01
016	Insula	Insula1	5.719103e-01	3.093415e-01
016	Insula	Insula2	4.693758e-01	1.200959e-01
016	Insula	Insula3	3.954328e-01	5.328110e-02
016	Insula	Insula4	7.224890e-01	3.793446e-01
016	Insula	dACC	3.801313e-01	2.435127e-01
016	Insula	RInsula	1.271354e-01	1.817775e-02
016	Insula	RInsula1	2.857502e-01	-3.145338e-02
016	Insula	SPL	9.143671e-02	3.065347e-02
016	Insula	SPL1	2.447496e-01	6.762667e-02
016	Insula	SPL2	3.071692e-01	-1.407451e-01
016	Insula	RMFG	2.997131e-01	4.528550e-02
016	Insula	RMFG1	4.920736e-01	7.907872e-02
016	Insula	RMFG2	2.424135e-01	1.077037e-01
016	Insula	RTempPole	1.680127e-01	2.794272e-01
016	Insula	RTempPole1	1.656331e-01	-1.414237e-01
016	Insula	RPrec	2.359517e-01	2.996907e-01
016	Insula	RPrec1	1.078841e-01	3.080566e-01
016	Insula	RPrec2	2.016090e-01	3.839061e-01
016	Insula	MTG	1.851356e-01	1.683125e-01
016	Insula	MTG1	7.599102e-02	2.164308e-01
016	Insula	ACing	7.296847e-02	1.341309e-01
016	Insula	ACing1	1.456182e-01	1.789533e-01
016	Insula	LAG	2.833138e-01	5.803582e-02
016	Insula	LAG1	9.250511e-02	2.404947e-01
016	Insula	LAG2	1.754076e-01	4.195145e-01
016	Insula	LAG3	2.018568e-01	2.893541e-01
016	Insula	LAG4	1.741963e-01	2.785498e-01
016	Insula	RAG	5.342938e-02	2.637155e-01
016	Insula	RAG1	1.561856e-01	1.460251e-03
016	Insula	RAG2	6.433136e-02	-6.824993e-02
018	Insula	Insula1	6.682283e-01	3.656401e-01
018	Insula	Insula2	3.349059e-01	2.681414e-01
018	Insula	Insula3	5.911578e-02	1.675355e-02
018	Insula	Insula4	3.472706e-01	4.020898e-02
018	Insula	dACC	9.677062e-02	1.325415e-01
018	Insula	RInsula	5.350351e-01	4.576956e-01
018	Insula	RInsula1	2.659478e-01	6.560336e-02
018	Insula	SPL	9.025294e-02	2.947255e-04
018	Insula	SPL1	9.561042e-02	-6.039649e-02
018	Insula	SPL2	2.189835e-01	-2.079712e-01
018	Insula	RMFG	2.387475e-01	2.280149e-01
018	Insula	RMFG1	1.831858e-01	-3.414213e-02
018	Insula	RMFG2	1.412322e-01	1.570669e-01
018	Insula	RTempPole	-5.107390e-02	-9.873887e-02
018	Insula	RTempPole1	2.996748e-02	6.164082e-02
018	Insula	RPrec	7.018251e-03	8.103077e-02
018	Insula	RPrec1	7.286310e-03	-1.146482e-01
018	Insula	RPrec2	2.252971e-01	-7.887611e-02
018	Insula	MTG	1.619207e-02	4.663523e-02
018	Insula	MTG1	-1.884239e-01	-2.291357e-01
018	Insula	ACing	-1.161218e-01	-4.449038e-02
018	Insula	ACing1	-2.138273e-01	-2.351030e-01
018	Insula	LAG	8.799905e-02	1.233732e-01
018	Insula	LAG1	1.803074e-01	2.615242e-01
018	Insula	LAG2	1.381485e-01	1.135556e-01
018	Insula	LAG3	5.958978e-01	4.688029e-01
018	Insula	LAG4	2.448374e-01	-2.644936e-02
018	Insula	RAG	9.884598e-03	-2.939829e-03
018	Insula	RAG1	1.808821e-01	-2.949905e-01
018	Insula	RAG2	1.250108e-01	-2.144488e-01
019	Insula	Insula1	1.113918e+00	2.015546e-01
019	Insula	Insula2	7.856987e-01	3.216673e-01
019	Insula	Insula3	3.816935e-01	1.182374e-01
019	Insula	Insula4	8.404936e-01	-2.235714e-02
019	Insula	dACC	3.350345e-01	3.130715e-01
019	Insula	RInsula	6.692618e-01	1.094449e-01
019	Insula	RInsula1	4.765375e-01	1.122777e-01
019	Insula	SPL	3.293567e-01	-5.110105e-02
019	Insula	SPL1	7.309429e-01	3.254491e-01
019	Insula	SPL2	1.761527e-01	-5.691326e-02
019	Insula	RMFG	4.491097e-01	-1.265503e-01
019	Insula	RMFG1	9.658395e-01	4.305123e-01
019	Insula	RMFG2	1.611643e-01	-4.057071e-02
019	Insula	RTempPole	5.359143e-02	-2.171964e-01
019	Insula	RTempPole1	1.124631e-01	-7.395520e-03
019	Insula	RPrec	5.224840e-01	6.028071e-01
019	Insula	RPrec1	2.157393e-01	1.367951e-01
019	Insula	RPrec2	4.700263e-01	3.451025e-01
019	Insula	MTG	9.223038e-02	-1.402271e-02
019	Insula	MTG1	1.486760e-02	-3.511715e-02
019	Insula	ACing	-1.696873e-01	1.155792e-01
019	Insula	ACing1	1.059400e-01	4.878616e-01
019	Insula	LAG	3.447000e-01	2.664528e-01
019	Insula	LAG1	1.722550e-01	1.989304e-01
019	Insula	LAG2	2.098203e-01	1.043824e-01
019	Insula	LAG3	3.283659e-01	4.022585e-01
019	Insula	LAG4	6.547366e-01	5.837963e-01
019	Insula	RAG	6.511574e-01	4.873362e-01
019	Insula	RAG1	3.737163e-01	4.205340e-01
019	Insula	RAG2	2.799252e-01	1.901977e-01
020	Insula	Insula1	7.881427e-02	-5.661465e-02
020	Insula	Insula2	1.728244e-01	-1.505397e-02
020	Insula	Insula3	8.670984e-02	-3.134914e-02
020	Insula	Insula4	9.395564e-02	-9.098225e-02
020	Insula	dACC	2.665571e-01	1.307250e-01
020	Insula	RInsula	1.634953e-01	-4.887700e-02
020	Insula	RInsula1	1.388545e-01	-1.265679e-01
020	Insula	SPL	1.426073e-01	-4.466237e-03
020	Insula	SPL1	2.971144e-01	-1.464277e-01
020	Insula	SPL2	7.141167e-02	-9.078047e-02
020	Insula	RMFG	1.967699e-01	-2.110525e-02
020	Insula	RMFG1	2.005295e-01	2.072436e-02
020	Insula	RMFG2	2.161297e-01	1.304120e-02
020	Insula	RTempPole	-9.367319e-02	-1.134799e-01
020	Insula	RTempPole1	-2.670256e-02	-2.008665e-02
020	Insula	RPrec	2.188435e-02	-3.909958e-03
020	Insula	RPrec1	-2.504340e-02	-5.002579e-02
020	Insula	RPrec2	1.326136e-01	9.295801e-02
020	Insula	MTG	1.146883e-01	1.567480e-01
020	Insula	MTG1	-3.605820e-02	1.798047e-02
020	Insula	ACing	-6.272242e-01	1.156679e-01
020	Insula	ACing1	1.297865e-01	-1.220188e-01
020	Insula	LAG	1.753180e-01	-1.567308e-01
020	Insula	LAG1	9.966515e-03	-7.991892e-02
020	Insula	LAG2	1.661139e-01	2.971512e-02
020	Insula	LAG3	5.832818e-02	4.488835e-02
020	Insula	LAG4	9.526471e-02	-2.692207e-01
020	Insula	RAG	2.216126e-01	-4.880543e-02
020	Insula	RAG1	1.526756e-01	-3.859713e-01
020	Insula	RAG2	2.040519e-01	-4.336804e-02
021	Insula	Insula1	4.408611e-01	-8.424952e-02
021	Insula	Insula2	7.750690e-01	4.582260e-01
021	Insula	Insula3	1.815886e-01	-2.889855e-02
021	Insula	Insula4	6.233958e-01	1.546917e-01
021	Insula	dACC	3.267115e-01	-2.107135e-01
021	Insula	RInsula	-2.090233e-02	-1.045306e-01
021	Insula	RInsula1	1.892904e-01	-8.854812e-03
021	Insula	SPL	5.942643e-01	3.453915e-01
021	Insula	SPL1	1.965508e-01	2.071660e-01
021	Insula	SPL2	4.923941e-01	1.948088e-01
021	Insula	RMFG	4.197411e-01	1.153679e-01
021	Insula	RMFG1	2.087844e-01	2.033753e-01
021	Insula	RMFG2	2.249409e-01	-1.384479e-03
021	Insula	RTempPole	1.140126e-01	1.352328e-01
021	Insula	RTempPole1	8.524077e-02	-4.611397e-02
021	Insula	RPrec	4.691224e-01	2.537754e-01
021	Insula	RPrec1	4.414331e-01	2.638535e-01
021	Insula	RPrec2	7.968701e-01	6.517857e-01
021	Insula	MTG	3.984145e-01	1.658369e-01
021	Insula	MTG1	1.776877e-01	7.292654e-02
021	Insula	ACing	1.586756e-02	-4.583456e-02
021	Insula	ACing1	-4.744926e-02	1.451387e-01
021	Insula	LAG	3.655412e-01	1.971084e-01
021	Insula	LAG1	4.498551e-01	2.285161e-01
021	Insula	LAG2	3.991798e-01	2.518706e-01
021	Insula	LAG3	4.670290e-01	2.772495e-01
021	Insula	LAG4	4.749803e-01	2.330346e-01
021	Insula	RAG	3.795892e-01	1.927250e-01
021	Insula	RAG1	4.846930e-01	2.492524e-01
021	Insula	RAG2	5.571994e-01	1.654959e-01
022	Insula	Insula1	2.588337e-01	-1.982482e-02
022	Insula	Insula2	2.724709e-01	-9.040633e-02
022	Insula	Insula3	2.286460e-01	-1.337254e-01
022	Insula	Insula4	3.703396e-01	-6.893037e-02
022	Insula	dACC	-1.611233e-01	-1.146645e-01
022	Insula	RInsula	2.115055e-01	-2.910789e-02
022	Insula	RInsula1	1.782196e-01	-5.167035e-02
022	Insula	SPL	8.194787e-02	-4.111137e-02
022	Insula	SPL1	2.232723e-01	-6.872815e-03
022	Insula	SPL2	2.151866e-01	-1.014702e-01
022	Insula	RMFG	4.556013e-02	-5.376870e-02
022	Insula	RMFG1	1.505164e-01	-2.483639e-02
022	Insula	RMFG2	1.111882e-02	-7.124236e-02
022	Insula	RTempPole	2.505648e-02	-2.231386e-01
022	Insula	RTempPole1	-1.617896e-01	-3.202324e-01
022	Insula	RPrec	-1.292489e-01	-3.245310e-01
022	Insula	RPrec1	1.988767e-01	-1.809429e-01
022	Insula	RPrec2	1.569389e-01	-7.040205e-02
022	Insula	MTG	2.772801e-02	-5.917536e-02
022	Insula	MTG1	-2.011544e-02	-8.813773e-02
022	Insula	ACing	1.545497e-01	3.634017e-02
022	Insula	ACing1	1.973361e-01	-1.083411e-01
022	Insula	LAG	2.132485e-01	-1.789864e-02
022	Insula	LAG1	-4.815883e-02	-7.485643e-02
022	Insula	LAG2	-1.107939e-01	-1.057111e-01
022	Insula	LAG3	6.696705e-03	-2.286993e-01
022	Insula	LAG4	3.904755e-01	-2.044681e-01
022	Insula	RAG	-4.990679e-02	-2.368839e-01
022	Insula	RAG1	2.063501e-01	-4.962118e-01
022	Insula	RAG2	9.385986e-02	-1.690618e-01
023	Insula	Insula1	3.205419e-01	1.193441e-01
023	Insula	Insula2	3.532294e-01	1.217170e-02
023	Insula	Insula3	7.836973e-02	6.956961e-02
023	Insula	Insula4	5.567708e-01	4.350527e-02
023	Insula	dACC	5.279287e-01	1.351940e-01
023	Insula	RInsula	1.486567e-01	1.423321e-02
023	Insula	RInsula1	4.063777e-01	1.538845e-01
023	Insula	SPL	1.593441e-01	-1.641206e-01
023	Insula	SPL1	1.512928e-01	-2.746534e-01
023	Insula	SPL2	1.751362e-01	-1.699362e-03
023	Insula	RMFG	1.517888e-01	-2.436962e-02
023	Insula	RMFG1	1.997046e-01	1.360148e-01
023	Insula	RMFG2	-9.703371e-03	9.400222e-02
023	Insula	RTempPole	4.899657e-02	3.143459e-02
023	Insula	RTempPole1	1.624060e-01	2.840390e-01
023	Insula	RPrec	1.287595e-01	3.010933e-01
023	Insula	RPrec1	8.323985e-02	4.861745e-01
023	Insula	RPrec2	7.950003e-02	5.181546e-01
023	Insula	MTG	-3.973086e-02	-1.641535e-02
023	Insula	MTG1	8.092267e-02	1.233222e-01
023	Insula	ACing	8.573361e-02	2.667966e-02
023	Insula	ACing1	-7.468082e-03	6.488443e-02
023	Insula	LAG	1.144008e-01	3.602763e-01
023	Insula	LAG1	6.908071e-02	3.315948e-01
023	Insula	LAG2	1.198001e-02	3.807636e-01
023	Insula	LAG3	2.847168e-01	1.486852e-01
023	Insula	LAG4	2.216356e-01	3.252048e-01
023	Insula	RAG	1.878658e-01	1.562970e-01
023	Insula	RAG1	2.859773e-01	3.198088e-01
023	Insula	RAG2	2.955786e-01	2.096687e-01
024	Insula	Insula1	1.026584e-01	1.343771e-01
024	Insula	Insula2	1.552856e-04	-2.016066e-01
024	Insula	Insula3	-1.815219e-02	-3.080757e-02
024	Insula	Insula4	5.755716e-02	2.149845e-01
024	Insula	dACC	5.143619e-01	1.083106e-01
024	Insula	RInsula	-5.929223e-01	-3.885440e-01
024	Insula	RInsula1	2.119562e-01	2.696615e-01
024	Insula	SPL	-1.133881e-01	6.964068e-02
024	Insula	SPL1	3.981769e-02	-3.328785e-02
024	Insula	SPL2	-5.670152e-02	-1.812884e-01
024	Insula	RMFG	-1.597778e-01	-9.471859e-02
024	Insula	RMFG1	-1.825181e-02	1.228896e-01
024	Insula	RMFG2	-2.978584e-01	-1.072504e-01
024	Insula	RTempPole	1.241045e-01	1.833069e-01
024	Insula	RTempPole1	1.466432e-01	9.806731e-02
024	Insula	RPrec	8.517396e-02	3.239978e-01
024	Insula	RPrec1	-2.486981e-02	7.434559e-03
024	Insula	RPrec2	-6.077577e-02	2.435402e-01
024	Insula	MTG	-2.370463e-01	3.056928e-02
024	Insula	MTG1	-2.371092e-01	1.802979e-01
024	Insula	ACing	-4.979564e-01	-2.649868e-01
024	Insula	ACing1	-5.955723e-01	-2.471568e-01
024	Insula	LAG	-1.626849e-02	1.139760e-01
024	Insula	LAG1	4.809674e-02	1.703986e-01
024	Insula	LAG2	9.765406e-02	2.344043e-01
024	Insula	LAG3	1.117549e-02	1.894323e-01
024	Insula	LAG4	-2.316320e-02	2.177433e-01
024	Insula	RAG	-1.052234e-01	8.262507e-02
024	Insula	RAG1	2.919489e-02	-1.178251e-02
024	Insula	RAG2	5.218764e-02	6.977139e-02
025	Insula	Insula1	1.446417e-01	-1.888044e-01
025	Insula	Insula2	2.716207e-01	-1.119047e-02
025	Insula	Insula3	2.609454e-01	-1.999155e-01
025	Insula	Insula4	1.391062e-01	-1.922224e-01
025	Insula	dACC	8.196074e-02	-3.461286e-01
025	Insula	RInsula	3.058322e-01	1.066876e-01
025	Insula	RInsula1	3.318837e-01	-4.371193e-02
025	Insula	SPL	1.666308e-02	-3.519342e-01
025	Insula	SPL1	1.867122e-01	-6.374059e-02
025	Insula	SPL2	4.228974e-02	-3.097904e-02
025	Insula	RMFG	1.597318e-01	-3.027950e-02
025	Insula	RMFG1	-1.022002e-02	-4.063849e-01
025	Insula	RMFG2	9.029828e-02	-4.771229e-02
025	Insula	RTempPole	3.259227e-02	-6.118812e-02
025	Insula	RTempPole1	7.931780e-02	-3.717396e-02
025	Insula	RPrec	2.333912e-01	1.461601e-01
025	Insula	RPrec1	-1.067728e-01	-2.145898e-01
025	Insula	RPrec2	-2.680267e-02	4.204117e-02
025	Insula	MTG	1.632288e-01	1.875381e-01
025	Insula	MTG1	1.295601e-01	1.624335e-01
025	Insula	ACing	-2.987099e-01	-3.285572e-01
025	Insula	ACing1	-6.435425e-02	-1.604365e-01
025	Insula	LAG	-4.017335e-02	-2.004204e-03
025	Insula	LAG1	9.542020e-03	2.212714e-01
025	Insula	LAG2	1.006227e-01	5.622700e-02
025	Insula	LAG3	4.612468e-02	5.630239e-02
025	Insula	LAG4	-1.164512e-01	-3.582497e-03
025	Insula	RAG	1.247320e-01	1.303825e-01
025	Insula	RAG1	-2.001453e-02	-1.327424e-01
025	Insula	RAG2	8.023627e-02	-1.699060e-04
027	Insula	Insula1	5.078965e-01	2.194885e-01
027	Insula	Insula2	9.041792e-01	3.022968e-01
027	Insula	Insula3	4.345539e-01	1.562937e-01
027	Insula	Insula4	3.376874e-01	1.494333e-01
027	Insula	dACC	-1.023330e-01	1.557808e-01
027	Insula	RInsula	2.845553e-01	-1.317877e-01
027	Insula	RInsula1	7.867229e-02	-9.549730e-02
027	Insula	SPL	1.819733e-01	-1.205881e-01
027	Insula	SPL1	-2.457728e-03	-1.055025e-01
027	Insula	SPL2	2.144220e-01	-2.497947e-01
027	Insula	RMFG	1.901215e-01	5.673533e-04
027	Insula	RMFG1	1.295904e-01	1.003863e-01
027	Insula	RMFG2	1.247127e-01	-4.570917e-02
027	Insula	RTempPole	-2.521999e-01	-8.093463e-02
027	Insula	RTempPole1	2.504136e-03	3.293659e-02
027	Insula	RPrec	-8.282318e-02	-1.329026e-01
027	Insula	RPrec1	-4.503794e-02	-3.548759e-01
027	Insula	RPrec2	1.651669e-02	-5.628139e-01
027	Insula	MTG	1.218098e-01	9.507146e-02
027	Insula	MTG1	-7.363064e-02	-1.110680e-01
027	Insula	ACing	-2.587983e-01	-1.868349e-01
027	Insula	ACing1	-2.019236e-01	-3.421467e-01
027	Insula	LAG	-1.187160e-01	-3.527333e-01
027	Insula	LAG1	-1.210038e-01	-3.956610e-01
027	Insula	LAG2	2.341372e-02	-1.369544e-01
027	Insula	LAG3	-3.395237e-02	-1.305078e-01
027	Insula	LAG4	-9.464079e-02	2.366546e-02
027	Insula	RAG	-8.935619e-02	-2.420339e-01
027	Insula	RAG1	-5.259083e-02	-4.967813e-01
027	Insula	RAG2	-6.687281e-02	-2.916817e-01
028	Insula	Insula1	3.449298e-01	3.342634e-01
028	Insula	Insula2	5.147419e-01	3.608352e-01
028	Insula	Insula3	2.062159e-01	1.620997e-01
028	Insula	Insula4	5.709564e-01	6.795371e-01
028	Insula	dACC	1.751666e-01	7.308271e-02
028	Insula	RInsula	2.011701e-01	1.203780e-01
028	Insula	RInsula1	1.942817e-01	1.267784e-01
028	Insula	SPL	1.529488e-01	1.350698e-01
028	Insula	SPL1	2.843972e-01	2.605713e-01
028	Insula	SPL2	3.698697e-01	2.311365e-01
028	Insula	RMFG	2.952551e-01	1.555585e-01
028	Insula	RMFG1	4.532706e-01	3.834567e-01
028	Insula	RMFG2	1.905028e-02	3.836005e-02
028	Insula	RTempPole	1.534792e-01	2.330851e-01
028	Insula	RTempPole1	1.215361e-01	1.626196e-01
028	Insula	RPrec	2.031328e-01	3.423722e-01
028	Insula	RPrec1	-6.995562e-02	4.336607e-01
028	Insula	RPrec2	-1.711638e-02	5.114389e-01
028	Insula	MTG	-6.278437e-02	3.026034e-01
028	Insula	MTG1	1.753237e-02	3.062215e-01
028	Insula	ACing	-2.416553e-01	-4.140570e-01
028	Insula	ACing1	5.652652e-02	2.995246e-01
028	Insula	LAG	6.256452e-02	2.385705e-01
028	Insula	LAG1	8.064646e-02	4.881624e-01
028	Insula	LAG2	6.739288e-02	1.601232e-01
028	Insula	LAG3	1.614934e-01	5.003347e-01
028	Insula	LAG4	2.292909e-01	4.734554e-01
028	Insula	RAG	3.767839e-02	2.761942e-01
028	Insula	RAG1	4.984886e-02	2.449933e-02
028	Insula	RAG2	1.631511e-01	3.964432e-01
029	Insula	Insula1	1.652207e-01	9.575849e-02
029	Insula	Insula2	4.934366e-01	1.006606e-01
029	Insula	Insula3	2.132162e-01	8.315707e-04
029	Insula	Insula4	2.119237e-01	-3.694831e-03
029	Insula	dACC	-2.160156e-01	1.498426e-02
029	Insula	RInsula	3.432859e-01	1.278138e-01
029	Insula	RInsula1	7.104187e-01	3.032554e-02
029	Insula	SPL	1.065316e-01	-2.358430e-02
029	Insula	SPL1	2.124086e-01	1.234122e-01
029	Insula	SPL2	1.184892e-01	7.050644e-02
029	Insula	RMFG	6.770926e-02	-8.537423e-02
029	Insula	RMFG1	5.118281e-02	-1.114848e-01
029	Insula	RMFG2	-5.975628e-02	-3.127953e-02
029	Insula	RTempPole	2.843609e-02	-1.263457e-01
029	Insula	RTempPole1	6.532317e-02	-4.182347e-02
029	Insula	RPrec	1.854052e-01	1.277893e-02
029	Insula	RPrec1	8.644057e-02	3.078483e-03
029	Insula	RPrec2	5.764953e-02	-6.023591e-02
029	Insula	MTG	1.549345e-01	1.816563e-01
029	Insula	MTG1	1.130951e-01	1.702372e-03
029	Insula	ACing	-7.303720e-02	1.113199e-01
029	Insula	ACing1	-8.109210e-02	2.446542e-01
029	Insula	LAG	9.720241e-02	5.882038e-02
029	Insula	LAG1	-7.030488e-02	2.866938e-02
029	Insula	LAG2	-2.755171e-01	-2.575787e-01
029	Insula	LAG3	-5.598916e-02	-2.004712e-02
029	Insula	LAG4	3.742383e-02	-3.037891e-02
029	Insula	RAG	2.214301e-02	-1.100423e-02
029	Insula	RAG1	1.908534e-01	4.503573e-02
029	Insula	RAG2	6.598553e-02	-1.103063e-02
030	Insula	Insula1	4.341960e-01	2.057254e-01
030	Insula	Insula2	7.647061e-01	1.111596e-01
030	Insula	Insula3	2.844433e-01	6.997852e-02
030	Insula	Insula4	3.994743e-01	8.618310e-02
030	Insula	dACC	2.589644e-01	1.484457e-01
030	Insula	RInsula	4.415477e-01	-6.307624e-02
030	Insula	RInsula1	2.631864e-01	2.010145e-02
030	Insula	SPL	2.666892e-01	-3.654324e-02
030	Insula	SPL1	4.276965e-01	-1.703550e-01
030	Insula	SPL2	3.641288e-01	-1.069268e-01
030	Insula	RMFG	3.317380e-01	2.618025e-02
030	Insula	RMFG1	5.549570e-01	5.067429e-02
030	Insula	RMFG2	1.167526e-01	8.010544e-03
030	Insula	RTempPole	3.541175e-01	2.816725e-01
030	Insula	RTempPole1	1.149107e-01	3.769511e-02
030	Insula	RPrec	2.068733e-01	-3.318402e-02
030	Insula	RPrec1	3.721505e-01	1.794881e-01
030	Insula	RPrec2	1.532078e-01	1.201141e-01
030	Insula	MTG	1.524215e-01	9.818659e-02
030	Insula	MTG1	2.110580e-01	2.134663e-01
030	Insula	ACing	1.926731e-01	2.040445e-01
030	Insula	ACing1	4.580937e-01	3.415025e-01
030	Insula	LAG	2.213601e-01	1.683410e-01
030	Insula	LAG1	1.504161e-01	2.205160e-01
030	Insula	LAG2	1.954825e-01	9.809543e-02
030	Insula	LAG3	1.728031e-01	-2.939876e-02
030	Insula	LAG4	1.904549e-01	5.048179e-02
030	Insula	RAG	1.075530e-01	1.159554e-01
030	Insula	RAG1	4.666234e-01	5.962885e-02
030	Insula	RAG2	1.745018e-01	-1.315635e-01
031	Insula	Insula1	-8.322739e-02	-2.461737e-02
031	Insula	Insula2	7.285669e-02	-5.628729e-02
031	Insula	Insula3	-1.469539e-01	3.179900e-02
031	Insula	Insula4	-8.704868e-02	-2.442677e-02
031	Insula	dACC	1.414509e-01	1.236359e-01
031	Insula	RInsula	2.065770e-01	1.927253e-02
031	Insula	RInsula1	-4.056559e-02	1.049342e-01
031	Insula	SPL	-1.061241e-01	-1.128685e-01
031	Insula	SPL1	-5.694061e-02	-4.573116e-02
031	Insula	SPL2	-9.677686e-02	-1.535117e-01
031	Insula	RMFG	7.835647e-02	7.904960e-02
031	Insula	RMFG1	-2.865883e-02	-4.607659e-02
031	Insula	RMFG2	-1.424381e-01	1.819185e-03
031	Insula	RTempPole	-2.095947e-01	2.558871e-02
031	Insula	RTempPole1	-1.106797e-01	-6.616224e-03
031	Insula	RPrec	-2.756432e-01	-9.327303e-03
031	Insula	RPrec1	-1.115668e-01	-3.235980e-02
031	Insula	RPrec2	-8.115974e-02	-4.918462e-02
031	Insula	MTG	7.385871e-02	-3.500736e-02
031	Insula	MTG1	-2.134031e-03	6.446547e-02
031	Insula	ACing	3.567986e-01	2.124775e-01
031	Insula	ACing1	-4.591773e-01	-1.782313e-01
031	Insula	LAG	-2.653785e-01	2.936741e-02
031	Insula	LAG1	-1.243065e-01	-7.002250e-03
031	Insula	LAG2	-1.559245e-01	-4.833125e-02
031	Insula	LAG3	-9.583552e-03	6.583560e-02
031	Insula	LAG4	-3.067076e-01	6.697786e-02
031	Insula	RAG	-3.089574e-01	-4.616494e-02
031	Insula	RAG1	-1.131522e-01	-1.857590e-01
031	Insula	RAG2	-3.191137e-01	-9.021803e-02
