Subject	ROI_seed	ROI_target	Cats_rest	Cats_Counting
002	RMFG	Insula	6.260033e-01	1.480927e-01
002	RMFG	Insula1	7.345269e-01	2.790970e-01
002	RMFG	Insula2	3.385546e-01	-6.612236e-03
002	RMFG	Insula3	4.201004e-01	8.120011e-02
002	RMFG	Insula4	6.164776e-01	9.067093e-02
002	RMFG	dACC	9.996743e-01	6.668702e-01
002	RMFG	RInsula	4.107938e-01	-4.698897e-02
002	RMFG	RInsula1	4.677538e-01	1.398462e-02
002	RMFG	SPL	5.517158e-01	-9.414451e-02
002	RMFG	SPL1	5.913504e-01	5.832818e-02
002	RMFG	SPL2	5.062974e-01	-2.266492e-01
002	RMFG	RMFG1	3.690560e-01	-2.180250e-01
002	RMFG	RMFG2	1.115525e-01	1.215150e-01
002	RMFG	RTempPole	2.283902e-01	4.048117e-01
002	RMFG	RTempPole1	6.374339e-01	4.500366e-01
002	RMFG	RPrec	7.935160e-01	2.282685e-01
002	RMFG	RPrec1	5.690871e-01	2.197435e-01
002	RMFG	RPrec2	8.658825e-01	4.358800e-01
002	RMFG	MTG	4.264954e-01	4.278860e-01
002	RMFG	MTG1	5.416274e-01	5.174332e-01
002	RMFG	ACing	-7.575124e-02	-5.308443e-01
002	RMFG	ACing1	4.692121e-01	3.766001e-01
002	RMFG	LAG	8.637381e-01	6.405373e-01
002	RMFG	LAG1	7.997033e-01	8.814861e-01
002	RMFG	LAG2	7.565418e-01	4.419860e-01
002	RMFG	LAG3	7.701131e-01	9.771264e-01
002	RMFG	LAG4	7.023355e-01	2.248564e-01
002	RMFG	RAG	5.362230e-01	4.526635e-01
002	RMFG	RAG1	1.310886e+00	-1.384348e-01
002	RMFG	RAG2	6.189936e-01	3.798699e-01
003	RMFG	Insula	-1.117129e-02	-6.330344e-02
003	RMFG	Insula1	3.865789e-01	9.312375e-02
003	RMFG	Insula2	4.658835e-01	2.792181e-01
003	RMFG	Insula3	5.716681e-02	-2.990248e-02
003	RMFG	Insula4	4.531911e-01	-2.932720e-02
003	RMFG	dACC	1.356766e-01	-1.490979e-01
003	RMFG	RInsula	9.730058e-02	-1.616025e-01
003	RMFG	RInsula1	2.460665e-01	-6.147618e-02
003	RMFG	SPL	1.527256e-01	-2.128834e-01
003	RMFG	SPL1	1.183523e-01	-1.385232e-01
003	RMFG	SPL2	8.978613e-02	-3.554884e-01
003	RMFG	RMFG1	1.849012e-01	-2.105489e-01
003	RMFG	RMFG2	1.365888e-01	-1.463065e-01
003	RMFG	RTempPole	-1.426256e-01	-1.716491e-01
003	RMFG	RTempPole1	-1.139685e-01	-2.384792e-01
003	RMFG	RPrec	1.358009e-01	-2.441871e-01
003	RMFG	RPrec1	-4.121660e-02	-6.814042e-02
003	RMFG	RPrec2	3.024333e-01	2.807308e-01
003	RMFG	MTG	7.574023e-02	8.519645e-02
003	RMFG	MTG1	-1.176837e-01	2.637434e-02
003	RMFG	ACing	-1.155369e+00	6.962497e-03
003	RMFG	ACing1	-5.097493e-02	9.182953e-02
003	RMFG	LAG	2.338237e-01	2.117216e-01
003	RMFG	LAG1	1.464386e-01	2.783278e-01
003	RMFG	LAG2	1.834471e-01	1.930418e-01
003	RMFG	LAG3	3.025135e-01	3.791018e-01
003	RMFG	LAG4	1.646058e-01	3.410902e-01
003	RMFG	RAG	-3.133330e-02	-1.487604e-01
003	RMFG	RAG1	3.446509e-01	1.191987e-01
003	RMFG	RAG2	2.146912e-01	7.576645e-02
004	RMFG	Insula	2.352864e-01	1.641755e-01
004	RMFG	Insula1	3.418736e-01	2.754313e-02
004	RMFG	Insula2	5.984899e-01	1.654607e-01
004	RMFG	Insula3	1.818126e-01	3.168959e-01
004	RMFG	Insula4	2.401027e-01	-2.086312e-01
004	RMFG	dACC	9.993828e-01	9.371637e-01
004	RMFG	RInsula	7.603821e-03	-8.439571e-02
004	RMFG	RInsula1	6.166303e-02	-3.450553e-01
004	RMFG	SPL	2.468601e-01	-2.215401e-02
004	RMFG	SPL1	4.966700e-01	9.831983e-02
004	RMFG	SPL2	3.856076e-01	-2.204001e-01
004	RMFG	RMFG1	-2.381900e-01	-2.836938e-01
004	RMFG	RMFG2	-3.048267e-02	-1.057506e-03
004	RMFG	RTempPole	-8.364539e-02	-1.047246e-01
004	RMFG	RTempPole1	-1.393682e-01	-2.005954e-01
004	RMFG	RPrec	2.874149e-02	-2.385120e-01
004	RMFG	RPrec1	-1.468914e-01	3.652894e-02
004	RMFG	RPrec2	2.994906e-01	4.693024e-01
004	RMFG	MTG	1.995896e-01	3.857559e-01
004	RMFG	MTG1	-1.715187e-01	-7.223587e-02
004	RMFG	ACing	2.067394e-01	2.064565e-01
004	RMFG	ACing1	-1.767888e-01	2.293986e-01
004	RMFG	LAG	2.921924e-01	9.596108e-02
004	RMFG	LAG1	2.686870e-01	5.327664e-01
004	RMFG	LAG2	2.635758e-01	1.320343e-01
004	RMFG	LAG3	7.921701e-01	9.348327e-01
004	RMFG	LAG4	2.213889e-01	5.672959e-02
004	RMFG	RAG	1.216477e-02	1.252199e-01
004	RMFG	RAG1	1.776759e-01	8.715052e-02
004	RMFG	RAG2	9.120553e-02	5.532556e-03
005	RMFG	Insula	3.489182e-01	4.019247e-03
005	RMFG	Insula1	4.196236e-01	-8.446844e-02
005	RMFG	Insula2	4.077674e-01	6.821433e-02
005	RMFG	Insula3	3.230691e-01	3.417674e-02
005	RMFG	Insula4	5.194077e-01	3.748407e-02
005	RMFG	dACC	1.929510e-01	-2.084011e-01
005	RMFG	RInsula	3.600445e-01	-2.383522e-01
005	RMFG	RInsula1	4.876389e-01	-4.057643e-02
005	RMFG	SPL	-2.629098e-02	-2.581360e-01
005	RMFG	SPL1	2.974281e-02	-2.227240e-01
005	RMFG	SPL2	3.553653e-01	1.049798e-01
005	RMFG	RMFG1	5.642292e-01	3.103662e-01
005	RMFG	RMFG2	3.689482e-02	-1.120768e-01
005	RMFG	RTempPole	-1.864085e-01	-2.721731e-01
005	RMFG	RTempPole1	7.055803e-02	-1.950348e-01
005	RMFG	RPrec	-5.970857e-02	-1.920596e-01
005	RMFG	RPrec1	-2.406844e-01	-4.420247e-01
005	RMFG	RPrec2	-4.238338e-01	-3.275906e-01
005	RMFG	MTG	-2.007818e-01	-2.009423e-01
005	RMFG	MTG1	-2.141196e-01	-3.380422e-01
005	RMFG	ACing	1.219267e-02	3.493827e-01
005	RMFG	ACing1	-2.613214e-01	5.687610e-02
005	RMFG	LAG	-1.687687e-01	-1.737049e-01
005	RMFG	LAG1	-2.979552e-01	-3.992456e-01
005	RMFG	LAG2	-6.221578e-01	-3.215787e-01
005	RMFG	LAG3	-4.144453e-01	-3.600422e-01
005	RMFG	LAG4	-1.231774e-01	-4.700162e-01
005	RMFG	RAG	2.586676e-01	-3.774573e-02
005	RMFG	RAG1	-1.641967e-01	-3.978304e-01
005	RMFG	RAG2	3.550169e-03	-1.498090e-01
006	RMFG	Insula	4.571143e-01	1.698846e-01
006	RMFG	Insula1	3.732462e-01	2.644333e-01
006	RMFG	Insula2	7.951112e-01	2.887479e-01
006	RMFG	Insula3	8.219047e-02	7.470688e-02
006	RMFG	Insula4	3.938431e-01	6.386994e-02
006	RMFG	dACC	-1.874296e-02	1.903359e-01
006	RMFG	RInsula	4.436423e-01	2.912803e-01
006	RMFG	RInsula1	5.450395e-01	3.934240e-02
006	RMFG	SPL	4.162973e-01	1.243224e-01
006	RMFG	SPL1	3.223023e-01	2.761675e-01
006	RMFG	SPL2	4.445519e-01	1.228140e-01
006	RMFG	RMFG1	5.362760e-01	8.529955e-02
006	RMFG	RMFG2	1.083482e-01	3.101543e-02
006	RMFG	RTempPole	2.821527e-02	2.416462e-01
006	RMFG	RTempPole1	2.392397e-01	-1.704705e-01
006	RMFG	RPrec	1.602517e-01	1.239140e-01
006	RMFG	RPrec1	2.455008e-01	1.614926e-01
006	RMFG	RPrec2	3.151099e-01	2.296448e-01
006	RMFG	MTG	2.978163e-01	2.299642e-01
006	RMFG	MTG1	2.144342e-01	1.721198e-01
006	RMFG	ACing	2.570650e-01	1.569610e-01
006	RMFG	ACing1	1.999578e-01	2.559776e-01
006	RMFG	LAG	4.612589e-01	9.308339e-02
006	RMFG	LAG1	1.837555e-01	1.854690e-01
006	RMFG	LAG2	2.104748e-01	1.518035e-01
006	RMFG	LAG3	3.474404e-01	2.502377e-01
006	RMFG	LAG4	2.626886e-01	3.706788e-01
006	RMFG	RAG	3.018067e-01	1.440772e-01
006	RMFG	RAG1	2.687784e-01	5.584212e-02
006	RMFG	RAG2	3.828496e-01	1.583680e-01
007	RMFG	Insula	7.326133e-01	4.259910e-01
007	RMFG	Insula1	3.051745e-01	3.806206e-01
007	RMFG	Insula2	5.810294e-01	3.226135e-01
007	RMFG	Insula3	3.524822e-01	4.529792e-01
007	RMFG	Insula4	4.712899e-01	5.602750e-01
007	RMFG	dACC	1.328255e-01	3.968917e-01
007	RMFG	RInsula	6.095284e-01	2.617196e-01
007	RMFG	RInsula1	1.658133e-01	2.200818e-01
007	RMFG	SPL	2.420531e-01	1.596441e-01
007	RMFG	SPL1	4.739287e-01	-9.744242e-02
007	RMFG	SPL2	2.694383e-01	-2.905265e-02
007	RMFG	RMFG1	6.942130e-01	4.017254e-01
007	RMFG	RMFG2	2.550298e-02	1.901249e-01
007	RMFG	RTempPole	-3.194408e-01	4.729019e-02
007	RMFG	RTempPole1	3.311328e-02	2.719389e-01
007	RMFG	RPrec	5.772217e-01	1.375065e-01
007	RMFG	RPrec1	1.101567e-01	-4.046409e-02
007	RMFG	RPrec2	3.443173e-01	1.907264e-01
007	RMFG	MTG	3.487496e-01	3.324911e-01
007	RMFG	MTG1	1.982684e-02	1.577426e-01
007	RMFG	ACing	3.348349e-02	9.899946e-02
007	RMFG	ACing1	-1.041945e-01	2.560677e-01
007	RMFG	LAG	2.420390e-01	9.286135e-02
007	RMFG	LAG1	4.647122e-01	2.701433e-01
007	RMFG	LAG2	1.688609e-01	2.765459e-01
007	RMFG	LAG3	1.866694e-01	9.511381e-02
007	RMFG	LAG4	4.458988e-02	1.986748e-01
007	RMFG	RAG	1.041993e-01	-7.466533e-02
007	RMFG	RAG1	5.696696e-01	-1.530398e-01
007	RMFG	RAG2	4.086138e-01	-1.312979e-01
008	RMFG	Insula	3.266129e-01	5.547098e-01
008	RMFG	Insula1	1.803200e-01	-5.457142e-02
008	RMFG	Insula2	1.679078e-01	6.303018e-02
008	RMFG	Insula3	5.393201e-02	1.591332e-01
008	RMFG	Insula4	4.669602e-02	-1.542164e-01
008	RMFG	dACC	5.455801e-01	3.055747e-01
008	RMFG	RInsula	1.817349e-01	3.538304e-01
008	RMFG	RInsula1	3.540436e-01	3.225519e-01
008	RMFG	SPL	3.055014e-01	2.255883e-01
008	RMFG	SPL1	1.864888e-01	9.449958e-02
008	RMFG	SPL2	9.091696e-02	4.075516e-02
008	RMFG	RMFG1	9.692667e-01	7.645050e-01
008	RMFG	RMFG2	9.671169e-02	-4.586508e-02
008	RMFG	RTempPole	1.477381e-02	1.269894e-01
008	RMFG	RTempPole1	-8.323145e-03	4.439893e-02
008	RMFG	RPrec	4.469229e-01	2.775586e-01
008	RMFG	RPrec1	5.749485e-02	3.767474e-02
008	RMFG	RPrec2	2.182379e-01	3.285776e-02
008	RMFG	MTG	-4.241557e-02	4.776819e-02
008	RMFG	MTG1	-2.374828e-02	-2.025724e-01
008	RMFG	ACing	4.917017e-02	4.358670e-02
008	RMFG	ACing1	6.291385e-02	-6.403213e-02
008	RMFG	LAG	2.832274e-01	1.129538e-01
008	RMFG	LAG1	8.625323e-02	-1.107544e-01
008	RMFG	LAG2	1.971428e-01	-3.689788e-02
008	RMFG	LAG3	1.750480e-01	-6.341148e-02
008	RMFG	LAG4	4.689718e-01	1.919808e-01
008	RMFG	RAG	2.158580e-01	1.385333e-02
008	RMFG	RAG1	1.024789e-01	-5.504681e-02
008	RMFG	RAG2	2.055795e-01	-4.306403e-02
009	RMFG	Insula	7.201443e-01	1.956556e-01
009	RMFG	Insula1	7.988662e-01	1.402922e-01
009	RMFG	Insula2	4.764006e-01	2.125714e-01
009	RMFG	Insula3	3.643184e-01	2.918092e-01
009	RMFG	Insula4	7.455876e-01	2.488274e-01
009	RMFG	dACC	1.739603e-01	1.675856e-02
009	RMFG	RInsula	3.382165e-01	1.080021e-02
009	RMFG	RInsula1	2.359459e-01	7.816812e-02
009	RMFG	SPL	3.227757e-01	1.277145e-01
009	RMFG	SPL1	4.103266e-01	1.880975e-01
009	RMFG	SPL2	3.867878e-01	9.501372e-02
009	RMFG	RMFG1	3.233811e-01	1.411485e-01
009	RMFG	RMFG2	2.111890e-01	-2.829860e-02
009	RMFG	RTempPole	-1.026350e-01	1.987944e-01
009	RMFG	RTempPole1	1.694329e-01	3.036141e-01
009	RMFG	RPrec	1.756413e-01	3.267151e-01
009	RMFG	RPrec1	2.119757e-01	4.153756e-01
009	RMFG	RPrec2	3.268504e-01	3.720843e-01
009	RMFG	MTG	2.111232e-01	3.238065e-01
009	RMFG	MTG1	2.935626e-01	1.797707e-01
009	RMFG	ACing	3.713335e-01	2.431678e-01
009	RMFG	ACing1	8.893037e-02	2.401604e-01
009	RMFG	LAG	2.510392e-01	2.001065e-01
009	RMFG	LAG1	2.071877e-01	3.417681e-01
009	RMFG	LAG2	1.698608e-01	3.683973e-01
009	RMFG	LAG3	2.720618e-01	2.999918e-01
009	RMFG	LAG4	3.593173e-01	1.631202e-01
009	RMFG	RAG	2.523351e-01	2.966037e-01
009	RMFG	RAG1	3.825981e-01	-7.509976e-02
009	RMFG	RAG2	2.953628e-01	1.898618e-01
011	RMFG	Insula	1.260198e-01	-9.312859e-02
011	RMFG	Insula1	-2.254391e-01	-3.460335e-01
011	RMFG	Insula2	4.931451e-01	-1.060885e-01
011	RMFG	Insula3	4.911885e-02	-2.638433e-02
011	RMFG	Insula4	1.987433e-01	8.121471e-02
011	RMFG	dACC	-3.313016e-02	7.685617e-02
011	RMFG	RInsula	3.263937e-01	4.890836e-02
011	RMFG	RInsula1	5.104679e-01	1.509520e-01
011	RMFG	SPL	9.190498e-02	-5.061169e-02
011	RMFG	SPL1	3.782337e-01	4.341561e-02
011	RMFG	SPL2	6.700614e-01	-1.000798e-01
011	RMFG	RMFG1	3.314011e-01	-1.264334e-01
011	RMFG	RMFG2	4.255400e-01	7.372069e-02
011	RMFG	RTempPole	-4.307786e-01	1.775318e-01
011	RMFG	RTempPole1	2.262548e-02	2.512404e-01
011	RMFG	RPrec	4.736220e-01	2.929385e-01
011	RMFG	RPrec1	-2.790426e-01	1.163686e-01
011	RMFG	RPrec2	2.948106e-01	4.596183e-01
011	RMFG	MTG	-2.267362e-03	2.281017e-01
011	RMFG	MTG1	-1.192462e-01	1.602285e-01
011	RMFG	ACing	1.030999e+00	4.396691e-01
011	RMFG	ACing1	3.335182e-01	2.174511e-01
011	RMFG	LAG	1.372898e-01	-2.716195e-02
011	RMFG	LAG1	3.216218e-01	2.246732e-01
011	RMFG	LAG2	-4.425467e-01	-9.891455e-02
011	RMFG	LAG3	3.963226e-01	-1.174733e-01
011	RMFG	LAG4	5.152781e-01	2.915813e-02
011	RMFG	RAG	-2.270050e-01	3.350911e-02
011	RMFG	RAG1	6.816253e-01	2.036778e-01
011	RMFG	RAG2	3.719996e-01	3.088265e-01
017	RMFG	Insula	4.101778e-01	1.883457e-01
017	RMFG	Insula1	1.175445e-01	-1.318097e-01
017	RMFG	Insula2	6.402581e-01	1.780379e-01
017	RMFG	Insula3	3.736423e-01	5.586086e-03
017	RMFG	Insula4	3.056811e-01	-3.191370e-01
017	RMFG	dACC	4.225161e-01	2.579935e-01
017	RMFG	RInsula	4.003943e-01	-3.446829e-02
017	RMFG	RInsula1	1.649047e-01	-2.683441e-01
017	RMFG	SPL	2.328592e-01	-8.851678e-02
017	RMFG	SPL1	3.245022e-01	-2.748751e-01
017	RMFG	SPL2	4.660342e-01	-2.688798e-01
017	RMFG	RMFG1	3.539004e-02	9.765586e-02
017	RMFG	RMFG2	7.431905e-02	-1.144433e-01
017	RMFG	RTempPole	3.906305e-02	2.989991e-01
017	RMFG	RTempPole1	-1.240769e-01	-1.435543e-01
017	RMFG	RPrec	3.992985e-01	9.971088e-02
017	RMFG	RPrec1	1.236927e-01	-3.620985e-01
017	RMFG	RPrec2	5.135841e-01	1.139061e-02
017	RMFG	MTG	1.875222e-02	-4.993847e-02
017	RMFG	MTG1	1.356899e-01	1.620200e-01
017	RMFG	ACing	-2.976193e-01	-2.519719e-02
017	RMFG	ACing1	-5.208817e-01	-4.650844e-01
017	RMFG	LAG	3.627499e-01	2.905985e-02
017	RMFG	LAG1	2.551043e-02	-3.202774e-01
017	RMFG	LAG2	3.416257e-01	-9.436206e-02
017	RMFG	LAG3	3.705004e-01	-1.061080e-01
017	RMFG	LAG4	3.187724e-01	-3.867766e-01
017	RMFG	RAG	1.111125e-03	-2.464624e-01
017	RMFG	RAG1	3.025748e-01	2.108056e-03
017	RMFG	RAG2	1.491652e-01	-4.746972e-01
012	RMFG	Insula	3.304650e-01	9.309066e-02
012	RMFG	Insula1	2.413063e-01	3.296075e-01
012	RMFG	Insula2	3.115234e-01	2.841266e-01
012	RMFG	Insula3	2.225289e-01	8.476412e-02
012	RMFG	Insula4	4.727316e-01	1.286844e-01
012	RMFG	dACC	1.957448e-01	1.973677e-01
012	RMFG	RInsula	4.773818e-01	7.353124e-02
012	RMFG	RInsula1	4.718192e-01	5.208796e-02
012	RMFG	SPL	2.122979e-01	7.730680e-02
012	RMFG	SPL1	1.655504e-01	2.072239e-01
012	RMFG	SPL2	6.908546e-01	6.733527e-02
012	RMFG	RMFG1	4.402683e-01	5.837147e-02
012	RMFG	RMFG2	4.120489e-01	-1.081445e-01
012	RMFG	RTempPole	3.548714e-01	3.622302e-02
012	RMFG	RTempPole1	5.659805e-01	2.774317e-01
012	RMFG	RPrec	2.236868e-01	2.361506e-01
012	RMFG	RPrec1	4.363868e-01	6.044848e-01
012	RMFG	RPrec2	3.749561e-01	8.194613e-01
012	RMFG	MTG	1.842076e-01	1.289798e-01
012	RMFG	MTG1	1.817935e-01	5.547464e-02
012	RMFG	ACing	2.022343e-01	6.214155e-02
012	RMFG	ACing1	4.072609e-01	1.417459e-01
012	RMFG	LAG	2.865582e-01	2.869285e-01
012	RMFG	LAG1	9.522448e-02	3.893376e-01
012	RMFG	LAG2	1.591499e-01	2.250346e-01
012	RMFG	LAG3	1.546582e-01	3.607651e-01
012	RMFG	LAG4	1.120651e-01	4.335329e-01
012	RMFG	RAG	1.133424e-01	2.185264e-01
012	RMFG	RAG1	1.989003e-01	1.944450e-01
012	RMFG	RAG2	1.723969e-01	4.217745e-01
013	RMFG	Insula	2.571610e-01	5.887187e-02
013	RMFG	Insula1	8.055940e-01	4.911786e-01
013	RMFG	Insula2	5.807839e-01	3.130793e-01
013	RMFG	Insula3	4.098439e-01	2.613485e-01
013	RMFG	Insula4	1.010848e+00	6.072123e-01
013	RMFG	dACC	1.923264e-01	2.103536e-01
013	RMFG	RInsula	3.527644e-01	1.263053e-01
013	RMFG	RInsula1	4.535577e-01	4.484766e-01
013	RMFG	SPL	3.809422e-01	-8.420991e-02
013	RMFG	SPL1	5.698600e-01	1.780705e-01
013	RMFG	SPL2	3.539837e-01	1.138249e-01
013	RMFG	RMFG1	3.799600e-01	1.366834e-01
013	RMFG	RMFG2	1.395226e-01	-1.244443e-01
013	RMFG	RTempPole	1.818535e-01	1.074092e-01
013	RMFG	RTempPole1	2.260515e-01	2.020188e-01
013	RMFG	RPrec	4.108540e-01	5.222472e-01
013	RMFG	RPrec1	5.253522e-01	7.771069e-01
013	RMFG	RPrec2	5.581227e-01	1.032753e+00
013	RMFG	MTG	4.343526e-01	3.103599e-01
013	RMFG	MTG1	2.854402e-01	2.237291e-01
013	RMFG	ACing	7.599032e-02	3.822856e-01
013	RMFG	ACing1	1.957857e-01	2.486945e-01
013	RMFG	LAG	5.931200e-01	7.433596e-01
013	RMFG	LAG1	3.672782e-01	4.394521e-01
013	RMFG	LAG2	3.313876e-01	4.617004e-01
013	RMFG	LAG3	3.947115e-01	2.287678e-01
013	RMFG	LAG4	5.161999e-01	4.453814e-01
013	RMFG	RAG	4.806607e-01	6.541602e-01
013	RMFG	RAG1	8.466246e-01	8.150975e-01
013	RMFG	RAG2	5.743147e-01	3.266611e-01
014	RMFG	Insula	3.998384e-01	-3.116514e-01
014	RMFG	Insula1	7.442230e-01	2.452497e-03
014	RMFG	Insula2	6.053524e-01	-4.241141e-01
014	RMFG	Insula3	1.603211e-01	-1.439740e-01
014	RMFG	Insula4	7.540791e-01	-3.637191e-02
014	RMFG	dACC	4.751113e-01	-2.357503e-01
014	RMFG	RInsula	3.170226e-01	-4.271830e-01
014	RMFG	RInsula1	5.116019e-01	-2.277534e-01
014	RMFG	SPL	2.948235e-01	-2.555058e-01
014	RMFG	SPL1	4.030837e-01	-4.380887e-01
014	RMFG	SPL2	3.987812e-01	-2.514394e-01
014	RMFG	RMFG1	2.852705e-01	6.639608e-02
014	RMFG	RMFG2	1.265444e-01	1.798870e-01
014	RMFG	RTempPole	2.537202e-01	2.764883e-01
014	RMFG	RTempPole1	3.214578e-01	-1.729946e-01
014	RMFG	RPrec	2.537279e-01	3.175701e-02
014	RMFG	RPrec1	1.955383e-01	-1.550926e-01
014	RMFG	RPrec2	2.791342e-01	1.189358e-02
014	RMFG	MTG	2.934860e-01	2.717484e-01
014	RMFG	MTG1	3.018351e-01	1.915035e-01
014	RMFG	ACing	9.568105e-02	-2.307984e-01
014	RMFG	ACing1	4.011772e-01	2.244779e-01
014	RMFG	LAG	3.507671e-01	2.677757e-02
014	RMFG	LAG1	3.285267e-01	1.980448e-01
014	RMFG	LAG2	3.370184e-01	1.320086e-01
014	RMFG	LAG3	3.211659e-01	6.201402e-02
014	RMFG	LAG4	4.278441e-01	1.585825e-01
014	RMFG	RAG	2.424366e-01	-4.133581e-03
014	RMFG	RAG1	2.373350e-01	-3.575976e-01
014	RMFG	RAG2	9.616966e-02	-1.985492e-01
015	RMFG	Insula	5.356647e-01	-5.838632e-02
015	RMFG	Insula1	8.869622e-01	-1.038639e-01
015	RMFG	Insula2	4.515015e-01	-1.820779e-01
015	RMFG	Insula3	5.450984e-01	3.089395e-01
015	RMFG	Insula4	5.793866e-01	-2.453842e-01
015	RMFG	dACC	6.017472e-01	2.434472e-01
015	RMFG	RInsula	7.654808e-01	2.965337e-01
015	RMFG	RInsula1	5.335727e-01	4.501676e-02
015	RMFG	SPL	1.141679e-01	-1.971105e-01
015	RMFG	SPL1	4.122255e-01	-2.515930e-01
015	RMFG	SPL2	1.678792e-01	-1.103663e-01
015	RMFG	RMFG1	6.345988e-01	2.295121e-01
015	RMFG	RMFG2	8.870104e-02	-8.801802e-03
015	RMFG	RTempPole	2.878998e-01	2.433550e-01
015	RMFG	RTempPole1	2.021352e-01	2.069091e-01
015	RMFG	RPrec	3.095522e-01	-7.884276e-02
015	RMFG	RPrec1	2.555124e-01	4.079926e-01
015	RMFG	RPrec2	1.885929e-01	4.442148e-01
015	RMFG	MTG	2.770189e-01	5.164689e-02
015	RMFG	MTG1	4.769992e-01	3.197985e-01
015	RMFG	ACing	2.952547e-01	-2.072576e-01
015	RMFG	ACing1	-1.644790e-01	-1.252580e-01
015	RMFG	LAG	3.841315e-01	2.102049e-01
015	RMFG	LAG1	2.094178e-01	1.524704e-01
015	RMFG	LAG2	1.248734e-01	1.049373e-01
015	RMFG	LAG3	3.249431e-01	2.689274e-01
015	RMFG	LAG4	1.102012e+00	3.246194e-01
015	RMFG	RAG	7.290630e-02	2.202447e-01
015	RMFG	RAG1	4.171604e-01	-8.504036e-02
015	RMFG	RAG2	5.886702e-01	-1.120651e-01
018	RMFG	Insula	5.721024e-01	4.004967e-01
018	RMFG	Insula1	9.474029e-01	4.445610e-01
018	RMFG	Insula2	4.611678e-01	4.427762e-01
018	RMFG	Insula3	1.946388e-01	9.423101e-02
018	RMFG	Insula4	6.129555e-01	3.490977e-01
018	RMFG	dACC	1.834910e-01	1.166750e-01
018	RMFG	RInsula	7.430335e-01	3.081211e-01
018	RMFG	RInsula1	5.289515e-01	1.700838e-01
018	RMFG	SPL	1.691133e-01	-6.183604e-02
018	RMFG	SPL1	6.108681e-02	-1.733500e-01
018	RMFG	SPL2	5.278858e-01	-7.296541e-02
018	RMFG	RMFG1	-1.947025e-02	-3.317198e-01
018	RMFG	RMFG2	1.304075e-01	-6.643478e-02
018	RMFG	RTempPole	2.385242e-01	9.331856e-02
018	RMFG	RTempPole1	1.318160e-01	6.315975e-02
018	RMFG	RPrec	-4.411972e-02	5.587288e-03
018	RMFG	RPrec1	2.114277e-01	2.036460e-02
018	RMFG	RPrec2	4.199703e-01	1.364916e-01
018	RMFG	MTG	2.473494e-01	1.144480e-01
018	RMFG	MTG1	9.511268e-02	-6.158063e-02
018	RMFG	ACing	1.752570e-01	-1.340806e-02
018	RMFG	ACing1	2.225759e-02	2.681584e-01
018	RMFG	LAG	3.010248e-01	6.986758e-01
018	RMFG	LAG1	2.442782e-01	2.709097e-01
018	RMFG	LAG2	2.037311e-01	3.748690e-01
018	RMFG	LAG3	5.972462e-01	4.572896e-01
018	RMFG	LAG4	4.426742e-01	2.400459e-01
018	RMFG	RAG	-2.076226e-02	1.233359e-01
018	RMFG	RAG1	8.951079e-01	2.389835e-02
018	RMFG	RAG2	4.866174e-01	-3.221198e-02
019	RMFG	Insula	7.410880e-01	5.455421e-01
019	RMFG	Insula1	1.150621e+00	3.745982e-01
019	RMFG	Insula2	7.985646e-01	4.660158e-01
019	RMFG	Insula3	5.394160e-01	2.731822e-01
019	RMFG	Insula4	1.061580e+00	4.522117e-01
019	RMFG	dACC	4.587330e-01	6.881948e-01
019	RMFG	RInsula	7.331958e-01	5.828000e-01
019	RMFG	RInsula1	7.504497e-01	4.063903e-01
019	RMFG	SPL	3.813494e-01	1.019775e-01
019	RMFG	SPL1	8.440699e-01	4.233461e-01
019	RMFG	SPL2	2.396553e-01	-4.134567e-02
019	RMFG	RMFG1	1.001077e+00	6.684019e-01
019	RMFG	RMFG2	2.768027e-02	1.646613e-01
019	RMFG	RTempPole	3.376620e-01	2.068233e-01
019	RMFG	RTempPole1	2.779322e-01	1.869225e-01
019	RMFG	RPrec	6.221725e-01	2.711551e-01
019	RMFG	RPrec1	3.814885e-01	2.380118e-01
019	RMFG	RPrec2	5.337419e-01	2.922990e-01
019	RMFG	MTG	1.923985e-01	1.256988e-01
019	RMFG	MTG1	1.194705e-01	1.443955e-01
019	RMFG	ACing	-1.474012e-02	1.277299e-01
019	RMFG	ACing1	-2.051181e-01	7.534892e-02
019	RMFG	LAG	3.019287e-01	2.592854e-01
019	RMFG	LAG1	2.983346e-01	9.483006e-02
019	RMFG	LAG2	3.194269e-01	9.823004e-02
019	RMFG	LAG3	3.043231e-01	-2.294665e-02
019	RMFG	LAG4	6.950548e-01	2.317769e-01
019	RMFG	RAG	7.665268e-01	4.693855e-01
019	RMFG	RAG1	4.813080e-01	2.103710e-01
019	RMFG	RAG2	2.871587e-01	-2.896822e-01
020	RMFG	Insula	1.665728e-01	-2.827459e-02
020	RMFG	Insula1	9.319352e-02	3.971632e-02
020	RMFG	Insula2	9.788328e-02	8.386068e-02
020	RMFG	Insula3	-1.480539e-02	-2.885113e-02
020	RMFG	Insula4	2.106202e-01	4.630684e-02
020	RMFG	dACC	3.487636e-01	1.415390e-01
020	RMFG	RInsula	2.761540e-01	-5.913831e-02
020	RMFG	RInsula1	1.150768e-01	-9.310520e-02
020	RMFG	SPL	-1.803663e-01	-5.742858e-02
020	RMFG	SPL1	3.358467e-01	-1.896089e-01
020	RMFG	SPL2	5.719291e-02	-2.198965e-03
020	RMFG	RMFG1	2.751806e-01	1.869497e-01
020	RMFG	RMFG2	3.723910e-01	6.342269e-02
020	RMFG	RTempPole	-2.316707e-02	-1.068744e-01
020	RMFG	RTempPole1	1.315819e-01	1.258401e-01
020	RMFG	RPrec	1.129349e-01	1.118942e-01
020	RMFG	RPrec1	1.380774e-01	8.208998e-03
020	RMFG	RPrec2	4.473211e-01	1.980306e-01
020	RMFG	MTG	1.782769e-01	1.797274e-01
020	RMFG	MTG1	5.837137e-02	3.911311e-02
020	RMFG	ACing	-6.770759e-01	1.678516e-01
020	RMFG	ACing1	-1.100898e-01	4.177171e-02
020	RMFG	LAG	3.084939e-01	-8.299092e-02
020	RMFG	LAG1	2.412179e-01	1.236183e-02
020	RMFG	LAG2	5.649022e-01	9.871525e-02
020	RMFG	LAG3	-6.749356e-02	3.382084e-02
020	RMFG	LAG4	2.983936e-01	-3.106294e-01
020	RMFG	RAG	2.713402e-02	-3.821846e-02
020	RMFG	RAG1	2.641488e-01	-4.628511e-01
020	RMFG	RAG2	-4.222896e-02	-2.732173e-02
021	RMFG	Insula	2.180424e-01	-1.543085e-01
021	RMFG	Insula1	5.631902e-01	1.223766e-01
021	RMFG	Insula2	7.493663e-01	1.784882e-01
021	RMFG	Insula3	2.351171e-01	-1.387473e-02
021	RMFG	Insula4	8.658346e-01	7.438278e-02
021	RMFG	dACC	3.630469e-01	3.269121e-01
021	RMFG	RInsula	6.078692e-01	1.114623e-01
021	RMFG	RInsula1	7.985802e-01	1.986794e-01
021	RMFG	SPL	7.994703e-01	2.024673e-01
021	RMFG	SPL1	7.335325e-01	4.396263e-01
021	RMFG	SPL2	8.783662e-01	4.391408e-01
021	RMFG	RMFG1	7.002879e-01	1.220818e-03
021	RMFG	RMFG2	1.120678e-01	-9.374466e-02
021	RMFG	RTempPole	9.032524e-02	1.006647e-01
021	RMFG	RTempPole1	4.416246e-02	3.206692e-02
021	RMFG	RPrec	7.308324e-01	3.246054e-01
021	RMFG	RPrec1	8.594657e-01	7.457818e-01
021	RMFG	RPrec2	1.443874e+00	9.981071e-01
021	RMFG	MTG	4.521874e-01	2.716022e-01
021	RMFG	MTG1	5.860751e-01	5.072683e-01
021	RMFG	ACing	1.053968e-01	6.823174e-01
021	RMFG	ACing1	-3.346450e-01	4.992338e-02
021	RMFG	LAG	4.001739e-01	3.908587e-01
021	RMFG	LAG1	8.793531e-01	9.049990e-01
021	RMFG	LAG2	4.889473e-01	5.046716e-01
021	RMFG	LAG3	5.267545e-01	3.931133e-01
021	RMFG	LAG4	7.406421e-01	7.509637e-01
021	RMFG	RAG	4.219100e-01	2.496919e-01
021	RMFG	RAG1	6.427352e-01	3.063859e-01
021	RMFG	RAG2	6.995642e-01	6.440906e-02
022	RMFG	Insula	6.292366e-01	1.968205e-01
022	RMFG	Insula1	6.554433e-01	1.733160e-01
022	RMFG	Insula2	1.075781e+00	2.008264e-01
022	RMFG	Insula3	4.490204e-01	1.579398e-02
022	RMFG	Insula4	9.043580e-01	2.973183e-02
022	RMFG	dACC	4.916646e-01	3.792708e-01
022	RMFG	RInsula	6.096015e-01	4.444656e-02
022	RMFG	RInsula1	5.090339e-01	1.047943e-01
022	RMFG	SPL	4.305269e-01	1.011665e-01
022	RMFG	SPL1	7.007085e-01	1.483437e-01
022	RMFG	SPL2	7.581191e-01	5.247460e-02
022	RMFG	RMFG1	8.386977e-01	2.470733e-01
022	RMFG	RMFG2	4.305824e-01	4.871196e-01
022	RMFG	RTempPole	3.502872e-01	3.840669e-02
022	RMFG	RTempPole1	4.062488e-01	7.996565e-02
022	RMFG	RPrec	5.107301e-01	2.593224e-01
022	RMFG	RPrec1	6.387284e-01	4.506079e-01
022	RMFG	RPrec2	3.462962e-01	4.325327e-01
022	RMFG	MTG	2.210859e-01	1.178834e-01
022	RMFG	MTG1	2.260617e-01	1.867323e-01
022	RMFG	ACing	1.900295e-01	2.621535e-01
022	RMFG	ACing1	2.260769e-02	7.853127e-02
022	RMFG	LAG	2.523421e-01	2.946646e-01
022	RMFG	LAG1	1.271420e-01	7.810831e-01
022	RMFG	LAG2	1.903029e-01	4.882263e-01
022	RMFG	LAG3	4.221909e-01	6.592104e-01
022	RMFG	LAG4	7.926935e-01	8.717244e-01
022	RMFG	RAG	4.162925e-01	2.032906e-01
022	RMFG	RAG1	9.753103e-01	-7.510275e-02
022	RMFG	RAG2	5.988894e-01	7.966012e-02
023	RMFG	Insula	3.255977e-01	2.558755e-01
023	RMFG	Insula1	5.444303e-01	9.086372e-02
023	RMFG	Insula2	3.000250e-01	5.123206e-02
023	RMFG	Insula3	2.614628e-01	-1.234619e-01
023	RMFG	Insula4	3.287874e-01	-5.829027e-02
023	RMFG	dACC	4.371103e-01	2.768881e-01
023	RMFG	RInsula	3.292916e-01	1.905781e-01
023	RMFG	RInsula1	2.419146e-01	-1.085254e-01
023	RMFG	SPL	1.936776e-01	-1.698410e-02
023	RMFG	SPL1	3.632600e-01	-1.565212e-01
023	RMFG	SPL2	3.079210e-01	1.652399e-01
023	RMFG	RMFG1	6.279189e-01	9.834807e-02
023	RMFG	RMFG2	9.513104e-02	-4.159033e-02
023	RMFG	RTempPole	-2.538093e-01	5.156198e-03
023	RMFG	RTempPole1	1.289693e-01	3.057795e-01
023	RMFG	RPrec	3.929000e-01	1.833608e-01
023	RMFG	RPrec1	4.203658e-01	3.493248e-01
023	RMFG	RPrec2	3.531456e-01	4.566514e-01
023	RMFG	MTG	7.631287e-02	8.774111e-02
023	RMFG	MTG1	-4.983166e-02	1.586571e-01
023	RMFG	ACing	3.249831e-02	-2.982236e-01
023	RMFG	ACing1	1.939977e-02	-1.293990e-02
023	RMFG	LAG	4.034706e-01	1.782171e-01
023	RMFG	LAG1	2.992918e-01	1.168216e-01
023	RMFG	LAG2	3.111513e-01	2.595357e-01
023	RMFG	LAG3	2.881046e-01	-1.823621e-01
023	RMFG	LAG4	3.318441e-01	1.115982e-01
023	RMFG	RAG	5.140198e-01	3.088015e-01
023	RMFG	RAG1	5.578370e-01	-3.742156e-02
023	RMFG	RAG2	4.921037e-01	-2.613524e-02
024	RMFG	Insula	2.118937e-01	-1.524926e-01
024	RMFG	Insula1	3.384935e-01	1.612158e-01
024	RMFG	Insula2	1.674847e-01	-1.710551e-01
024	RMFG	Insula3	2.020125e-01	5.740286e-02
024	RMFG	Insula4	1.033154e-01	1.743788e-01
024	RMFG	dACC	4.437574e-01	-3.231588e-02
024	RMFG	RInsula	-3.648576e-02	2.431525e-01
024	RMFG	RInsula1	3.252280e-01	9.973004e-02
024	RMFG	SPL	-2.415556e-01	-1.035212e-01
024	RMFG	SPL1	1.530331e-02	4.437039e-02
024	RMFG	SPL2	-1.238956e-01	-1.095456e-01
024	RMFG	RMFG1	-6.761492e-01	-2.200014e-02
024	RMFG	RMFG2	-5.227988e-01	2.299649e-01
024	RMFG	RTempPole	1.031194e-01	-4.904411e-02
024	RMFG	RTempPole1	4.290016e-02	-2.131800e-01
024	RMFG	RPrec	1.272449e-01	7.691069e-02
024	RMFG	RPrec1	6.306771e-02	3.181863e-03
024	RMFG	RPrec2	1.261971e-01	1.773533e-01
024	RMFG	MTG	4.566395e-02	5.381359e-02
024	RMFG	MTG1	5.111456e-02	6.509566e-01
024	RMFG	ACing	-7.188735e-01	-4.062160e-01
024	RMFG	ACing1	-1.040405e+00	-4.598705e-01
024	RMFG	LAG	1.154904e-01	1.865748e-01
024	RMFG	LAG1	9.641780e-02	2.114201e-01
024	RMFG	LAG2	2.822581e-01	3.291246e-01
024	RMFG	LAG3	1.350958e-01	2.784321e-01
024	RMFG	LAG4	1.330765e-02	1.120734e-01
024	RMFG	RAG	-1.914944e-01	-8.838876e-02
024	RMFG	RAG1	3.076501e-01	1.498338e-01
024	RMFG	RAG2	1.243934e-01	1.589512e-01
025	RMFG	Insula	3.934275e-01	6.322263e-02
025	RMFG	Insula1	9.411228e-01	5.443876e-01
025	RMFG	Insula2	1.043190e+00	8.085864e-01
025	RMFG	Insula3	1.100488e+00	4.061660e-01
025	RMFG	Insula4	8.433152e-01	7.534219e-02
025	RMFG	dACC	8.470452e-01	6.726543e-01
025	RMFG	RInsula	4.954605e-01	-2.497936e-01
025	RMFG	RInsula1	7.192155e-01	-4.627105e-02
025	RMFG	SPL	4.758606e-01	-3.129213e-03
025	RMFG	SPL1	5.693150e-01	-1.852456e-01
025	RMFG	SPL2	9.512173e-02	1.198926e-01
025	RMFG	RMFG1	2.621302e-01	-1.490814e-01
025	RMFG	RMFG2	3.349941e-02	5.311511e-02
025	RMFG	RTempPole	3.869852e-01	5.037407e-01
025	RMFG	RTempPole1	4.212916e-01	4.883737e-01
025	RMFG	RPrec	6.880813e-01	4.739737e-01
025	RMFG	RPrec1	-4.895091e-02	2.085308e-01
025	RMFG	RPrec2	3.701040e-01	9.269929e-01
025	RMFG	MTG	2.705736e-01	5.466689e-01
025	RMFG	MTG1	2.039508e-01	6.553300e-01
025	RMFG	ACing	-3.067589e-01	-1.118404e-01
025	RMFG	ACing1	2.302717e-02	2.976519e-01
025	RMFG	LAG	6.922210e-01	8.709528e-01
025	RMFG	LAG1	1.082136e-01	5.918013e-01
025	RMFG	LAG2	1.493437e-01	2.718424e-01
025	RMFG	LAG3	4.348711e-01	8.128878e-01
025	RMFG	LAG4	2.444951e-01	4.360890e-01
025	RMFG	RAG	4.248706e-01	3.915535e-01
025	RMFG	RAG1	4.821055e-01	1.927024e-01
025	RMFG	RAG2	4.309492e-01	-7.760955e-02
027	RMFG	Insula	4.180142e-01	5.865004e-01
027	RMFG	Insula1	5.857651e-01	6.948647e-01
027	RMFG	Insula2	1.242395e+00	1.038279e+00
027	RMFG	Insula3	7.419303e-01	4.949842e-01
027	RMFG	Insula4	4.978255e-01	5.852434e-01
027	RMFG	dACC	8.210284e-01	1.223285e+00
027	RMFG	RInsula	8.118632e-01	7.054267e-01
027	RMFG	RInsula1	2.640420e-01	2.043361e-01
027	RMFG	SPL	3.183787e-01	4.156506e-01
027	RMFG	SPL1	2.928529e-01	5.078248e-01
027	RMFG	SPL2	3.484500e-01	9.902482e-02
027	RMFG	RMFG1	5.896329e-01	5.492303e-01
027	RMFG	RMFG2	1.318949e-01	2.200618e-01
027	RMFG	RTempPole	1.938125e-01	2.869613e-01
027	RMFG	RTempPole1	3.114175e-01	8.991510e-02
027	RMFG	RPrec	3.412682e-01	-2.897927e-01
027	RMFG	RPrec1	4.842820e-01	-5.249025e-01
027	RMFG	RPrec2	4.790587e-01	-4.833306e-01
027	RMFG	MTG	2.969866e-01	2.008535e-02
027	RMFG	MTG1	1.840021e-01	1.254396e-02
027	RMFG	ACing	-9.681820e-02	-2.903260e-01
027	RMFG	ACing1	-8.965802e-02	-4.503218e-01
027	RMFG	LAG	4.273178e-01	-2.211086e-02
027	RMFG	LAG1	6.728225e-01	-4.345216e-03
027	RMFG	LAG2	3.314263e-01	-1.266544e-01
027	RMFG	LAG3	2.884925e-01	2.079434e-02
027	RMFG	LAG4	5.045698e-01	1.240924e-01
027	RMFG	RAG	2.444673e-01	-3.205625e-01
027	RMFG	RAG1	6.485916e-01	7.689556e-01
027	RMFG	RAG2	1.599551e-01	-1.101584e-01
028	RMFG	Insula	3.961654e-01	-2.378010e-02
028	RMFG	Insula1	9.546856e-01	3.791446e-01
028	RMFG	Insula2	7.043015e-01	3.432506e-01
028	RMFG	Insula3	1.279490e-01	3.008762e-01
028	RMFG	Insula4	6.908523e-01	6.382532e-01
028	RMFG	dACC	1.864417e-01	2.114315e-01
028	RMFG	RInsula	2.243906e-01	8.011993e-02
028	RMFG	RInsula1	2.531016e-01	1.010162e-01
028	RMFG	SPL	3.657811e-01	2.141250e-01
028	RMFG	SPL1	6.032933e-01	2.903402e-01
028	RMFG	SPL2	6.847552e-01	5.209341e-01
028	RMFG	RMFG1	8.461718e-01	3.723600e-01
028	RMFG	RMFG2	2.963662e-01	1.253087e-01
028	RMFG	RTempPole	1.982204e-01	4.519115e-01
028	RMFG	RTempPole1	2.779367e-01	1.228086e-01
028	RMFG	RPrec	3.406461e-01	5.462138e-01
028	RMFG	RPrec1	3.189743e-01	8.485262e-01
028	RMFG	RPrec2	5.525663e-01	1.234986e+00
028	RMFG	MTG	2.216409e-01	5.849841e-01
028	RMFG	MTG1	3.547095e-02	4.628335e-01
028	RMFG	ACing	1.144154e-01	-1.652912e-02
028	RMFG	ACing1	1.909947e-01	6.551750e-01
028	RMFG	LAG	2.329911e-01	4.589746e-01
028	RMFG	LAG1	4.425457e-01	1.105115e+00
028	RMFG	LAG2	3.625911e-01	3.325636e-01
028	RMFG	LAG3	6.199900e-01	1.080481e+00
028	RMFG	LAG4	3.283815e-01	8.305559e-01
028	RMFG	RAG	3.090519e-01	4.964020e-01
028	RMFG	RAG1	3.603138e-01	1.355455e-02
028	RMFG	RAG2	5.863914e-01	7.824963e-01
029	RMFG	Insula	6.693090e-01	1.699598e-01
029	RMFG	Insula1	2.460910e-01	4.730172e-02
029	RMFG	Insula2	7.505800e-01	6.556621e-02
029	RMFG	Insula3	3.802270e-01	-2.853027e-02
029	RMFG	Insula4	5.010710e-01	1.007252e-01
029	RMFG	dACC	4.610640e-01	3.557236e-01
029	RMFG	RInsula	4.874362e-01	6.588167e-02
029	RMFG	RInsula1	6.389026e-01	6.479800e-02
029	RMFG	SPL	3.054187e-01	4.198650e-02
029	RMFG	SPL1	3.546336e-01	1.605077e-01
029	RMFG	SPL2	2.452187e-01	8.416458e-02
029	RMFG	RMFG1	2.452883e-01	1.224338e-01
029	RMFG	RMFG2	1.706382e-01	7.482563e-02
029	RMFG	RTempPole	2.156199e-01	1.270221e-01
029	RMFG	RTempPole1	2.705752e-01	1.045162e-01
029	RMFG	RPrec	1.547430e-01	-1.864416e-01
029	RMFG	RPrec1	3.390102e-01	1.170238e-01
029	RMFG	RPrec2	3.609173e-01	7.931854e-02
029	RMFG	MTG	2.309163e-01	1.412760e-01
029	RMFG	MTG1	3.113426e-01	1.138791e-01
029	RMFG	ACing	5.991243e-02	1.635575e-01
029	RMFG	ACing1	2.242467e-01	4.200551e-01
029	RMFG	LAG	3.562018e-01	3.681460e-02
029	RMFG	LAG1	1.224812e-01	1.136535e-01
029	RMFG	LAG2	-4.324340e-02	-7.723792e-02
029	RMFG	LAG3	2.340241e-01	1.383645e-01
029	RMFG	LAG4	2.799216e-01	1.101671e-01
029	RMFG	RAG	4.642790e-01	1.137077e-01
029	RMFG	RAG1	3.931213e-01	4.060379e-02
029	RMFG	RAG2	3.988115e-01	8.318166e-02
030	RMFG	Insula	8.370856e-01	-5.829684e-02
030	RMFG	Insula1	6.172715e-01	1.857074e-01
030	RMFG	Insula2	1.312512e+00	2.100052e-01
030	RMFG	Insula3	7.374968e-01	-3.546286e-02
030	RMFG	Insula4	6.796824e-01	8.175059e-02
030	RMFG	dACC	3.666092e-01	1.518428e-01
030	RMFG	RInsula	7.854148e-01	-3.373160e-01
030	RMFG	RInsula1	6.868155e-01	-2.409066e-01
030	RMFG	SPL	4.907179e-01	-2.133852e-01
030	RMFG	SPL1	5.393422e-01	-5.627102e-01
030	RMFG	SPL2	4.881470e-01	-3.291763e-01
030	RMFG	RMFG1	7.695291e-01	1.100388e-01
030	RMFG	RMFG2	1.869066e-01	1.214685e-02
030	RMFG	RTempPole	6.530904e-01	8.772469e-02
030	RMFG	RTempPole1	3.529175e-01	-1.484778e-01
030	RMFG	RPrec	3.438961e-01	-2.437530e-01
030	RMFG	RPrec1	4.818575e-01	-8.011918e-02
030	RMFG	RPrec2	1.723350e-01	-1.040522e-01
030	RMFG	MTG	2.783117e-01	8.530361e-02
030	RMFG	MTG1	5.092951e-01	8.385632e-03
030	RMFG	ACing	4.287135e-01	1.417430e-01
030	RMFG	ACing1	9.057012e-01	1.809717e-01
030	RMFG	LAG	4.603568e-01	7.000601e-02
030	RMFG	LAG1	1.487330e-01	2.129259e-01
030	RMFG	LAG2	2.539550e-01	2.249881e-02
030	RMFG	LAG3	3.262769e-01	-1.626163e-01
030	RMFG	LAG4	2.701051e-01	-4.766805e-02
030	RMFG	RAG	1.026901e-01	-7.522234e-02
030	RMFG	RAG1	8.937576e-01	1.887346e-02
030	RMFG	RAG2	3.076383e-01	-5.210170e-01
031	RMFG	Insula	5.818353e-02	7.249504e-02
031	RMFG	Insula1	3.982976e-02	2.492914e-01
031	RMFG	Insula2	3.797666e-01	1.373697e-02
031	RMFG	Insula3	-2.878313e-02	-2.668504e-01
031	RMFG	Insula4	-1.286054e-01	-1.943772e-01
031	RMFG	dACC	1.589571e-01	3.654806e-01
031	RMFG	RInsula	1.520604e-01	3.303584e-01
031	RMFG	RInsula1	1.291949e-01	3.048667e-01
031	RMFG	SPL	1.588523e-01	6.781767e-02
031	RMFG	SPL1	-1.108573e-03	3.603596e-03
031	RMFG	SPL2	3.492417e-02	-8.074735e-02
031	RMFG	RMFG1	2.073235e-01	-2.859849e-01
031	RMFG	RMFG2	-9.177652e-02	-2.037764e-01
031	RMFG	RTempPole	-2.638008e-01	-1.895598e-01
031	RMFG	RTempPole1	-1.546626e-01	-5.077330e-02
031	RMFG	RPrec	-9.783817e-02	2.008796e-01
031	RMFG	RPrec1	-6.648833e-02	-1.446794e-02
031	RMFG	RPrec2	2.850616e-01	4.551614e-01
031	RMFG	MTG	-7.936537e-02	1.364313e-01
031	RMFG	MTG1	3.265913e-01	3.695404e-01
031	RMFG	ACing	-4.046312e-01	2.895238e-01
031	RMFG	ACing1	-6.687901e-01	-2.278705e-01
031	RMFG	LAG	3.461349e-02	3.164412e-01
031	RMFG	LAG1	-2.547545e-02	2.443168e-01
031	RMFG	LAG2	-1.936510e-02	-3.510152e-02
031	RMFG	LAG3	9.930014e-03	4.268084e-01
031	RMFG	LAG4	-3.594592e-02	2.660608e-01
031	RMFG	RAG	-1.372723e-01	2.483952e-02
031	RMFG	RAG1	1.335982e-01	2.599370e-01
031	RMFG	RAG2	6.686374e-02	2.560750e-01
