Subject	ROI_seed	ROI_target	Cats_rest	Cats_Counting
001_JE	RInsula1	Insula	3.809868e-01	-1.530383e-01
001_JE	RInsula1	Insula1	1.027488e-01	-1.126122e-01
001_JE	RInsula1	Insula2	3.656163e-01	-1.110694e-01
001_JE	RInsula1	Insula3	1.906035e-01	2.672326e-02
001_JE	RInsula1	Insula4	3.469498e-01	-1.509746e-01
001_JE	RInsula1	dACC	1.200003e-01	-3.616492e-02
001_JE	RInsula1	RInsula	4.217638e-01	-1.429141e-02
001_JE	RInsula1	SPL	5.169915e-03	-1.107392e-01
001_JE	RInsula1	SPL1	2.897836e-01	-6.385553e-02
001_JE	RInsula1	SPL2	7.597446e-02	2.398139e-02
001_JE	RInsula1	RMFG	2.837740e-01	-2.257304e-02
001_JE	RInsula1	RMFG1	5.433309e-01	1.789121e-01
001_JE	RInsula1	RMFG2	1.612648e-01	1.471667e-01
001_JE	RInsula1	RTempPole	1.800078e-01	1.339558e-01
001_JE	RInsula1	RTempPole1	1.942412e-01	1.142170e-01
001_JE	RInsula1	RPrec	5.017878e-01	4.154739e-01
001_JE	RInsula1	RPrec1	2.735670e-01	1.611218e-02
001_JE	RInsula1	RPrec2	2.283863e-01	1.102449e-01
001_JE	RInsula1	MTG	1.455771e-01	1.341674e-01
001_JE	RInsula1	MTG1	2.046581e-01	-4.277643e-03
001_JE	RInsula1	ACing	-2.613622e-03	-1.455087e-01
001_JE	RInsula1	ACing1	-9.258974e-03	2.713185e-01
001_JE	RInsula1	LAG	4.142845e-01	-4.062302e-03
001_JE	RInsula1	LAG1	4.492481e-01	8.810379e-02
001_JE	RInsula1	LAG2	2.816098e-01	4.744571e-02
001_JE	RInsula1	LAG3	1.466936e-01	3.281626e-02
001_JE	RInsula1	LAG4	3.911897e-01	2.068443e-01
001_JE	RInsula1	RAG	5.280562e-01	6.144983e-02
001_JE	RInsula1	RAG1	4.225428e-01	-8.850387e-02
001_JE	RInsula1	RAG2	2.223268e-01	-1.350525e-01
002_JE	RInsula1	Insula	3.426415e-01	-1.067218e-01
002_JE	RInsula1	Insula1	4.673258e-01	-1.027847e-01
002_JE	RInsula1	Insula2	2.964527e-01	-2.087719e-01
002_JE	RInsula1	Insula3	2.987686e-01	7.307741e-02
002_JE	RInsula1	Insula4	4.519499e-01	-1.777024e-01
002_JE	RInsula1	dACC	7.272395e-02	-2.855805e-01
002_JE	RInsula1	RInsula	3.949886e-01	-1.115343e-01
002_JE	RInsula1	SPL	4.766432e-01	-2.214471e-01
002_JE	RInsula1	SPL1	3.445975e-01	-2.207790e-01
002_JE	RInsula1	SPL2	2.748686e-01	-9.794057e-02
002_JE	RInsula1	RMFG	4.149523e-01	1.658125e-01
002_JE	RInsula1	RMFG1	3.976949e-01	-1.494899e-01
002_JE	RInsula1	RMFG2	2.077302e-01	-1.347292e-01
002_JE	RInsula1	RTempPole	-7.170002e-02	-1.428619e-01
002_JE	RInsula1	RTempPole1	-3.584787e-02	-5.926974e-02
002_JE	RInsula1	RPrec	3.053975e-01	1.605034e-01
002_JE	RInsula1	RPrec1	2.674684e-01	1.325073e-01
002_JE	RInsula1	RPrec2	1.924581e-01	1.352883e-01
002_JE	RInsula1	MTG	7.055074e-02	6.298980e-02
002_JE	RInsula1	MTG1	5.362789e-02	-6.269070e-02
002_JE	RInsula1	ACing	9.613700e-02	1.562669e-01
002_JE	RInsula1	ACing1	6.820403e-02	2.633123e-01
002_JE	RInsula1	LAG	2.872560e-01	2.097427e-01
002_JE	RInsula1	LAG1	1.523648e-01	1.882813e-01
002_JE	RInsula1	LAG2	1.437201e-01	1.321256e-01
002_JE	RInsula1	LAG3	1.201643e-01	1.988724e-02
002_JE	RInsula1	LAG4	2.020492e-01	2.102820e-01
002_JE	RInsula1	RAG	1.631417e-01	1.232088e-01
002_JE	RInsula1	RAG1	2.443363e-01	2.469225e-01
002_JE	RInsula1	RAG2	1.696734e-01	-2.585489e-02
003_JE	RInsula1	Insula	4.577830e-01	4.157374e-01
003_JE	RInsula1	Insula1	3.435324e-01	2.195947e-01
003_JE	RInsula1	Insula2	4.066907e-01	1.419221e-01
003_JE	RInsula1	Insula3	2.983284e-01	1.915295e-01
003_JE	RInsula1	Insula4	4.388204e-01	2.772428e-01
003_JE	RInsula1	dACC	2.021130e-01	1.769621e-01
003_JE	RInsula1	RInsula	7.164376e-01	5.611720e-01
003_JE	RInsula1	SPL	1.992456e-01	-2.712388e-02
003_JE	RInsula1	SPL1	3.003837e-01	6.197595e-02
003_JE	RInsula1	SPL2	2.693961e-01	9.911631e-02
003_JE	RInsula1	RMFG	3.567805e-01	2.795586e-01
003_JE	RInsula1	RMFG1	5.687170e-01	3.271332e-01
003_JE	RInsula1	RMFG2	2.296098e-01	1.058981e-01
003_JE	RInsula1	RTempPole	2.380252e-01	3.421145e-01
003_JE	RInsula1	RTempPole1	2.793665e-01	4.515677e-01
003_JE	RInsula1	RPrec	2.112598e-01	1.650583e-01
003_JE	RInsula1	RPrec1	4.040029e-01	5.942554e-01
003_JE	RInsula1	RPrec2	2.488135e-01	4.233675e-01
003_JE	RInsula1	MTG	1.469539e-01	2.476270e-01
003_JE	RInsula1	MTG1	1.172516e-01	1.971254e-01
003_JE	RInsula1	ACing	-6.436483e-02	-2.557417e-01
003_JE	RInsula1	ACing1	1.222274e-01	5.711588e-02
003_JE	RInsula1	LAG	3.758496e-01	4.652003e-01
003_JE	RInsula1	LAG1	1.857873e-01	2.243487e-01
003_JE	RInsula1	LAG2	3.964112e-02	1.179056e-01
003_JE	RInsula1	LAG3	1.491434e-01	3.551285e-01
003_JE	RInsula1	LAG4	1.576436e-01	1.301966e-01
003_JE	RInsula1	RAG	2.935798e-01	2.915029e-01
003_JE	RInsula1	RAG1	2.564385e-01	3.654392e-01
003_JE	RInsula1	RAG2	1.847701e-01	1.860741e-01
004_JE	RInsula1	Insula	4.760801e-01	1.555931e-01
004_JE	RInsula1	Insula1	5.361819e-01	6.913768e-02
004_JE	RInsula1	Insula2	3.763639e-01	1.389664e-01
004_JE	RInsula1	Insula3	2.266039e-01	1.546206e-01
004_JE	RInsula1	Insula4	5.532980e-01	-1.237482e-02
004_JE	RInsula1	dACC	1.014182e-01	2.195266e-01
004_JE	RInsula1	RInsula	4.846407e-01	1.845010e-01
004_JE	RInsula1	SPL	1.831749e-01	-3.114593e-02
004_JE	RInsula1	SPL1	2.830199e-01	1.189899e-01
004_JE	RInsula1	SPL2	2.641744e-01	1.233184e-01
004_JE	RInsula1	RMFG	2.629336e-01	7.342105e-02
004_JE	RInsula1	RMFG1	9.711855e-01	9.315223e-02
004_JE	RInsula1	RMFG2	2.203236e-01	9.784915e-02
004_JE	RInsula1	RTempPole	1.807641e-01	1.562732e-01
004_JE	RInsula1	RTempPole1	2.136682e-01	1.418545e-01
004_JE	RInsula1	RPrec	2.652716e-01	8.570459e-02
004_JE	RInsula1	RPrec1	3.946775e-01	2.372953e-02
004_JE	RInsula1	RPrec2	6.469709e-02	2.260180e-02
004_JE	RInsula1	MTG	1.502482e-01	9.491489e-03
004_JE	RInsula1	MTG1	9.945248e-02	1.027492e-01
004_JE	RInsula1	ACing	-3.106126e-01	6.766127e-03
004_JE	RInsula1	ACing1	1.622426e-01	-1.252064e-01
004_JE	RInsula1	LAG	2.124476e-01	-1.786150e-01
004_JE	RInsula1	LAG1	2.305601e-01	-1.081293e-01
004_JE	RInsula1	LAG2	1.273183e-01	-1.332549e-02
004_JE	RInsula1	LAG3	1.304338e-01	1.749937e-01
004_JE	RInsula1	LAG4	4.847220e-05	-9.291135e-02
004_JE	RInsula1	RAG	3.383928e-01	4.898568e-02
004_JE	RInsula1	RAG1	2.768109e-01	-6.940879e-03
004_JE	RInsula1	RAG2	2.679216e-01	6.814503e-02
005_JE	RInsula1	Insula	1.707773e-01	1.838920e-02
005_JE	RInsula1	Insula1	2.679660e-01	-6.613379e-02
005_JE	RInsula1	Insula2	2.729823e-01	-2.097611e-01
005_JE	RInsula1	Insula3	7.945181e-02	-6.699484e-02
005_JE	RInsula1	Insula4	3.728791e-01	-9.734416e-03
005_JE	RInsula1	dACC	-7.883811e-02	2.519329e-02
005_JE	RInsula1	RInsula	2.703516e-01	1.412360e-01
005_JE	RInsula1	SPL	2.593048e-01	-8.124982e-02
005_JE	RInsula1	SPL1	2.463345e-01	-1.224196e-01
005_JE	RInsula1	SPL2	2.188794e-01	-2.473640e-01
005_JE	RInsula1	RMFG	1.070102e-01	-1.496636e-01
005_JE	RInsula1	RMFG1	2.715572e-01	-2.899638e-02
005_JE	RInsula1	RMFG2	4.235964e-02	-1.092485e-01
005_JE	RInsula1	RTempPole	1.666709e-01	1.270871e-01
005_JE	RInsula1	RTempPole1	2.036421e-01	2.729033e-01
005_JE	RInsula1	RPrec	2.140951e-01	5.163434e-02
005_JE	RInsula1	RPrec1	2.487876e-01	-2.340043e-02
005_JE	RInsula1	RPrec2	2.182210e-01	2.458515e-01
005_JE	RInsula1	MTG	1.228931e-01	1.502526e-01
005_JE	RInsula1	MTG1	5.132090e-02	1.284225e-01
005_JE	RInsula1	ACing	-2.039611e-01	5.144786e-02
005_JE	RInsula1	ACing1	-1.998212e-01	-3.879164e-02
005_JE	RInsula1	LAG	4.303739e-02	-1.492200e-01
005_JE	RInsula1	LAG1	9.740308e-02	5.431579e-02
005_JE	RInsula1	LAG2	8.080049e-02	-9.604858e-02
005_JE	RInsula1	LAG3	1.502519e-01	1.833861e-01
005_JE	RInsula1	LAG4	3.661981e-01	-2.306968e-02
005_JE	RInsula1	RAG	1.893566e-01	6.303805e-02
005_JE	RInsula1	RAG1	1.860151e-01	-8.032415e-02
005_JE	RInsula1	RAG2	1.586668e-01	-4.154561e-02
006_JE	RInsula1	Insula	4.628078e-01	-1.114523e-01
006_JE	RInsula1	Insula1	4.855701e-01	-2.093747e-01
006_JE	RInsula1	Insula2	4.455564e-01	7.922965e-02
006_JE	RInsula1	Insula3	3.335427e-01	2.693447e-01
006_JE	RInsula1	Insula4	7.376073e-01	1.674962e-01
006_JE	RInsula1	dACC	5.542019e-01	1.831457e-01
006_JE	RInsula1	RInsula	4.461466e-01	-1.553202e-02
006_JE	RInsula1	SPL	1.967309e-01	1.061227e-01
006_JE	RInsula1	SPL1	2.064625e-01	7.726562e-02
006_JE	RInsula1	SPL2	4.135639e-01	-3.459402e-02
006_JE	RInsula1	RMFG	1.665130e-01	-1.738803e-02
006_JE	RInsula1	RMFG1	5.675762e-01	1.326877e-02
006_JE	RInsula1	RMFG2	1.250334e-01	3.808373e-03
006_JE	RInsula1	RTempPole	2.768893e-01	1.362590e-01
006_JE	RInsula1	RTempPole1	2.098554e-01	1.190485e-01
006_JE	RInsula1	RPrec	3.527338e-01	1.738213e-01
006_JE	RInsula1	RPrec1	3.170253e-01	3.394233e-01
006_JE	RInsula1	RPrec2	4.344755e-02	3.232779e-01
006_JE	RInsula1	MTG	1.537011e-01	1.184241e-02
006_JE	RInsula1	MTG1	9.667920e-02	-7.209422e-03
006_JE	RInsula1	ACing	-8.525433e-02	7.670723e-02
006_JE	RInsula1	ACing1	3.647288e-01	3.172896e-01
006_JE	RInsula1	LAG	2.479086e-01	1.387719e-01
006_JE	RInsula1	LAG1	2.331847e-01	1.622643e-01
006_JE	RInsula1	LAG2	3.052519e-01	2.085050e-01
006_JE	RInsula1	LAG3	2.906055e-01	1.998961e-01
006_JE	RInsula1	LAG4	4.003887e-01	4.854077e-01
006_JE	RInsula1	RAG	3.289296e-01	2.894393e-01
006_JE	RInsula1	RAG1	1.276165e-01	1.390129e-02
006_JE	RInsula1	RAG2	3.300677e-01	1.186587e-01
007_JE	RInsula1	Insula3	4.651575e-01	1.176918e-01
007_JE	RInsula1	Insula4	7.087705e-01	-3.548062e-02
007_JE	RInsula1	SPL1	4.614838e-01	1.336358e-01
007_JE	RInsula1	SPL2	3.329992e-01	1.305455e-01
007_JE	RInsula1	Insula	5.197375e-01	1.308451e-01
007_JE	RInsula1	Insula1	9.645898e-01	2.347457e-01
007_JE	RInsula1	Insula2	4.998087e-01	-1.803541e-01
007_JE	RInsula1	dACC	-1.168733e-01	-1.606918e-01
007_JE	RInsula1	RInsula	4.986921e-01	4.819165e-02
007_JE	RInsula1	SPL	2.524965e-01	-3.060967e-02
007_JE	RInsula1	RMFG	2.568671e-01	-1.125513e-01
007_JE	RInsula1	RMFG1	2.748952e-01	-6.754668e-02
007_JE	RInsula1	RMFG2	1.177923e-01	-5.680471e-02
007_JE	RInsula1	RTempPole	5.873608e-02	4.528493e-02
007_JE	RInsula1	RTempPole1	1.017496e-01	1.039661e-01
007_JE	RInsula1	RPrec	8.200673e-02	2.281760e-01
007_JE	RInsula1	RPrec1	4.101558e-01	4.183044e-01
007_JE	RInsula1	RPrec2	2.281386e-01	3.769313e-01
007_JE	RInsula1	MTG	1.824841e-01	1.826003e-01
007_JE	RInsula1	MTG1	6.921518e-02	1.110881e-01
007_JE	RInsula1	ACing	-1.177671e-01	-2.096775e-02
007_JE	RInsula1	ACing1	3.150011e-01	1.207983e-01
007_JE	RInsula1	LAG	1.590773e-01	2.468225e-01
007_JE	RInsula1	LAG1	1.775759e-01	3.248324e-01
007_JE	RInsula1	LAG2	6.656828e-02	1.031026e-02
007_JE	RInsula1	LAG3	4.564052e-02	3.032022e-01
007_JE	RInsula1	LAG4	2.540603e-01	7.346150e-01
007_JE	RInsula1	RAG	2.975880e-01	2.817669e-01
007_JE	RInsula1	RAG1	2.563897e-01	2.052979e-01
007_JE	RInsula1	RAG2	2.444365e-01	2.002851e-01
008_JE	RInsula1	Insula3	1.630375e-01	4.643613e-02
008_JE	RInsula1	Insula4	6.569509e-01	1.893365e-01
008_JE	RInsula1	SPL1	1.424584e-01	7.659863e-02
008_JE	RInsula1	SPL2	1.448300e-01	-4.522995e-02
008_JE	RInsula1	Insula	2.601894e-01	-6.426444e-02
008_JE	RInsula1	Insula1	5.536215e-01	2.988299e-01
008_JE	RInsula1	Insula2	4.554497e-01	2.394000e-01
008_JE	RInsula1	dACC	1.214757e-01	-2.942166e-02
008_JE	RInsula1	RInsula	2.136499e-01	-1.868846e-02
008_JE	RInsula1	SPL	1.223735e-01	-6.880859e-02
008_JE	RInsula1	RMFG	3.838729e-01	6.561693e-02
008_JE	RInsula1	RMFG1	3.158305e-01	-7.280106e-03
008_JE	RInsula1	RMFG2	1.936851e-01	-4.186381e-02
008_JE	RInsula1	RTempPole	1.622325e-01	1.449694e-01
008_JE	RInsula1	RTempPole1	2.672483e-01	3.835821e-02
008_JE	RInsula1	RPrec	2.823988e-01	5.497339e-02
008_JE	RInsula1	RPrec1	1.239916e-01	6.741614e-02
008_JE	RInsula1	RPrec2	1.323396e-01	1.900587e-01
008_JE	RInsula1	MTG	1.803365e-01	1.181275e-01
008_JE	RInsula1	MTG1	1.508044e-01	2.602666e-01
008_JE	RInsula1	ACing	1.436589e-01	2.410325e-01
008_JE	RInsula1	ACing1	1.514367e-01	2.849342e-01
008_JE	RInsula1	LAG	1.892129e-01	2.269589e-01
008_JE	RInsula1	LAG1	1.104175e-01	1.864713e-01
008_JE	RInsula1	LAG2	1.674560e-01	1.694603e-01
008_JE	RInsula1	LAG3	1.028822e-01	1.612138e-01
008_JE	RInsula1	LAG4	7.514793e-02	7.519756e-02
008_JE	RInsula1	RAG	8.319935e-02	6.371571e-02
008_JE	RInsula1	RAG1	1.150573e-01	-1.183636e-02
008_JE	RInsula1	RAG2	1.213086e-01	9.522273e-02
009_JE	RInsula1	Insula3	6.802480e-02	-8.432653e-02
009_JE	RInsula1	Insula4	2.951327e-01	2.073622e-02
009_JE	RInsula1	SPL1	2.229020e-01	-1.699964e-01
009_JE	RInsula1	SPL2	2.099238e-01	-1.522116e-01
009_JE	RInsula1	Insula	3.846621e-01	7.023646e-02
009_JE	RInsula1	Insula1	2.967428e-01	-5.530272e-03
009_JE	RInsula1	Insula2	3.167306e-01	2.319469e-01
009_JE	RInsula1	dACC	1.419944e-02	-6.625979e-02
009_JE	RInsula1	RInsula	4.093643e-01	4.199151e-02
009_JE	RInsula1	SPL	7.820621e-02	-6.308085e-02
009_JE	RInsula1	RMFG	1.437640e-01	8.749721e-02
009_JE	RInsula1	RMFG1	3.998107e-01	8.555890e-02
009_JE	RInsula1	RMFG2	5.341555e-02	5.355932e-02
009_JE	RInsula1	RTempPole	1.082704e-01	-1.584689e-01
009_JE	RInsula1	RTempPole1	8.302343e-02	3.754350e-02
009_JE	RInsula1	RPrec	5.012327e-02	1.846125e-01
009_JE	RInsula1	RPrec1	9.380336e-02	-9.603952e-02
009_JE	RInsula1	RPrec2	-2.875728e-02	1.342622e-02
009_JE	RInsula1	MTG	1.244818e-01	-1.332859e-01
009_JE	RInsula1	MTG1	9.156062e-02	-1.352945e-01
009_JE	RInsula1	ACing	-2.887696e-01	-3.530869e-02
009_JE	RInsula1	ACing1	-6.942133e-02	3.215909e-02
009_JE	RInsula1	LAG	-5.878913e-02	-1.256787e-01
009_JE	RInsula1	LAG1	1.467188e-01	-1.568669e-01
009_JE	RInsula1	LAG2	1.497707e-02	-2.215531e-01
009_JE	RInsula1	LAG3	2.129145e-02	-5.309443e-02
009_JE	RInsula1	LAG4	-3.953160e-02	-1.639274e-02
009_JE	RInsula1	RAG	5.491468e-02	-2.483013e-01
009_JE	RInsula1	RAG1	3.265224e-01	3.733148e-02
009_JE	RInsula1	RAG2	7.444905e-02	-1.179021e-01
010_JE	RInsula1	Insula3	1.454754e-01	-4.369502e-04
010_JE	RInsula1	Insula4	6.180798e-01	2.168738e-01
010_JE	RInsula1	SPL1	3.900930e-01	-5.220257e-02
010_JE	RInsula1	SPL2	2.755341e-01	-3.949153e-01
010_JE	RInsula1	Insula	4.461586e-01	4.841791e-02
010_JE	RInsula1	Insula1	4.782456e-01	4.412939e-01
010_JE	RInsula1	Insula2	3.948631e-01	2.382983e-01
010_JE	RInsula1	dACC	-2.597240e-01	-2.256445e-01
010_JE	RInsula1	RInsula	3.476978e-01	-5.099174e-02
010_JE	RInsula1	SPL	8.240382e-02	-1.985787e-01
010_JE	RInsula1	RMFG	3.264691e-01	2.047297e-01
010_JE	RInsula1	RMFG1	4.356633e-01	1.611141e-01
010_JE	RInsula1	RMFG2	1.326038e-01	8.394098e-02
010_JE	RInsula1	RTempPole	1.384749e-01	3.994422e-01
010_JE	RInsula1	RTempPole1	1.741519e-01	4.165406e-01
010_JE	RInsula1	RPrec	2.924725e-01	2.731067e-01
010_JE	RInsula1	RPrec1	3.272347e-01	2.704130e-01
010_JE	RInsula1	RPrec2	1.903135e-01	3.542301e-01
010_JE	RInsula1	MTG	-3.198048e-01	1.218463e-01
010_JE	RInsula1	MTG1	-5.300829e-02	3.133578e-01
010_JE	RInsula1	ACing	9.369645e-02	8.432129e-02
010_JE	RInsula1	ACing1	-1.140036e-01	1.039290e-01
010_JE	RInsula1	LAG	-9.425814e-02	5.154559e-01
010_JE	RInsula1	LAG1	-1.307785e-01	2.894030e-01
010_JE	RInsula1	LAG2	8.582318e-02	5.550842e-01
010_JE	RInsula1	LAG3	5.176045e-02	5.098925e-01
010_JE	RInsula1	LAG4	-7.936967e-02	2.448502e-01
010_JE	RInsula1	RAG	1.486465e-01	5.215349e-01
010_JE	RInsula1	RAG1	3.237165e-01	3.836183e-01
010_JE	RInsula1	RAG2	3.215625e-01	2.288175e-01
011_JE	RInsula1	Insula3	2.601177e-01	-6.409509e-02
011_JE	RInsula1	Insula4	4.551192e-01	6.761687e-03
011_JE	RInsula1	SPL1	3.177317e-01	9.219948e-02
011_JE	RInsula1	SPL2	2.912497e-01	4.285256e-02
011_JE	RInsula1	Insula	4.079917e-01	1.182042e-01
011_JE	RInsula1	Insula1	4.206714e-01	3.814897e-03
011_JE	RInsula1	Insula2	5.934679e-01	1.721174e-01
011_JE	RInsula1	dACC	1.941752e-01	2.173055e-01
011_JE	RInsula1	RInsula	6.460849e-01	1.231643e-01
011_JE	RInsula1	SPL	1.492416e-01	1.136619e-01
011_JE	RInsula1	RMFG	1.889760e-01	-1.340441e-01
011_JE	RInsula1	RMFG1	4.402474e-01	-1.738226e-01
011_JE	RInsula1	RMFG2	1.507808e-01	7.042586e-02
011_JE	RInsula1	RTempPole	-6.670215e-03	1.303826e-01
011_JE	RInsula1	RTempPole1	1.181316e-01	2.116611e-01
011_JE	RInsula1	RPrec	3.162154e-01	1.544781e-02
011_JE	RInsula1	RPrec1	3.586241e-01	2.243994e-01
011_JE	RInsula1	RPrec2	4.184615e-01	6.652175e-01
011_JE	RInsula1	MTG	8.907232e-02	1.458734e-01
011_JE	RInsula1	MTG1	1.070418e-01	1.175487e-01
011_JE	RInsula1	ACing	-5.182700e-02	-5.968911e-02
011_JE	RInsula1	ACing1	6.844957e-01	4.777778e-01
011_JE	RInsula1	LAG	5.935444e-01	3.307680e-01
011_JE	RInsula1	LAG1	2.154913e-01	8.828790e-02
011_JE	RInsula1	LAG2	1.961536e-01	4.420203e-02
011_JE	RInsula1	LAG3	3.432113e-01	3.756516e-01
011_JE	RInsula1	LAG4	4.266468e-01	3.985303e-01
011_JE	RInsula1	RAG	2.538558e-01	4.826602e-02
011_JE	RInsula1	RAG1	4.468404e-01	-1.389237e-01
011_JE	RInsula1	RAG2	2.959596e-01	1.417612e-01
012_JE	RInsula1	Insula3	4.691296e-02	3.136284e-02
012_JE	RInsula1	Insula4	1.625018e-01	2.742438e-02
012_JE	RInsula1	SPL1	5.638458e-02	4.877087e-02
012_JE	RInsula1	SPL2	2.250128e-01	3.245080e-02
012_JE	RInsula1	Insula	1.328856e-01	-2.472513e-02
012_JE	RInsula1	Insula1	1.733848e-01	7.799784e-02
012_JE	RInsula1	Insula2	1.734767e-01	1.278064e-01
012_JE	RInsula1	dACC	-1.792189e-02	6.024667e-02
012_JE	RInsula1	RInsula	1.829518e-01	3.045526e-02
012_JE	RInsula1	SPL	7.140554e-02	-2.454135e-02
012_JE	RInsula1	RMFG	6.370131e-02	6.790454e-02
012_JE	RInsula1	RMFG1	1.976227e-01	-7.149959e-02
012_JE	RInsula1	RMFG2	2.647393e-02	3.855071e-03
012_JE	RInsula1	RTempPole	-4.559707e-02	6.496406e-02
012_JE	RInsula1	RTempPole1	-1.338038e-01	-3.253617e-02
012_JE	RInsula1	RPrec	-5.022445e-02	-3.307137e-02
012_JE	RInsula1	RPrec1	4.224851e-02	9.080581e-02
012_JE	RInsula1	RPrec2	6.732542e-02	1.099540e-01
012_JE	RInsula1	MTG	-9.652684e-02	-5.947098e-02
012_JE	RInsula1	MTG1	5.974744e-03	-2.131863e-02
012_JE	RInsula1	ACing	-2.777555e-01	4.756610e-03
012_JE	RInsula1	ACing1	-1.886533e-02	5.661633e-02
012_JE	RInsula1	LAG	1.629899e-02	4.206849e-02
012_JE	RInsula1	LAG1	-7.390243e-02	2.227068e-02
012_JE	RInsula1	LAG2	1.906610e-02	1.240556e-01
012_JE	RInsula1	LAG3	1.276771e-02	6.235655e-02
012_JE	RInsula1	LAG4	-3.940351e-03	-5.910565e-03
012_JE	RInsula1	RAG	-1.023402e-01	1.092043e-02
012_JE	RInsula1	RAG1	2.284295e-01	9.881692e-02
012_JE	RInsula1	RAG2	-3.563987e-02	2.207850e-02
013_JE	RInsula1	Insula3	1.943981e-01	1.775906e-02
013_JE	RInsula1	Insula4	2.117960e-01	-5.288939e-02
013_JE	RInsula1	SPL1	1.444250e-01	5.628398e-02
013_JE	RInsula1	SPL2	1.797914e-01	-1.577408e-01
013_JE	RInsula1	Insula	1.922573e-01	-1.161851e-01
013_JE	RInsula1	Insula1	2.633002e-01	1.059726e-01
013_JE	RInsula1	Insula2	3.175541e-01	-1.857590e-02
013_JE	RInsula1	dACC	-8.848151e-02	1.233139e-01
013_JE	RInsula1	RInsula	2.127639e-01	2.315753e-02
013_JE	RInsula1	SPL	5.628253e-02	-1.473739e-01
013_JE	RInsula1	RMFG	1.294968e-01	-1.345474e-01
013_JE	RInsula1	RMFG1	2.057796e-01	-8.746241e-02
013_JE	RInsula1	RMFG2	4.289472e-02	-5.361993e-02
013_JE	RInsula1	RTempPole	3.918853e-02	1.495399e-01
013_JE	RInsula1	RTempPole1	9.410247e-03	1.194829e-01
013_JE	RInsula1	RPrec	1.916443e-02	3.651541e-01
013_JE	RInsula1	RPrec1	-1.993899e-02	5.495927e-01
013_JE	RInsula1	RPrec2	-8.764219e-02	3.216049e-01
013_JE	RInsula1	MTG	-2.872333e-02	1.200754e-01
013_JE	RInsula1	MTG1	-3.028882e-02	7.996734e-02
013_JE	RInsula1	ACing	1.438464e-01	3.562450e-01
013_JE	RInsula1	ACing1	9.286446e-02	3.127228e-01
013_JE	RInsula1	LAG	1.189109e-01	1.221822e-01
013_JE	RInsula1	LAG1	-1.038251e-01	2.497475e-01
013_JE	RInsula1	LAG2	-1.735203e-01	1.779271e-01
013_JE	RInsula1	LAG3	-1.854687e-01	2.735985e-01
013_JE	RInsula1	LAG4	-8.017409e-02	3.112923e-01
013_JE	RInsula1	RAG	-1.724902e-02	2.454065e-01
013_JE	RInsula1	RAG1	1.666949e-01	1.078904e-01
013_JE	RInsula1	RAG2	3.177586e-03	3.910268e-01
014_JE	RInsula1	Insula3	3.472191e-01	-8.042958e-02
014_JE	RInsula1	Insula4	7.885499e-01	1.233478e-01
014_JE	RInsula1	SPL1	-2.328632e-02	-2.598391e-01
014_JE	RInsula1	SPL2	-6.546289e-03	-3.375998e-01
014_JE	RInsula1	Insula	2.196259e-01	-1.939060e-01
014_JE	RInsula1	Insula1	4.301889e-01	-2.593051e-01
014_JE	RInsula1	Insula2	3.249999e-01	-1.399676e-01
014_JE	RInsula1	dACC	1.209738e-02	-1.741254e-01
014_JE	RInsula1	RInsula	4.292919e-01	-4.180787e-02
014_JE	RInsula1	SPL	-7.080743e-03	-1.551832e-01
014_JE	RInsula1	RMFG	3.517133e-01	2.424634e-02
014_JE	RInsula1	RMFG1	2.760472e-01	-9.712458e-02
014_JE	RInsula1	RMFG2	9.920018e-02	-1.652803e-02
014_JE	RInsula1	RTempPole	3.300261e-01	-4.746612e-03
014_JE	RInsula1	RTempPole1	3.938343e-02	-2.723693e-02
014_JE	RInsula1	RPrec	2.983436e-01	1.798218e-02
014_JE	RInsula1	RPrec1	3.357983e-01	9.539010e-02
014_JE	RInsula1	RPrec2	3.815234e-01	1.672503e-02
014_JE	RInsula1	MTG	6.158704e-02	-1.949247e-01
014_JE	RInsula1	MTG1	1.284326e-01	-1.240969e-01
014_JE	RInsula1	ACing	-6.020779e-01	-7.719518e-03
014_JE	RInsula1	ACing1	-3.998449e-02	5.460077e-03
014_JE	RInsula1	LAG	4.246179e-01	-1.247040e-01
014_JE	RInsula1	LAG1	2.783282e-01	1.072595e-01
014_JE	RInsula1	LAG2	3.728677e-01	1.110347e-01
014_JE	RInsula1	LAG3	4.044494e-03	3.671435e-02
014_JE	RInsula1	LAG4	-6.811745e-02	-1.966378e-01
014_JE	RInsula1	RAG	1.943710e-01	-1.800839e-02
014_JE	RInsula1	RAG1	6.601578e-01	-3.151282e-02
014_JE	RInsula1	RAG2	2.539318e-01	4.778584e-02
015_JE	RInsula1	Insula3	4.595324e-01	2.225059e-01
015_JE	RInsula1	Insula4	7.360990e-01	3.365058e-01
015_JE	RInsula1	SPL1	1.998053e-01	8.931560e-02
015_JE	RInsula1	SPL2	2.168895e-01	1.045407e-01
015_JE	RInsula1	Insula	4.260247e-01	1.397780e-01
015_JE	RInsula1	Insula1	4.089841e-01	4.909830e-01
015_JE	RInsula1	Insula2	6.698446e-01	5.887453e-01
015_JE	RInsula1	dACC	1.915482e-01	1.902250e-01
015_JE	RInsula1	RInsula	2.255333e-01	1.139812e-01
015_JE	RInsula1	SPL	1.754714e-01	1.034914e-01
015_JE	RInsula1	RMFG	1.529209e-01	-2.827684e-02
015_JE	RInsula1	RMFG1	4.783674e-01	9.163148e-02
015_JE	RInsula1	RMFG2	6.436510e-02	5.512086e-02
015_JE	RInsula1	RTempPole	2.345109e-01	4.158338e-01
015_JE	RInsula1	RTempPole1	1.097476e-01	3.707103e-01
015_JE	RInsula1	RPrec	7.335289e-02	2.755063e-01
015_JE	RInsula1	RPrec1	8.339946e-02	4.059961e-01
015_JE	RInsula1	RPrec2	8.655952e-02	6.155513e-01
015_JE	RInsula1	MTG	1.454654e-01	2.377529e-01
015_JE	RInsula1	MTG1	1.323636e-01	4.169218e-01
015_JE	RInsula1	ACing	-2.608704e-01	2.003276e-01
015_JE	RInsula1	ACing1	2.264572e-02	2.826548e-01
015_JE	RInsula1	LAG	2.064310e-02	4.283461e-01
015_JE	RInsula1	LAG1	1.351333e-01	4.538424e-01
015_JE	RInsula1	LAG2	1.895603e-01	3.674479e-01
015_JE	RInsula1	LAG3	1.047052e-01	3.191710e-01
015_JE	RInsula1	LAG4	1.120284e-01	7.689330e-01
015_JE	RInsula1	RAG	1.633201e-01	4.510086e-01
015_JE	RInsula1	RAG1	1.670638e-01	3.957178e-01
015_JE	RInsula1	RAG2	1.425571e-01	2.205338e-01
016_JE	RInsula1	Insula3	2.762465e-01	2.250410e-01
016_JE	RInsula1	Insula4	6.208073e-01	1.400342e-01
016_JE	RInsula1	SPL1	1.982460e-01	-3.213844e-01
016_JE	RInsula1	SPL2	1.110570e-01	-1.696266e-01
016_JE	RInsula1	Insula	1.483119e-01	-1.287901e-01
016_JE	RInsula1	Insula1	3.368927e-01	-4.072284e-02
016_JE	RInsula1	Insula2	2.467102e-01	-1.347872e-01
016_JE	RInsula1	dACC	2.858054e-01	1.664036e-01
016_JE	RInsula1	RInsula	4.358767e-01	-5.326281e-02
016_JE	RInsula1	SPL	2.867416e-02	3.370110e-02
016_JE	RInsula1	RMFG	9.019723e-02	-1.918515e-02
016_JE	RInsula1	RMFG1	4.629018e-01	5.304948e-01
016_JE	RInsula1	RMFG2	-4.821273e-03	-2.064030e-01
016_JE	RInsula1	RTempPole	1.011422e-02	1.471334e-01
016_JE	RInsula1	RTempPole1	2.736857e-01	3.842317e-01
016_JE	RInsula1	RPrec	2.224980e-01	2.546629e-01
016_JE	RInsula1	RPrec1	2.035262e-01	2.605328e-01
016_JE	RInsula1	RPrec2	1.813123e-01	4.150455e-01
016_JE	RInsula1	MTG	1.413362e-01	5.497154e-02
016_JE	RInsula1	MTG1	1.586584e-01	1.132921e-01
016_JE	RInsula1	ACing	-1.400650e-01	1.171169e-01
016_JE	RInsula1	ACing1	1.491338e-03	1.595785e-01
016_JE	RInsula1	LAG	1.491818e-01	2.728741e-01
016_JE	RInsula1	LAG1	-5.401596e-03	3.627880e-01
016_JE	RInsula1	LAG2	1.496090e-01	2.547938e-01
016_JE	RInsula1	LAG3	8.738693e-02	3.917842e-01
016_JE	RInsula1	LAG4	1.732134e-01	4.634184e-01
016_JE	RInsula1	RAG	1.120635e-01	2.070277e-01
016_JE	RInsula1	RAG1	1.022291e-01	4.877566e-02
016_JE	RInsula1	RAG2	2.255091e-01	2.792719e-01
017_JE	RInsula1	Insula3	1.990516e-01	5.122211e-02
017_JE	RInsula1	Insula4	2.089132e-01	-1.031139e-01
017_JE	RInsula1	SPL1	7.389091e-02	-1.997146e-01
017_JE	RInsula1	SPL2	9.388568e-02	-1.918534e-01
017_JE	RInsula1	Insula	4.466447e-01	-6.327120e-02
017_JE	RInsula1	Insula1	4.049905e-02	-5.026816e-02
017_JE	RInsula1	Insula2	1.580391e-01	-2.375676e-01
017_JE	RInsula1	dACC	2.463164e-01	6.033796e-02
017_JE	RInsula1	RInsula	2.932773e-01	-4.603159e-02
017_JE	RInsula1	SPL	2.714846e-02	-1.710412e-01
017_JE	RInsula1	RMFG	1.629105e-01	-1.458093e-01
017_JE	RInsula1	RMFG1	1.249348e-01	8.873723e-02
017_JE	RInsula1	RMFG2	-3.494443e-04	8.134635e-02
017_JE	RInsula1	RTempPole	2.303622e-01	-2.785113e-03
017_JE	RInsula1	RTempPole1	3.553198e-02	-1.890775e-01
017_JE	RInsula1	RPrec	1.599352e-01	6.217405e-03
017_JE	RInsula1	RPrec1	1.114562e-01	7.599751e-02
017_JE	RInsula1	RPrec2	2.105044e-01	2.387145e-01
017_JE	RInsula1	MTG	7.797337e-02	-5.549472e-03
017_JE	RInsula1	MTG1	-2.382531e-02	1.254189e-01
017_JE	RInsula1	ACing	-8.983199e-02	-5.153174e-02
017_JE	RInsula1	ACing1	3.912724e-01	5.539048e-01
017_JE	RInsula1	LAG	2.368259e-01	1.610773e-01
017_JE	RInsula1	LAG1	1.249282e-01	2.585135e-01
017_JE	RInsula1	LAG2	1.196790e-01	1.066487e-01
017_JE	RInsula1	LAG3	1.619279e-01	3.375667e-01
017_JE	RInsula1	LAG4	3.226771e-02	8.620770e-02
017_JE	RInsula1	RAG	1.557522e-01	4.120263e-02
017_JE	RInsula1	RAG1	1.475258e-01	1.937118e-01
017_JE	RInsula1	RAG2	-4.282464e-02	-1.649478e-01
018_JE	RInsula1	Insula3	3.301111e-01	5.906829e-02
018_JE	RInsula1	Insula4	2.908150e-01	-4.661607e-02
018_JE	RInsula1	SPL1	5.486489e-02	-2.716491e-01
018_JE	RInsula1	SPL2	7.373668e-02	2.055140e-02
018_JE	RInsula1	Insula	3.387465e-01	-2.168785e-01
018_JE	RInsula1	Insula1	4.381200e-01	-1.449997e-01
018_JE	RInsula1	Insula2	5.477650e-01	6.264175e-02
018_JE	RInsula1	dACC	1.479816e-01	-9.308712e-03
018_JE	RInsula1	RInsula	5.099088e-01	1.089635e-01
018_JE	RInsula1	SPL	1.100367e-01	-7.858828e-02
018_JE	RInsula1	RMFG	3.158142e-01	7.791131e-02
018_JE	RInsula1	RMFG1	3.637560e-01	8.675000e-02
018_JE	RInsula1	RMFG2	9.680933e-02	2.709597e-02
018_JE	RInsula1	RTempPole	1.931723e-01	-1.516469e-01
018_JE	RInsula1	RTempPole1	7.868850e-02	-1.877048e-01
018_JE	RInsula1	RPrec	4.064039e-01	-2.074407e-01
018_JE	RInsula1	RPrec1	2.026694e-01	-2.995955e-01
018_JE	RInsula1	RPrec2	2.375967e-01	-2.379924e-01
018_JE	RInsula1	MTG	9.501744e-04	-1.178869e-01
018_JE	RInsula1	MTG1	-5.416877e-03	-1.087207e-01
018_JE	RInsula1	ACing	3.407585e-02	-6.930688e-02
018_JE	RInsula1	ACing1	2.499079e-01	-2.641694e-01
018_JE	RInsula1	LAG	1.857930e-01	-1.247155e-01
018_JE	RInsula1	LAG1	5.749363e-02	-2.407849e-01
018_JE	RInsula1	LAG2	2.278866e-01	6.517049e-02
018_JE	RInsula1	LAG3	6.927729e-02	-2.846574e-01
018_JE	RInsula1	LAG4	1.278812e-01	-2.797249e-01
018_JE	RInsula1	RAG	2.291778e-01	-1.849441e-01
018_JE	RInsula1	RAG1	2.627491e-01	-2.094977e-01
018_JE	RInsula1	RAG2	1.302394e-01	-3.897200e-01
019_JE	RInsula1	Insula3	5.525701e-02	-1.041113e-01
019_JE	RInsula1	Insula4	5.254284e-01	1.330456e-01
019_JE	RInsula1	SPL1	3.510190e-01	9.506545e-03
019_JE	RInsula1	SPL2	1.813430e-01	8.178326e-03
019_JE	RInsula1	Insula	2.047686e-01	2.391097e-02
019_JE	RInsula1	Insula1	3.598871e-01	1.444726e-01
019_JE	RInsula1	Insula2	4.039821e-01	6.526173e-02
019_JE	RInsula1	dACC	1.388786e-01	1.689942e-01
019_JE	RInsula1	RInsula	2.563973e-01	5.750294e-02
019_JE	RInsula1	SPL	3.403862e-01	4.107784e-02
019_JE	RInsula1	RMFG	2.644455e-01	5.333121e-02
019_JE	RInsula1	RMFG1	5.702434e-01	2.711096e-02
019_JE	RInsula1	RMFG2	5.401583e-02	5.922742e-03
019_JE	RInsula1	RTempPole	1.468923e-01	6.133379e-03
019_JE	RInsula1	RTempPole1	2.435405e-01	1.062471e-01
019_JE	RInsula1	RPrec	3.865394e-01	9.173250e-02
019_JE	RInsula1	RPrec1	2.017676e-01	8.698142e-02
019_JE	RInsula1	RPrec2	3.775154e-01	1.563795e-01
019_JE	RInsula1	MTG	8.080340e-02	8.878431e-02
019_JE	RInsula1	MTG1	-1.322246e-01	-1.570121e-02
019_JE	RInsula1	ACing	5.777023e-02	5.856616e-02
019_JE	RInsula1	ACing1	1.612595e-02	8.970970e-02
019_JE	RInsula1	LAG	2.732609e-01	1.469908e-01
019_JE	RInsula1	LAG1	2.533525e-01	9.713376e-02
019_JE	RInsula1	LAG2	2.033872e-01	5.645844e-02
019_JE	RInsula1	LAG3	3.149390e-01	1.777499e-01
019_JE	RInsula1	LAG4	4.039466e-01	1.972158e-01
019_JE	RInsula1	RAG	1.552771e-01	1.332254e-01
019_JE	RInsula1	RAG1	2.229437e-01	7.266554e-02
019_JE	RInsula1	RAG2	1.770715e-01	1.096304e-01
020_JE	RInsula1	Insula3	3.125484e-01	2.033932e-01
020_JE	RInsula1	Insula4	4.632301e-01	3.439939e-01
020_JE	RInsula1	SPL1	1.540633e-01	9.797240e-03
020_JE	RInsula1	SPL2	2.170543e-01	1.669408e-02
020_JE	RInsula1	Insula	1.634231e-01	-7.990198e-02
020_JE	RInsula1	Insula1	4.341440e-01	2.447289e-01
020_JE	RInsula1	Insula2	2.661912e-01	1.227209e-01
020_JE	RInsula1	dACC	3.153231e-01	-9.196251e-02
020_JE	RInsula1	RInsula	2.053802e-01	-1.008469e-01
020_JE	RInsula1	SPL	1.168760e-01	-6.229654e-02
020_JE	RInsula1	RMFG	2.839029e-01	1.797961e-01
020_JE	RInsula1	RMFG1	3.020897e-01	2.441431e-02
020_JE	RInsula1	RMFG2	1.889165e-02	8.530712e-03
020_JE	RInsula1	RTempPole	1.135801e-01	1.775217e-02
020_JE	RInsula1	RTempPole1	-1.187728e-02	2.689968e-03
020_JE	RInsula1	RPrec	2.266518e-01	-2.286100e-03
020_JE	RInsula1	RPrec1	2.964556e-01	-8.999719e-02
020_JE	RInsula1	RPrec2	1.227650e-01	5.084957e-02
020_JE	RInsula1	MTG	5.191813e-02	-4.566862e-02
020_JE	RInsula1	MTG1	1.017835e-02	-6.168189e-02
020_JE	RInsula1	ACing	-1.663675e-02	6.119325e-02
020_JE	RInsula1	ACing1	7.234785e-02	8.298548e-02
020_JE	RInsula1	LAG	3.085450e-01	1.563498e-02
020_JE	RInsula1	LAG1	1.300415e-01	7.761314e-02
020_JE	RInsula1	LAG2	2.003962e-01	1.203903e-01
020_JE	RInsula1	LAG3	8.354189e-02	3.479478e-02
020_JE	RInsula1	LAG4	-1.267620e-02	-2.344302e-01
020_JE	RInsula1	RAG	2.585235e-01	6.265221e-02
020_JE	RInsula1	RAG1	3.318284e-01	2.939936e-02
020_JE	RInsula1	RAG2	1.160823e-01	9.868652e-04
021_JE	RInsula1	Insula3	1.698543e-01	-3.272015e-02
021_JE	RInsula1	Insula4	3.775440e-01	-3.573154e-01
021_JE	RInsula1	SPL1	1.044180e-01	-2.772215e-01
021_JE	RInsula1	SPL2	3.757912e-01	-1.999342e-01
021_JE	RInsula1	Insula	4.660669e-01	3.455537e-03
021_JE	RInsula1	Insula1	2.200003e-01	-2.417983e-01
021_JE	RInsula1	Insula2	2.618063e-01	-9.013599e-02
021_JE	RInsula1	dACC	2.398266e-01	7.172360e-04
021_JE	RInsula1	RInsula	3.550041e-01	-8.830812e-03
021_JE	RInsula1	SPL	1.367888e-01	-1.937475e-01
021_JE	RInsula1	RMFG	4.642967e-01	-2.373536e-01
021_JE	RInsula1	RMFG1	3.562224e-01	-3.620728e-01
021_JE	RInsula1	RMFG2	1.403415e-01	-2.291468e-01
021_JE	RInsula1	RTempPole	-7.366272e-02	-1.994426e-02
021_JE	RInsula1	RTempPole1	4.575958e-02	-1.085538e-01
021_JE	RInsula1	RPrec	1.030388e-01	2.563741e-02
021_JE	RInsula1	RPrec1	2.255183e-01	-2.475222e-02
021_JE	RInsula1	RPrec2	1.525536e-01	5.608751e-02
021_JE	RInsula1	MTG	5.371225e-02	3.731805e-02
021_JE	RInsula1	MTG1	-3.764145e-02	-4.645416e-02
021_JE	RInsula1	ACing	2.618319e-01	3.969155e-02
021_JE	RInsula1	ACing1	4.123292e-02	-2.437527e-01
021_JE	RInsula1	LAG	2.624513e-01	1.865707e-02
021_JE	RInsula1	LAG1	1.644936e-01	-5.660132e-03
021_JE	RInsula1	LAG2	1.117857e-01	1.147025e-01
021_JE	RInsula1	LAG3	1.191334e-01	8.773200e-02
021_JE	RInsula1	LAG4	1.225617e-01	1.490167e-01
021_JE	RInsula1	RAG	2.193813e-01	-1.613139e-02
021_JE	RInsula1	RAG1	2.524002e-01	-2.543444e-01
021_JE	RInsula1	RAG2	1.117883e-01	-9.898454e-03
022_JE	RInsula1	Insula3	3.225790e-01	7.729209e-02
022_JE	RInsula1	Insula4	7.866276e-01	-3.736438e-02
022_JE	RInsula1	SPL1	2.906193e-01	-2.414627e-02
022_JE	RInsula1	SPL2	2.708450e-01	-1.488099e-01
022_JE	RInsula1	Insula	6.147124e-01	-1.332754e-01
022_JE	RInsula1	Insula1	4.654642e-01	2.475367e-01
022_JE	RInsula1	Insula2	5.555821e-01	6.208863e-02
022_JE	RInsula1	dACC	2.258051e-01	-1.482776e-01
022_JE	RInsula1	RInsula	4.378839e-01	-3.274408e-01
022_JE	RInsula1	SPL	1.527576e-01	-7.577775e-02
022_JE	RInsula1	RMFG	2.791956e-01	-2.186789e-01
022_JE	RInsula1	RMFG1	1.277731e-01	-2.740124e-01
022_JE	RInsula1	RMFG2	1.027783e-01	-1.153225e-01
022_JE	RInsula1	RTempPole	-4.993025e-02	4.954220e-02
022_JE	RInsula1	RTempPole1	1.544534e-01	-1.011139e-02
022_JE	RInsula1	RPrec	2.353471e-03	5.055226e-01
022_JE	RInsula1	RPrec1	4.824052e-02	6.253105e-01
022_JE	RInsula1	RPrec2	-3.686312e-02	4.037292e-01
022_JE	RInsula1	MTG	2.106529e-01	2.079292e-01
022_JE	RInsula1	MTG1	-2.062039e-02	2.481665e-01
022_JE	RInsula1	ACing	-1.032235e-01	1.085369e-01
022_JE	RInsula1	ACing1	-5.199558e-02	3.280035e-02
022_JE	RInsula1	LAG	-1.240181e-01	3.866665e-01
022_JE	RInsula1	LAG1	1.165125e-01	4.241826e-01
022_JE	RInsula1	LAG2	2.757067e-01	1.851357e-01
022_JE	RInsula1	LAG3	-1.406770e-01	4.946557e-01
022_JE	RInsula1	LAG4	-2.140552e-01	2.926429e-01
022_JE	RInsula1	RAG	2.467515e-01	3.325929e-01
022_JE	RInsula1	RAG1	6.370833e-02	2.156545e-01
022_JE	RInsula1	RAG2	-1.074355e-01	3.472833e-01
023_JE	RInsula1	Insula3	9.330571e-02	1.491691e-02
023_JE	RInsula1	Insula4	3.219713e-01	2.445681e-02
023_JE	RInsula1	SPL1	-1.866562e-02	-9.468087e-02
023_JE	RInsula1	SPL2	1.308208e-01	2.083213e-01
023_JE	RInsula1	Insula	8.823819e-02	-7.323206e-02
023_JE	RInsula1	Insula1	1.643907e-01	-1.782089e-01
023_JE	RInsula1	Insula2	2.243322e-01	-2.718960e-02
023_JE	RInsula1	dACC	-2.324011e-02	7.706654e-02
023_JE	RInsula1	RInsula	3.122833e-01	8.446358e-03
023_JE	RInsula1	SPL	-2.157831e-02	-3.621988e-02
023_JE	RInsula1	RMFG	1.522972e-01	3.161386e-01
023_JE	RInsula1	RMFG1	2.854560e-01	1.049684e-01
023_JE	RInsula1	RMFG2	1.118245e-01	1.691652e-01
023_JE	RInsula1	RTempPole	1.947927e-02	-1.168755e-01
023_JE	RInsula1	RTempPole1	2.523529e-02	-1.750954e-03
023_JE	RInsula1	RPrec	2.813212e-01	1.667700e-01
023_JE	RInsula1	RPrec1	2.141993e-01	5.963228e-02
023_JE	RInsula1	RPrec2	-5.290179e-02	-1.568642e-01
023_JE	RInsula1	MTG	1.081151e-01	-3.662241e-02
023_JE	RInsula1	MTG1	3.354870e-02	-1.420054e-01
023_JE	RInsula1	ACing	-1.105823e-02	-5.476597e-02
023_JE	RInsula1	ACing1	6.089776e-02	6.713917e-02
023_JE	RInsula1	LAG	6.376743e-02	-9.047303e-02
023_JE	RInsula1	LAG1	2.885746e-03	-1.150943e-01
023_JE	RInsula1	LAG2	-2.525368e-02	-5.703635e-02
023_JE	RInsula1	LAG3	1.237918e-01	-3.337210e-02
023_JE	RInsula1	LAG4	4.130031e-01	-1.564668e-01
023_JE	RInsula1	RAG	1.180208e-01	-4.761354e-02
023_JE	RInsula1	RAG1	1.511810e-01	-1.022351e-01
023_JE	RInsula1	RAG2	2.636933e-01	7.313691e-02
024_JE	RInsula1	Insula3	1.048797e-01	7.028906e-02
024_JE	RInsula1	Insula4	5.516869e-01	2.486268e-01
024_JE	RInsula1	SPL1	2.874322e-01	-3.846744e-02
024_JE	RInsula1	SPL2	3.007330e-01	-1.830600e-01
024_JE	RInsula1	Insula	2.181057e-01	2.538999e-01
024_JE	RInsula1	Insula1	7.140646e-01	1.264748e-01
024_JE	RInsula1	Insula2	5.426044e-01	1.749612e-01
024_JE	RInsula1	dACC	6.095358e-01	6.828336e-02
024_JE	RInsula1	RInsula	3.584656e-01	1.463998e-01
024_JE	RInsula1	SPL	2.631430e-01	1.231527e-01
024_JE	RInsula1	RMFG	3.327577e-01	1.891883e-01
024_JE	RInsula1	RMFG1	6.496002e-01	4.831463e-01
024_JE	RInsula1	RMFG2	3.877329e-02	3.275859e-02
024_JE	RInsula1	RTempPole	3.410045e-01	2.985933e-01
024_JE	RInsula1	RTempPole1	3.890882e-01	2.583733e-01
024_JE	RInsula1	RPrec	4.579711e-01	3.517634e-01
024_JE	RInsula1	RPrec1	3.942739e-01	2.333515e-01
024_JE	RInsula1	RPrec2	4.126923e-01	3.219096e-01
024_JE	RInsula1	MTG	1.023396e-01	2.114432e-01
024_JE	RInsula1	MTG1	2.077107e-01	2.135264e-01
024_JE	RInsula1	ACing	-2.740809e-01	1.595142e-01
024_JE	RInsula1	ACing1	5.179589e-01	5.219484e-01
024_JE	RInsula1	LAG	2.770339e-01	7.506882e-02
024_JE	RInsula1	LAG1	3.035612e-01	1.231218e-01
024_JE	RInsula1	LAG2	1.716789e-01	-8.476732e-03
024_JE	RInsula1	LAG3	3.411845e-01	1.440313e-01
024_JE	RInsula1	LAG4	3.542953e-01	1.407837e-01
024_JE	RInsula1	RAG	2.452452e-01	2.007176e-01
024_JE	RInsula1	RAG1	2.679675e-01	-1.222583e-02
024_JE	RInsula1	RAG2	2.508087e-01	1.631348e-02
025_JE	RInsula1	Insula3	1.636355e-01	-4.035335e-02
025_JE	RInsula1	Insula4	5.728130e-01	9.036129e-02
025_JE	RInsula1	SPL1	1.715075e-01	-7.369271e-02
025_JE	RInsula1	SPL2	9.095938e-02	-8.803446e-02
025_JE	RInsula1	Insula	3.396744e-01	1.038373e-01
025_JE	RInsula1	Insula1	4.289873e-01	7.446373e-02
025_JE	RInsula1	Insula2	2.665000e-01	-6.409564e-03
025_JE	RInsula1	dACC	-3.959495e-02	-3.534313e-02
025_JE	RInsula1	RInsula	3.579407e-01	-4.296417e-02
025_JE	RInsula1	SPL	1.461261e-02	-4.008843e-02
025_JE	RInsula1	RMFG	2.701355e-01	1.016417e-02
025_JE	RInsula1	RMFG1	2.713946e-01	6.397129e-02
025_JE	RInsula1	RMFG2	3.941513e-02	-6.254165e-02
025_JE	RInsula1	RTempPole	1.507915e-01	-5.860685e-02
025_JE	RInsula1	RTempPole1	1.077117e-01	6.526551e-02
025_JE	RInsula1	RPrec	1.009295e-01	-1.759163e-01
025_JE	RInsula1	RPrec1	2.597273e-01	-7.405882e-02
025_JE	RInsula1	RPrec2	-4.161615e-03	-1.159948e-01
025_JE	RInsula1	MTG	1.087960e-01	1.943832e-02
025_JE	RInsula1	MTG1	1.566227e-01	5.725159e-02
025_JE	RInsula1	ACing	-1.784633e-01	-2.921198e-02
025_JE	RInsula1	ACing1	5.108306e-02	2.034415e-02
025_JE	RInsula1	LAG	1.116602e-01	1.936730e-02
025_JE	RInsula1	LAG1	2.373852e-02	-1.094692e-01
025_JE	RInsula1	LAG2	-2.050576e-02	-1.432482e-01
025_JE	RInsula1	LAG3	6.677045e-02	-7.393512e-02
025_JE	RInsula1	LAG4	2.615649e-01	2.018981e-02
025_JE	RInsula1	RAG	1.073558e-01	-8.480335e-02
025_JE	RInsula1	RAG1	2.067102e-01	-9.803068e-02
025_JE	RInsula1	RAG2	1.153940e-01	-2.386951e-02
026_JE	RInsula1	Insula3	2.765644e-01	2.590544e-01
026_JE	RInsula1	Insula4	4.189314e-01	2.588968e-01
026_JE	RInsula1	SPL1	1.713046e-01	2.919195e-01
026_JE	RInsula1	SPL2	1.835002e-01	2.346445e-01
026_JE	RInsula1	Insula	4.191225e-01	3.859004e-01
026_JE	RInsula1	Insula1	4.970242e-01	5.401532e-01
026_JE	RInsula1	Insula2	3.643443e-01	2.380775e-01
026_JE	RInsula1	dACC	2.114513e-01	4.165006e-01
026_JE	RInsula1	RInsula	4.639475e-01	3.215283e-01
026_JE	RInsula1	SPL	1.059309e-01	1.679231e-02
026_JE	RInsula1	RMFG	2.544720e-01	6.069885e-02
026_JE	RInsula1	RMFG1	2.221627e-01	3.199486e-01
026_JE	RInsula1	RMFG2	9.377194e-02	6.770236e-02
026_JE	RInsula1	RTempPole	6.699820e-02	1.337322e-01
026_JE	RInsula1	RTempPole1	-1.507293e-02	3.158439e-02
026_JE	RInsula1	RPrec	9.529392e-02	3.885203e-01
026_JE	RInsula1	RPrec1	1.170110e-01	2.723499e-01
026_JE	RInsula1	RPrec2	-6.663328e-02	2.425421e-01
026_JE	RInsula1	MTG	3.620128e-02	2.517230e-01
026_JE	RInsula1	MTG1	-5.296601e-02	1.244193e-01
026_JE	RInsula1	ACing	4.885556e-02	1.613401e-01
026_JE	RInsula1	ACing1	9.124695e-02	2.735652e-01
026_JE	RInsula1	LAG	1.289733e-01	3.780204e-01
026_JE	RInsula1	LAG1	8.544692e-02	6.691935e-01
026_JE	RInsula1	LAG2	1.122050e-01	4.022469e-01
026_JE	RInsula1	LAG3	8.914831e-02	4.399171e-01
026_JE	RInsula1	LAG4	2.720381e-01	1.129204e+00
026_JE	RInsula1	RAG	8.540388e-02	4.175740e-01
026_JE	RInsula1	RAG1	1.780774e-01	2.267070e-01
026_JE	RInsula1	RAG2	2.319566e-01	3.756237e-01
027_JE	RInsula1	Insula3	1.952798e-01	-1.049024e-01
027_JE	RInsula1	Insula4	1.466887e-01	-9.401445e-02
027_JE	RInsula1	SPL1	4.091079e-01	-9.339317e-02
027_JE	RInsula1	SPL2	2.787753e-01	-1.424595e-02
027_JE	RInsula1	Insula	3.868259e-01	-5.266819e-02
027_JE	RInsula1	Insula1	2.665997e-01	-4.228103e-02
027_JE	RInsula1	Insula2	4.384027e-01	-4.250114e-02
027_JE	RInsula1	dACC	5.180206e-01	-5.460952e-02
027_JE	RInsula1	RInsula	2.215068e-01	-2.386527e-01
027_JE	RInsula1	SPL	1.711655e-01	-2.307952e-01
027_JE	RInsula1	RMFG	2.715925e-01	1.150188e-01
027_JE	RInsula1	RMFG1	5.968837e-01	-5.067761e-02
027_JE	RInsula1	RMFG2	2.760894e-01	9.043948e-02
027_JE	RInsula1	RTempPole	3.932207e-01	1.884497e-01
027_JE	RInsula1	RTempPole1	2.584046e-01	2.934040e-02
027_JE	RInsula1	RPrec	3.876441e-01	1.947198e-01
027_JE	RInsula1	RPrec1	3.343770e-01	1.679913e-01
027_JE	RInsula1	RPrec2	3.806758e-01	4.439407e-01
027_JE	RInsula1	MTG	3.114699e-02	4.543086e-02
027_JE	RInsula1	MTG1	1.541750e-01	6.716587e-02
027_JE	RInsula1	ACing	-1.143369e-01	6.870760e-03
027_JE	RInsula1	ACing1	4.181090e-01	1.947101e-01
027_JE	RInsula1	LAG	2.843451e-01	2.201634e-01
027_JE	RInsula1	LAG1	4.199150e-01	3.215256e-01
027_JE	RInsula1	LAG2	3.053396e-01	2.935334e-01
027_JE	RInsula1	LAG3	3.954280e-01	3.508664e-01
027_JE	RInsula1	LAG4	3.689876e-01	3.482482e-01
027_JE	RInsula1	RAG	2.202658e-01	1.083773e-01
027_JE	RInsula1	RAG1	2.455214e-01	-6.236128e-02
027_JE	RInsula1	RAG2	3.609385e-01	-2.705057e-02
028_JE	RInsula1	Insula3	1.652451e-01	1.259233e-01
028_JE	RInsula1	Insula4	2.565681e-01	-5.690579e-03
028_JE	RInsula1	SPL1	1.591608e-01	3.498147e-02
028_JE	RInsula1	SPL2	2.127494e-01	2.123153e-01
028_JE	RInsula1	Insula	2.636982e-01	3.792968e-02
028_JE	RInsula1	Insula1	3.802167e-01	3.118922e-01
028_JE	RInsula1	Insula2	2.034281e-01	-7.807253e-02
028_JE	RInsula1	dACC	-1.450155e-01	1.886365e-01
028_JE	RInsula1	RInsula	4.491000e-01	1.856073e-01
028_JE	RInsula1	SPL	1.192326e-01	1.092644e-01
028_JE	RInsula1	RMFG	2.804901e-01	-3.948296e-02
028_JE	RInsula1	RMFG1	6.739953e-01	-4.522894e-02
028_JE	RInsula1	RMFG2	-1.781984e-02	-5.755419e-02
028_JE	RInsula1	RTempPole	3.852486e-03	3.125113e-02
028_JE	RInsula1	RTempPole1	3.681236e-01	-4.744640e-02
028_JE	RInsula1	RPrec	4.386969e-01	2.598647e-01
028_JE	RInsula1	RPrec1	3.893062e-01	2.192610e-01
028_JE	RInsula1	RPrec2	4.145735e-01	2.897463e-01
028_JE	RInsula1	MTG	1.344034e-01	8.012982e-02
028_JE	RInsula1	MTG1	5.458250e-02	3.015118e-02
028_JE	RInsula1	ACing	3.547090e-02	2.574029e-02
028_JE	RInsula1	ACing1	1.358026e-01	8.856897e-02
028_JE	RInsula1	LAG	3.314009e-01	2.540472e-01
028_JE	RInsula1	LAG1	3.643442e-01	2.906906e-01
028_JE	RInsula1	LAG2	2.783642e-01	1.665251e-01
028_JE	RInsula1	LAG3	1.495947e-01	3.748081e-01
028_JE	RInsula1	LAG4	3.218481e-01	5.564260e-01
028_JE	RInsula1	RAG	3.619167e-01	2.153031e-01
028_JE	RInsula1	RAG1	3.179761e-01	2.527477e-01
028_JE	RInsula1	RAG2	4.047794e-01	3.910263e-01
029_JE	RInsula1	Insula3	2.334262e-01	5.827701e-02
029_JE	RInsula1	Insula4	1.731280e-01	-3.130076e-02
029_JE	RInsula1	SPL1	7.127406e-02	3.367238e-02
029_JE	RInsula1	SPL2	6.350703e-03	-5.226150e-02
029_JE	RInsula1	Insula	2.400744e-01	8.646984e-02
029_JE	RInsula1	Insula1	3.279752e-01	4.591246e-01
029_JE	RInsula1	Insula2	4.334086e-01	2.549206e-01
029_JE	RInsula1	dACC	-2.786760e-03	-8.272967e-02
029_JE	RInsula1	RInsula	2.487340e-01	-3.798248e-02
029_JE	RInsula1	SPL	9.777551e-02	-2.049408e-01
029_JE	RInsula1	RMFG	9.359052e-02	-6.017377e-02
029_JE	RInsula1	RMFG1	1.993930e-01	2.247542e-03
029_JE	RInsula1	RMFG2	-1.516213e-02	1.523614e-03
029_JE	RInsula1	RTempPole	1.235904e-02	2.846595e-02
029_JE	RInsula1	RTempPole1	-2.258009e-01	-4.189577e-02
029_JE	RInsula1	RPrec	3.456105e-01	2.886096e-01
029_JE	RInsula1	RPrec1	5.724161e-02	1.591920e-01
029_JE	RInsula1	RPrec2	4.665718e-02	7.576196e-02
029_JE	RInsula1	MTG	-1.713677e-02	-1.000297e-02
029_JE	RInsula1	MTG1	1.208112e-01	1.355210e-01
029_JE	RInsula1	ACing	-1.501930e-01	2.631550e-01
029_JE	RInsula1	ACing1	1.392908e-01	2.718095e-01
029_JE	RInsula1	LAG	1.462524e-01	2.751118e-02
029_JE	RInsula1	LAG1	1.039980e-01	1.697521e-01
029_JE	RInsula1	LAG2	9.724830e-02	1.724262e-01
029_JE	RInsula1	LAG3	-1.040984e-03	1.608898e-01
029_JE	RInsula1	LAG4	3.358157e-01	3.355584e-01
029_JE	RInsula1	RAG	1.288854e-01	1.072204e-01
029_JE	RInsula1	RAG1	1.527201e-01	1.201156e-01
029_JE	RInsula1	RAG2	4.387397e-02	2.384568e-01
030_JE	RInsula1	Insula3	4.539116e-01	1.195704e-01
030_JE	RInsula1	Insula4	7.597520e-01	2.236066e-01
030_JE	RInsula1	SPL1	3.453306e-01	2.809667e-02
030_JE	RInsula1	SPL2	9.284260e-02	8.609467e-04
030_JE	RInsula1	Insula	6.328179e-01	1.094461e-01
030_JE	RInsula1	Insula1	7.611292e-01	9.905295e-02
030_JE	RInsula1	Insula2	5.600183e-01	1.580507e-01
030_JE	RInsula1	dACC	4.219795e-01	3.556427e-02
030_JE	RInsula1	RInsula	5.716210e-01	-1.414049e-03
030_JE	RInsula1	SPL	3.191650e-01	-5.062898e-02
030_JE	RInsula1	RMFG	4.493159e-01	2.123492e-01
030_JE	RInsula1	RMFG1	5.516278e-01	1.376958e-01
030_JE	RInsula1	RMFG2	1.885806e-01	1.151206e-01
030_JE	RInsula1	RTempPole	2.107206e-01	-2.651313e-02
030_JE	RInsula1	RTempPole1	6.991713e-02	-1.001227e-01
030_JE	RInsula1	RPrec	2.814777e-01	4.049146e-02
030_JE	RInsula1	RPrec1	2.666130e-01	2.105305e-01
030_JE	RInsula1	RPrec2	2.731400e-01	4.094517e-01
030_JE	RInsula1	MTG	1.946270e-01	1.509798e-01
030_JE	RInsula1	MTG1	1.701165e-01	9.919088e-02
030_JE	RInsula1	ACing	-6.809001e-02	9.696244e-02
030_JE	RInsula1	ACing1	1.844451e-01	4.122721e-02
030_JE	RInsula1	LAG	2.372112e-01	1.667246e-01
030_JE	RInsula1	LAG1	1.570964e-01	2.567616e-01
030_JE	RInsula1	LAG2	2.007397e-01	2.012513e-01
030_JE	RInsula1	LAG3	2.250935e-01	2.521728e-01
030_JE	RInsula1	LAG4	2.818358e-01	2.850797e-01
030_JE	RInsula1	RAG	1.162570e-01	1.275098e-01
030_JE	RInsula1	RAG1	2.712577e-01	-7.583387e-02
030_JE	RInsula1	RAG2	1.741787e-01	1.016091e-01
