Subject	ROI_seed	ROI_target	Cats_rest	Cats_Counting
002	RAG	Insula	4.057100e-01	5.062050e-01
002	RAG	Insula1	4.551839e-01	5.252580e-01
002	RAG	Insula2	2.856050e-01	4.632664e-01
002	RAG	Insula3	2.157954e-01	2.496115e-01
002	RAG	Insula4	5.471148e-01	5.079831e-01
002	RAG	dACC	6.477555e-01	8.902115e-01
002	RAG	RInsula	4.688755e-01	5.715234e-01
002	RAG	RInsula1	5.507439e-01	6.165770e-01
002	RAG	SPL	4.170990e-01	5.546672e-01
002	RAG	SPL1	4.465631e-01	3.852954e-01
002	RAG	SPL2	5.027292e-01	6.017708e-01
002	RAG	RMFG	5.665682e-01	7.416748e-01
002	RAG	RMFG1	6.794113e-01	9.181044e-01
002	RAG	RMFG2	5.216184e-01	5.059382e-01
002	RAG	RTempPole	3.335700e-01	3.641673e-01
002	RAG	RTempPole1	4.884613e-01	3.581502e-01
002	RAG	RPrec	5.490022e-01	5.481341e-01
002	RAG	RPrec1	3.954876e-01	3.657320e-01
002	RAG	RPrec2	7.662801e-01	6.857829e-01
002	RAG	MTG	4.454543e-01	4.232826e-01
002	RAG	MTG1	2.717542e-01	3.917224e-01
002	RAG	ACing	-5.684647e-01	-3.314169e-01
002	RAG	ACing1	1.599929e-01	1.952699e-01
002	RAG	LAG	8.394259e-01	5.714280e-01
002	RAG	LAG1	7.654726e-01	3.635191e-01
002	RAG	LAG2	6.225038e-01	5.732463e-01
002	RAG	LAG3	7.101437e-01	2.021525e-01
002	RAG	LAG4	7.686653e-01	4.376154e-01
002	RAG	RAG1	7.184376e-01	8.398548e-01
002	RAG	RAG2	5.439077e-01	2.985393e-01
003	RAG	Insula	1.782774e-01	-1.204904e-01
003	RAG	Insula1	7.512433e-01	2.256233e-01
003	RAG	Insula2	7.905052e-01	6.285173e-01
003	RAG	Insula3	3.230944e-01	2.933425e-01
003	RAG	Insula4	8.142859e-01	4.455631e-01
003	RAG	dACC	2.054821e-01	1.270554e-01
003	RAG	RInsula	2.221548e-01	-1.191170e-01
003	RAG	RInsula1	5.847104e-01	1.790210e-01
003	RAG	SPL	5.359414e-02	-2.435375e-01
003	RAG	SPL1	-7.673103e-03	-2.564692e-01
003	RAG	SPL2	1.830656e-01	-3.199172e-01
003	RAG	RMFG	1.876040e-01	5.274466e-03
003	RAG	RMFG1	5.666989e-01	1.246325e-01
003	RAG	RMFG2	-2.355075e-01	-2.001638e-01
003	RAG	RTempPole	1.784030e-02	-1.262467e-01
003	RAG	RTempPole1	-6.073074e-02	-1.845974e-01
003	RAG	RPrec	1.430750e-01	-2.478240e-01
003	RAG	RPrec1	6.964891e-02	-9.723040e-02
003	RAG	RPrec2	3.644305e-01	2.358801e-01
003	RAG	MTG	1.850749e-01	7.339273e-02
003	RAG	MTG1	-1.464164e-01	1.033186e-01
003	RAG	ACing	-3.567376e-01	-8.806110e-01
003	RAG	ACing1	1.737917e-01	-1.121956e-01
003	RAG	LAG	3.436462e-01	3.358198e-03
003	RAG	LAG1	3.151064e-01	6.963740e-02
003	RAG	LAG2	9.107642e-02	-8.532994e-02
003	RAG	LAG3	3.258553e-01	5.487040e-02
003	RAG	LAG4	3.489163e-01	2.199066e-01
003	RAG	RAG1	5.489621e-01	1.589854e-01
003	RAG	RAG2	3.142927e-01	1.843306e-02
004	RAG	Insula	-5.298689e-01	-3.635354e-01
004	RAG	Insula1	-3.363574e-02	-4.291202e-01
004	RAG	Insula2	-1.417912e-01	-4.701440e-01
004	RAG	Insula3	4.574902e-02	-3.679092e-01
004	RAG	Insula4	-8.399728e-02	-2.159549e-01
004	RAG	dACC	-6.606649e-01	-9.554640e-01
004	RAG	RInsula	-3.068847e-01	-1.970834e-01
004	RAG	RInsula1	2.873774e-01	4.701729e-01
004	RAG	SPL	-7.083152e-02	-3.177376e-01
004	RAG	SPL1	-2.794074e-01	-4.487778e-01
004	RAG	SPL2	-1.650424e-01	-6.117878e-01
004	RAG	RMFG	-3.267569e-01	-3.667655e-01
004	RAG	RMFG1	-1.196875e-01	-2.246217e-01
004	RAG	RMFG2	-2.309009e-01	-1.653176e-02
004	RAG	RTempPole	4.275772e-01	-6.031942e-02
004	RAG	RTempPole1	3.904439e-01	1.201793e-01
004	RAG	RPrec	-3.540866e-01	-3.030953e-01
004	RAG	RPrec1	2.120581e-01	-3.625636e-02
004	RAG	RPrec2	-2.553600e-01	-4.506114e-01
004	RAG	MTG	-1.035771e-02	-9.877970e-02
004	RAG	MTG1	1.513076e-01	-1.628363e-01
004	RAG	ACing	-9.866745e-02	6.327342e-02
004	RAG	ACing1	1.810574e-01	3.818082e-02
004	RAG	LAG	2.441474e-01	-1.635167e-01
004	RAG	LAG1	-1.060359e-01	-4.779470e-01
004	RAG	LAG2	-1.940834e-01	-4.686742e-01
004	RAG	LAG3	-5.814289e-01	-1.073552e+00
004	RAG	LAG4	1.648543e-01	-2.143165e-01
004	RAG	RAG1	-1.185626e-01	-3.108358e-01
004	RAG	RAG2	7.211860e-02	-3.178222e-01
005	RAG	Insula	1.929800e-01	-6.766781e-02
005	RAG	Insula1	8.175600e-02	-3.064689e-01
005	RAG	Insula2	3.059155e-01	-1.635947e-01
005	RAG	Insula3	1.209505e-01	-1.369622e-01
005	RAG	Insula4	1.547512e-01	-1.981332e-01
005	RAG	dACC	3.286874e-01	-7.705492e-02
005	RAG	RInsula	-7.239526e-03	-2.299650e-01
005	RAG	RInsula1	2.590110e-01	-9.717266e-03
005	RAG	SPL	1.752146e-02	-4.106517e-01
005	RAG	SPL1	-1.340319e-01	-5.334904e-01
005	RAG	SPL2	-1.028603e-01	-4.920895e-01
005	RAG	RMFG	7.527449e-02	-2.165150e-01
005	RAG	RMFG1	2.671838e-01	2.156310e-01
005	RAG	RMFG2	2.836619e-03	3.008046e-02
005	RAG	RTempPole	-6.520848e-02	1.055177e-01
005	RAG	RTempPole1	3.275618e-01	1.426551e-02
005	RAG	RPrec	2.967185e-01	5.555762e-02
005	RAG	RPrec1	2.783069e-01	-8.554220e-02
005	RAG	RPrec2	2.297786e-02	-3.380111e-02
005	RAG	MTG	1.053047e-01	3.921554e-02
005	RAG	MTG1	-4.225628e-02	-1.659189e-01
005	RAG	ACing	1.022331e-01	7.159632e-02
005	RAG	ACing1	2.471401e-01	2.742702e-01
005	RAG	LAG	2.062032e-01	1.179879e-01
005	RAG	LAG1	3.772706e-02	-1.655722e-01
005	RAG	LAG2	-3.948096e-02	3.605076e-02
005	RAG	LAG3	-8.327176e-02	-9.345370e-02
005	RAG	LAG4	6.951353e-02	-6.008779e-02
005	RAG	RAG1	9.961332e-02	-2.036811e-01
005	RAG	RAG2	8.263938e-02	-1.590625e-01
006	RAG	Insula	3.553935e-01	3.152999e-01
006	RAG	Insula1	2.004004e-01	3.081186e-01
006	RAG	Insula2	2.122890e-01	1.661522e-01
006	RAG	Insula3	1.656775e-01	1.292773e-01
006	RAG	Insula4	3.167774e-01	2.712090e-01
006	RAG	dACC	2.338308e-01	4.076505e-01
006	RAG	RInsula	5.117024e-01	3.529387e-01
006	RAG	RInsula1	-4.188038e-02	1.976923e-01
006	RAG	SPL	2.404139e-01	1.311824e-01
006	RAG	SPL1	2.459756e-01	2.199176e-01
006	RAG	SPL2	3.061970e-01	2.555752e-01
006	RAG	RMFG	2.720509e-01	4.345281e-02
006	RAG	RMFG1	3.953471e-01	3.638320e-01
006	RAG	RMFG2	6.880166e-03	5.276570e-02
006	RAG	RTempPole	2.332580e-01	2.656748e-01
006	RAG	RTempPole1	2.884667e-01	2.472294e-01
006	RAG	RPrec	3.187878e-01	2.102751e-01
006	RAG	RPrec1	2.853980e-01	3.115429e-01
006	RAG	RPrec2	4.226173e-01	5.457727e-01
006	RAG	MTG	2.329302e-01	3.041012e-01
006	RAG	MTG1	-4.487150e-02	1.750761e-01
006	RAG	ACing	3.811181e-02	-5.651187e-02
006	RAG	ACing1	-1.252843e-01	2.203225e-01
006	RAG	LAG	2.030214e-01	2.378652e-01
006	RAG	LAG1	2.895843e-01	3.818733e-01
006	RAG	LAG2	1.253176e-01	2.794633e-01
006	RAG	LAG3	2.320369e-01	2.968897e-01
006	RAG	LAG4	3.256513e-01	3.489768e-01
006	RAG	RAG1	-2.770212e-02	1.144273e-01
006	RAG	RAG2	1.901885e-01	2.531156e-01
007	RAG	Insula	2.419911e-01	6.465464e-02
007	RAG	Insula1	-4.797179e-02	-4.081335e-02
007	RAG	Insula2	-4.501846e-02	-7.401366e-02
007	RAG	Insula3	1.744768e-02	1.779877e-02
007	RAG	Insula4	6.461190e-02	2.573897e-01
007	RAG	dACC	-2.576193e-01	4.109154e-02
007	RAG	RInsula	1.537140e-01	-8.023710e-03
007	RAG	RInsula1	7.549806e-03	1.317987e-01
007	RAG	SPL	-2.402148e-01	-2.317573e-01
007	RAG	SPL1	3.994784e-02	-4.770640e-01
007	RAG	SPL2	-1.577520e-01	-2.944862e-01
007	RAG	RMFG	9.595337e-02	1.580267e-01
007	RAG	RMFG1	3.362532e-01	2.234143e-01
007	RAG	RMFG2	-1.687189e-01	2.777469e-02
007	RAG	RTempPole	9.870543e-03	-5.673637e-03
007	RAG	RTempPole1	-8.143528e-02	2.166454e-01
007	RAG	RPrec	1.455120e-01	1.337768e-01
007	RAG	RPrec1	-9.118481e-02	-1.969995e-01
007	RAG	RPrec2	-1.902638e-01	-1.484531e-01
007	RAG	MTG	3.157246e-03	5.325659e-02
007	RAG	MTG1	1.024233e-01	1.124362e-01
007	RAG	ACing	-3.358674e-01	-1.856833e-01
007	RAG	ACing1	-1.112122e-01	-6.563656e-03
007	RAG	LAG	-2.052644e-02	-1.171593e-01
007	RAG	LAG1	-1.488712e-01	-1.957297e-01
007	RAG	LAG2	-6.957572e-02	-1.554958e-02
007	RAG	LAG3	2.118729e-02	-1.816431e-01
007	RAG	LAG4	-2.566643e-01	3.384500e-02
007	RAG	RAG1	8.101834e-02	-1.472841e-01
007	RAG	RAG2	-9.673059e-02	-2.877797e-01
008	RAG	Insula	5.418518e-01	4.329713e-01
008	RAG	Insula1	4.845607e-01	3.965647e-01
008	RAG	Insula2	7.834787e-01	4.907263e-01
008	RAG	Insula3	4.704930e-01	2.600231e-01
008	RAG	Insula4	5.813429e-01	1.594479e-01
008	RAG	dACC	1.360274e+00	1.125100e+00
008	RAG	RInsula	6.739140e-01	5.240677e-01
008	RAG	RInsula1	7.790194e-01	6.452823e-01
008	RAG	SPL	4.397520e-01	3.613394e-01
008	RAG	SPL1	1.946687e-01	7.530416e-02
008	RAG	SPL2	1.212294e-01	3.316632e-02
008	RAG	RMFG	5.912201e-01	2.680693e-01
008	RAG	RMFG1	4.751924e-01	6.938747e-01
008	RAG	RMFG2	2.753520e-01	1.073790e-01
008	RAG	RTempPole	2.772515e-01	1.263353e-01
008	RAG	RTempPole1	4.254025e-01	1.414770e-01
008	RAG	RPrec	3.975631e-01	1.145213e-01
008	RAG	RPrec1	2.702550e-01	-2.026297e-01
008	RAG	RPrec2	4.929216e-01	1.722515e-01
008	RAG	MTG	1.315675e-01	8.013937e-02
008	RAG	MTG1	1.108569e-01	-2.236709e-01
008	RAG	ACing	-1.885158e-01	-1.809104e-02
008	RAG	ACing1	7.334610e-01	3.543372e-01
008	RAG	LAG	3.767297e-01	3.277392e-01
008	RAG	LAG1	2.970959e-01	2.251292e-01
008	RAG	LAG2	3.555818e-01	3.173495e-01
008	RAG	LAG3	3.718607e-01	1.330588e-01
008	RAG	LAG4	7.571063e-01	5.659959e-01
008	RAG	RAG1	2.973343e-01	1.150239e-01
008	RAG	RAG2	3.758195e-01	1.131882e-01
009	RAG	Insula	4.065597e-01	2.914896e-01
009	RAG	Insula1	4.518690e-01	1.766109e-01
009	RAG	Insula2	3.827708e-01	2.567048e-01
009	RAG	Insula3	2.109186e-01	3.115101e-01
009	RAG	Insula4	7.008053e-01	6.665414e-01
009	RAG	dACC	1.545653e-01	4.151625e-01
009	RAG	RInsula	4.958590e-01	4.891460e-01
009	RAG	RInsula1	5.468333e-01	4.043578e-01
009	RAG	SPL	1.993996e-01	6.559472e-02
009	RAG	SPL1	3.259992e-01	1.272309e-01
009	RAG	SPL2	3.040767e-01	1.674195e-01
009	RAG	RMFG	4.249111e-01	4.613740e-01
009	RAG	RMFG1	3.728749e-01	2.356852e-01
009	RAG	RMFG2	3.877304e-01	3.559431e-01
009	RAG	RTempPole	3.166145e-01	-7.600645e-02
009	RAG	RTempPole1	1.188077e-01	-3.072657e-02
009	RAG	RPrec	2.378188e-01	-1.203361e-01
009	RAG	RPrec1	3.091367e-01	-1.399540e-01
009	RAG	RPrec2	1.523496e-01	-1.536257e-01
009	RAG	MTG	-2.063369e-02	3.941540e-03
009	RAG	MTG1	6.170707e-02	-3.433365e-02
009	RAG	ACing	3.289120e-02	9.854479e-02
009	RAG	ACing1	2.970111e-01	1.478232e-01
009	RAG	LAG	1.367900e-01	-3.768817e-03
009	RAG	LAG1	3.373562e-02	-6.221829e-02
009	RAG	LAG2	-4.075151e-02	-2.109343e-02
009	RAG	LAG3	7.365021e-02	2.621453e-02
009	RAG	LAG4	2.242318e-02	-4.100392e-01
009	RAG	RAG1	1.672661e-01	-2.288848e-01
009	RAG	RAG2	1.917734e-01	1.096828e-01
011	RAG	Insula	1.396406e-01	-2.339146e-01
011	RAG	Insula1	-1.461927e-01	-2.032209e-01
011	RAG	Insula2	2.650086e-01	-3.170815e-01
011	RAG	Insula3	-1.519560e-02	-7.364653e-02
011	RAG	Insula4	1.895760e-01	3.009074e-01
011	RAG	dACC	6.660397e-02	2.136160e-01
011	RAG	RInsula	4.300895e-01	2.622569e-02
011	RAG	RInsula1	2.391015e-01	-6.397503e-02
011	RAG	SPL	9.238469e-02	-6.240177e-02
011	RAG	SPL1	2.107073e-01	-1.902638e-01
011	RAG	SPL2	1.737228e-01	-5.651619e-01
011	RAG	RMFG	1.273963e-01	-1.328249e-01
011	RAG	RMFG1	2.966178e-01	-2.817334e-01
011	RAG	RMFG2	1.475861e-01	-2.319561e-01
011	RAG	RTempPole	-4.506015e-01	-9.392756e-02
011	RAG	RTempPole1	1.864417e-02	1.032251e-01
011	RAG	RPrec	2.444942e-01	1.326688e-01
011	RAG	RPrec1	-1.407059e-01	1.794907e-01
011	RAG	RPrec2	-8.188500e-03	2.655167e-01
011	RAG	MTG	-7.875125e-02	3.921688e-02
011	RAG	MTG1	-1.600947e-01	-7.052056e-02
011	RAG	ACing	4.751829e-01	1.444882e-01
011	RAG	ACing1	1.677543e-02	1.681786e-02
011	RAG	LAG	1.239933e-01	3.575362e-02
011	RAG	LAG1	1.074958e-01	7.710060e-02
011	RAG	LAG2	-2.640542e-01	4.317920e-02
011	RAG	LAG3	1.062279e-01	-5.057116e-01
011	RAG	LAG4	2.968664e-01	-1.553822e-01
011	RAG	RAG1	4.275963e-01	4.113301e-02
011	RAG	RAG2	-1.016784e-02	-8.560195e-02
012	RAG	Insula	-6.569250e-02	1.784450e-01
012	RAG	Insula1	-1.860719e-01	-1.195132e-01
012	RAG	Insula2	1.035951e-01	1.774584e-01
012	RAG	Insula3	1.694782e-01	5.616012e-02
012	RAG	Insula4	2.944235e-01	4.406576e-01
012	RAG	dACC	-1.476692e-01	-2.305951e-01
012	RAG	RInsula	2.422796e-01	3.280739e-01
012	RAG	RInsula1	4.054274e-01	5.639576e-01
012	RAG	SPL	-1.607103e-01	3.149782e-01
012	RAG	SPL1	-2.776546e-01	1.061414e-02
012	RAG	SPL2	1.854768e-01	3.144012e-01
012	RAG	RMFG	4.664611e-01	7.591739e-01
012	RAG	RMFG1	3.319849e-01	3.413121e-01
012	RAG	RMFG2	1.674133e-01	2.360450e-01
012	RAG	RTempPole	-1.234400e-01	-1.988834e-01
012	RAG	RTempPole1	-2.312688e-01	-3.379856e-01
012	RAG	RPrec	1.487286e-01	6.807916e-02
012	RAG	RPrec1	6.878829e-01	-4.986087e-03
012	RAG	RPrec2	4.653484e-01	-5.054372e-01
012	RAG	MTG	-2.008827e-01	-3.735168e-01
012	RAG	MTG1	-1.586046e-01	-2.607780e-01
012	RAG	ACing	1.099066e-01	5.757953e-01
012	RAG	ACing1	1.662012e-01	4.020379e-02
012	RAG	LAG	4.087347e-01	1.703439e-01
012	RAG	LAG1	2.036073e-01	-1.626837e-01
012	RAG	LAG2	2.539791e-01	2.218444e-02
012	RAG	LAG3	1.573047e-02	-1.849762e-01
012	RAG	LAG4	1.961061e-01	1.556074e-02
012	RAG	RAG1	3.205945e-01	2.113030e-01
012	RAG	RAG2	1.524231e-02	-1.373383e-01
013	RAG	Insula	2.727087e-01	1.571498e-01
013	RAG	Insula1	3.542527e-01	4.759167e-02
013	RAG	Insula2	3.845688e-01	3.099963e-01
013	RAG	Insula3	2.613535e-01	1.720666e-01
013	RAG	Insula4	6.316771e-01	2.727996e-01
013	RAG	dACC	2.009825e-01	1.328527e-01
013	RAG	RInsula	2.002334e-01	2.061344e-01
013	RAG	RInsula1	4.853130e-01	3.383710e-01
013	RAG	SPL	1.714777e-01	3.316927e-01
013	RAG	SPL1	3.971435e-01	3.544373e-01
013	RAG	SPL2	2.434382e-01	6.797073e-02
013	RAG	RMFG	4.729619e-01	4.649996e-01
013	RAG	RMFG1	4.317973e-01	1.704713e-01
013	RAG	RMFG2	1.687382e-01	1.426833e-01
013	RAG	RTempPole	2.755587e-01	6.265605e-02
013	RAG	RTempPole1	1.995093e-01	1.045203e-01
013	RAG	RPrec	4.993210e-01	1.747251e-01
013	RAG	RPrec1	3.254517e-01	9.809638e-02
013	RAG	RPrec2	2.287854e-01	-6.963867e-02
013	RAG	MTG	2.662216e-01	7.343156e-02
013	RAG	MTG1	2.522360e-01	2.488125e-02
013	RAG	ACing	1.193647e-01	2.066509e-02
013	RAG	ACing1	2.918667e-01	1.084300e-01
013	RAG	LAG	3.227888e-01	5.549228e-03
013	RAG	LAG1	1.733696e-01	-5.060088e-02
013	RAG	LAG2	4.417830e-02	-1.694125e-01
013	RAG	LAG3	3.120916e-01	2.128100e-01
013	RAG	LAG4	5.029799e-01	1.923383e-01
013	RAG	RAG1	7.100513e-01	1.714991e-01
013	RAG	RAG2	4.120227e-01	4.112181e-01
014	RAG	Insula	4.782048e-01	4.143237e-01
014	RAG	Insula1	3.119762e-01	3.772854e-01
014	RAG	Insula2	4.154247e-01	2.786945e-01
014	RAG	Insula3	3.075176e-01	2.620632e-01
014	RAG	Insula4	4.575772e-01	4.461886e-01
014	RAG	dACC	9.631690e-01	3.147132e-01
014	RAG	RInsula	5.606350e-01	2.591220e-01
014	RAG	RInsula1	7.691648e-01	3.714675e-01
014	RAG	SPL	1.411459e-01	1.049430e-01
014	RAG	SPL1	2.569791e-01	-7.435711e-02
014	RAG	SPL2	4.605060e-01	1.452159e-01
014	RAG	RMFG	4.484682e-01	2.404507e-01
014	RAG	RMFG1	4.735479e-01	2.532280e-01
014	RAG	RMFG2	1.665665e-01	2.332062e-03
014	RAG	RTempPole	3.828238e-01	1.221872e-01
014	RAG	RTempPole1	4.862530e-01	2.947508e-01
014	RAG	RPrec	4.010801e-01	6.308745e-02
014	RAG	RPrec1	5.113286e-01	1.248464e-01
014	RAG	RPrec2	5.071080e-01	-7.326867e-03
014	RAG	MTG	-1.099151e-02	7.959869e-02
014	RAG	MTG1	1.919866e-01	1.991096e-01
014	RAG	ACing	-5.067424e-01	-6.296802e-01
014	RAG	ACing1	6.549036e-02	-1.687658e-01
014	RAG	LAG	4.515604e-01	1.675786e-01
014	RAG	LAG1	2.458787e-01	-2.154343e-01
014	RAG	LAG2	3.980905e-01	-1.743690e-01
014	RAG	LAG3	3.168770e-01	-1.476953e-01
014	RAG	LAG4	5.834009e-01	1.101104e-02
014	RAG	RAG1	7.242326e-01	3.054066e-02
014	RAG	RAG2	7.406910e-01	1.462389e-01
015	RAG	Insula	4.503999e-01	1.213347e-01
015	RAG	Insula1	4.538381e-01	2.719538e-01
015	RAG	Insula2	5.099479e-01	3.566143e-01
015	RAG	Insula3	3.706311e-01	3.185640e-01
015	RAG	Insula4	9.060537e-01	4.743157e-01
015	RAG	dACC	3.359836e-01	1.178827e-01
015	RAG	RInsula	4.725755e-01	3.946510e-01
015	RAG	RInsula1	6.765030e-01	4.287201e-01
015	RAG	SPL	1.988982e-01	8.885592e-02
015	RAG	SPL1	2.959958e-01	3.863985e-02
015	RAG	SPL2	1.800698e-01	4.153492e-02
015	RAG	RMFG	4.755724e-01	2.314119e-01
015	RAG	RMFG1	4.459922e-01	1.667095e-01
015	RAG	RMFG2	3.488518e-01	1.295510e-01
015	RAG	RTempPole	4.913198e-01	1.264527e-01
015	RAG	RTempPole1	3.408556e-01	7.546880e-02
015	RAG	RPrec	6.227228e-02	-5.792758e-02
015	RAG	RPrec1	4.525788e-01	4.697979e-02
015	RAG	RPrec2	5.263309e-01	9.048888e-03
015	RAG	MTG	3.652400e-01	1.025193e-01
015	RAG	MTG1	5.235758e-01	5.740669e-03
015	RAG	ACing	2.832643e-01	5.358367e-02
015	RAG	ACing1	7.507185e-01	-3.333708e-02
015	RAG	LAG	5.208925e-01	9.490036e-02
015	RAG	LAG1	4.178550e-01	-4.624792e-02
015	RAG	LAG2	2.331718e-01	-3.406212e-02
015	RAG	LAG3	4.753332e-01	4.521091e-02
015	RAG	LAG4	-1.808612e-01	-7.978466e-02
015	RAG	RAG1	3.852172e-01	9.699996e-02
015	RAG	RAG2	3.716925e-01	5.637743e-02
016	RAG	Insula	2.241954e-01	9.079181e-02
016	RAG	Insula1	5.202923e-01	3.060675e-01
016	RAG	Insula2	3.694120e-01	-4.330925e-02
016	RAG	Insula3	4.423717e-01	1.835392e-01
016	RAG	Insula4	1.025054e+00	4.443012e-01
016	RAG	dACC	2.888299e-01	2.793052e-01
016	RAG	RInsula	2.072238e-01	1.348662e-01
016	RAG	RInsula1	3.968785e-01	2.560644e-01
016	RAG	SPL	5.928922e-02	5.603112e-02
016	RAG	SPL1	2.964504e-01	-1.731625e-01
016	RAG	SPL2	2.744834e-01	-1.957191e-01
016	RAG	RMFG	2.247726e-01	3.503248e-02
016	RAG	RMFG1	2.266370e-01	4.951623e-02
016	RAG	RMFG2	1.515432e-01	1.364520e-01
016	RAG	RTempPole	5.423596e-02	3.804017e-01
016	RAG	RTempPole1	2.399253e-01	5.253642e-02
016	RAG	RPrec	3.139532e-01	2.678541e-01
016	RAG	RPrec1	2.982583e-01	3.940931e-01
016	RAG	RPrec2	2.451119e-01	6.095415e-01
016	RAG	MTG	1.282791e-01	1.800248e-01
016	RAG	MTG1	7.201886e-02	1.811144e-01
016	RAG	ACing	1.343134e-01	2.091685e-01
016	RAG	ACing1	1.428844e-01	3.764798e-01
016	RAG	LAG	1.811970e-01	2.051437e-01
016	RAG	LAG1	1.746132e-01	3.875470e-01
016	RAG	LAG2	9.467772e-02	4.011225e-01
016	RAG	LAG3	2.730659e-01	4.048479e-01
016	RAG	LAG4	2.358669e-01	1.827564e-01
016	RAG	RAG1	3.381812e-01	4.955052e-02
016	RAG	RAG2	3.810472e-01	-4.181814e-02
019	RAG	Insula	5.566950e-01	6.177302e-01
019	RAG	Insula1	5.600112e-01	6.442723e-01
019	RAG	Insula2	5.659112e-01	4.342544e-01
019	RAG	Insula3	3.264747e-01	2.655427e-01
019	RAG	Insula4	6.740147e-01	6.021431e-01
019	RAG	dACC	2.479690e-01	3.250801e-01
019	RAG	RInsula	5.444825e-01	7.051779e-01
019	RAG	RInsula1	3.364291e-01	4.328297e-01
019	RAG	SPL	2.833111e-01	4.203650e-01
019	RAG	SPL1	5.052932e-01	3.772904e-01
019	RAG	SPL2	2.196442e-01	2.482802e-01
019	RAG	RMFG	5.048860e-01	6.593922e-01
019	RAG	RMFG1	8.835331e-01	6.769076e-01
019	RAG	RMFG2	4.262059e-02	1.515471e-01
019	RAG	RTempPole	2.682689e-01	2.320430e-01
019	RAG	RTempPole1	1.459878e-01	3.279689e-02
019	RAG	RPrec	6.353701e-01	1.771459e-01
019	RAG	RPrec1	3.299133e-01	3.182083e-03
019	RAG	RPrec2	4.792066e-01	3.556793e-02
019	RAG	MTG	1.123825e-01	6.813868e-02
019	RAG	MTG1	1.811656e-01	9.921281e-02
019	RAG	ACing	-3.837284e-01	-6.195255e-02
019	RAG	ACing1	1.706408e-01	1.498308e-01
019	RAG	LAG	4.375437e-01	1.219169e-01
019	RAG	LAG1	1.768079e-01	-2.125462e-01
019	RAG	LAG2	1.996551e-01	-1.739147e-02
019	RAG	LAG3	2.982341e-01	-1.459646e-01
019	RAG	LAG4	7.746954e-01	5.793325e-02
019	RAG	RAG1	3.458147e-01	6.261173e-02
019	RAG	RAG2	2.687420e-01	-6.396186e-02
020	RAG	Insula	2.987270e-01	2.394354e-02
020	RAG	Insula1	2.957898e-01	-2.827325e-02
020	RAG	Insula2	2.654729e-01	4.779985e-02
020	RAG	Insula3	-1.034450e-02	-1.067042e-01
020	RAG	Insula4	3.682153e-01	-7.339624e-02
020	RAG	dACC	4.148629e-02	3.989636e-01
020	RAG	RInsula	3.053509e-01	8.532360e-03
020	RAG	RInsula1	2.092180e-01	-1.260747e-01
020	RAG	SPL	1.583142e-01	5.724130e-02
020	RAG	SPL1	1.335073e-01	-7.823658e-02
020	RAG	SPL2	5.068342e-02	-1.794350e-02
020	RAG	RMFG	1.864881e-01	-2.879070e-03
020	RAG	RMFG1	4.190449e-01	1.913863e-01
020	RAG	RMFG2	1.101741e-01	4.663181e-02
020	RAG	RTempPole	-2.734770e-02	-2.214743e-01
020	RAG	RTempPole1	-2.646184e-02	1.890673e-02
020	RAG	RPrec	1.360234e-01	2.903764e-02
020	RAG	RPrec1	-2.367366e-02	-2.074493e-01
020	RAG	RPrec2	5.399164e-02	1.631907e-01
020	RAG	MTG	8.730675e-02	9.569704e-02
020	RAG	MTG1	-8.584032e-02	-1.223284e-01
020	RAG	ACing	-4.866809e-01	4.024946e-01
020	RAG	ACing1	2.901319e-01	-1.866533e-01
020	RAG	LAG	1.307161e-01	3.678586e-02
020	RAG	LAG1	-9.880893e-02	-1.239737e-01
020	RAG	LAG2	1.293610e-02	7.430650e-02
020	RAG	LAG3	8.602468e-02	-2.568435e-02
020	RAG	LAG4	-8.305489e-02	-2.369813e-01
020	RAG	RAG1	2.289389e-01	-1.390051e-01
020	RAG	RAG2	3.362583e-02	2.882761e-02
021	RAG	Insula	3.042927e-01	1.974957e-01
021	RAG	Insula1	4.462411e-01	4.621508e-02
021	RAG	Insula2	2.783095e-01	2.134802e-01
021	RAG	Insula3	7.286542e-02	8.954036e-03
021	RAG	Insula4	3.466077e-01	1.413006e-01
021	RAG	dACC	2.769791e-01	-8.124150e-02
021	RAG	RInsula	1.545707e-01	8.304728e-03
021	RAG	RInsula1	2.421983e-01	2.010678e-03
021	RAG	SPL	2.700189e-01	1.087472e-01
021	RAG	SPL1	9.426493e-02	-8.312845e-02
021	RAG	SPL2	4.134192e-01	1.032599e-01
021	RAG	RMFG	1.635775e-01	5.806083e-02
021	RAG	RMFG1	2.126734e-01	-3.710787e-02
021	RAG	RMFG2	1.178323e-01	7.767879e-02
021	RAG	RTempPole	2.054891e-01	9.619119e-02
021	RAG	RTempPole1	3.056308e-01	5.041109e-02
021	RAG	RPrec	3.787017e-01	1.626840e-01
021	RAG	RPrec1	2.999907e-01	9.241475e-02
021	RAG	RPrec2	6.358433e-01	2.569492e-01
021	RAG	MTG	1.473681e-01	4.966952e-03
021	RAG	MTG1	2.342578e-01	3.202276e-02
021	RAG	ACing	-1.359410e-01	-6.755077e-01
021	RAG	ACing1	-1.086281e-01	-4.423548e-02
021	RAG	LAG	3.486525e-01	1.512161e-01
021	RAG	LAG1	3.072936e-01	3.797077e-02
021	RAG	LAG2	2.662894e-01	-2.071531e-02
021	RAG	LAG3	3.154278e-01	3.979060e-02
021	RAG	LAG4	2.904280e-01	1.196126e-01
021	RAG	RAG1	2.035137e-01	8.811000e-02
021	RAG	RAG2	3.082116e-01	2.141765e-01
022	RAG	Insula	1.545497e-01	2.576177e-02
022	RAG	Insula1	3.110428e-01	1.483966e-01
022	RAG	Insula2	3.563477e-01	3.355646e-02
022	RAG	Insula3	2.534339e-01	1.130906e-01
022	RAG	Insula4	4.495252e-01	2.159994e-01
022	RAG	dACC	1.431164e-01	9.766039e-02
022	RAG	RInsula	3.709332e-01	1.311808e-01
022	RAG	RInsula1	1.673235e-01	1.261143e-01
022	RAG	SPL	6.597651e-02	3.164369e-02
022	RAG	SPL1	2.223816e-01	-7.080862e-02
022	RAG	SPL2	2.074348e-01	-1.594022e-01
022	RAG	RMFG	1.365836e-01	1.400612e-01
022	RAG	RMFG1	4.256300e-01	3.026271e-01
022	RAG	RMFG2	2.618058e-01	2.792567e-01
022	RAG	RTempPole	1.180945e-01	3.520230e-02
022	RAG	RTempPole1	2.180619e-02	3.286760e-02
022	RAG	RPrec	2.672510e-02	1.747674e-01
022	RAG	RPrec1	3.695638e-01	3.899631e-01
022	RAG	RPrec2	6.842622e-02	3.098153e-01
022	RAG	MTG	-4.502696e-03	-3.843395e-02
022	RAG	MTG1	-8.795459e-02	-2.668220e-02
022	RAG	ACing	-8.222448e-03	9.281446e-02
022	RAG	ACing1	3.268753e-01	2.026984e-01
022	RAG	LAG	9.569348e-02	1.263797e-01
022	RAG	LAG1	-1.471169e-01	2.260679e-01
022	RAG	LAG2	-4.450924e-02	8.190560e-02
022	RAG	LAG3	-3.270105e-02	1.805190e-01
022	RAG	LAG4	4.696030e-01	4.179006e-01
022	RAG	RAG1	3.298850e-01	-2.017846e-01
022	RAG	RAG2	2.322483e-01	3.468610e-02
023	RAG	Insula	3.602397e-01	2.417976e-01
023	RAG	Insula1	2.936287e-01	9.385586e-02
023	RAG	Insula2	2.256565e-01	-4.662610e-02
023	RAG	Insula3	1.651133e-01	3.540289e-02
023	RAG	Insula4	2.607936e-01	5.558169e-02
023	RAG	dACC	5.923342e-01	7.226957e-02
023	RAG	RInsula	3.163337e-01	1.512608e-01
023	RAG	RInsula1	4.007041e-01	1.773735e-01
023	RAG	SPL	9.584941e-02	1.232599e-01
023	RAG	SPL1	1.389264e-01	3.190824e-02
023	RAG	SPL2	1.428841e-01	7.458668e-02
023	RAG	RMFG	1.336355e-01	2.578276e-03
023	RAG	RMFG1	4.800575e-01	7.549988e-02
023	RAG	RMFG2	3.709790e-02	-4.570664e-02
023	RAG	RTempPole	1.100439e-01	-1.567190e-03
023	RAG	RTempPole1	1.296672e-01	8.327402e-02
023	RAG	RPrec	1.152075e-01	1.029714e-01
023	RAG	RPrec1	1.216960e-01	8.237074e-02
023	RAG	RPrec2	1.241169e-01	8.289864e-02
023	RAG	MTG	5.478084e-02	3.586298e-02
023	RAG	MTG1	1.385153e-01	8.030057e-02
023	RAG	ACing	6.318121e-02	-2.152789e-01
023	RAG	ACing1	-9.154099e-02	-2.086344e-01
023	RAG	LAG	2.774976e-01	2.677972e-01
023	RAG	LAG1	9.441757e-02	7.603994e-02
023	RAG	LAG2	1.504036e-01	3.498146e-02
023	RAG	LAG3	2.560342e-01	-3.580757e-03
023	RAG	LAG4	2.342892e-01	7.987568e-02
023	RAG	RAG1	4.992413e-01	1.958029e-01
023	RAG	RAG2	3.631796e-01	1.293951e-01
025	RAG	Insula	7.011403e-01	5.935399e-01
025	RAG	Insula1	1.158279e+00	5.238815e-01
025	RAG	Insula2	9.436928e-01	1.854936e-01
025	RAG	Insula3	1.485283e+00	7.156811e-01
025	RAG	Insula4	1.115354e+00	4.213956e-01
025	RAG	dACC	1.083251e+00	4.742226e-01
025	RAG	RInsula	1.012190e+00	3.523309e-01
025	RAG	RInsula1	1.407967e+00	9.113490e-01
025	RAG	SPL	9.425774e-01	1.926782e-01
025	RAG	SPL1	6.360009e-01	1.448267e-01
025	RAG	SPL2	2.655340e-01	1.652699e-02
025	RAG	RMFG	7.802263e-01	3.112312e-01
025	RAG	RMFG1	9.731160e-01	5.319703e-01
025	RAG	RMFG2	3.529626e-01	1.984323e-01
025	RAG	RTempPole	5.721702e-01	6.583194e-01
025	RAG	RTempPole1	4.002390e-01	5.365689e-01
025	RAG	RPrec	9.994582e-01	6.419768e-01
025	RAG	RPrec1	2.334678e-01	-1.689746e-02
025	RAG	RPrec2	6.252456e-01	7.367687e-01
025	RAG	MTG	5.012203e-01	5.945770e-01
025	RAG	MTG1	3.348224e-01	6.968748e-01
025	RAG	ACing	3.038678e-02	5.587266e-01
025	RAG	ACing1	1.147026e-01	7.393074e-01
025	RAG	LAG	8.822340e-01	4.949653e-01
025	RAG	LAG1	-2.665173e-02	2.884622e-01
025	RAG	LAG2	2.067136e-01	3.084856e-01
025	RAG	LAG3	4.366494e-01	2.498610e-01
025	RAG	LAG4	6.702383e-01	2.582517e-01
025	RAG	RAG1	8.042343e-01	-7.914625e-04
025	RAG	RAG2	7.948063e-01	-5.597316e-03
027	RAG	Insula	1.757311e-01	-1.340781e-01
027	RAG	Insula1	2.950508e-01	1.495523e-01
027	RAG	Insula2	4.145790e-01	2.719021e-01
027	RAG	Insula3	4.955653e-01	3.439033e-01
027	RAG	Insula4	4.609626e-01	3.000178e-01
027	RAG	dACC	2.350260e-01	3.756686e-01
027	RAG	RInsula	3.101901e-01	3.838809e-02
027	RAG	RInsula1	4.186738e-01	1.109006e-01
027	RAG	SPL	1.700685e-01	-6.105795e-02
027	RAG	SPL1	9.980394e-02	-2.732790e-01
027	RAG	SPL2	1.628336e-01	3.427699e-02
027	RAG	RMFG	6.063800e-01	4.969426e-02
027	RAG	RMFG1	4.806609e-01	1.790981e-01
027	RAG	RMFG2	3.511832e-01	-6.733285e-02
027	RAG	RTempPole	4.615655e-01	2.627364e-01
027	RAG	RTempPole1	1.263757e-01	1.167078e-01
027	RAG	RPrec	5.184377e-01	-5.601772e-03
027	RAG	RPrec1	6.433849e-01	-5.319848e-02
027	RAG	RPrec2	5.941587e-01	3.953646e-01
027	RAG	MTG	1.176480e-01	1.847064e-01
027	RAG	MTG1	2.133516e-01	3.656690e-01
027	RAG	ACing	5.708914e-01	7.141274e-02
027	RAG	ACing1	4.121355e-01	3.344380e-02
027	RAG	LAG	4.908931e-01	3.443405e-01
027	RAG	LAG1	4.151380e-01	4.958070e-01
027	RAG	LAG2	1.339043e-01	2.172336e-01
027	RAG	LAG3	1.650341e-01	1.590254e-01
027	RAG	LAG4	2.759463e-01	3.567593e-01
027	RAG	RAG1	1.173194e+00	-5.700337e-02
027	RAG	RAG2	3.187638e-01	-1.698841e-01
028	RAG	Insula	9.308092e-01	1.007489e+00
028	RAG	Insula1	1.179229e+00	7.274710e-01
028	RAG	Insula2	6.377742e-01	6.137957e-01
028	RAG	Insula3	2.804100e-01	1.840961e-01
028	RAG	Insula4	9.024788e-01	1.179412e+00
028	RAG	dACC	1.363877e-01	2.706111e-01
028	RAG	RInsula	6.398294e-01	6.990994e-01
028	RAG	RInsula1	7.328458e-01	6.672147e-01
028	RAG	SPL	3.569421e-01	3.131037e-01
028	RAG	SPL1	6.442274e-01	4.215522e-01
028	RAG	SPL2	8.626325e-01	8.092289e-01
028	RAG	RMFG	9.246784e-01	9.428825e-01
028	RAG	RMFG1	1.283243e+00	1.344525e+00
028	RAG	RMFG2	4.904493e-01	4.016462e-01
028	RAG	RTempPole	3.706488e-01	2.867236e-01
028	RAG	RTempPole1	8.421395e-01	6.409931e-01
028	RAG	RPrec	3.846101e-01	6.392625e-01
028	RAG	RPrec1	5.724114e-01	2.175480e-01
028	RAG	RPrec2	9.061667e-01	4.701480e-01
028	RAG	MTG	4.464546e-01	1.447970e-01
028	RAG	MTG1	3.610140e-01	1.023177e-01
028	RAG	ACing	2.565368e-02	-4.428394e-02
028	RAG	ACing1	2.487535e-01	2.451827e-01
028	RAG	LAG	1.451234e-01	-9.176659e-02
028	RAG	LAG1	4.124579e-01	-4.017009e-02
028	RAG	LAG2	7.338687e-01	3.832482e-01
028	RAG	LAG3	5.456901e-01	4.837500e-01
028	RAG	LAG4	3.104109e-01	-6.582847e-02
028	RAG	RAG1	3.721878e-01	2.399947e-01
028	RAG	RAG2	4.962946e-01	5.380049e-01
029	RAG	Insula	1.053409e+00	5.533919e-01
029	RAG	Insula1	3.471594e-01	-1.492020e-03
029	RAG	Insula2	9.136462e-01	2.408541e-01
029	RAG	Insula3	5.702850e-01	3.019372e-01
029	RAG	Insula4	6.329445e-01	8.486423e-02
029	RAG	dACC	-4.081470e-02	3.935002e-01
029	RAG	RInsula	7.596228e-01	3.460832e-01
029	RAG	RInsula1	1.403538e+00	7.299975e-01
029	RAG	SPL	4.510624e-01	3.211122e-02
029	RAG	SPL1	2.910591e-01	-5.171936e-02
029	RAG	SPL2	2.842968e-01	1.062979e-01
029	RAG	RMFG	2.771083e-01	1.554354e-01
029	RAG	RMFG1	3.740850e-01	-1.747016e-02
029	RAG	RMFG2	1.048650e-01	-1.824572e-03
029	RAG	RTempPole	1.928723e-01	-2.045801e-01
029	RAG	RTempPole1	1.933308e-01	6.357205e-02
029	RAG	RPrec	6.987235e-01	4.241454e-01
029	RAG	RPrec1	5.612951e-01	5.080387e-02
029	RAG	RPrec2	4.646059e-01	1.202195e-03
029	RAG	MTG	2.627130e-01	1.549520e-01
029	RAG	MTG1	2.569647e-01	8.690884e-02
029	RAG	ACing	4.576024e-03	-4.038405e-01
029	RAG	ACing1	-3.993635e-01	-2.973425e-01
029	RAG	LAG	3.623697e-01	3.160593e-01
029	RAG	LAG1	1.921071e-01	-2.532904e-01
029	RAG	LAG2	-1.081401e-01	-2.635907e-01
029	RAG	LAG3	1.618390e-01	-1.725239e-01
029	RAG	LAG4	2.980723e-01	-1.365311e-01
029	RAG	RAG1	5.208222e-01	-3.253831e-02
029	RAG	RAG2	4.408954e-01	3.190472e-02
030	RAG	Insula	8.413884e-01	3.699103e-01
030	RAG	Insula1	2.965909e-01	1.645954e-01
030	RAG	Insula2	8.153656e-01	2.391749e-01
030	RAG	Insula3	4.034482e-01	1.878152e-01
030	RAG	Insula4	4.173501e-01	2.480694e-01
030	RAG	dACC	2.700456e-01	-6.915338e-03
030	RAG	RInsula	5.540909e-01	2.524544e-01
030	RAG	RInsula1	6.322442e-01	3.634421e-01
030	RAG	SPL	3.373838e-01	2.378973e-01
030	RAG	SPL1	5.113875e-01	2.247194e-01
030	RAG	SPL2	3.805642e-01	1.239250e-01
030	RAG	RMFG	6.213283e-01	4.270366e-01
030	RAG	RMFG1	9.203198e-01	6.282482e-01
030	RAG	RMFG2	1.338521e-01	6.160408e-02
030	RAG	RTempPole	4.328753e-01	-1.574032e-01
030	RAG	RTempPole1	3.265667e-01	-6.004062e-03
030	RAG	RPrec	3.766298e-01	-6.730661e-02
030	RAG	RPrec1	7.441311e-01	4.648941e-01
030	RAG	RPrec2	2.177683e-01	-8.171223e-02
030	RAG	MTG	2.986965e-01	-6.597885e-02
030	RAG	MTG1	1.818694e-01	-2.557868e-01
030	RAG	ACing	2.009465e-01	2.537448e-01
030	RAG	ACing1	8.294907e-01	3.771135e-01
030	RAG	LAG	3.389775e-01	2.457331e-01
030	RAG	LAG1	7.528362e-02	-7.819956e-02
030	RAG	LAG2	1.809868e-01	1.793599e-02
030	RAG	LAG3	2.249403e-01	1.021139e-03
030	RAG	LAG4	3.062436e-01	2.016778e-01
030	RAG	RAG1	8.185549e-01	4.335200e-01
030	RAG	RAG2	2.605367e-01	-3.580372e-02
031	RAG	Insula	-1.857759e-01	-1.712343e-01
031	RAG	Insula1	1.184847e-01	-6.411721e-02
031	RAG	Insula2	3.029927e-01	2.190292e-01
031	RAG	Insula3	-2.290555e-01	-1.551874e-01
031	RAG	Insula4	1.381822e-01	-2.296876e-01
031	RAG	dACC	-4.253973e-01	2.709983e-02
031	RAG	RInsula	-1.501494e-01	-1.494894e-01
031	RAG	RInsula1	4.905389e-01	3.948536e-01
031	RAG	SPL	-4.983340e-02	1.916372e-02
031	RAG	SPL1	3.510815e-01	-2.576248e-02
031	RAG	SPL2	2.136246e-01	-1.315469e-01
031	RAG	RMFG	-6.323332e-02	-8.104661e-02
031	RAG	RMFG1	5.040812e-02	-1.127503e-01
031	RAG	RMFG2	2.595612e-02	-6.909368e-02
031	RAG	RTempPole	8.091867e-02	1.619908e-01
031	RAG	RTempPole1	-2.832826e-01	-7.117161e-02
031	RAG	RPrec	-1.745330e-01	3.222254e-01
031	RAG	RPrec1	9.000578e-02	2.193361e-01
031	RAG	RPrec2	-2.063144e-01	2.812521e-01
031	RAG	MTG	-2.623861e-01	2.510868e-01
031	RAG	MTG1	4.755904e-01	4.969033e-01
031	RAG	ACing	-2.015178e-01	4.060693e-01
031	RAG	ACing1	-3.184879e-01	1.677744e-01
031	RAG	LAG	-2.408264e-01	5.111546e-01
031	RAG	LAG1	-8.503886e-02	4.308182e-01
031	RAG	LAG2	1.202925e-01	1.318222e-01
031	RAG	LAG3	-3.570065e-01	3.759025e-01
031	RAG	LAG4	-1.599979e-01	4.098355e-01
031	RAG	RAG1	-2.878082e-02	2.042128e-01
031	RAG	RAG2	-2.063810e-02	4.366825e-01
