Subject	ROI_seed	ROI_target	Cats_rest	Cats_Counting
002	LAG3	Insula	2.670722e-01	6.110760e-02
002	LAG3	Insula1	3.044333e-01	1.083992e-01
002	LAG3	Insula2	1.122954e-01	8.811569e-02
002	LAG3	Insula3	5.753675e-02	4.851504e-02
002	LAG3	Insula4	3.071403e-01	1.781702e-01
002	LAG3	dACC	2.564799e-01	3.080725e-01
002	LAG3	RInsula	1.379288e-01	8.336829e-02
002	LAG3	RInsula1	1.598654e-01	1.470789e-01
002	LAG3	SPL	1.881151e-01	7.220583e-02
002	LAG3	SPL1	2.978495e-01	-8.288523e-02
002	LAG3	SPL2	2.495829e-01	9.742458e-02
002	LAG3	RMFG	3.765058e-01	3.156908e-01
002	LAG3	RMFG1	5.273060e-01	4.463913e-01
002	LAG3	RMFG2	1.871513e-01	2.071582e-01
002	LAG3	RTempPole	1.323750e-01	1.605171e-01
002	LAG3	RTempPole1	2.750816e-01	2.354714e-01
002	LAG3	RPrec	4.050963e-01	4.071091e-01
002	LAG3	RPrec1	2.216971e-01	2.161012e-01
002	LAG3	RPrec2	3.991110e-01	3.354124e-01
002	LAG3	MTG	1.639427e-01	1.767794e-01
002	LAG3	MTG1	2.935953e-01	2.057339e-01
002	LAG3	ACing	-2.956398e-01	-1.347597e-01
002	LAG3	ACing1	1.745899e-01	2.915360e-01
002	LAG3	LAG	5.489237e-01	2.554191e-01
002	LAG3	LAG1	4.070576e-01	7.134669e-02
002	LAG3	LAG2	4.799493e-01	2.242330e-01
002	LAG3	LAG4	2.434788e-01	-6.039499e-02
002	LAG3	RAG	2.731504e-01	2.274564e-01
002	LAG3	RAG1	7.320324e-01	1.252885e-01
002	LAG3	RAG2	3.625354e-01	3.395221e-01
003	LAG3	Insula	-1.446399e-01	4.729391e-02
003	LAG3	Insula1	5.574989e-01	5.867732e-01
003	LAG3	Insula2	5.112658e-01	6.114345e-01
003	LAG3	Insula3	2.521917e-01	2.164110e-01
003	LAG3	Insula4	4.106955e-01	7.656360e-01
003	LAG3	dACC	3.336913e-01	-8.646888e-02
003	LAG3	RInsula	1.407438e-01	2.756932e-01
003	LAG3	RInsula1	3.050225e-01	6.190604e-01
003	LAG3	SPL	5.485357e-01	4.725838e-01
003	LAG3	SPL1	1.316960e-01	1.801136e-01
003	LAG3	SPL2	3.528697e-01	5.274022e-01
003	LAG3	RMFG	2.622738e-01	3.209543e-01
003	LAG3	RMFG1	2.467961e-01	6.109458e-01
003	LAG3	RMFG2	4.139578e-01	2.971393e-01
003	LAG3	RTempPole	1.501890e-02	-2.094367e-01
003	LAG3	RTempPole1	2.393656e-01	-2.970547e-02
003	LAG3	RPrec	2.886234e-01	-1.813360e-01
003	LAG3	RPrec1	2.305294e-01	-9.207483e-02
003	LAG3	RPrec2	5.448498e-01	7.061587e-02
003	LAG3	MTG	3.909027e-01	5.274459e-01
003	LAG3	MTG1	1.198465e-01	5.536771e-02
003	LAG3	ACing	-3.910826e-01	-2.509306e-01
003	LAG3	ACing1	2.579834e-01	5.748592e-02
003	LAG3	LAG	4.098328e-01	3.008462e-01
003	LAG3	LAG1	2.012723e-02	-1.275648e-01
003	LAG3	LAG2	4.073112e-01	-9.332308e-02
003	LAG3	LAG4	-4.857173e-02	-1.782016e-01
003	LAG3	RAG	-6.362012e-03	5.406378e-02
003	LAG3	RAG1	4.054826e-01	3.711600e-01
003	LAG3	RAG2	4.137988e-01	1.034587e-01
005	LAG3	Insula	-2.890179e-01	3.729921e-03
005	LAG3	Insula1	-1.643605e-01	-1.838616e-01
005	LAG3	Insula2	-1.549643e-01	5.227652e-02
005	LAG3	Insula3	-4.056510e-02	3.936731e-03
005	LAG3	Insula4	-1.019268e-01	1.484960e-01
005	LAG3	dACC	-4.758612e-03	1.199205e-01
005	LAG3	RInsula	-2.879163e-01	1.346314e-01
005	LAG3	RInsula1	-2.010620e-01	6.973040e-02
005	LAG3	SPL	-4.774500e-02	9.330672e-02
005	LAG3	SPL1	-5.238918e-01	-2.014919e-01
005	LAG3	SPL2	-4.226418e-01	-1.712693e-01
005	LAG3	RMFG	-5.341957e-02	1.192414e-02
005	LAG3	RMFG1	1.745720e-01	5.374490e-01
005	LAG3	RMFG2	2.357311e-02	2.028147e-01
005	LAG3	RTempPole	-6.653389e-02	3.256641e-02
005	LAG3	RTempPole1	3.173271e-01	5.348143e-01
005	LAG3	RPrec	8.381343e-02	2.053106e-01
005	LAG3	RPrec1	1.261745e-01	1.411876e-01
005	LAG3	RPrec2	-4.892281e-02	-1.703584e-01
005	LAG3	MTG	1.029732e-01	-1.014344e-01
005	LAG3	MTG1	-1.003665e-01	-2.461979e-01
005	LAG3	ACing	2.869072e-01	1.124043e-01
005	LAG3	ACing1	1.790315e-01	2.745177e-01
005	LAG3	LAG	1.817241e-01	-7.934542e-02
005	LAG3	LAG1	1.800996e-02	-5.054223e-01
005	LAG3	LAG2	2.404659e-02	-3.742564e-01
005	LAG3	LAG4	-3.920921e-02	-2.409539e-01
005	LAG3	RAG	-9.705748e-02	5.451700e-03
005	LAG3	RAG1	-2.628904e-02	1.381110e-02
005	LAG3	RAG2	-1.372128e-01	-3.722193e-02
006	LAG3	Insula	1.970167e-01	1.552385e-01
006	LAG3	Insula1	1.940977e-01	-2.890303e-03
006	LAG3	Insula2	2.776564e-01	1.451681e-01
006	LAG3	Insula3	2.455295e-02	1.682326e-01
006	LAG3	Insula4	1.205546e-01	2.016240e-01
006	LAG3	dACC	2.188914e-01	7.572828e-02
006	LAG3	RInsula	2.035203e-01	3.628954e-01
006	LAG3	RInsula1	7.553499e-02	2.816819e-01
006	LAG3	SPL	7.074971e-02	1.417225e-01
006	LAG3	SPL1	3.193121e-02	-8.318074e-03
006	LAG3	SPL2	1.839678e-01	1.211806e-01
006	LAG3	RMFG	9.042680e-02	4.149350e-01
006	LAG3	RMFG1	2.266215e-01	4.103859e-01
006	LAG3	RMFG2	2.237192e-01	2.355628e-01
006	LAG3	RTempPole	6.589818e-02	2.552397e-01
006	LAG3	RTempPole1	2.341303e-01	3.840421e-01
006	LAG3	RPrec	-4.148777e-02	1.069593e-01
006	LAG3	RPrec1	4.728591e-02	4.392886e-02
006	LAG3	RPrec2	3.011932e-01	3.319982e-02
006	LAG3	MTG	1.209848e-01	4.171985e-02
006	LAG3	MTG1	1.714631e-01	4.019743e-03
006	LAG3	ACing	-1.986671e-01	1.187367e-01
006	LAG3	ACing1	1.418441e-01	4.353052e-02
006	LAG3	LAG	5.171429e-01	1.811672e-01
006	LAG3	LAG1	1.219444e-01	-8.362081e-02
006	LAG3	LAG2	2.650411e-01	-3.893884e-02
006	LAG3	LAG4	1.648002e-01	-1.953465e-01
006	LAG3	RAG	2.288085e-01	6.865833e-02
006	LAG3	RAG1	2.377856e-01	3.331025e-02
006	LAG3	RAG2	8.860632e-02	9.779916e-02
007	LAG3	Insula	3.051891e-01	3.819590e-01
007	LAG3	Insula1	2.689774e-01	3.886159e-02
007	LAG3	Insula2	1.543614e-01	3.160604e-01
007	LAG3	Insula3	2.035908e-01	2.214304e-01
007	LAG3	Insula4	6.275023e-01	6.712571e-01
007	LAG3	dACC	1.079304e-02	1.265646e-01
007	LAG3	RInsula	1.587584e-01	3.339269e-01
007	LAG3	RInsula1	3.658476e-01	3.916574e-01
007	LAG3	SPL	1.038430e-01	1.759670e-01
007	LAG3	SPL1	2.298089e-01	1.698257e-01
007	LAG3	SPL2	1.143770e-01	7.314245e-02
007	LAG3	RMFG	2.757698e-01	3.736771e-01
007	LAG3	RMFG1	3.798598e-01	6.624965e-01
007	LAG3	RMFG2	3.292636e-02	2.245357e-01
007	LAG3	RTempPole	3.655740e-02	-1.126627e-01
007	LAG3	RTempPole1	3.277910e-01	3.049986e-01
007	LAG3	RPrec	4.770931e-01	3.580548e-01
007	LAG3	RPrec1	1.052786e-01	8.147789e-02
007	LAG3	RPrec2	1.934354e-01	3.520049e-02
007	LAG3	MTG	2.454868e-01	2.104925e-01
007	LAG3	MTG1	2.888169e-01	1.976112e-01
007	LAG3	ACing	-3.241980e-01	-2.189806e-02
007	LAG3	ACing1	1.479505e-01	-2.227296e-02
007	LAG3	LAG	-6.789355e-02	-6.622451e-02
007	LAG3	LAG1	-5.483514e-02	-1.269769e-01
007	LAG3	LAG2	3.910714e-02	-4.574245e-02
007	LAG3	LAG4	1.694712e-01	1.799965e-01
007	LAG3	RAG	-8.790395e-02	-1.140137e-02
007	LAG3	RAG1	1.294927e-01	1.578099e-01
007	LAG3	RAG2	2.457545e-01	1.979233e-01
008	LAG3	Insula	1.140887e+00	8.883029e-01
008	LAG3	Insula1	5.002219e-01	2.476699e-01
008	LAG3	Insula2	8.654177e-01	7.072802e-01
008	LAG3	Insula3	6.101805e-01	4.057034e-01
008	LAG3	Insula4	6.969299e-01	3.792471e-01
008	LAG3	dACC	1.277796e+00	4.118797e-01
008	LAG3	RInsula	1.034006e+00	9.921118e-01
008	LAG3	RInsula1	7.705188e-01	7.127033e-01
008	LAG3	SPL	5.511356e-01	5.818568e-01
008	LAG3	SPL1	3.454603e-01	3.087268e-01
008	LAG3	SPL2	1.466883e-01	1.876142e-01
008	LAG3	RMFG	7.324640e-01	5.358550e-01
008	LAG3	RMFG1	5.306496e-01	1.143040e-01
008	LAG3	RMFG2	1.094281e-01	8.037294e-02
008	LAG3	RTempPole	4.411814e-01	2.659485e-01
008	LAG3	RTempPole1	3.508880e-01	2.481783e-01
008	LAG3	RPrec	4.586146e-01	2.247841e-01
008	LAG3	RPrec1	3.120818e-01	-1.404999e-01
008	LAG3	RPrec2	6.429837e-01	1.618230e-02
008	LAG3	MTG	3.574908e-01	2.452274e-01
008	LAG3	MTG1	1.469055e-01	-1.428646e-01
008	LAG3	ACing	1.412697e-01	-2.640864e-01
008	LAG3	ACing1	2.233171e-01	-6.272051e-02
008	LAG3	LAG	5.296919e-01	2.351860e-01
008	LAG3	LAG1	3.677271e-01	-8.833356e-03
008	LAG3	LAG2	3.981757e-01	1.299685e-01
008	LAG3	LAG4	7.173851e-01	4.110022e-01
008	LAG3	RAG	2.353896e-01	3.240313e-02
008	LAG3	RAG1	3.782876e-01	1.443309e-01
008	LAG3	RAG2	5.121724e-01	5.582046e-04
011	LAG3	Insula	5.376068e-01	2.896624e-01
011	LAG3	Insula1	6.051770e-01	7.624135e-01
011	LAG3	Insula2	6.558789e-01	4.445150e-01
011	LAG3	Insula3	3.038072e-01	2.308822e-01
011	LAG3	Insula4	6.017249e-01	3.807661e-01
011	LAG3	dACC	2.440335e-01	4.142662e-01
011	LAG3	RInsula	5.995368e-01	6.597073e-01
011	LAG3	RInsula1	3.708609e-01	2.648281e-01
011	LAG3	SPL	5.647840e-01	2.783102e-01
011	LAG3	SPL1	4.184137e-01	3.435670e-01
011	LAG3	SPL2	4.563892e-01	6.515883e-01
011	LAG3	RMFG	1.956543e-01	1.321350e-01
011	LAG3	RMFG1	4.325950e-01	4.480543e-01
011	LAG3	RMFG2	2.374239e-01	9.918254e-02
011	LAG3	RTempPole	-2.649053e-02	-1.893217e-01
011	LAG3	RTempPole1	5.935376e-02	2.133624e-01
011	LAG3	RPrec	2.119141e-01	-1.206665e-01
011	LAG3	RPrec1	2.987459e-01	2.056525e-01
011	LAG3	RPrec2	6.594825e-01	2.745223e-01
011	LAG3	MTG	1.501508e-01	1.775954e-01
011	LAG3	MTG1	2.699155e-01	5.291520e-02
011	LAG3	ACing	6.039732e-01	5.421975e-01
011	LAG3	ACing1	3.193007e-01	1.596815e-01
011	LAG3	LAG	5.878534e-01	2.841016e-01
011	LAG3	LAG1	3.322363e-01	3.097523e-01
011	LAG3	LAG2	8.663223e-02	1.111035e-01
011	LAG3	LAG4	4.341154e-01	1.648724e-01
011	LAG3	RAG	4.384719e-01	1.074623e-01
011	LAG3	RAG1	2.755837e-01	5.873936e-02
011	LAG3	RAG2	3.464665e-01	3.431029e-02
017	LAG3	Insula	1.464183e-01	2.935376e-01
017	LAG3	Insula1	-1.064850e-01	8.314183e-02
017	LAG3	Insula2	-1.647304e-03	-2.006745e-01
017	LAG3	Insula3	1.323516e-01	2.267832e-01
017	LAG3	Insula4	-1.563732e-01	-1.398066e-01
017	LAG3	dACC	-5.216220e-03	6.607869e-02
017	LAG3	RInsula	1.124535e-01	7.436262e-02
017	LAG3	RInsula1	-2.157987e-01	-6.405894e-02
017	LAG3	SPL	-1.411367e-01	-2.208883e-02
017	LAG3	SPL1	-1.409745e-01	-1.678824e-02
017	LAG3	SPL2	-4.060294e-01	4.137739e-02
017	LAG3	RMFG	-8.615041e-03	4.994595e-02
017	LAG3	RMFG1	1.353548e-01	-2.612524e-02
017	LAG3	RMFG2	3.372009e-02	-8.059283e-02
017	LAG3	RTempPole	-2.703431e-02	6.649810e-02
017	LAG3	RTempPole1	-1.658163e-01	1.642020e-01
017	LAG3	RPrec	-6.650364e-03	1.375296e-01
017	LAG3	RPrec1	-6.521135e-02	2.460712e-01
017	LAG3	RPrec2	-1.166833e-02	1.849373e-01
017	LAG3	MTG	-7.647737e-02	5.054848e-02
017	LAG3	MTG1	-1.528044e-01	-8.562493e-02
017	LAG3	ACing	4.925170e-02	9.367900e-02
017	LAG3	ACing1	1.897072e-01	2.563139e-03
017	LAG3	LAG	-1.804055e-01	3.315304e-02
017	LAG3	LAG1	2.148043e-01	7.391476e-02
017	LAG3	LAG2	-3.446544e-01	1.615459e-02
017	LAG3	LAG4	-8.326975e-02	-1.095002e-02
017	LAG3	RAG	-2.737123e-01	3.898746e-02
017	LAG3	RAG1	-4.344349e-03	-1.925030e-01
017	LAG3	RAG2	-2.566378e-01	-2.079870e-01
012	LAG3	Insula	-4.854206e-02	1.464120e-01
012	LAG3	Insula1	-2.818984e-02	9.925187e-02
012	LAG3	Insula2	1.443094e-02	4.575893e-02
012	LAG3	Insula3	1.205206e-01	2.261536e-01
012	LAG3	Insula4	9.326979e-02	2.855382e-01
012	LAG3	dACC	6.744742e-02	3.272942e-02
012	LAG3	RInsula	2.044344e-01	2.936696e-01
012	LAG3	RInsula1	6.629185e-02	2.869014e-01
012	LAG3	SPL	2.968073e-02	2.214148e-01
012	LAG3	SPL1	3.919047e-02	1.589768e-01
012	LAG3	SPL2	-4.839030e-02	2.077815e-01
012	LAG3	RMFG	1.367016e-01	3.629559e-01
012	LAG3	RMFG1	7.473097e-03	1.069899e-01
012	LAG3	RMFG2	-4.264091e-02	1.609575e-01
012	LAG3	RTempPole	-4.240232e-02	2.186891e-02
012	LAG3	RTempPole1	-6.154690e-02	9.608073e-02
012	LAG3	RPrec	2.343065e-01	2.587428e-01
012	LAG3	RPrec1	4.035872e-01	1.504706e-01
012	LAG3	RPrec2	2.983646e-01	-7.926846e-02
012	LAG3	MTG	-2.211264e-02	-7.173792e-02
012	LAG3	MTG1	-4.348945e-02	-3.309200e-02
012	LAG3	ACing	7.292252e-02	2.969949e-01
012	LAG3	ACing1	1.013397e-01	1.411506e-01
012	LAG3	LAG	2.689507e-01	7.452827e-02
012	LAG3	LAG1	1.856303e-01	-1.474618e-02
012	LAG3	LAG2	1.628463e-01	8.338107e-02
012	LAG3	LAG4	2.489025e-01	6.551113e-02
012	LAG3	RAG	2.031463e-01	1.581747e-01
012	LAG3	RAG1	2.007258e-01	1.247641e-01
012	LAG3	RAG2	1.420300e-01	1.647142e-01
013	LAG3	Insula	4.927461e-01	1.665895e-01
013	LAG3	Insula1	6.953341e-01	1.716450e-01
013	LAG3	Insula2	6.647234e-01	2.428129e-01
013	LAG3	Insula3	4.993945e-01	2.683565e-01
013	LAG3	Insula4	9.071176e-01	5.203243e-01
013	LAG3	dACC	2.365814e-01	1.190673e-01
013	LAG3	RInsula	5.004126e-01	3.248596e-01
013	LAG3	RInsula1	6.660508e-01	5.741562e-01
013	LAG3	SPL	6.910952e-01	-2.947412e-02
013	LAG3	SPL1	5.364434e-01	3.451308e-01
013	LAG3	SPL2	2.760129e-01	4.116181e-02
013	LAG3	RMFG	6.496066e-01	2.752364e-01
013	LAG3	RMFG1	5.315599e-01	2.496288e-01
013	LAG3	RMFG2	3.141681e-01	6.196224e-02
013	LAG3	RTempPole	2.325730e-01	1.262902e-01
013	LAG3	RTempPole1	1.911644e-01	2.321688e-01
013	LAG3	RPrec	3.550934e-01	2.266827e-01
013	LAG3	RPrec1	3.663480e-01	4.947040e-01
013	LAG3	RPrec2	4.071639e-01	5.412558e-01
013	LAG3	MTG	4.537027e-01	2.493736e-01
013	LAG3	MTG1	3.727163e-01	1.704593e-01
013	LAG3	ACing	-3.303820e-02	-6.661015e-02
013	LAG3	ACing1	2.604838e-01	1.231186e-01
013	LAG3	LAG	4.681360e-01	2.993649e-01
013	LAG3	LAG1	1.802995e-01	3.131745e-02
013	LAG3	LAG2	7.180035e-02	1.798819e-01
013	LAG3	LAG4	4.946521e-01	1.106301e-01
013	LAG3	RAG	1.899976e-01	1.680775e-01
013	LAG3	RAG1	6.671773e-01	1.893031e-01
013	LAG3	RAG2	4.551542e-01	1.610186e-01
014	LAG3	Insula	6.067333e-01	2.448617e-01
014	LAG3	Insula1	2.619613e-01	1.470556e-01
014	LAG3	Insula2	5.372741e-01	1.073752e-01
014	LAG3	Insula3	2.140787e-01	1.948127e-01
014	LAG3	Insula4	2.995194e-01	4.352672e-01
014	LAG3	dACC	8.443978e-01	1.599037e-01
014	LAG3	RInsula	5.118360e-01	3.999230e-01
014	LAG3	RInsula1	2.807362e-01	3.527192e-01
014	LAG3	SPL	1.065343e-01	6.751342e-02
014	LAG3	SPL1	5.020881e-01	4.297388e-02
014	LAG3	SPL2	6.790133e-01	4.226213e-01
014	LAG3	RMFG	3.871571e-01	3.553383e-01
014	LAG3	RMFG1	4.003339e-01	3.439427e-01
014	LAG3	RMFG2	1.119080e-01	1.815149e-02
014	LAG3	RTempPole	2.976337e-01	2.066320e-01
014	LAG3	RTempPole1	4.717440e-01	3.823370e-01
014	LAG3	RPrec	3.912867e-01	1.903261e-01
014	LAG3	RPrec1	2.284471e-01	1.190891e-01
014	LAG3	RPrec2	4.145741e-01	-1.653198e-01
014	LAG3	MTG	-7.523576e-02	4.096406e-02
014	LAG3	MTG1	1.133039e-01	1.582220e-01
014	LAG3	ACing	-5.506702e-01	-1.706801e-01
014	LAG3	ACing1	-9.794214e-02	-2.616615e-01
014	LAG3	LAG	2.432877e-01	-6.440899e-02
014	LAG3	LAG1	4.005497e-01	-1.206104e-01
014	LAG3	LAG2	1.928834e-01	-9.228508e-02
014	LAG3	LAG4	9.154374e-01	-1.391633e-01
014	LAG3	RAG	3.522158e-01	-9.284026e-02
014	LAG3	RAG1	5.929144e-01	1.777771e-01
014	LAG3	RAG2	6.539206e-01	2.842320e-01
015	LAG3	Insula	-1.573753e-01	2.291077e-01
015	LAG3	Insula1	-2.238622e-02	1.968714e-01
015	LAG3	Insula2	-9.531469e-02	1.015484e-01
015	LAG3	Insula3	8.071092e-03	1.631897e-01
015	LAG3	Insula4	-1.295846e-01	-7.285114e-02
015	LAG3	dACC	-2.505981e-01	-1.542300e-01
015	LAG3	RInsula	1.907410e-02	4.988342e-02
015	LAG3	RInsula1	8.775862e-02	1.792026e-01
015	LAG3	SPL	-3.002598e-01	-3.147056e-01
015	LAG3	SPL1	5.608583e-02	-4.317202e-01
015	LAG3	SPL2	-2.235893e-01	-2.534077e-01
015	LAG3	RMFG	-5.164239e-02	5.601946e-02
015	LAG3	RMFG1	-1.223542e-01	-2.833005e-01
015	LAG3	RMFG2	-2.501108e-02	-1.721233e-02
015	LAG3	RTempPole	-5.024569e-02	-1.893562e-01
015	LAG3	RTempPole1	-3.924212e-01	-1.465551e-01
015	LAG3	RPrec	-5.452682e-01	-5.819618e-01
015	LAG3	RPrec1	-3.366356e-01	-2.941414e-01
015	LAG3	RPrec2	-5.424138e-01	-2.163708e-01
015	LAG3	MTG	-1.402588e-01	-2.293921e-01
015	LAG3	MTG1	2.025029e-01	-1.475759e-01
015	LAG3	ACing	5.042303e-02	-5.182301e-01
015	LAG3	ACing1	6.312603e-01	-2.577972e-01
015	LAG3	LAG	-7.150677e-02	-2.364617e-01
015	LAG3	LAG1	-1.215518e-01	-5.232649e-01
015	LAG3	LAG2	5.439673e-03	-4.234815e-01
015	LAG3	LAG4	1.677392e-01	-2.283982e-01
015	LAG3	RAG	-1.223519e-01	-3.248238e-01
015	LAG3	RAG1	-2.705317e-01	-1.741834e-01
015	LAG3	RAG2	-9.659333e-02	-5.582281e-01
016	LAG3	Insula	4.424848e-01	6.106038e-01
016	LAG3	Insula1	5.866808e-01	5.919904e-01
016	LAG3	Insula2	3.689577e-01	5.395814e-01
016	LAG3	Insula3	3.679027e-01	5.268984e-01
016	LAG3	Insula4	8.887807e-01	1.163170e+00
016	LAG3	dACC	5.652690e-01	6.603787e-01
016	LAG3	RInsula	2.416928e-01	5.127657e-01
016	LAG3	RInsula1	2.462559e-01	5.712211e-01
016	LAG3	SPL	4.882112e-02	4.929471e-01
016	LAG3	SPL1	2.380906e-01	5.591287e-01
016	LAG3	SPL2	3.275655e-01	5.691872e-01
016	LAG3	RMFG	3.008517e-01	5.817573e-01
016	LAG3	RMFG1	5.565268e-01	8.406339e-01
016	LAG3	RMFG2	2.865189e-01	5.083715e-01
016	LAG3	RTempPole	4.143465e-01	3.901027e-01
016	LAG3	RTempPole1	4.061181e-01	6.656993e-01
016	LAG3	RPrec	2.870451e-01	1.611575e-01
016	LAG3	RPrec1	4.641614e-01	2.609275e-01
016	LAG3	RPrec2	3.452850e-01	6.174831e-03
016	LAG3	MTG	1.637548e-01	1.761448e-01
016	LAG3	MTG1	2.400357e-01	2.329836e-01
016	LAG3	ACing	-7.307106e-02	4.865556e-02
016	LAG3	ACing1	7.649141e-02	-2.794331e-02
016	LAG3	LAG	3.051197e-01	1.748336e-01
016	LAG3	LAG1	1.921064e-01	4.344986e-02
016	LAG3	LAG2	4.717875e-01	3.079504e-01
016	LAG3	LAG4	2.646849e-01	6.332675e-02
016	LAG3	RAG	2.289971e-01	8.360931e-02
016	LAG3	RAG1	2.922186e-01	4.443569e-01
016	LAG3	RAG2	4.746214e-01	4.684828e-01
019	LAG3	Insula	4.821958e-01	6.493822e-01
019	LAG3	Insula1	4.427707e-01	5.826616e-01
019	LAG3	Insula2	4.303510e-01	2.789476e-01
019	LAG3	Insula3	3.014531e-01	3.284560e-01
019	LAG3	Insula4	4.910510e-01	5.295163e-01
019	LAG3	dACC	2.967849e-01	3.550240e-01
019	LAG3	RInsula	3.559063e-01	5.381157e-01
019	LAG3	RInsula1	2.595123e-01	3.539744e-01
019	LAG3	SPL	2.515412e-01	4.107038e-01
019	LAG3	SPL1	6.479690e-01	4.083093e-01
019	LAG3	SPL2	1.916480e-01	2.499080e-01
019	LAG3	RMFG	3.116566e-01	6.058998e-01
019	LAG3	RMFG1	6.524297e-01	6.820488e-01
019	LAG3	RMFG2	-1.934403e-02	1.124907e-01
019	LAG3	RTempPole	1.376928e-01	1.354710e-01
019	LAG3	RTempPole1	1.904261e-01	1.685549e-01
019	LAG3	RPrec	4.580607e-01	4.094342e-02
019	LAG3	RPrec1	2.084062e-01	6.317410e-02
019	LAG3	RPrec2	3.315113e-01	-2.822005e-02
019	LAG3	MTG	7.367040e-02	1.967245e-02
019	LAG3	MTG1	1.671326e-02	4.095206e-02
019	LAG3	ACing	4.820644e-02	1.178716e-01
019	LAG3	ACing1	3.206057e-02	-1.284588e-01
019	LAG3	LAG	2.457926e-01	9.826453e-02
019	LAG3	LAG1	6.971551e-02	-1.309622e-01
019	LAG3	LAG2	1.642311e-01	5.197144e-02
019	LAG3	LAG4	6.111450e-01	2.198793e-01
019	LAG3	RAG	4.898131e-01	1.819528e-01
019	LAG3	RAG1	3.041204e-01	6.950917e-02
019	LAG3	RAG2	2.234484e-01	1.683636e-02
020	LAG3	Insula	1.919879e-01	4.260301e-02
020	LAG3	Insula1	2.792877e-01	4.255379e-02
020	LAG3	Insula2	1.277470e-01	-2.356323e-03
020	LAG3	Insula3	1.561242e-02	-4.255400e-02
020	LAG3	Insula4	2.983391e-01	-5.749422e-02
020	LAG3	dACC	2.134150e-01	-1.501635e-01
020	LAG3	RInsula	1.897108e-01	1.112699e-01
020	LAG3	RInsula1	3.638896e-01	9.217945e-02
020	LAG3	SPL	8.578410e-02	7.120255e-02
020	LAG3	SPL1	1.543838e-01	-1.275935e-01
020	LAG3	SPL2	5.253242e-03	5.665124e-02
020	LAG3	RMFG	2.365032e-01	2.708108e-01
020	LAG3	RMFG1	2.968371e-01	1.835426e-01
020	LAG3	RMFG2	2.665960e-01	2.737675e-02
020	LAG3	RTempPole	-1.736937e-01	-2.564313e-01
020	LAG3	RTempPole1	2.062516e-03	1.255400e-01
020	LAG3	RPrec	-1.427663e-01	2.674016e-02
020	LAG3	RPrec1	-1.672362e-01	-1.490440e-01
020	LAG3	RPrec2	6.104171e-02	-4.025177e-02
020	LAG3	MTG	1.281450e-01	7.783456e-02
020	LAG3	MTG1	-5.923718e-02	-1.319789e-01
020	LAG3	ACing	-7.902674e-01	4.424998e-02
020	LAG3	ACing1	7.513623e-01	3.951043e-01
020	LAG3	LAG	2.697041e-01	7.232354e-02
020	LAG3	LAG1	9.671667e-02	-3.219686e-02
020	LAG3	LAG2	1.790221e-01	-1.596217e-02
020	LAG3	LAG4	1.957799e-01	-2.478505e-01
020	LAG3	RAG	1.639794e-01	-1.170264e-01
020	LAG3	RAG1	1.658486e-03	-1.444542e-01
020	LAG3	RAG2	1.389901e-01	7.130012e-02
021	LAG3	Insula	2.812106e-01	3.041094e-01
021	LAG3	Insula1	2.962575e-01	-5.317042e-02
021	LAG3	Insula2	2.398906e-01	2.004732e-01
021	LAG3	Insula3	1.286371e-01	2.935381e-03
021	LAG3	Insula4	4.401174e-01	2.918587e-01
021	LAG3	dACC	1.164144e-01	2.357907e-02
021	LAG3	RInsula	1.770421e-01	2.122025e-01
021	LAG3	RInsula1	2.448591e-01	1.303928e-01
021	LAG3	SPL	1.020540e-01	2.970918e-01
021	LAG3	SPL1	2.129408e-01	1.715429e-01
021	LAG3	SPL2	4.161471e-01	3.613284e-01
021	LAG3	RMFG	2.526217e-01	2.352130e-01
021	LAG3	RMFG1	2.246353e-01	1.738572e-01
021	LAG3	RMFG2	1.311701e-01	4.709205e-02
021	LAG3	RTempPole	1.735674e-01	5.619360e-03
021	LAG3	RTempPole1	4.459614e-02	1.399174e-02
021	LAG3	RPrec	2.170745e-01	1.497261e-01
021	LAG3	RPrec1	2.177232e-01	-8.989938e-02
021	LAG3	RPrec2	4.987274e-01	1.336454e-01
021	LAG3	MTG	1.430256e-01	6.800760e-03
021	LAG3	MTG1	1.114731e-01	-2.228261e-01
021	LAG3	ACing	1.111111e-01	6.386167e-02
021	LAG3	ACing1	1.178592e-01	-1.050374e-01
021	LAG3	LAG	1.947214e-01	5.358159e-02
021	LAG3	LAG1	2.229828e-01	-3.670215e-01
021	LAG3	LAG2	3.008732e-01	-1.461415e-01
021	LAG3	LAG4	1.607034e-01	-1.918610e-01
021	LAG3	RAG	2.360422e-01	7.111196e-02
021	LAG3	RAG1	2.355395e-01	7.297438e-02
021	LAG3	RAG2	2.868567e-01	3.972441e-01
022	LAG3	Insula	2.201404e-01	6.288133e-02
022	LAG3	Insula1	3.007814e-01	1.983859e-02
022	LAG3	Insula2	4.142189e-01	-8.265073e-02
022	LAG3	Insula3	2.465082e-01	2.146462e-02
022	LAG3	Insula4	4.966990e-01	3.196472e-01
022	LAG3	dACC	3.898328e-01	3.869816e-02
022	LAG3	RInsula	2.457678e-01	1.072724e-01
022	LAG3	RInsula1	1.073802e-01	1.265942e-01
022	LAG3	SPL	2.364055e-01	2.621289e-02
022	LAG3	SPL1	2.731213e-01	2.203562e-01
022	LAG3	SPL2	6.093986e-01	1.644591e-01
022	LAG3	RMFG	1.877988e-01	1.461119e-01
022	LAG3	RMFG1	3.000704e-01	2.270108e-01
022	LAG3	RMFG2	2.005915e-01	2.565592e-01
022	LAG3	RTempPole	1.592239e-01	-1.925740e-01
022	LAG3	RTempPole1	3.336415e-01	-1.050538e-01
022	LAG3	RPrec	2.972201e-01	7.034253e-02
022	LAG3	RPrec1	5.568880e-01	7.598711e-03
022	LAG3	RPrec2	5.374456e-01	6.675321e-02
022	LAG3	MTG	4.457877e-02	-1.687532e-01
022	LAG3	MTG1	1.300783e-01	-1.757486e-01
022	LAG3	ACing	-2.243262e-02	-2.092410e-01
022	LAG3	ACing1	-6.191077e-02	-1.517668e-02
022	LAG3	LAG	2.457697e-01	1.271198e-01
022	LAG3	LAG1	4.613739e-01	-8.401789e-02
022	LAG3	LAG2	2.953125e-01	-1.594988e-01
022	LAG3	LAG4	2.872470e-01	2.233228e-01
022	LAG3	RAG	1.963664e-01	-7.513852e-02
022	LAG3	RAG1	4.011168e-01	-5.005372e-01
022	LAG3	RAG2	3.437983e-01	2.022731e-02
023	LAG3	Insula	2.769072e-01	5.123238e-01
023	LAG3	Insula1	3.644737e-01	-6.726233e-03
023	LAG3	Insula2	2.553778e-01	1.985588e-01
023	LAG3	Insula3	2.461633e-01	-5.508897e-02
023	LAG3	Insula4	2.071561e-01	9.293573e-02
023	LAG3	dACC	3.955295e-01	-8.708479e-02
023	LAG3	RInsula	4.022094e-01	5.285202e-01
023	LAG3	RInsula1	3.287298e-01	2.088945e-01
023	LAG3	SPL	1.853407e-01	4.606232e-01
023	LAG3	SPL1	3.600208e-01	3.211955e-01
023	LAG3	SPL2	1.101664e-01	3.976701e-01
023	LAG3	RMFG	3.033468e-01	1.456369e-01
023	LAG3	RMFG1	5.129021e-01	2.239830e-01
023	LAG3	RMFG2	3.533174e-02	1.313599e-01
023	LAG3	RTempPole	1.706419e-01	-1.849219e-01
023	LAG3	RTempPole1	1.670080e-01	-2.803795e-01
023	LAG3	RPrec	2.625504e-01	-4.013304e-01
023	LAG3	RPrec1	3.584137e-01	-1.739865e-01
023	LAG3	RPrec2	3.005176e-01	-3.416548e-01
023	LAG3	MTG	1.397832e-01	-1.403727e-01
023	LAG3	MTG1	8.060737e-02	-4.263490e-01
023	LAG3	ACing	-1.838079e-01	-4.154761e-01
023	LAG3	ACing1	4.766751e-02	-4.999041e-01
023	LAG3	LAG	3.044082e-01	-1.666131e-01
023	LAG3	LAG1	2.023755e-01	-3.003189e-01
023	LAG3	LAG2	2.832413e-01	-6.138347e-01
023	LAG3	LAG4	2.199900e-01	-4.419035e-01
023	LAG3	RAG	2.639553e-01	-1.666285e-01
023	LAG3	RAG1	5.121673e-01	8.912716e-02
023	LAG3	RAG2	3.735119e-01	-4.841134e-01
024	LAG3	Insula	1.855135e-02	5.313337e-01
024	LAG3	Insula1	-2.401384e-02	-2.741171e-03
024	LAG3	Insula2	-6.673429e-02	3.026656e-01
024	LAG3	Insula3	-3.062106e-01	-9.020542e-02
024	LAG3	Insula4	2.179740e-02	3.923055e-01
024	LAG3	dACC	-1.916134e-01	-2.209665e-01
024	LAG3	RInsula	8.335393e-02	8.259560e-01
024	LAG3	RInsula1	-1.823925e-01	3.396596e-01
024	LAG3	SPL	-1.528654e-01	-1.013723e-01
024	LAG3	SPL1	1.105388e-01	3.625534e-01
024	LAG3	SPL2	-7.750413e-02	1.782227e-01
024	LAG3	RMFG	4.091258e-02	3.508421e-01
024	LAG3	RMFG1	-1.307550e-01	1.870903e-01
024	LAG3	RMFG2	-2.008556e-02	5.988923e-01
024	LAG3	RTempPole	2.393722e-01	4.458180e-01
024	LAG3	RTempPole1	-1.489106e-01	2.130634e-01
024	LAG3	RPrec	3.920838e-01	3.489679e-01
024	LAG3	RPrec1	-1.294592e-01	4.701048e-02
024	LAG3	RPrec2	-3.068423e-01	-4.385919e-01
024	LAG3	MTG	6.294495e-02	3.718724e-01
024	LAG3	MTG1	-2.610166e-01	2.436619e-01
024	LAG3	ACing	7.371689e-01	1.289839e+00
024	LAG3	ACing1	3.863693e-01	8.026010e-01
024	LAG3	LAG	-1.264173e-01	-2.464762e-02
024	LAG3	LAG1	-1.436847e-01	-2.547494e-01
024	LAG3	LAG2	-2.033990e-01	-2.397515e-01
024	LAG3	LAG4	9.888641e-02	-3.306742e-01
024	LAG3	RAG	6.664480e-02	2.109424e-01
024	LAG3	RAG1	4.053129e-02	2.879887e-01
024	LAG3	RAG2	-2.213147e-01	1.255459e-01
025	LAG3	Insula	1.667919e-01	4.361848e-01
025	LAG3	Insula1	5.306891e-01	5.688983e-01
025	LAG3	Insula2	3.470550e-01	2.376823e-01
025	LAG3	Insula3	5.435230e-01	5.911490e-01
025	LAG3	Insula4	5.213068e-01	6.866293e-01
025	LAG3	dACC	6.983677e-01	5.729688e-01
025	LAG3	RInsula	3.311033e-01	6.015030e-01
025	LAG3	RInsula1	5.495739e-01	6.339121e-01
025	LAG3	SPL	3.519275e-01	7.415542e-01
025	LAG3	SPL1	3.865400e-01	6.631386e-01
025	LAG3	SPL2	1.992504e-01	4.459649e-01
025	LAG3	RMFG	2.784133e-01	4.244111e-01
025	LAG3	RMFG1	4.225211e-01	8.396952e-01
025	LAG3	RMFG2	2.186965e-01	3.464920e-01
025	LAG3	RTempPole	2.858369e-01	2.371798e-01
025	LAG3	RTempPole1	3.148237e-01	1.680775e-01
025	LAG3	RPrec	3.696119e-01	2.454844e-01
025	LAG3	RPrec1	2.088205e-01	2.108867e-01
025	LAG3	RPrec2	4.216917e-01	5.505864e-02
025	LAG3	MTG	3.795292e-01	2.874761e-01
025	LAG3	MTG1	2.739826e-01	1.472986e-01
025	LAG3	ACing	1.586231e-01	1.254571e-03
025	LAG3	ACing1	1.858192e-01	6.647155e-02
025	LAG3	LAG	4.994789e-01	2.407160e-01
025	LAG3	LAG1	3.342653e-03	5.863489e-02
025	LAG3	LAG2	1.831329e-01	2.568273e-01
025	LAG3	LAG4	2.622708e-01	2.035649e-01
025	LAG3	RAG	2.698440e-01	2.302806e-01
025	LAG3	RAG1	3.905646e-01	5.786271e-01
025	LAG3	RAG2	3.122626e-01	6.446161e-01
027	LAG3	Insula	5.874741e-01	4.752986e-01
027	LAG3	Insula1	4.727228e-01	2.094817e-01
027	LAG3	Insula2	5.354212e-01	1.842197e-01
027	LAG3	Insula3	6.303769e-01	3.854935e-01
027	LAG3	Insula4	4.675221e-01	3.527929e-01
027	LAG3	dACC	8.943857e-01	7.358124e-01
027	LAG3	RInsula	6.309440e-01	6.391404e-01
027	LAG3	RInsula1	6.166256e-01	5.041569e-01
027	LAG3	SPL	3.711626e-01	3.517070e-01
027	LAG3	SPL1	3.207523e-01	4.735179e-01
027	LAG3	SPL2	3.482536e-01	3.975634e-01
027	LAG3	RMFG	6.466181e-01	5.486961e-01
027	LAG3	RMFG1	6.333820e-01	5.395958e-01
027	LAG3	RMFG2	3.932231e-01	4.414215e-01
027	LAG3	RTempPole	2.178076e-01	1.434987e-01
027	LAG3	RTempPole1	5.724159e-01	1.825174e-01
027	LAG3	RPrec	7.268345e-01	4.315321e-01
027	LAG3	RPrec1	1.007211e+00	5.942115e-01
027	LAG3	RPrec2	9.006568e-01	2.622761e-01
027	LAG3	MTG	1.397726e-01	-2.297700e-02
027	LAG3	MTG1	2.702274e-01	-4.965780e-02
027	LAG3	ACing	-4.499935e-01	2.609263e-01
027	LAG3	ACing1	-1.406132e-01	8.901362e-02
027	LAG3	LAG	7.607752e-01	2.801245e-01
027	LAG3	LAG1	6.083633e-01	-1.330873e-01
027	LAG3	LAG2	3.621769e-01	2.886198e-02
027	LAG3	LAG4	2.598207e-01	5.940164e-02
027	LAG3	RAG	5.033478e-01	2.814188e-01
027	LAG3	RAG1	1.171993e+00	1.539901e+00
027	LAG3	RAG2	5.049874e-01	4.897963e-01
028	LAG3	Insula	8.769803e-01	1.378348e+00
028	LAG3	Insula1	8.635761e-01	9.782360e-01
028	LAG3	Insula2	8.611041e-01	9.807905e-01
028	LAG3	Insula3	2.878385e-01	2.940154e-01
028	LAG3	Insula4	8.795644e-01	8.184110e-01
028	LAG3	dACC	1.679771e-01	3.522053e-01
028	LAG3	RInsula	5.326252e-01	6.186003e-01
028	LAG3	RInsula1	5.582590e-01	7.862727e-01
028	LAG3	SPL	5.611911e-01	5.739895e-01
028	LAG3	SPL1	8.900354e-01	8.847346e-01
028	LAG3	SPL2	8.626526e-01	8.048746e-01
028	LAG3	RMFG	6.432721e-01	8.469374e-01
028	LAG3	RMFG1	1.033936e+00	1.107307e+00
028	LAG3	RMFG2	1.385757e-01	1.611074e-01
028	LAG3	RTempPole	1.661568e-01	2.847425e-01
028	LAG3	RTempPole1	5.123468e-01	6.901078e-01
028	LAG3	RPrec	3.402698e-01	-1.149601e-01
028	LAG3	RPrec1	1.690212e-01	2.794417e-03
028	LAG3	RPrec2	4.676675e-01	1.136303e-01
028	LAG3	MTG	1.432469e-01	-4.276658e-02
028	LAG3	MTG1	2.631757e-01	2.773390e-01
028	LAG3	ACing	-1.459220e-01	-1.578723e-01
028	LAG3	ACing1	4.656391e-01	2.510061e-01
028	LAG3	LAG	1.806228e-01	3.482366e-02
028	LAG3	LAG1	5.781539e-01	3.864759e-01
028	LAG3	LAG2	3.743101e-01	5.264709e-01
028	LAG3	LAG4	4.100783e-01	-2.308184e-01
028	LAG3	RAG	3.062233e-01	1.911424e-01
028	LAG3	RAG1	2.844537e-01	2.420752e-01
028	LAG3	RAG2	5.488704e-01	-1.953315e-02
029	LAG3	Insula	7.012239e-01	4.498247e-01
029	LAG3	Insula1	1.759127e-01	2.969394e-01
029	LAG3	Insula2	6.149023e-01	3.595202e-01
029	LAG3	Insula3	3.846512e-01	3.460024e-01
029	LAG3	Insula4	5.716887e-01	4.008109e-01
029	LAG3	dACC	1.331322e-01	4.007591e-01
029	LAG3	RInsula	5.733835e-01	3.342901e-01
029	LAG3	RInsula1	8.773759e-01	6.133766e-01
029	LAG3	SPL	1.462464e-01	8.262020e-02
029	LAG3	SPL1	2.050717e-01	2.755585e-02
029	LAG3	SPL2	2.377005e-01	9.443761e-02
029	LAG3	RMFG	1.193694e-01	1.549309e-01
029	LAG3	RMFG1	2.440076e-01	3.086587e-01
029	LAG3	RMFG2	-1.349967e-01	-1.589521e-02
029	LAG3	RTempPole	1.154061e-01	3.626793e-02
029	LAG3	RTempPole1	9.077523e-02	9.208323e-02
029	LAG3	RPrec	4.153157e-01	3.222489e-01
029	LAG3	RPrec1	4.008797e-01	2.221057e-01
029	LAG3	RPrec2	2.437446e-01	2.739636e-01
029	LAG3	MTG	1.020848e-01	7.169201e-02
029	LAG3	MTG1	1.235844e-01	1.265384e-01
029	LAG3	ACing	1.670622e-01	-1.116476e-01
029	LAG3	ACing1	-2.482408e-01	-2.753150e-01
029	LAG3	LAG	5.653964e-01	5.523350e-01
029	LAG3	LAG1	2.111881e-01	3.870630e-02
029	LAG3	LAG2	-1.374707e-02	1.838800e-01
029	LAG3	LAG4	1.978772e-01	1.835956e-02
029	LAG3	RAG	3.786186e-01	3.496810e-01
029	LAG3	RAG1	2.857771e-01	9.485254e-02
029	LAG3	RAG2	2.755458e-01	1.998856e-01
030	LAG3	Insula	5.784504e-01	2.057356e-01
030	LAG3	Insula1	1.815459e-01	-1.707214e-01
030	LAG3	Insula2	4.573888e-01	-2.070595e-01
030	LAG3	Insula3	2.605142e-01	-2.055312e-02
030	LAG3	Insula4	3.369679e-01	2.616822e-02
030	LAG3	dACC	3.122605e-01	-2.913129e-02
030	LAG3	RInsula	4.776661e-01	1.416375e-01
030	LAG3	RInsula1	5.199266e-01	1.990642e-01
030	LAG3	SPL	2.166872e-01	2.981537e-02
030	LAG3	SPL1	3.576953e-01	7.727127e-02
030	LAG3	SPL2	1.849682e-01	-2.257951e-01
030	LAG3	RMFG	4.636258e-01	2.259264e-01
030	LAG3	RMFG1	6.544195e-01	3.126479e-01
030	LAG3	RMFG2	1.086562e-01	-5.721569e-02
030	LAG3	RTempPole	2.809719e-01	-1.866246e-01
030	LAG3	RTempPole1	2.163974e-01	-9.505983e-02
030	LAG3	RPrec	2.852645e-01	2.345078e-02
030	LAG3	RPrec1	5.294875e-01	3.337151e-01
030	LAG3	RPrec2	1.017997e-01	-1.317377e-02
030	LAG3	MTG	2.761960e-01	7.578596e-03
030	LAG3	MTG1	1.463813e-01	-2.355607e-01
030	LAG3	ACing	5.596606e-02	-8.032316e-02
030	LAG3	ACing1	4.681618e-01	2.583419e-01
030	LAG3	LAG	3.360391e-01	1.118437e-01
030	LAG3	LAG1	1.190678e-01	-4.159814e-02
030	LAG3	LAG2	1.058306e-01	7.092495e-03
030	LAG3	LAG4	1.584870e-01	-1.070028e-02
030	LAG3	RAG	9.934269e-02	-5.989063e-02
030	LAG3	RAG1	5.735920e-01	8.175026e-02
030	LAG3	RAG2	2.626184e-01	3.011499e-02
031	LAG3	Insula	-4.008323e-01	1.505090e-01
031	LAG3	Insula1	2.103137e-01	4.458816e-01
031	LAG3	Insula2	-4.426452e-01	2.329201e-01
031	LAG3	Insula3	-2.769004e-01	-3.448880e-02
031	LAG3	Insula4	1.495125e-01	2.498731e-01
031	LAG3	dACC	-4.056902e-01	2.128019e-01
031	LAG3	RInsula	-5.251105e-02	2.804713e-01
031	LAG3	RInsula1	-3.438979e-01	-1.251303e-01
031	LAG3	SPL	4.826555e-02	1.843217e-01
031	LAG3	SPL1	1.059868e-01	1.916077e-01
031	LAG3	SPL2	-6.049455e-01	-1.697063e-01
031	LAG3	RMFG	1.113795e-01	-1.136022e-01
031	LAG3	RMFG1	-9.750243e-02	-7.059375e-02
031	LAG3	RMFG2	-2.148807e-01	-1.965228e-01
031	LAG3	RTempPole	1.858101e-01	1.010095e-02
031	LAG3	RTempPole1	-1.581283e-02	1.977141e-01
031	LAG3	RPrec	-1.781557e-01	1.850712e-01
031	LAG3	RPrec1	2.741170e-03	-1.190765e-01
031	LAG3	RPrec2	7.327707e-02	1.086223e-01
031	LAG3	MTG	-3.195058e-01	4.270634e-02
031	LAG3	MTG1	-2.673219e-01	-1.763373e-01
031	LAG3	ACing	-7.445582e-03	1.040573e-02
031	LAG3	ACing1	-7.282535e-01	-3.271173e-01
031	LAG3	LAG	-3.423803e-02	-3.740634e-02
031	LAG3	LAG1	-1.279136e-01	-1.697469e-02
031	LAG3	LAG2	7.253227e-02	3.214393e-02
031	LAG3	LAG4	-1.062129e-01	-6.348677e-02
031	LAG3	RAG	-1.256396e-01	1.434274e-01
031	LAG3	RAG1	-2.009918e-01	1.846735e-01
031	LAG3	RAG2	-2.293552e-01	-3.404892e-03
