Subject	ROI_seed	ROI_target	Cats_rest	Cats_Counting
001_JE	LAG4	Insula	4.060660e-01	-1.135451e-01
001_JE	LAG4	Insula1	2.092213e-01	-1.578900e-01
001_JE	LAG4	Insula2	3.183846e-01	-1.071368e-01
001_JE	LAG4	Insula3	1.488941e-01	5.525360e-02
001_JE	LAG4	Insula4	3.919779e-01	-8.511611e-03
001_JE	LAG4	dACC	2.775113e-01	7.730501e-02
001_JE	LAG4	RInsula	4.133620e-01	9.411975e-02
001_JE	LAG4	RInsula1	3.207113e-01	1.095512e-02
001_JE	LAG4	SPL	-3.159488e-02	-1.382346e-01
001_JE	LAG4	SPL1	1.597129e-01	-2.719110e-01
001_JE	LAG4	SPL2	5.061667e-02	-6.018751e-03
001_JE	LAG4	RMFG	3.188429e-01	1.216926e-01
001_JE	LAG4	RMFG1	3.448311e-01	4.867310e-02
001_JE	LAG4	RMFG2	1.384161e-01	8.584487e-02
001_JE	LAG4	RTempPole	2.036356e-01	6.638452e-02
001_JE	LAG4	RTempPole1	1.397634e-01	1.197281e-02
001_JE	LAG4	RPrec	2.630683e-01	1.928631e-01
001_JE	LAG4	RPrec1	1.587421e-01	-9.301110e-02
001_JE	LAG4	RPrec2	7.581345e-02	-2.062533e-01
001_JE	LAG4	MTG	1.432326e-01	-1.983156e-02
001_JE	LAG4	MTG1	3.082874e-01	-3.273541e-02
001_JE	LAG4	ACing	8.845332e-02	-6.030801e-02
001_JE	LAG4	ACing1	1.388973e-01	1.259558e-01
001_JE	LAG4	LAG	2.669255e-01	-5.364317e-02
001_JE	LAG4	LAG1	2.412999e-01	-1.285882e-01
001_JE	LAG4	LAG2	1.497628e-01	-5.144656e-02
001_JE	LAG4	LAG3	2.106925e-04	-2.449051e-01
001_JE	LAG4	RAG	4.315596e-01	5.198995e-02
001_JE	LAG4	RAG1	3.652909e-01	-4.936905e-02
001_JE	LAG4	RAG2	1.700387e-01	-6.718320e-02
002_JE	LAG4	Insula	3.488445e-01	5.294860e-01
002_JE	LAG4	Insula1	5.754150e-01	8.283336e-01
002_JE	LAG4	Insula2	5.852817e-01	7.998026e-01
002_JE	LAG4	Insula3	2.828654e-01	3.303278e-01
002_JE	LAG4	Insula4	5.002767e-01	7.887344e-01
002_JE	LAG4	dACC	2.669125e-01	4.803508e-01
002_JE	LAG4	RInsula	4.845728e-01	7.694207e-01
002_JE	LAG4	RInsula1	2.311272e-01	4.138724e-01
002_JE	LAG4	SPL	5.568787e-01	8.412324e-01
002_JE	LAG4	SPL1	6.291714e-01	9.451843e-01
002_JE	LAG4	SPL2	3.827870e-01	7.171758e-01
002_JE	LAG4	RMFG	2.261914e-01	2.587281e-01
002_JE	LAG4	RMFG1	3.809818e-01	5.857668e-01
002_JE	LAG4	RMFG2	1.491021e-01	2.724523e-01
002_JE	LAG4	RTempPole	1.884883e-01	3.119672e-01
002_JE	LAG4	RTempPole1	-9.223083e-03	1.223140e-01
002_JE	LAG4	RPrec	4.105429e-01	1.783669e-01
002_JE	LAG4	RPrec1	4.117213e-01	3.275818e-01
002_JE	LAG4	RPrec2	5.966214e-01	5.007800e-01
002_JE	LAG4	MTG	1.760143e-01	2.817493e-01
002_JE	LAG4	MTG1	2.674348e-01	2.533705e-01
002_JE	LAG4	ACing	1.382883e-01	-8.135671e-02
002_JE	LAG4	ACing1	-2.091108e-02	-4.902586e-02
002_JE	LAG4	LAG	4.737472e-01	4.386330e-01
002_JE	LAG4	LAG1	4.514404e-01	2.409634e-01
002_JE	LAG4	LAG2	4.167623e-01	2.795596e-01
002_JE	LAG4	LAG3	2.572793e-01	3.354485e-02
002_JE	LAG4	RAG	4.027782e-01	1.100467e-01
002_JE	LAG4	RAG1	3.518406e-01	6.760613e-02
002_JE	LAG4	RAG2	4.153309e-01	3.658206e-01
003_JE	LAG4	Insula	1.492792e-01	-2.105151e-02
003_JE	LAG4	Insula1	1.834675e-01	1.414804e-01
003_JE	LAG4	Insula2	1.287260e-01	6.410490e-02
003_JE	LAG4	Insula3	1.399894e-01	-4.992331e-02
003_JE	LAG4	Insula4	2.649452e-01	1.575061e-01
003_JE	LAG4	dACC	3.487487e-03	-6.642653e-02
003_JE	LAG4	RInsula	2.978315e-01	7.292268e-02
003_JE	LAG4	RInsula1	3.629171e-01	2.183251e-01
003_JE	LAG4	SPL	1.931476e-01	7.579686e-02
003_JE	LAG4	SPL1	8.672697e-02	-7.917566e-02
003_JE	LAG4	SPL2	8.675798e-02	-1.689719e-02
003_JE	LAG4	RMFG	1.135217e-01	-4.236966e-02
003_JE	LAG4	RMFG1	4.345471e-01	2.057528e-01
003_JE	LAG4	RMFG2	1.638051e-01	1.083511e-01
003_JE	LAG4	RTempPole	2.675526e-01	1.152285e-01
003_JE	LAG4	RTempPole1	4.955025e-02	6.543872e-02
003_JE	LAG4	RPrec	1.430738e-01	-1.278785e-02
003_JE	LAG4	RPrec1	4.346156e-01	1.641858e-01
003_JE	LAG4	RPrec2	2.827795e-01	-2.072324e-02
003_JE	LAG4	MTG	1.874369e-01	1.160201e-01
003_JE	LAG4	MTG1	1.920903e-01	1.370975e-01
003_JE	LAG4	ACing	-8.381081e-02	7.085381e-02
003_JE	LAG4	ACing1	2.373614e-01	3.231255e-01
003_JE	LAG4	LAG	4.124055e-01	9.825944e-03
003_JE	LAG4	LAG1	2.527595e-01	-1.238296e-01
003_JE	LAG4	LAG2	2.464957e-01	-4.565856e-03
003_JE	LAG4	LAG3	3.572860e-01	2.732965e-02
003_JE	LAG4	RAG	3.088957e-01	5.936254e-02
003_JE	LAG4	RAG1	4.378486e-01	1.485066e-01
003_JE	LAG4	RAG2	3.364087e-01	2.017575e-01
004_JE	LAG4	Insula	1.508812e-01	-1.210586e-01
004_JE	LAG4	Insula1	9.481567e-02	-1.605468e-01
004_JE	LAG4	Insula2	1.783727e-01	-1.075512e-02
004_JE	LAG4	Insula3	1.244766e-01	1.041139e-02
004_JE	LAG4	Insula4	1.845040e-01	1.149042e-01
004_JE	LAG4	dACC	-9.303410e-02	-1.259123e-01
004_JE	LAG4	RInsula	3.488386e-01	7.226471e-02
004_JE	LAG4	RInsula1	-3.612466e-02	1.120353e-01
004_JE	LAG4	SPL	-1.473419e-01	-1.671944e-01
004_JE	LAG4	SPL1	1.442505e-01	-1.956188e-01
004_JE	LAG4	SPL2	7.476499e-02	-1.923077e-01
004_JE	LAG4	RMFG	2.144859e-01	1.141874e-01
004_JE	LAG4	RMFG1	3.095368e-01	-1.589898e-01
004_JE	LAG4	RMFG2	1.626050e-01	5.167070e-02
004_JE	LAG4	RTempPole	3.598046e-01	9.410408e-02
004_JE	LAG4	RTempPole1	1.270203e-01	1.262446e-01
004_JE	LAG4	RPrec	2.273657e-01	2.023460e-01
004_JE	LAG4	RPrec1	2.899438e-01	1.868674e-01
004_JE	LAG4	RPrec2	4.188857e-01	2.534492e-01
004_JE	LAG4	MTG	2.830582e-01	1.394363e-01
004_JE	LAG4	MTG1	1.797437e-01	-1.342643e-01
004_JE	LAG4	ACing	-2.134424e-01	2.825825e-01
004_JE	LAG4	ACing1	-5.084542e-02	3.504895e-02
004_JE	LAG4	LAG	7.181309e-01	-3.443818e-01
004_JE	LAG4	LAG1	4.608597e-01	-2.911739e-01
004_JE	LAG4	LAG2	3.425648e-01	-1.472238e-01
004_JE	LAG4	LAG3	3.114058e-01	-2.617684e-01
004_JE	LAG4	RAG	3.530783e-01	-1.284048e-01
004_JE	LAG4	RAG1	3.730812e-01	-8.337835e-02
004_JE	LAG4	RAG2	1.876894e-02	4.573822e-03
005_JE	LAG4	Insula	-2.999200e-02	3.279173e-02
005_JE	LAG4	Insula1	4.567347e-02	-1.027265e-01
005_JE	LAG4	Insula2	-2.988644e-03	6.412077e-02
005_JE	LAG4	Insula3	1.045939e-01	7.865948e-02
005_JE	LAG4	Insula4	1.804403e-01	6.568318e-02
005_JE	LAG4	dACC	-3.087881e-02	1.383237e-03
005_JE	LAG4	RInsula	7.877111e-02	1.468347e-01
005_JE	LAG4	RInsula1	3.090656e-02	6.042271e-02
005_JE	LAG4	SPL	5.576007e-02	8.456495e-02
005_JE	LAG4	SPL1	-6.794563e-02	-5.590155e-02
005_JE	LAG4	SPL2	1.724123e-02	6.252512e-02
005_JE	LAG4	RMFG	1.114586e-01	5.656653e-02
005_JE	LAG4	RMFG1	2.917412e-01	3.234948e-01
005_JE	LAG4	RMFG2	-3.956962e-03	1.781249e-02
005_JE	LAG4	RTempPole	6.754588e-02	6.725299e-02
005_JE	LAG4	RTempPole1	1.267526e-01	1.172767e-02
005_JE	LAG4	RPrec	6.551047e-02	-2.132085e-02
005_JE	LAG4	RPrec1	4.278317e-02	-3.351797e-02
005_JE	LAG4	RPrec2	9.518143e-02	-7.524360e-02
005_JE	LAG4	MTG	1.989332e-01	1.466835e-01
005_JE	LAG4	MTG1	2.455517e-02	2.011999e-01
005_JE	LAG4	ACing	-4.274927e-02	-1.289609e-02
005_JE	LAG4	ACing1	-5.299226e-03	6.149918e-02
005_JE	LAG4	LAG	1.007736e-01	3.846932e-02
005_JE	LAG4	LAG1	1.192693e-01	-1.111667e-01
005_JE	LAG4	LAG2	9.508846e-02	1.552408e-02
005_JE	LAG4	LAG3	4.836407e-02	-2.519378e-02
005_JE	LAG4	RAG	7.061940e-02	-3.987530e-02
005_JE	LAG4	RAG1	-4.266446e-02	-5.347922e-02
005_JE	LAG4	RAG2	7.375866e-02	6.650814e-02
006_JE	LAG4	Insula	7.997011e-01	5.751889e-01
006_JE	LAG4	Insula1	7.283090e-01	7.328259e-01
006_JE	LAG4	Insula2	6.254743e-01	6.821552e-01
006_JE	LAG4	Insula3	5.240093e-01	5.178520e-01
006_JE	LAG4	Insula4	1.022509e+00	1.033582e+00
006_JE	LAG4	dACC	8.477557e-01	6.015917e-01
006_JE	LAG4	RInsula	9.183155e-01	9.836642e-01
006_JE	LAG4	RInsula1	1.012630e+00	8.131518e-01
006_JE	LAG4	SPL	4.403883e-01	4.996772e-01
006_JE	LAG4	SPL1	2.952830e-01	4.275398e-01
006_JE	LAG4	SPL2	5.804775e-01	4.113653e-01
006_JE	LAG4	RMFG	3.581300e-01	4.630201e-01
006_JE	LAG4	RMFG1	8.500087e-01	8.934225e-01
006_JE	LAG4	RMFG2	2.738198e-01	3.331318e-01
006_JE	LAG4	RTempPole	4.283115e-01	3.214700e-01
006_JE	LAG4	RTempPole1	2.521430e-01	2.477525e-01
006_JE	LAG4	RPrec	6.024683e-01	6.207379e-01
006_JE	LAG4	RPrec1	5.278741e-01	3.095784e-01
006_JE	LAG4	RPrec2	4.009588e-01	1.044396e-02
006_JE	LAG4	MTG	2.594127e-01	2.802968e-01
006_JE	LAG4	MTG1	2.652275e-01	1.327102e-01
006_JE	LAG4	ACing	-1.654724e-01	-1.110044e-01
006_JE	LAG4	ACing1	6.358119e-01	2.820324e-01
006_JE	LAG4	LAG	2.881831e-01	-3.640162e-02
006_JE	LAG4	LAG1	3.893863e-01	3.054911e-01
006_JE	LAG4	LAG2	5.437665e-01	7.413084e-01
006_JE	LAG4	LAG3	3.482785e-01	1.960739e-01
006_JE	LAG4	RAG	4.856651e-01	2.405554e-01
006_JE	LAG4	RAG1	2.806934e-01	1.467671e-01
006_JE	LAG4	RAG2	4.407854e-01	1.951869e-01
007_JE	LAG4	Insula	2.790819e-01	2.788544e-01
007_JE	LAG4	Insula1	4.115993e-01	4.005681e-01
007_JE	LAG4	Insula2	1.307649e-01	2.428029e-01
007_JE	LAG4	dACC	2.405212e-03	1.119269e-01
007_JE	LAG4	RInsula	2.931972e-01	3.555836e-01
007_JE	LAG4	SPL	1.559810e-01	2.376079e-01
007_JE	LAG4	RMFG	7.564351e-02	1.934360e-01
007_JE	LAG4	RMFG1	2.603445e-01	3.082591e-01
007_JE	LAG4	RMFG2	4.582161e-02	5.705567e-02
007_JE	LAG4	RTempPole	1.385640e-01	2.334446e-02
007_JE	LAG4	RTempPole1	1.677576e-01	4.097442e-02
007_JE	LAG4	RPrec	1.268806e-01	-4.176690e-02
007_JE	LAG4	RPrec1	3.111563e-01	-2.003432e-02
007_JE	LAG4	RPrec2	2.134867e-01	-2.656630e-01
007_JE	LAG4	MTG	1.270695e-01	1.821533e-02
007_JE	LAG4	MTG1	7.697705e-02	-1.364893e-02
007_JE	LAG4	ACing	6.540343e-03	-6.474533e-02
007_JE	LAG4	ACing1	3.732147e-01	1.885453e-01
007_JE	LAG4	LAG	3.364860e-01	2.349724e-01
007_JE	LAG4	LAG1	3.040950e-01	3.372135e-02
007_JE	LAG4	LAG2	1.801162e-01	1.857681e-01
007_JE	LAG4	LAG3	3.338325e-01	1.435255e-01
007_JE	LAG4	RAG	3.158240e-01	5.857063e-02
007_JE	LAG4	RAG1	3.226158e-01	2.215016e-01
007_JE	LAG4	RAG2	4.351531e-01	2.302269e-01
007_JE	LAG4	Insula3	2.296768e-01	1.889401e-01
007_JE	LAG4	Insula4	4.163134e-01	5.672018e-01
007_JE	LAG4	RInsula1	2.390357e-01	3.916970e-01
007_JE	LAG4	SPL1	1.731009e-01	2.782774e-01
007_JE	LAG4	SPL2	1.954372e-02	1.099208e-01
008_JE	LAG4	Insula	2.454483e-01	3.434705e-01
008_JE	LAG4	Insula1	8.856420e-01	2.402688e-01
008_JE	LAG4	Insula2	1.311203e-01	1.798988e-01
008_JE	LAG4	dACC	4.817226e-01	2.072414e-01
008_JE	LAG4	RInsula	3.023722e-01	3.426323e-01
008_JE	LAG4	SPL	1.322186e-01	7.090903e-02
008_JE	LAG4	RMFG	3.294956e-01	2.626094e-01
008_JE	LAG4	RMFG1	3.325926e-01	1.294552e-01
008_JE	LAG4	RMFG2	1.104090e-01	-1.408018e-02
008_JE	LAG4	RTempPole	3.311920e-01	2.848552e-01
008_JE	LAG4	RTempPole1	5.213966e-01	4.164341e-01
008_JE	LAG4	RPrec	4.570428e-01	1.853387e-01
008_JE	LAG4	RPrec1	2.573165e-01	4.215720e-02
008_JE	LAG4	RPrec2	4.054270e-01	5.444628e-02
008_JE	LAG4	MTG	1.996867e-01	1.062189e-01
008_JE	LAG4	MTG1	2.049977e-01	1.004223e-01
008_JE	LAG4	ACing	1.093085e-01	2.030794e-01
008_JE	LAG4	ACing1	2.620660e-01	2.337574e-01
008_JE	LAG4	LAG	4.266176e-01	2.686881e-02
008_JE	LAG4	LAG1	1.865698e-01	4.159981e-02
008_JE	LAG4	LAG2	1.409472e-01	5.374033e-02
008_JE	LAG4	LAG3	2.117655e-01	9.335971e-02
008_JE	LAG4	RAG	1.579983e-01	8.396352e-02
008_JE	LAG4	RAG1	2.540774e-01	4.984379e-02
008_JE	LAG4	RAG2	2.036404e-01	2.089612e-02
008_JE	LAG4	Insula3	2.666240e-01	1.120850e-01
008_JE	LAG4	Insula4	7.061425e-01	4.296730e-01
008_JE	LAG4	RInsula1	1.185650e-01	1.895507e-01
008_JE	LAG4	SPL1	7.755399e-02	3.078345e-04
008_JE	LAG4	SPL2	4.826953e-02	-6.947714e-03
009_JE	LAG4	Insula	-6.892724e-02	-1.381541e-03
009_JE	LAG4	Insula1	6.023828e-02	-2.258902e-02
009_JE	LAG4	Insula2	-1.563372e-02	9.171394e-02
009_JE	LAG4	dACC	-1.190653e-01	-5.423154e-02
009_JE	LAG4	RInsula	-8.847433e-02	-1.307512e-02
009_JE	LAG4	SPL	-3.646642e-02	-1.700200e-02
009_JE	LAG4	RMFG	7.247012e-02	1.904792e-01
009_JE	LAG4	RMFG1	2.409446e-01	2.735152e-02
009_JE	LAG4	RMFG2	5.425828e-02	1.354240e-01
009_JE	LAG4	RTempPole	7.999334e-02	2.131388e-02
009_JE	LAG4	RTempPole1	6.130966e-02	4.512418e-02
009_JE	LAG4	RPrec	1.646040e-01	2.106220e-01
009_JE	LAG4	RPrec1	3.489515e-01	-5.590302e-02
009_JE	LAG4	RPrec2	2.239789e-01	-1.085533e-01
009_JE	LAG4	MTG	1.170384e-01	1.897779e-02
009_JE	LAG4	MTG1	1.681075e-01	4.797215e-02
009_JE	LAG4	ACing	-2.227430e-01	-2.992124e-01
009_JE	LAG4	ACing1	2.066241e-01	2.985788e-01
009_JE	LAG4	LAG	1.206899e-01	-5.512581e-02
009_JE	LAG4	LAG1	2.062933e-01	-7.355933e-02
009_JE	LAG4	LAG2	1.040793e-01	-1.910183e-02
009_JE	LAG4	LAG3	3.249238e-01	-5.304645e-02
009_JE	LAG4	RAG	4.066092e-01	1.610564e-02
009_JE	LAG4	RAG1	3.627074e-01	8.392441e-02
009_JE	LAG4	RAG2	2.776647e-01	9.669301e-02
009_JE	LAG4	Insula3	1.686212e-01	1.965470e-01
009_JE	LAG4	Insula4	1.951038e-01	1.989861e-01
009_JE	LAG4	RInsula1	5.386822e-02	8.830306e-03
009_JE	LAG4	SPL1	7.435219e-02	-9.545903e-03
009_JE	LAG4	SPL2	1.031691e-01	5.589769e-02
010_JE	LAG4	LAG	4.182565e-01	3.762668e-02
010_JE	LAG4	LAG1	2.434413e-01	1.258625e-01
010_JE	LAG4	LAG2	7.551292e-01	4.022790e-01
010_JE	LAG4	LAG3	3.790506e-01	-2.334564e-03
010_JE	LAG4	RAG	6.448904e-01	1.532033e-01
010_JE	LAG4	RAG1	8.580918e-01	5.260688e-01
010_JE	LAG4	RAG2	6.215841e-01	5.506348e-01
010_JE	LAG4	Insula3	1.131445e-01	1.735278e-01
010_JE	LAG4	Insula4	4.187364e-01	6.208003e-01
010_JE	LAG4	RInsula1	1.389492e-01	3.940591e-01
010_JE	LAG4	SPL1	3.877449e-01	4.290441e-01
010_JE	LAG4	SPL2	7.007450e-03	1.841358e-01
010_JE	LAG4	Insula	1.668501e-01	4.758544e-01
010_JE	LAG4	Insula1	1.685016e-01	4.124830e-01
010_JE	LAG4	Insula2	1.685617e-01	3.067323e-01
010_JE	LAG4	dACC	-3.341893e-01	-3.566035e-01
010_JE	LAG4	RInsula	1.653077e-01	3.460221e-01
010_JE	LAG4	SPL	1.538817e-01	4.967516e-01
010_JE	LAG4	RMFG	3.616926e-01	2.904971e-01
010_JE	LAG4	RMFG1	4.115671e-01	4.309800e-01
010_JE	LAG4	RMFG2	8.215261e-02	1.233738e-01
010_JE	LAG4	RTempPole	2.094474e-01	8.250233e-02
010_JE	LAG4	RTempPole1	1.420993e-01	-1.291209e-01
010_JE	LAG4	RPrec	7.300039e-01	5.328795e-01
010_JE	LAG4	RPrec1	6.403479e-01	2.595242e-01
010_JE	LAG4	RPrec2	5.931236e-01	2.723484e-01
010_JE	LAG4	MTG	1.134477e-02	-1.692854e-02
010_JE	LAG4	MTG1	6.271196e-02	-2.744121e-04
010_JE	LAG4	ACing	-6.625550e-02	1.118537e-01
010_JE	LAG4	ACing1	1.875514e-01	2.115928e-01
012_JE	LAG4	Insula	1.994461e-01	3.030022e-01
012_JE	LAG4	Insula1	1.999434e-01	3.409621e-01
012_JE	LAG4	Insula2	2.784583e-02	1.028721e-01
012_JE	LAG4	dACC	4.813401e-02	-4.722404e-02
012_JE	LAG4	RInsula	1.653473e-01	3.233495e-01
012_JE	LAG4	SPL	6.188966e-02	1.195032e-01
012_JE	LAG4	RMFG	2.646404e-01	2.314638e-01
012_JE	LAG4	RMFG1	2.208149e-01	1.629623e-01
012_JE	LAG4	RMFG2	1.874278e-01	1.173331e-01
012_JE	LAG4	RTempPole	1.321513e-01	1.278219e-01
012_JE	LAG4	RTempPole1	1.168354e-01	1.209331e-01
012_JE	LAG4	RPrec	2.455673e-01	-5.447168e-02
012_JE	LAG4	RPrec1	2.097972e-01	2.368034e-02
012_JE	LAG4	RPrec2	4.267945e-01	-7.902544e-03
012_JE	LAG4	MTG	2.422490e-01	1.226932e-01
012_JE	LAG4	MTG1	2.140882e-01	1.112111e-01
012_JE	LAG4	ACing	-2.415371e-01	-1.529389e-01
012_JE	LAG4	ACing1	-1.190583e-01	-5.390300e-02
012_JE	LAG4	LAG	1.368851e-01	7.197739e-02
012_JE	LAG4	LAG1	3.795163e-01	2.477160e-02
012_JE	LAG4	LAG2	1.844924e-01	6.819579e-02
012_JE	LAG4	LAG3	1.304354e-01	2.937098e-02
012_JE	LAG4	RAG	1.945312e-01	1.288348e-01
012_JE	LAG4	RAG1	3.261496e-01	2.351440e-01
012_JE	LAG4	RAG2	2.776070e-01	1.650693e-02
012_JE	LAG4	Insula3	5.005116e-02	1.473944e-01
012_JE	LAG4	Insula4	2.204082e-01	3.245640e-01
012_JE	LAG4	RInsula1	4.712057e-02	2.414714e-01
012_JE	LAG4	SPL1	1.096746e-01	3.181254e-02
012_JE	LAG4	SPL2	1.339685e-01	8.763682e-02
013_JE	LAG4	Insula	8.490362e-02	2.656710e-01
013_JE	LAG4	Insula1	1.250622e-01	7.808579e-02
013_JE	LAG4	Insula2	2.258947e-01	2.181823e-01
013_JE	LAG4	dACC	-5.414898e-02	-1.178986e-01
013_JE	LAG4	RInsula	1.411562e-01	3.607587e-01
013_JE	LAG4	SPL	-4.764833e-02	1.093561e-01
013_JE	LAG4	RMFG	1.569828e-01	2.591775e-01
013_JE	LAG4	RMFG1	2.882241e-01	3.150516e-01
013_JE	LAG4	RMFG2	5.980046e-02	1.512264e-01
013_JE	LAG4	RTempPole	2.071063e-01	1.256185e-01
013_JE	LAG4	RTempPole1	1.986203e-01	1.697785e-01
013_JE	LAG4	RPrec	1.834383e-01	1.218406e-01
013_JE	LAG4	RPrec1	6.243365e-01	2.314450e-01
013_JE	LAG4	RPrec2	6.027150e-01	3.587022e-02
013_JE	LAG4	MTG	2.307816e-01	3.921985e-02
013_JE	LAG4	MTG1	2.116766e-01	1.503316e-01
013_JE	LAG4	ACing	2.219674e-01	1.401517e-01
013_JE	LAG4	ACing1	3.962229e-01	2.727308e-01
013_JE	LAG4	LAG	3.376002e-01	2.118037e-01
013_JE	LAG4	LAG1	2.929685e-01	-1.144297e-01
013_JE	LAG4	LAG2	1.678945e-01	8.207886e-02
013_JE	LAG4	LAG3	2.832585e-01	-9.937400e-02
013_JE	LAG4	RAG	2.587358e-01	4.687438e-02
013_JE	LAG4	RAG1	3.646773e-01	2.968648e-01
013_JE	LAG4	RAG2	3.015405e-01	2.765332e-03
013_JE	LAG4	Insula3	1.569410e-01	2.266561e-01
013_JE	LAG4	Insula4	2.457275e-01	3.842438e-01
013_JE	LAG4	RInsula1	2.658469e-01	3.806761e-01
013_JE	LAG4	SPL1	-7.950094e-02	-2.140779e-01
013_JE	LAG4	SPL2	1.739712e-01	3.717333e-01
014_JE	LAG4	Insula	3.429149e-01	2.961800e-01
014_JE	LAG4	Insula1	7.229156e-01	3.996471e-01
014_JE	LAG4	Insula2	5.993449e-01	3.683794e-01
014_JE	LAG4	dACC	1.719589e-02	1.495994e-01
014_JE	LAG4	RInsula	2.632527e-01	1.576710e-01
014_JE	LAG4	SPL	9.675227e-02	9.865541e-02
014_JE	LAG4	RMFG	2.498893e-01	3.221170e-01
014_JE	LAG4	RMFG1	3.750163e-01	1.457942e-01
014_JE	LAG4	RMFG2	2.355740e-01	1.964423e-01
014_JE	LAG4	RTempPole	3.192697e-01	3.097437e-02
014_JE	LAG4	RTempPole1	2.421504e-01	5.326491e-02
014_JE	LAG4	RPrec	3.115420e-01	1.770667e-03
014_JE	LAG4	RPrec1	5.205089e-01	1.968863e-01
014_JE	LAG4	RPrec2	6.338327e-01	3.344851e-01
014_JE	LAG4	MTG	3.164688e-01	3.631195e-03
014_JE	LAG4	MTG1	4.625904e-01	1.496897e-01
014_JE	LAG4	ACing	-4.107151e-01	-2.732441e-01
014_JE	LAG4	ACing1	3.058295e-03	-1.366219e-01
014_JE	LAG4	LAG	3.896423e-01	-7.093952e-02
014_JE	LAG4	LAG1	4.173445e-01	3.363453e-01
014_JE	LAG4	LAG2	4.288679e-01	3.611334e-01
014_JE	LAG4	LAG3	4.606606e-01	-7.034174e-02
014_JE	LAG4	RAG	2.383131e-01	5.138473e-02
014_JE	LAG4	RAG1	7.890142e-03	-7.837134e-02
014_JE	LAG4	RAG2	2.302731e-01	4.989001e-03
014_JE	LAG4	Insula3	5.589615e-01	4.318153e-01
014_JE	LAG4	Insula4	6.246465e-01	7.380712e-01
014_JE	LAG4	RInsula1	3.995039e-01	3.414897e-01
014_JE	LAG4	SPL1	2.482392e-01	1.184804e-01
014_JE	LAG4	SPL2	1.590482e-01	1.102183e-01
015_JE	LAG4	Insula	6.623141e-02	3.798714e-01
015_JE	LAG4	Insula1	3.210284e-01	1.355945e-01
015_JE	LAG4	Insula2	5.278558e-01	4.358637e-01
015_JE	LAG4	dACC	5.367198e-01	7.783198e-01
015_JE	LAG4	RInsula	9.036476e-02	3.176690e-01
015_JE	LAG4	SPL	2.451937e-01	4.536934e-01
015_JE	LAG4	RMFG	-1.329211e-02	1.636601e-01
015_JE	LAG4	RMFG1	3.406002e-01	5.991756e-01
015_JE	LAG4	RMFG2	1.238329e-01	2.011741e-01
015_JE	LAG4	RTempPole	1.572232e-01	4.507769e-02
015_JE	LAG4	RTempPole1	1.713608e-01	-4.100135e-02
015_JE	LAG4	RPrec	2.010349e-01	-8.010720e-02
015_JE	LAG4	RPrec1	2.878161e-01	-7.012413e-02
015_JE	LAG4	RPrec2	5.950287e-01	1.470880e-02
015_JE	LAG4	MTG	1.717093e-01	1.463505e-01
015_JE	LAG4	MTG1	3.643047e-01	1.152776e-01
015_JE	LAG4	ACing	-3.434788e-01	-2.444028e-01
015_JE	LAG4	ACing1	2.679278e-01	-4.004942e-02
015_JE	LAG4	LAG	2.709386e-01	3.254670e-02
015_JE	LAG4	LAG1	5.213845e-01	1.650403e-01
015_JE	LAG4	LAG2	3.275412e-01	2.999300e-01
015_JE	LAG4	LAG3	2.270023e-01	1.753793e-01
015_JE	LAG4	RAG	3.791322e-01	-8.631405e-02
015_JE	LAG4	RAG1	3.972527e-01	7.097991e-02
015_JE	LAG4	RAG2	2.721596e-01	2.651777e-01
015_JE	LAG4	Insula3	3.721475e-01	5.848857e-01
015_JE	LAG4	Insula4	9.155111e-01	9.670104e-01
015_JE	LAG4	RInsula1	2.167900e-01	5.334765e-01
015_JE	LAG4	SPL1	3.182803e-01	4.805766e-01
015_JE	LAG4	SPL2	2.644352e-01	4.335144e-01
016_JE	LAG4	Insula	1.981232e-01	3.685407e-01
016_JE	LAG4	Insula1	2.033353e-01	2.225313e-01
016_JE	LAG4	Insula2	1.521981e-01	3.161258e-01
016_JE	LAG4	dACC	1.251270e-01	2.601027e-01
016_JE	LAG4	RInsula	6.272038e-02	3.079738e-01
016_JE	LAG4	SPL	1.475473e-01	3.097602e-01
016_JE	LAG4	RMFG	2.418153e-01	3.152384e-01
016_JE	LAG4	RMFG1	3.134092e-01	3.607530e-01
016_JE	LAG4	RMFG2	1.371020e-01	1.933697e-01
016_JE	LAG4	RTempPole	1.065716e-01	6.857187e-02
016_JE	LAG4	RTempPole1	1.552686e-01	8.654493e-02
016_JE	LAG4	RPrec	2.084212e-01	1.841995e-02
016_JE	LAG4	RPrec1	1.838531e-01	-3.312541e-02
016_JE	LAG4	RPrec2	2.511142e-01	-6.135671e-02
016_JE	LAG4	MTG	1.380069e-01	4.348335e-02
016_JE	LAG4	MTG1	5.915837e-02	4.497904e-03
016_JE	LAG4	ACing	-1.062804e-02	2.941674e-02
016_JE	LAG4	ACing1	5.996497e-02	1.482797e-01
016_JE	LAG4	LAG	2.266098e-01	-2.062283e-02
016_JE	LAG4	LAG1	2.081930e-01	-1.223968e-01
016_JE	LAG4	LAG2	1.642910e-01	-8.361762e-02
016_JE	LAG4	LAG3	7.108075e-02	-1.634134e-01
016_JE	LAG4	RAG	1.423343e-01	2.254108e-02
016_JE	LAG4	RAG1	2.099409e-01	1.127908e-01
016_JE	LAG4	RAG2	1.251416e-01	7.600637e-02
016_JE	LAG4	Insula3	2.664713e-01	2.519735e-01
016_JE	LAG4	Insula4	3.711054e-01	5.277794e-01
016_JE	LAG4	RInsula1	8.517260e-03	9.552776e-02
016_JE	LAG4	SPL1	1.897790e-01	4.095193e-01
016_JE	LAG4	SPL2	1.915252e-01	3.790380e-01
017_JE	LAG4	Insula	6.710699e-01	5.411476e-01
017_JE	LAG4	Insula1	3.512564e-01	2.413328e-01
017_JE	LAG4	Insula2	6.341525e-02	-1.115102e-01
017_JE	LAG4	dACC	1.445561e-01	1.912971e-01
017_JE	LAG4	RInsula	2.141055e-01	-4.172744e-02
017_JE	LAG4	SPL	1.111800e-01	1.097588e-01
017_JE	LAG4	RMFG	-1.571916e-01	-4.945749e-02
017_JE	LAG4	RMFG1	2.608852e-01	4.989658e-01
017_JE	LAG4	RMFG2	-4.563621e-02	1.306444e-01
017_JE	LAG4	RTempPole	1.829204e-01	9.354769e-02
017_JE	LAG4	RTempPole1	9.638813e-02	2.285952e-01
017_JE	LAG4	RPrec	2.861406e-01	6.507552e-02
017_JE	LAG4	RPrec1	3.762419e-01	5.206806e-02
017_JE	LAG4	RPrec2	4.516590e-01	1.615181e-01
017_JE	LAG4	MTG	2.090202e-01	1.120999e-01
017_JE	LAG4	MTG1	-8.107579e-02	-6.455797e-02
017_JE	LAG4	ACing	3.824770e-02	4.540137e-01
017_JE	LAG4	ACing1	9.883023e-01	9.990616e-01
017_JE	LAG4	LAG	1.855643e-01	9.827191e-03
017_JE	LAG4	LAG1	2.727213e-01	-4.547606e-02
017_JE	LAG4	LAG2	2.993597e-01	1.023022e-01
017_JE	LAG4	LAG3	1.287659e-01	-1.653978e-01
017_JE	LAG4	RAG	2.990880e-01	4.607106e-02
017_JE	LAG4	RAG1	3.678932e-01	-3.970711e-02
017_JE	LAG4	RAG2	1.061669e-01	-7.117481e-02
017_JE	LAG4	Insula3	3.065604e-01	2.538409e-01
017_JE	LAG4	Insula4	4.931601e-01	5.811348e-01
017_JE	LAG4	RInsula1	5.656613e-01	5.656036e-01
017_JE	LAG4	SPL1	2.261358e-01	1.747892e-01
017_JE	LAG4	SPL2	3.286362e-01	1.559479e-01
018_JE	LAG4	Insula	1.506567e-01	-1.634324e-01
018_JE	LAG4	Insula1	1.692407e-01	-1.953253e-01
018_JE	LAG4	Insula2	3.240382e-03	-2.577442e-01
018_JE	LAG4	dACC	-1.408980e-01	-3.310418e-01
018_JE	LAG4	RInsula	2.725142e-01	-9.768464e-02
018_JE	LAG4	SPL	1.342985e-03	-2.430545e-01
018_JE	LAG4	RMFG	1.539168e-01	-1.836026e-01
018_JE	LAG4	RMFG1	3.907889e-02	-1.524889e-01
018_JE	LAG4	RMFG2	1.385300e-01	-1.766061e-01
018_JE	LAG4	RTempPole	5.083313e-03	-3.253944e-01
018_JE	LAG4	RTempPole1	-5.236029e-02	-1.764079e-01
018_JE	LAG4	RPrec	-1.412295e-01	-9.907759e-01
018_JE	LAG4	RPrec1	1.548181e-01	-3.744116e-01
018_JE	LAG4	RPrec2	7.016565e-02	-7.317473e-01
018_JE	LAG4	MTG	-8.328261e-02	-1.436217e-01
018_JE	LAG4	MTG1	-1.355317e-01	-2.809038e-01
018_JE	LAG4	ACing	2.658905e-01	-2.520490e-01
018_JE	LAG4	ACing1	-1.800545e-02	-3.212609e-01
018_JE	LAG4	LAG	1.642504e-01	-5.054334e-02
018_JE	LAG4	LAG1	-8.757097e-02	-2.611235e-01
018_JE	LAG4	LAG2	2.021027e-02	-9.124795e-02
018_JE	LAG4	LAG3	-1.491408e-01	-3.134554e-01
018_JE	LAG4	RAG	7.607314e-02	-2.990002e-01
018_JE	LAG4	RAG1	9.955309e-02	-5.157502e-01
018_JE	LAG4	RAG2	-3.228594e-01	-4.983945e-01
018_JE	LAG4	Insula3	2.136397e-01	-1.645400e-01
018_JE	LAG4	Insula4	1.074139e-01	-1.095473e-01
018_JE	LAG4	RInsula1	1.829406e-02	-1.691259e-01
018_JE	LAG4	SPL1	-1.038490e-01	-3.573559e-01
018_JE	LAG4	SPL2	3.098859e-02	-3.155769e-01
019_JE	LAG4	Insula	-7.079681e-02	2.211944e-01
019_JE	LAG4	Insula1	9.250338e-02	-2.220904e-02
019_JE	LAG4	Insula2	9.326750e-02	1.839904e-01
019_JE	LAG4	dACC	-3.905907e-02	-3.450629e-02
019_JE	LAG4	RInsula	-3.473548e-02	1.151620e-01
019_JE	LAG4	SPL	1.234781e-01	2.154053e-01
019_JE	LAG4	RMFG	1.464910e-01	1.586862e-01
019_JE	LAG4	RMFG1	3.305596e-01	3.366879e-01
019_JE	LAG4	RMFG2	8.501350e-02	4.864867e-02
019_JE	LAG4	RTempPole	1.099374e-01	1.161514e-01
019_JE	LAG4	RTempPole1	7.396283e-02	1.136979e-01
019_JE	LAG4	RPrec	2.795973e-01	6.540174e-02
019_JE	LAG4	RPrec1	1.313985e-01	1.652995e-02
019_JE	LAG4	RPrec2	3.430815e-01	2.535779e-02
019_JE	LAG4	MTG	1.883446e-01	2.316766e-01
019_JE	LAG4	MTG1	9.191700e-02	2.975143e-01
019_JE	LAG4	ACing	-5.186359e-02	1.056406e-02
019_JE	LAG4	ACing1	-6.335758e-02	-1.023068e-01
019_JE	LAG4	LAG	1.822505e-01	2.544872e-02
019_JE	LAG4	LAG1	2.309058e-01	1.059074e-01
019_JE	LAG4	LAG2	2.233703e-01	1.787787e-01
019_JE	LAG4	LAG3	2.733509e-01	-3.453985e-02
019_JE	LAG4	RAG	4.326408e-02	1.090291e-01
019_JE	LAG4	RAG1	1.122958e-01	-6.496311e-03
019_JE	LAG4	RAG2	8.754500e-02	-6.656083e-03
019_JE	LAG4	Insula3	7.979521e-03	1.354612e-01
019_JE	LAG4	Insula4	2.562122e-01	1.090688e-01
019_JE	LAG4	RInsula1	1.056158e-01	2.132758e-01
019_JE	LAG4	SPL1	1.726902e-01	7.544778e-02
019_JE	LAG4	SPL2	1.005113e-01	1.785550e-01
020_JE	LAG4	Insula	2.388213e-01	1.281885e-01
020_JE	LAG4	Insula1	6.572275e-01	6.847844e-01
020_JE	LAG4	Insula2	2.288722e-01	5.229909e-02
020_JE	LAG4	dACC	5.378936e-01	2.982576e-01
020_JE	LAG4	RInsula	3.161964e-01	3.867534e-01
020_JE	LAG4	SPL	1.726372e-01	1.340606e-01
020_JE	LAG4	RMFG	2.901383e-01	4.044013e-01
020_JE	LAG4	RMFG1	3.179673e-01	4.244308e-01
020_JE	LAG4	RMFG2	2.014251e-01	1.924710e-01
020_JE	LAG4	RTempPole	1.624005e-01	8.315648e-02
020_JE	LAG4	RTempPole1	3.017566e-01	7.027414e-02
020_JE	LAG4	RPrec	4.801962e-01	1.150609e-01
020_JE	LAG4	RPrec1	3.120243e-01	-4.785417e-02
020_JE	LAG4	RPrec2	3.091179e-01	-1.560254e-01
020_JE	LAG4	MTG	2.776145e-01	5.631086e-02
020_JE	LAG4	MTG1	1.442697e-01	3.088671e-02
020_JE	LAG4	ACing	2.066247e-02	-1.031541e-01
020_JE	LAG4	ACing1	2.199019e-01	1.706094e-02
020_JE	LAG4	LAG	2.902298e-01	2.983720e-04
020_JE	LAG4	LAG1	1.676291e-01	-8.357691e-03
020_JE	LAG4	LAG2	3.793425e-01	1.516014e-01
020_JE	LAG4	LAG3	3.257517e-01	-7.466035e-02
020_JE	LAG4	RAG	1.507076e-01	6.780001e-02
020_JE	LAG4	RAG1	3.232803e-01	1.581850e-01
020_JE	LAG4	RAG2	2.616016e-01	1.864494e-01
020_JE	LAG4	Insula3	2.562348e-01	3.622128e-01
020_JE	LAG4	Insula4	5.596308e-01	6.210869e-01
020_JE	LAG4	RInsula1	2.643700e-01	3.014906e-01
020_JE	LAG4	SPL1	2.731670e-01	1.056304e-01
020_JE	LAG4	SPL2	2.228753e-01	2.719370e-01
021_JE	LAG4	Insula	3.882548e-01	9.524001e-02
021_JE	LAG4	Insula1	3.019563e-01	-2.460505e-01
021_JE	LAG4	Insula2	1.244931e-01	6.486706e-02
021_JE	LAG4	dACC	3.185330e-01	-1.015772e-01
021_JE	LAG4	RInsula	4.773332e-01	2.237800e-01
021_JE	LAG4	SPL	4.265698e-02	-1.264286e-01
021_JE	LAG4	RMFG	-4.361675e-03	-4.825627e-01
021_JE	LAG4	RMFG1	9.342218e-02	-3.831618e-01
021_JE	LAG4	RMFG2	1.139593e-01	-9.423034e-02
021_JE	LAG4	RTempPole	2.685305e-01	1.267906e-01
021_JE	LAG4	RTempPole1	1.551972e-01	1.199138e-01
021_JE	LAG4	RPrec	8.928945e-02	-2.286105e-01
021_JE	LAG4	RPrec1	1.797047e-01	-3.013349e-01
021_JE	LAG4	RPrec2	4.576210e-01	-1.728012e-01
021_JE	LAG4	MTG	1.678041e-01	8.598502e-02
021_JE	LAG4	MTG1	1.484134e-01	3.273803e-02
021_JE	LAG4	ACing	1.572350e-01	3.057338e-01
021_JE	LAG4	ACing1	4.888960e-01	5.839449e-02
021_JE	LAG4	LAG	3.612795e-01	-5.220036e-02
021_JE	LAG4	LAG1	1.799540e-01	-5.048205e-02
021_JE	LAG4	LAG2	8.480150e-02	1.247805e-02
021_JE	LAG4	LAG3	3.332339e-01	1.621031e-03
021_JE	LAG4	RAG	2.832337e-01	-1.959693e-01
021_JE	LAG4	RAG1	4.062332e-01	-4.173025e-01
021_JE	LAG4	RAG2	3.938295e-01	-1.602709e-01
021_JE	LAG4	Insula3	2.529285e-01	1.702437e-02
021_JE	LAG4	Insula4	3.126430e-01	-2.434557e-01
021_JE	LAG4	RInsula1	4.720235e-01	5.536377e-02
021_JE	LAG4	SPL1	1.552215e-02	-2.353383e-01
021_JE	LAG4	SPL2	9.096605e-02	-2.328464e-01
022_JE	LAG4	Insula	3.586242e-02	1.531866e-01
022_JE	LAG4	Insula1	5.591776e-03	-4.322615e-02
022_JE	LAG4	Insula2	-3.859639e-02	9.185572e-02
022_JE	LAG4	dACC	2.336475e-02	-6.521629e-03
022_JE	LAG4	RInsula	1.103438e-01	2.886092e-01
022_JE	LAG4	SPL	1.282785e-02	1.634706e-02
022_JE	LAG4	RMFG	1.938130e-01	2.836768e-01
022_JE	LAG4	RMFG1	2.004036e-01	2.822144e-01
022_JE	LAG4	RMFG2	7.064663e-02	1.309364e-01
022_JE	LAG4	RTempPole	1.643694e-02	-3.916244e-02
022_JE	LAG4	RTempPole1	-9.115290e-02	-6.966913e-02
022_JE	LAG4	RPrec	2.740584e-02	-3.277954e-01
022_JE	LAG4	RPrec1	2.783799e-01	-5.718927e-02
022_JE	LAG4	RPrec2	4.594203e-01	1.843484e-02
022_JE	LAG4	MTG	1.067791e-01	-4.257415e-02
022_JE	LAG4	MTG1	5.302715e-02	-1.556317e-01
022_JE	LAG4	ACing	2.957139e-01	-4.321350e-02
022_JE	LAG4	ACing1	1.238290e-01	1.184221e-01
022_JE	LAG4	LAG	4.684173e-01	3.225722e-02
022_JE	LAG4	LAG1	2.377506e-01	-2.193633e-01
022_JE	LAG4	LAG2	1.826295e-01	-1.517217e-01
022_JE	LAG4	LAG3	2.647496e-01	-2.113410e-01
022_JE	LAG4	RAG	4.363139e-01	2.526313e-02
022_JE	LAG4	RAG1	3.521723e-01	2.357739e-01
022_JE	LAG4	RAG2	3.133413e-01	3.003500e-02
022_JE	LAG4	Insula3	7.900623e-02	1.506046e-01
022_JE	LAG4	Insula4	3.314229e-01	3.915173e-01
022_JE	LAG4	RInsula1	2.829395e-01	2.888627e-01
022_JE	LAG4	SPL1	-3.621314e-02	9.490345e-02
022_JE	LAG4	SPL2	-3.642653e-02	4.646408e-02
023_JE	LAG4	Insula	1.450495e-01	2.742816e-02
023_JE	LAG4	Insula1	3.945850e-01	3.112306e-01
023_JE	LAG4	Insula2	2.085749e-01	1.651883e-01
023_JE	LAG4	dACC	-1.605200e-02	1.032528e-01
023_JE	LAG4	RInsula	2.290260e-01	2.979234e-01
023_JE	LAG4	SPL	1.379050e-01	9.627323e-02
023_JE	LAG4	RMFG	1.946254e-01	4.583466e-01
023_JE	LAG4	RMFG1	2.928135e-01	5.399272e-01
023_JE	LAG4	RMFG2	7.428350e-02	2.192209e-01
023_JE	LAG4	RTempPole	5.650151e-02	-6.280065e-02
023_JE	LAG4	RTempPole1	1.284715e-01	1.748236e-01
023_JE	LAG4	RPrec	3.461474e-01	3.120327e-01
023_JE	LAG4	RPrec1	2.668565e-01	2.807120e-01
023_JE	LAG4	RPrec2	2.577986e-01	5.782748e-02
023_JE	LAG4	MTG	7.274442e-02	4.247846e-02
023_JE	LAG4	MTG1	9.288495e-02	-3.411817e-02
023_JE	LAG4	ACing	1.201436e-02	-1.054919e-01
023_JE	LAG4	ACing1	2.395208e-01	2.491726e-01
023_JE	LAG4	LAG	1.640615e-01	7.223184e-02
023_JE	LAG4	LAG1	1.666195e-01	-4.341256e-02
023_JE	LAG4	LAG2	1.402839e-01	5.128445e-03
023_JE	LAG4	LAG3	2.582809e-01	-3.668205e-02
023_JE	LAG4	RAG	3.086518e-01	1.177645e-01
023_JE	LAG4	RAG1	2.134705e-01	6.538469e-02
023_JE	LAG4	RAG2	1.772694e-01	3.412655e-01
023_JE	LAG4	Insula3	6.306688e-02	1.330959e-01
023_JE	LAG4	Insula4	4.695699e-01	6.660341e-01
023_JE	LAG4	RInsula1	2.900455e-01	3.564821e-01
023_JE	LAG4	SPL1	1.737610e-01	7.328491e-02
023_JE	LAG4	SPL2	2.143768e-01	1.423970e-01
024_JE	LAG4	Insula	4.430823e-01	3.098579e-01
024_JE	LAG4	Insula1	8.058107e-01	4.498696e-01
024_JE	LAG4	Insula2	5.949969e-01	2.975787e-01
024_JE	LAG4	dACC	5.231160e-01	1.406718e-01
024_JE	LAG4	RInsula	4.864588e-01	3.344675e-01
024_JE	LAG4	SPL	3.586088e-01	1.527156e-01
024_JE	LAG4	RMFG	5.169935e-01	3.980825e-01
024_JE	LAG4	RMFG1	6.032440e-01	3.638448e-01
024_JE	LAG4	RMFG2	1.132397e-01	1.508828e-01
024_JE	LAG4	RTempPole	3.558373e-01	2.229151e-01
024_JE	LAG4	RTempPole1	3.202054e-01	3.478594e-01
024_JE	LAG4	RPrec	6.845666e-01	3.478880e-01
024_JE	LAG4	RPrec1	4.404962e-01	2.115279e-01
024_JE	LAG4	RPrec2	7.103646e-01	3.840150e-01
024_JE	LAG4	MTG	2.058805e-01	2.418341e-01
024_JE	LAG4	MTG1	2.652259e-01	1.423304e-01
024_JE	LAG4	ACing	-6.370960e-02	2.154862e-01
024_JE	LAG4	ACing1	4.636129e-01	3.421132e-01
024_JE	LAG4	LAG	5.148691e-01	1.452059e-01
024_JE	LAG4	LAG1	4.308995e-01	2.269129e-01
024_JE	LAG4	LAG2	1.520608e-01	6.179048e-02
024_JE	LAG4	LAG3	5.687319e-01	1.082948e-01
024_JE	LAG4	RAG	3.417134e-01	2.698460e-01
024_JE	LAG4	RAG1	2.905917e-01	2.167206e-01
024_JE	LAG4	RAG2	4.233125e-01	2.162129e-01
024_JE	LAG4	Insula3	2.534194e-01	2.343239e-01
024_JE	LAG4	Insula4	1.049102e+00	7.165800e-01
024_JE	LAG4	RInsula1	3.285603e-01	3.116493e-01
024_JE	LAG4	SPL1	2.187607e-01	1.310515e-01
024_JE	LAG4	SPL2	6.604522e-01	1.963673e-01
025_JE	LAG4	Insula	3.816092e-01	7.427978e-01
025_JE	LAG4	Insula1	3.635422e-01	5.082156e-01
025_JE	LAG4	Insula2	4.021700e-01	6.522199e-01
025_JE	LAG4	dACC	1.200615e-01	2.201812e-01
025_JE	LAG4	RInsula	4.408873e-01	8.902035e-01
025_JE	LAG4	SPL	8.479858e-02	1.647571e-01
025_JE	LAG4	RMFG	2.039752e-01	8.863589e-01
025_JE	LAG4	RMFG1	5.183206e-01	3.039492e-01
025_JE	LAG4	RMFG2	1.682615e-01	2.788786e-01
025_JE	LAG4	RTempPole	9.738974e-02	1.045468e-01
025_JE	LAG4	RTempPole1	6.494264e-02	3.170069e-01
025_JE	LAG4	RPrec	4.546375e-01	-7.415912e-01
025_JE	LAG4	RPrec1	7.158595e-01	1.455068e-01
025_JE	LAG4	RPrec2	3.201480e-01	-3.109630e-01
025_JE	LAG4	MTG	7.988754e-02	-2.879400e-02
025_JE	LAG4	MTG1	2.423366e-01	1.906511e-01
025_JE	LAG4	ACing	-8.200130e-02	-2.581053e-01
025_JE	LAG4	ACing1	2.908550e-01	1.540717e-01
025_JE	LAG4	LAG	6.390941e-01	1.269901e-02
025_JE	LAG4	LAG1	1.309908e-01	-1.604226e-01
025_JE	LAG4	LAG2	2.004834e-01	-3.159192e-01
025_JE	LAG4	LAG3	4.188053e-01	-2.537545e-01
025_JE	LAG4	RAG	3.155295e-01	-3.231070e-01
025_JE	LAG4	RAG1	5.003848e-01	-2.559389e-01
025_JE	LAG4	RAG2	3.955664e-01	-1.073139e-01
025_JE	LAG4	Insula3	2.026884e-01	5.620299e-01
025_JE	LAG4	Insula4	7.197879e-01	1.002863e+00
025_JE	LAG4	RInsula1	3.661055e-01	3.802977e-01
025_JE	LAG4	SPL1	2.027289e-01	3.129203e-01
025_JE	LAG4	SPL2	2.399561e-01	9.613507e-02
011_JE	LAG4	Insula	1.678249e-01	1.161865e-01
011_JE	LAG4	Insula1	4.280301e-02	-1.056873e-01
011_JE	LAG4	Insula2	2.196565e-01	-2.407835e-02
011_JE	LAG4	dACC	3.743944e-02	-1.276863e-01
011_JE	LAG4	RInsula	2.834513e-01	1.559764e-01
011_JE	LAG4	SPL	2.773932e-02	-2.269312e-02
011_JE	LAG4	RMFG	1.774936e-01	1.837561e-01
011_JE	LAG4	RMFG1	2.688375e-01	8.264216e-02
011_JE	LAG4	RMFG2	8.427005e-02	1.071704e-01
011_JE	LAG4	RTempPole	-5.550910e-02	-8.853887e-02
011_JE	LAG4	RTempPole1	4.432253e-02	-1.040761e-01
011_JE	LAG4	RPrec	1.659605e-01	5.348032e-02
011_JE	LAG4	RPrec1	1.943799e-01	2.164567e-02
011_JE	LAG4	RPrec2	1.258920e-01	-1.201383e-01
011_JE	LAG4	MTG	5.292245e-02	6.629005e-02
011_JE	LAG4	MTG1	7.081015e-02	-3.476883e-03
011_JE	LAG4	ACing	5.757675e-02	6.010061e-02
011_JE	LAG4	ACing1	4.559628e-01	2.431996e-01
011_JE	LAG4	LAG	2.912587e-01	-1.179623e-02
011_JE	LAG4	LAG1	1.435051e-01	3.182631e-02
011_JE	LAG4	LAG2	1.714652e-01	1.001448e-01
011_JE	LAG4	LAG3	1.425829e-01	-9.602553e-02
011_JE	LAG4	RAG	9.963049e-02	5.228025e-02
011_JE	LAG4	RAG1	3.169005e-01	1.381004e-01
011_JE	LAG4	RAG2	2.136937e-01	1.386896e-02
011_JE	LAG4	Insula3	2.129197e-01	9.074523e-02
011_JE	LAG4	Insula4	1.703640e-01	1.510255e-01
011_JE	LAG4	RInsula1	3.051149e-01	1.673700e-01
011_JE	LAG4	SPL1	8.770467e-02	-1.412147e-01
011_JE	LAG4	SPL2	7.255423e-02	-1.476773e-01
026_JE	LAG4	Insula	-1.238395e-01	1.208370e-01
026_JE	LAG4	Insula1	1.842496e-01	2.468532e-01
026_JE	LAG4	Insula2	1.850739e-01	3.492268e-01
026_JE	LAG4	dACC	-1.970409e-01	-1.532730e-01
026_JE	LAG4	RInsula	5.115870e-01	7.858457e-01
026_JE	LAG4	SPL	-1.062506e-01	1.300868e-01
026_JE	LAG4	RMFG	3.213417e-01	4.352930e-01
026_JE	LAG4	RMFG1	6.117773e-01	5.603784e-01
026_JE	LAG4	RMFG2	2.678707e-01	3.863186e-01
026_JE	LAG4	RTempPole	5.087470e-01	4.818371e-01
026_JE	LAG4	RTempPole1	2.148731e-01	2.837466e-01
026_JE	LAG4	RPrec	3.457963e-01	2.368217e-01
026_JE	LAG4	RPrec1	2.746099e-01	2.910017e-01
026_JE	LAG4	RPrec2	1.602690e-01	2.172050e-01
026_JE	LAG4	MTG	2.370536e-01	2.116100e-01
026_JE	LAG4	MTG1	9.887351e-02	7.614213e-02
026_JE	LAG4	ACing	-1.133864e-01	-2.121211e-01
026_JE	LAG4	ACing1	7.165801e-02	1.134359e-01
026_JE	LAG4	LAG	3.357070e-01	4.815788e-02
026_JE	LAG4	LAG1	9.718975e-02	-3.100347e-01
026_JE	LAG4	LAG2	-2.173768e-02	-1.523007e-01
026_JE	LAG4	LAG3	1.324295e-01	-2.933978e-01
026_JE	LAG4	RAG	1.479791e-01	-2.975096e-02
026_JE	LAG4	RAG1	2.017137e-01	2.833654e-01
026_JE	LAG4	RAG2	1.632661e-01	2.665588e-01
026_JE	LAG4	Insula3	2.564638e-01	2.785504e-01
026_JE	LAG4	Insula4	6.676504e-01	8.930029e-01
026_JE	LAG4	RInsula1	3.521424e-01	5.198071e-01
026_JE	LAG4	SPL1	-6.683880e-02	6.835011e-02
026_JE	LAG4	SPL2	-2.143099e-01	1.182684e-01
027_JE	LAG4	Insula	7.603665e-02	4.572585e-01
027_JE	LAG4	Insula1	5.065891e-01	7.117311e-01
027_JE	LAG4	Insula2	4.071859e-01	5.868283e-01
027_JE	LAG4	dACC	5.964144e-01	8.836547e-01
027_JE	LAG4	RInsula	1.035231e-01	4.941066e-01
027_JE	LAG4	SPL	1.381058e-01	2.615480e-01
027_JE	LAG4	RMFG	1.762230e-01	7.501417e-01
027_JE	LAG4	RMFG1	4.000441e-01	8.233542e-01
027_JE	LAG4	RMFG2	2.447514e-01	7.124081e-01
027_JE	LAG4	RTempPole	5.371450e-01	3.846609e-01
027_JE	LAG4	RTempPole1	5.209642e-01	5.244172e-01
027_JE	LAG4	RPrec	3.769753e-01	5.105825e-01
027_JE	LAG4	RPrec1	5.811659e-01	3.490012e-01
027_JE	LAG4	RPrec2	6.941583e-01	9.859677e-02
027_JE	LAG4	MTG	-1.143420e-01	2.162576e-01
027_JE	LAG4	MTG1	2.290065e-01	3.593799e-02
027_JE	LAG4	ACing	-1.241626e-01	1.403253e-01
027_JE	LAG4	ACing1	4.920556e-01	5.615391e-01
027_JE	LAG4	LAG	2.363773e-01	2.364286e-01
027_JE	LAG4	LAG1	5.485671e-01	-4.283691e-02
027_JE	LAG4	LAG2	4.347948e-01	1.375384e-01
027_JE	LAG4	LAG3	4.408390e-01	-1.876374e-01
027_JE	LAG4	RAG	2.569850e-01	1.369010e-01
027_JE	LAG4	RAG1	3.954973e-01	4.488577e-01
027_JE	LAG4	RAG2	6.203775e-01	3.773195e-01
027_JE	LAG4	Insula3	8.073972e-02	3.368170e-01
027_JE	LAG4	Insula4	4.230207e-01	6.597611e-01
027_JE	LAG4	RInsula1	3.593810e-01	7.130068e-01
027_JE	LAG4	SPL1	3.542505e-01	3.401351e-01
027_JE	LAG4	SPL2	1.118330e-01	9.326688e-02
028_JE	LAG4	Insula	4.354543e-01	6.977446e-01
028_JE	LAG4	Insula1	6.781708e-01	7.755511e-02
028_JE	LAG4	Insula2	3.745775e-01	4.821029e-01
028_JE	LAG4	dACC	-7.395795e-02	2.254488e-01
028_JE	LAG4	RInsula	7.187876e-01	8.576325e-01
028_JE	LAG4	SPL	1.258098e-01	1.977825e-01
028_JE	LAG4	RMFG	5.147395e-01	8.392510e-01
028_JE	LAG4	RMFG1	8.243596e-01	1.221976e+00
028_JE	LAG4	RMFG2	7.730649e-02	1.857586e-01
028_JE	LAG4	RTempPole	1.370579e-01	-1.603757e-02
028_JE	LAG4	RTempPole1	5.470635e-01	7.823692e-01
028_JE	LAG4	RPrec	6.195967e-01	4.227985e-01
028_JE	LAG4	RPrec1	2.592423e-01	3.910380e-02
028_JE	LAG4	RPrec2	5.715307e-01	-1.736156e-01
028_JE	LAG4	MTG	1.890786e-01	1.406430e-01
028_JE	LAG4	MTG1	1.575560e-01	-4.781518e-02
028_JE	LAG4	ACing	-4.656024e-02	-3.182714e-01
028_JE	LAG4	ACing1	2.897467e-01	-1.844456e-02
028_JE	LAG4	LAG	3.923283e-01	-1.461675e-01
028_JE	LAG4	LAG1	4.822303e-01	-5.129025e-01
028_JE	LAG4	LAG2	3.007227e-01	-3.743187e-01
028_JE	LAG4	LAG3	3.550386e-01	-4.442450e-01
028_JE	LAG4	RAG	1.883175e-01	-1.728640e-01
028_JE	LAG4	RAG1	5.048619e-01	1.924278e-01
028_JE	LAG4	RAG2	7.380592e-01	9.985870e-02
028_JE	LAG4	Insula3	3.955247e-01	2.799817e-01
028_JE	LAG4	Insula4	6.122788e-01	6.554293e-01
028_JE	LAG4	RInsula1	3.568910e-01	6.913971e-01
028_JE	LAG4	SPL1	1.747377e-01	2.370685e-01
028_JE	LAG4	SPL2	3.602538e-01	2.021897e-01
029_JE	LAG4	Insula	3.147669e-01	3.713596e-01
029_JE	LAG4	Insula1	5.240642e-01	8.124144e-01
029_JE	LAG4	Insula2	1.631717e-01	4.618846e-01
029_JE	LAG4	dACC	1.542901e-01	2.442900e-01
029_JE	LAG4	RInsula	3.315094e-01	3.543744e-01
029_JE	LAG4	SPL	1.681577e-01	4.770193e-01
029_JE	LAG4	RMFG	9.692887e-02	2.737211e-01
029_JE	LAG4	RMFG1	3.103389e-01	4.202271e-01
029_JE	LAG4	RMFG2	4.150817e-02	1.593789e-01
029_JE	LAG4	RTempPole	2.266779e-01	3.474611e-01
029_JE	LAG4	RTempPole1	-4.096914e-02	1.930781e-01
029_JE	LAG4	RPrec	3.289167e-01	4.965193e-01
029_JE	LAG4	RPrec1	5.271347e-02	2.555329e-01
029_JE	LAG4	RPrec2	8.101920e-02	3.025701e-01
029_JE	LAG4	MTG	3.394712e-01	3.908977e-01
029_JE	LAG4	MTG1	2.324179e-01	3.058436e-01
029_JE	LAG4	ACing	-4.631220e-01	2.753492e-01
029_JE	LAG4	ACing1	1.648067e-01	4.276760e-01
029_JE	LAG4	LAG	1.466726e-01	6.571858e-02
029_JE	LAG4	LAG1	3.093782e-02	2.793524e-01
029_JE	LAG4	LAG2	1.934359e-01	4.939798e-01
029_JE	LAG4	LAG3	6.052865e-02	1.364227e-01
029_JE	LAG4	RAG	1.391949e-01	2.196907e-01
029_JE	LAG4	RAG1	3.447580e-01	2.822382e-01
029_JE	LAG4	RAG2	9.726171e-02	3.507213e-01
029_JE	LAG4	Insula3	2.729980e-01	3.318903e-01
029_JE	LAG4	Insula4	3.069494e-01	6.106257e-01
029_JE	LAG4	RInsula1	3.205376e-01	5.662343e-01
029_JE	LAG4	SPL1	1.266999e-01	4.108658e-01
029_JE	LAG4	SPL2	1.431109e-01	2.805421e-01
030_JE	LAG4	Insula	6.016045e-01	6.110927e-01
030_JE	LAG4	Insula1	7.299027e-01	6.325482e-01
030_JE	LAG4	Insula2	5.736252e-01	5.298469e-01
030_JE	LAG4	dACC	8.420284e-01	6.311053e-01
030_JE	LAG4	RInsula	5.095267e-01	5.389416e-01
030_JE	LAG4	SPL	3.129348e-01	2.784100e-01
030_JE	LAG4	RMFG	4.629951e-01	6.700397e-01
030_JE	LAG4	RMFG1	8.690097e-01	1.022281e+00
030_JE	LAG4	RMFG2	2.960737e-01	3.313385e-01
030_JE	LAG4	RTempPole	3.391541e-01	8.876539e-02
030_JE	LAG4	RTempPole1	4.623555e-01	1.486686e-01
030_JE	LAG4	RPrec	2.730232e-01	3.099668e-01
030_JE	LAG4	RPrec1	4.731487e-01	1.566873e-01
030_JE	LAG4	RPrec2	6.067208e-01	1.518065e-01
030_JE	LAG4	MTG	2.735240e-01	1.398368e-01
030_JE	LAG4	MTG1	1.826725e-01	2.118374e-02
030_JE	LAG4	ACing	5.498047e-02	2.059066e-01
030_JE	LAG4	ACing1	3.931141e-01	3.270737e-01
030_JE	LAG4	LAG	4.311875e-01	6.900050e-02
030_JE	LAG4	LAG1	3.152609e-01	1.830608e-03
030_JE	LAG4	LAG2	3.022879e-01	1.408036e-01
030_JE	LAG4	LAG3	3.099648e-01	4.789537e-02
030_JE	LAG4	RAG	2.201708e-01	9.953103e-02
030_JE	LAG4	RAG1	3.900740e-01	4.118258e-02
030_JE	LAG4	RAG2	1.962550e-01	2.770507e-01
030_JE	LAG4	Insula3	5.338903e-01	5.598994e-01
030_JE	LAG4	Insula4	7.927865e-01	9.024707e-01
030_JE	LAG4	RInsula1	6.836992e-01	5.709206e-01
030_JE	LAG4	SPL1	3.007422e-01	2.931431e-01
030_JE	LAG4	SPL2	5.790575e-02	2.583939e-02
