Subject	ROI_seed	ROI_target	Cats_rest	Cats_Counting
001_JE	LAG3	Insula	8.328648e-01	2.093109e-01
001_JE	LAG3	Insula1	5.170131e-01	7.485883e-02
001_JE	LAG3	Insula2	7.976888e-01	3.769937e-01
001_JE	LAG3	Insula3	3.050773e-01	2.366481e-01
001_JE	LAG3	Insula4	6.615950e-01	3.485071e-01
001_JE	LAG3	dACC	8.178655e-01	4.501377e-01
001_JE	LAG3	RInsula	6.867361e-01	3.670570e-01
001_JE	LAG3	RInsula1	5.727665e-01	1.309532e-01
001_JE	LAG3	SPL	1.517200e-01	-2.000627e-02
001_JE	LAG3	SPL1	5.880693e-01	-9.363804e-02
001_JE	LAG3	SPL2	2.348625e-01	1.783452e-01
001_JE	LAG3	RMFG	5.653747e-01	2.742405e-01
001_JE	LAG3	RMFG1	6.351730e-01	1.696283e-01
001_JE	LAG3	RMFG2	2.310096e-01	2.050364e-01
001_JE	LAG3	RTempPole	3.556442e-01	1.989788e-01
001_JE	LAG3	RTempPole1	4.366229e-01	1.578006e-01
001_JE	LAG3	RPrec	6.162728e-01	3.172137e-01
001_JE	LAG3	RPrec1	5.917789e-01	9.385985e-02
001_JE	LAG3	RPrec2	5.291121e-01	-1.208495e-01
001_JE	LAG3	MTG	3.629011e-01	7.166381e-02
001_JE	LAG3	MTG1	5.720890e-01	5.740909e-02
001_JE	LAG3	ACing	3.315604e-01	-7.414535e-02
001_JE	LAG3	ACing1	3.150367e-01	2.290310e-01
001_JE	LAG3	LAG	8.281006e-01	5.715259e-02
001_JE	LAG3	LAG1	7.572418e-01	5.064359e-02
001_JE	LAG3	LAG2	5.545694e-01	1.742530e-01
001_JE	LAG3	LAG4	7.775016e-01	8.216271e-02
001_JE	LAG3	RAG	9.252268e-01	4.664107e-02
001_JE	LAG3	RAG1	8.262828e-01	4.425052e-02
001_JE	LAG3	RAG2	5.540892e-01	7.343698e-02
002_JE	LAG3	Insula	5.048975e-01	7.127039e-01
002_JE	LAG3	Insula1	7.402646e-01	1.021313e+00
002_JE	LAG3	Insula2	8.239010e-01	1.002938e+00
002_JE	LAG3	Insula3	3.452287e-01	4.118163e-01
002_JE	LAG3	Insula4	6.654025e-01	1.070802e+00
002_JE	LAG3	dACC	2.966450e-01	5.520906e-01
002_JE	LAG3	RInsula	7.375162e-01	1.030403e+00
002_JE	LAG3	RInsula1	5.169051e-01	6.282185e-01
002_JE	LAG3	SPL	7.406301e-01	1.065980e+00
002_JE	LAG3	SPL1	6.132877e-01	1.085638e+00
002_JE	LAG3	SPL2	5.546170e-01	9.440393e-01
002_JE	LAG3	RMFG	3.987143e-01	3.946445e-01
002_JE	LAG3	RMFG1	7.106431e-01	8.772200e-01
002_JE	LAG3	RMFG2	2.424141e-01	3.827761e-01
002_JE	LAG3	RTempPole	2.961962e-01	3.662746e-01
002_JE	LAG3	RTempPole1	4.601726e-03	1.103951e-01
002_JE	LAG3	RPrec	5.086294e-01	2.768452e-01
002_JE	LAG3	RPrec1	5.532604e-01	4.319234e-01
002_JE	LAG3	RPrec2	7.042031e-01	6.572815e-01
002_JE	LAG3	MTG	3.614401e-01	3.956392e-01
002_JE	LAG3	MTG1	3.013690e-01	2.332779e-01
002_JE	LAG3	ACing	3.408601e-02	-2.709989e-01
002_JE	LAG3	ACing1	1.257679e-01	5.376146e-02
002_JE	LAG3	LAG	6.565869e-01	5.870122e-01
002_JE	LAG3	LAG1	5.003173e-01	2.761675e-01
002_JE	LAG3	LAG2	4.884908e-01	2.408325e-01
002_JE	LAG3	LAG4	5.736927e-01	3.091670e-01
002_JE	LAG3	RAG	4.114583e-01	1.389766e-01
002_JE	LAG3	RAG1	4.366348e-01	1.870393e-01
002_JE	LAG3	RAG2	4.695158e-01	3.688358e-01
003_JE	LAG3	Insula	2.975762e-01	1.662033e-01
003_JE	LAG3	Insula1	3.889183e-01	2.319596e-01
003_JE	LAG3	Insula2	3.289514e-01	2.014880e-01
003_JE	LAG3	Insula3	3.217201e-01	1.058501e-01
003_JE	LAG3	Insula4	3.399094e-01	3.139063e-01
003_JE	LAG3	dACC	1.078705e-01	1.201111e-01
003_JE	LAG3	RInsula	4.967232e-01	2.244542e-01
003_JE	LAG3	RInsula1	7.409902e-01	5.617687e-01
003_JE	LAG3	SPL	3.319255e-01	3.378972e-01
003_JE	LAG3	SPL1	3.764315e-01	2.423396e-01
003_JE	LAG3	SPL2	3.650616e-01	2.850987e-01
003_JE	LAG3	RMFG	3.530362e-01	1.174247e-01
003_JE	LAG3	RMFG1	5.504505e-01	5.781052e-01
003_JE	LAG3	RMFG2	2.018529e-01	1.451820e-01
003_JE	LAG3	RTempPole	3.367098e-01	9.838237e-02
003_JE	LAG3	RTempPole1	2.035802e-01	-9.178638e-02
003_JE	LAG3	RPrec	3.134844e-01	-7.146071e-02
003_JE	LAG3	RPrec1	4.721687e-01	-3.423874e-03
003_JE	LAG3	RPrec2	3.750965e-01	4.979941e-02
003_JE	LAG3	MTG	2.112971e-01	4.950312e-03
003_JE	LAG3	MTG1	4.241097e-01	2.527885e-01
003_JE	LAG3	ACing	-1.584472e-01	-6.615972e-02
003_JE	LAG3	ACing1	3.380140e-01	9.743385e-02
003_JE	LAG3	LAG	7.271420e-01	3.407632e-01
003_JE	LAG3	LAG1	5.185834e-01	1.887708e-01
003_JE	LAG3	LAG2	5.578558e-01	2.514350e-01
003_JE	LAG3	LAG4	2.491174e-01	8.477294e-02
003_JE	LAG3	RAG	3.433886e-01	3.153028e-02
003_JE	LAG3	RAG1	6.078136e-01	-7.882466e-02
003_JE	LAG3	RAG2	5.172489e-01	1.643636e-01
004_JE	LAG3	Insula	1.046079e-01	-4.955871e-02
004_JE	LAG3	Insula1	1.020887e-01	6.529699e-02
004_JE	LAG3	Insula2	2.761184e-01	2.081335e-01
004_JE	LAG3	Insula3	9.917816e-02	1.976671e-01
004_JE	LAG3	Insula4	3.070789e-01	4.817417e-01
004_JE	LAG3	dACC	-3.284253e-01	-4.339065e-02
004_JE	LAG3	RInsula	1.457772e-01	2.477827e-01
004_JE	LAG3	RInsula1	1.413042e-01	2.546708e-01
004_JE	LAG3	SPL	-2.674601e-02	1.198146e-02
004_JE	LAG3	SPL1	1.149845e-01	-6.480313e-02
004_JE	LAG3	SPL2	7.243293e-02	1.371456e-02
004_JE	LAG3	RMFG	1.709546e-01	2.856678e-01
004_JE	LAG3	RMFG1	-7.796407e-03	4.247635e-01
004_JE	LAG3	RMFG2	3.107576e-02	1.411923e-01
004_JE	LAG3	RTempPole	2.455265e-01	1.121930e-01
004_JE	LAG3	RTempPole1	5.758357e-02	9.483286e-03
004_JE	LAG3	RPrec	2.536367e-01	2.282839e-02
004_JE	LAG3	RPrec1	3.543456e-01	-3.272184e-02
004_JE	LAG3	RPrec2	6.209899e-01	4.713387e-02
004_JE	LAG3	MTG	2.837007e-01	8.189530e-02
004_JE	LAG3	MTG1	3.183842e-02	-1.550810e-01
004_JE	LAG3	ACing	-6.044691e-02	2.125236e-02
004_JE	LAG3	ACing1	5.707231e-01	2.730460e-01
004_JE	LAG3	LAG	7.814232e-01	4.392514e-01
004_JE	LAG3	LAG1	5.560919e-01	-7.217217e-02
004_JE	LAG3	LAG2	1.160409e-01	4.950830e-02
004_JE	LAG3	LAG4	7.380719e-01	-2.854390e-01
004_JE	LAG3	RAG	4.903288e-01	-8.852667e-02
004_JE	LAG3	RAG1	3.126185e-01	-1.317434e-01
004_JE	LAG3	RAG2	3.795182e-01	-2.671827e-01
005_JE	LAG3	Insula	-2.549950e-02	4.682362e-02
005_JE	LAG3	Insula1	7.180701e-02	-1.072577e-01
005_JE	LAG3	Insula2	2.568284e-02	7.921975e-02
005_JE	LAG3	Insula3	1.112951e-01	6.050625e-02
005_JE	LAG3	Insula4	2.195907e-01	6.690530e-02
005_JE	LAG3	dACC	-4.455730e-02	1.814547e-02
005_JE	LAG3	RInsula	1.026338e-01	1.572494e-01
005_JE	LAG3	RInsula1	6.743485e-02	8.004154e-02
005_JE	LAG3	SPL	9.702375e-03	1.151020e-01
005_JE	LAG3	SPL1	1.295703e-03	-2.000725e-02
005_JE	LAG3	SPL2	-6.767558e-02	1.070963e-01
005_JE	LAG3	RMFG	8.757803e-02	4.758561e-02
005_JE	LAG3	RMFG1	3.032149e-01	3.519763e-01
005_JE	LAG3	RMFG2	-7.214089e-03	1.461917e-02
005_JE	LAG3	RTempPole	8.878367e-02	1.084204e-01
005_JE	LAG3	RTempPole1	1.414048e-01	1.665088e-02
005_JE	LAG3	RPrec	8.155795e-02	-2.562953e-02
005_JE	LAG3	RPrec1	7.914025e-02	-3.639092e-02
005_JE	LAG3	RPrec2	1.260100e-01	-8.134730e-02
005_JE	LAG3	MTG	1.594773e-01	1.491078e-01
005_JE	LAG3	MTG1	2.920758e-02	2.188715e-01
005_JE	LAG3	ACing	-7.876378e-02	-1.910613e-02
005_JE	LAG3	ACing1	-3.152965e-02	3.557658e-02
005_JE	LAG3	LAG	1.361220e-01	4.311223e-02
005_JE	LAG3	LAG1	1.148888e-01	-1.283703e-01
005_JE	LAG3	LAG2	1.097476e-01	8.757962e-03
005_JE	LAG3	LAG4	1.719019e-01	4.336052e-02
005_JE	LAG3	RAG	6.855979e-02	-4.179392e-02
005_JE	LAG3	RAG1	1.287571e-02	-6.325609e-02
005_JE	LAG3	RAG2	6.488226e-02	5.364351e-02
007_JE	LAG3	Insula	4.615607e-01	3.728117e-01
007_JE	LAG3	Insula1	6.857974e-01	4.513885e-01
007_JE	LAG3	Insula2	2.135092e-01	1.844052e-01
007_JE	LAG3	dACC	-5.253254e-02	1.120525e-01
007_JE	LAG3	RInsula	4.195397e-01	5.825490e-01
007_JE	LAG3	SPL	2.026802e-01	3.782995e-01
007_JE	LAG3	RMFG	1.301484e-01	2.831316e-01
007_JE	LAG3	RMFG1	6.220757e-01	5.636086e-01
007_JE	LAG3	RMFG2	1.879772e-01	8.259781e-03
007_JE	LAG3	RTempPole	3.650667e-01	8.142527e-02
007_JE	LAG3	RTempPole1	2.622511e-01	-3.141168e-03
007_JE	LAG3	RPrec	1.991172e-01	-1.753325e-01
007_JE	LAG3	RPrec1	4.196107e-01	-4.176609e-01
007_JE	LAG3	RPrec2	2.929032e-01	-7.715157e-01
007_JE	LAG3	MTG	3.183487e-01	8.252941e-02
007_JE	LAG3	MTG1	2.919957e-01	2.939258e-02
007_JE	LAG3	ACing	-2.885201e-01	-3.151362e-01
007_JE	LAG3	ACing1	6.537875e-01	7.439880e-02
007_JE	LAG3	LAG	5.305226e-01	2.508292e-01
007_JE	LAG3	LAG1	4.571398e-01	-2.211232e-01
007_JE	LAG3	LAG2	2.538424e-01	2.521239e-01
007_JE	LAG3	LAG4	1.108413e+00	-8.208269e-01
007_JE	LAG3	RAG	4.219701e-01	-2.900835e-01
007_JE	LAG3	RAG1	4.386177e-01	1.717103e-01
007_JE	LAG3	RAG2	7.794213e-01	3.912619e-02
007_JE	LAG3	Insula3	4.796011e-01	2.874031e-01
007_JE	LAG3	Insula4	6.671147e-01	8.223913e-01
007_JE	LAG3	RInsula1	3.089013e-01	6.678313e-01
007_JE	LAG3	SPL1	2.864426e-01	4.096455e-01
007_JE	LAG3	SPL2	-3.094807e-02	1.247143e-01
008_JE	LAG3	Insula	3.122642e-01	7.910944e-01
008_JE	LAG3	Insula1	1.163199e+00	7.332009e-01
008_JE	LAG3	Insula2	3.452529e-01	4.705761e-01
008_JE	LAG3	dACC	5.478869e-01	4.608545e-01
008_JE	LAG3	RInsula	1.155717e-01	4.910867e-01
008_JE	LAG3	SPL	2.836089e-01	3.308273e-01
008_JE	LAG3	RMFG	2.996440e-01	7.140016e-01
008_JE	LAG3	RMFG1	2.656461e-01	3.492115e-01
008_JE	LAG3	RMFG2	1.481695e-01	2.685670e-01
008_JE	LAG3	RTempPole	4.229156e-01	1.488002e-01
008_JE	LAG3	RTempPole1	4.291045e-01	5.811601e-01
008_JE	LAG3	RPrec	3.954350e-01	2.772706e-01
008_JE	LAG3	RPrec1	3.693714e-01	7.610276e-02
008_JE	LAG3	RPrec2	6.738693e-01	-8.956863e-02
008_JE	LAG3	MTG	2.437989e-01	9.327575e-02
008_JE	LAG3	MTG1	2.924796e-01	-5.383776e-02
008_JE	LAG3	ACing	2.839435e-01	1.044577e-01
008_JE	LAG3	ACing1	2.887903e-01	-5.274267e-03
008_JE	LAG3	LAG	6.543400e-01	1.336987e-02
008_JE	LAG3	LAG1	3.216143e-01	-5.634251e-02
008_JE	LAG3	LAG2	1.796571e-01	-5.941035e-02
008_JE	LAG3	LAG4	5.932958e-01	-1.714546e-01
008_JE	LAG3	RAG	2.433850e-01	9.309120e-02
008_JE	LAG3	RAG1	3.291114e-01	2.219235e-01
008_JE	LAG3	RAG2	3.604324e-01	9.949407e-02
008_JE	LAG3	Insula3	1.516274e-01	2.160048e-01
008_JE	LAG3	Insula4	9.136622e-01	1.049105e+00
008_JE	LAG3	RInsula1	6.734002e-02	3.054932e-01
008_JE	LAG3	SPL1	3.125148e-01	2.778749e-01
008_JE	LAG3	SPL2	2.132455e-01	2.182025e-01
009_JE	LAG3	Insula	-7.766005e-02	-2.754326e-02
009_JE	LAG3	Insula1	7.545943e-02	-2.119578e-03
009_JE	LAG3	Insula2	-2.207129e-03	9.909783e-02
009_JE	LAG3	dACC	-4.335704e-02	-1.259149e-02
009_JE	LAG3	RInsula	-7.794963e-02	1.587969e-02
009_JE	LAG3	SPL	-2.767255e-02	-3.055366e-03
009_JE	LAG3	RMFG	3.875181e-02	1.646418e-01
009_JE	LAG3	RMFG1	1.327850e-01	-4.578661e-02
009_JE	LAG3	RMFG2	3.948853e-02	1.354612e-01
009_JE	LAG3	RTempPole	5.109263e-02	5.021790e-03
009_JE	LAG3	RTempPole1	3.810196e-02	4.342889e-02
009_JE	LAG3	RPrec	1.451522e-01	2.065956e-01
009_JE	LAG3	RPrec1	2.417946e-01	-1.325375e-01
009_JE	LAG3	RPrec2	1.826991e-01	-1.228892e-01
009_JE	LAG3	MTG	8.650343e-02	-1.643607e-03
009_JE	LAG3	MTG1	1.414796e-01	3.692538e-02
009_JE	LAG3	ACing	-1.948911e-01	-3.513150e-01
009_JE	LAG3	ACing1	1.762682e-01	2.527100e-01
009_JE	LAG3	LAG	1.098029e-01	-8.090816e-02
009_JE	LAG3	LAG1	1.326858e-01	-1.016091e-01
009_JE	LAG3	LAG2	7.102385e-02	-3.647627e-02
009_JE	LAG3	LAG4	1.153488e-01	5.718401e-02
009_JE	LAG3	RAG	3.040725e-01	-3.146525e-02
009_JE	LAG3	RAG1	2.634069e-01	1.980684e-02
009_JE	LAG3	RAG2	2.358696e-01	7.212714e-02
009_JE	LAG3	Insula3	1.393760e-01	1.739694e-01
009_JE	LAG3	Insula4	1.666137e-01	1.743276e-01
009_JE	LAG3	RInsula1	3.645773e-02	-1.751807e-03
009_JE	LAG3	SPL1	5.500229e-02	-2.235103e-02
009_JE	LAG3	SPL2	8.279758e-02	5.859108e-02
010_JE	LAG3	LAG	1.939478e-01	-1.596426e-01
010_JE	LAG3	LAG1	-7.930970e-02	-6.015713e-02
010_JE	LAG3	LAG2	2.827684e-01	1.749271e-01
010_JE	LAG3	LAG4	3.707959e-01	4.077340e-02
010_JE	LAG3	RAG	1.549890e-01	-6.888654e-02
010_JE	LAG3	RAG1	8.866786e-02	3.711650e-01
010_JE	LAG3	RAG2	3.491359e-01	5.255985e-01
010_JE	LAG3	Insula3	-2.951936e-02	8.813634e-02
010_JE	LAG3	Insula4	-1.721469e-02	3.316515e-01
010_JE	LAG3	RInsula1	-9.037129e-02	3.266107e-01
010_JE	LAG3	SPL1	2.937344e-01	5.244173e-01
010_JE	LAG3	SPL2	5.854705e-02	2.260784e-01
010_JE	LAG3	Insula	-5.470560e-02	2.412899e-01
010_JE	LAG3	Insula1	5.454291e-02	2.726181e-01
010_JE	LAG3	Insula2	2.379500e-01	3.547192e-01
010_JE	LAG3	dACC	-8.328624e-01	-5.820481e-01
010_JE	LAG3	RInsula	1.189525e-01	3.504659e-01
010_JE	LAG3	SPL	1.095876e-01	6.537450e-01
010_JE	LAG3	RMFG	-4.780468e-02	1.490805e-01
010_JE	LAG3	RMFG1	1.328290e-01	3.094303e-01
010_JE	LAG3	RMFG2	5.647955e-02	8.889526e-02
010_JE	LAG3	RTempPole	1.579257e-01	8.475656e-02
010_JE	LAG3	RTempPole1	8.128238e-02	-2.860396e-01
010_JE	LAG3	RPrec	1.516365e-01	1.853316e-01
010_JE	LAG3	RPrec1	3.181404e-01	1.127732e-01
010_JE	LAG3	RPrec2	5.004344e-01	2.163026e-02
010_JE	LAG3	MTG	-2.626162e-01	-2.109360e-01
010_JE	LAG3	MTG1	2.098316e-01	2.030515e-04
010_JE	LAG3	ACing	-3.366395e-01	-3.003370e-01
010_JE	LAG3	ACing1	1.868978e-01	2.644736e-01
012_JE	LAG3	Insula	1.999926e-01	2.418441e-01
012_JE	LAG3	Insula1	2.057378e-01	2.223217e-01
012_JE	LAG3	Insula2	8.500694e-02	7.211353e-02
012_JE	LAG3	dACC	1.300928e-01	-5.374557e-02
012_JE	LAG3	RInsula	1.216649e-01	2.550190e-01
012_JE	LAG3	SPL	8.404623e-02	7.392917e-02
012_JE	LAG3	RMFG	2.681943e-01	1.203706e-01
012_JE	LAG3	RMFG1	2.609613e-01	1.570125e-01
012_JE	LAG3	RMFG2	1.851762e-01	5.265915e-02
012_JE	LAG3	RTempPole	1.558062e-01	4.903821e-02
012_JE	LAG3	RTempPole1	1.307784e-01	3.010014e-02
012_JE	LAG3	RPrec	2.743448e-01	-1.047630e-01
012_JE	LAG3	RPrec1	2.852515e-01	-5.344638e-02
012_JE	LAG3	RPrec2	4.602194e-01	-1.365187e-01
012_JE	LAG3	MTG	2.371605e-01	7.295291e-02
012_JE	LAG3	MTG1	2.359911e-01	7.213300e-02
012_JE	LAG3	ACing	-1.468703e-01	-1.306022e-01
012_JE	LAG3	ACing1	-5.347076e-02	-1.521765e-01
012_JE	LAG3	LAG	1.667964e-01	2.954989e-03
012_JE	LAG3	LAG1	3.566402e-01	-6.504111e-02
012_JE	LAG3	LAG2	2.145796e-01	1.350720e-02
012_JE	LAG3	LAG4	4.715262e-01	1.733978e-02
012_JE	LAG3	RAG	2.011702e-01	3.007805e-02
012_JE	LAG3	RAG1	3.526813e-01	1.427115e-01
012_JE	LAG3	RAG2	3.168427e-01	-9.510459e-02
012_JE	LAG3	Insula3	7.786763e-02	1.118950e-01
012_JE	LAG3	Insula4	1.972416e-01	2.120515e-01
012_JE	LAG3	RInsula1	1.006447e-01	1.836388e-01
012_JE	LAG3	SPL1	1.399302e-01	3.262521e-02
012_JE	LAG3	SPL2	1.736629e-01	9.493997e-02
013_JE	LAG3	Insula	-2.737103e-02	2.539758e-01
013_JE	LAG3	Insula1	1.380426e-01	2.408823e-01
013_JE	LAG3	Insula2	2.053970e-01	3.387024e-01
013_JE	LAG3	dACC	8.329354e-02	1.191159e-01
013_JE	LAG3	RInsula	-3.001627e-03	3.676858e-01
013_JE	LAG3	SPL	4.280207e-02	2.132421e-01
013_JE	LAG3	RMFG	1.178483e-01	2.387383e-01
013_JE	LAG3	RMFG1	1.774004e-02	1.335333e-01
013_JE	LAG3	RMFG2	1.374428e-02	8.690456e-02
013_JE	LAG3	RTempPole	2.566054e-01	1.897420e-01
013_JE	LAG3	RTempPole1	2.436337e-01	1.617259e-01
013_JE	LAG3	RPrec	2.972865e-01	2.168300e-02
013_JE	LAG3	RPrec1	5.785884e-01	1.077741e-01
013_JE	LAG3	RPrec2	3.911600e-01	1.366036e-03
013_JE	LAG3	MTG	3.161061e-01	1.508989e-01
013_JE	LAG3	MTG1	7.481183e-02	4.260342e-02
013_JE	LAG3	ACing	-1.728153e-02	-1.159101e-01
013_JE	LAG3	ACing1	2.070131e-01	1.195898e-01
013_JE	LAG3	LAG	-3.728940e-02	-2.014637e-01
013_JE	LAG3	LAG1	4.111566e-01	3.693493e-02
013_JE	LAG3	LAG2	2.952290e-01	6.104247e-02
013_JE	LAG3	LAG4	1.945712e-01	-4.229184e-01
013_JE	LAG3	RAG	1.488083e-01	-7.063619e-02
013_JE	LAG3	RAG1	3.886066e-02	-1.129707e-02
013_JE	LAG3	RAG2	4.083105e-01	-7.859988e-02
013_JE	LAG3	Insula3	1.010119e-01	2.893815e-01
013_JE	LAG3	Insula4	2.724400e-01	5.583145e-01
013_JE	LAG3	RInsula1	-1.100418e-01	1.593249e-01
013_JE	LAG3	SPL1	4.651583e-02	-7.196453e-02
013_JE	LAG3	SPL2	-1.288064e-01	7.484278e-02
014_JE	LAG3	Insula	2.956387e-01	4.467978e-02
014_JE	LAG3	Insula1	5.646356e-01	2.501912e-01
014_JE	LAG3	Insula2	5.199709e-01	2.768591e-01
014_JE	LAG3	dACC	-1.412816e-01	-2.016192e-01
014_JE	LAG3	RInsula	4.521594e-01	1.649343e-01
014_JE	LAG3	SPL	-2.802588e-02	-1.496448e-01
014_JE	LAG3	RMFG	2.725189e-01	8.667797e-02
014_JE	LAG3	RMFG1	5.202053e-01	1.803302e-01
014_JE	LAG3	RMFG2	1.946374e-01	1.291754e-01
014_JE	LAG3	RTempPole	3.881825e-01	2.976634e-01
014_JE	LAG3	RTempPole1	1.862368e-01	9.953749e-02
014_JE	LAG3	RPrec	2.289209e-01	3.051976e-01
014_JE	LAG3	RPrec1	2.976107e-01	2.874507e-01
014_JE	LAG3	RPrec2	3.810842e-01	3.803959e-01
014_JE	LAG3	MTG	1.538028e-01	1.022869e-01
014_JE	LAG3	MTG1	2.925605e-01	2.063645e-01
014_JE	LAG3	ACing	-5.151340e-01	-2.362268e-01
014_JE	LAG3	ACing1	1.808976e-02	7.360336e-02
014_JE	LAG3	LAG	4.404573e-01	2.140343e-01
014_JE	LAG3	LAG1	1.926532e-01	-1.982631e-01
014_JE	LAG3	LAG2	2.898059e-01	1.417251e-02
014_JE	LAG3	LAG4	1.114823e-01	-2.402578e-02
014_JE	LAG3	RAG	3.038179e-01	2.658982e-01
014_JE	LAG3	RAG1	3.789022e-01	2.165500e-03
014_JE	LAG3	RAG2	3.013037e-01	9.458744e-02
014_JE	LAG3	Insula3	4.549071e-01	2.929867e-01
014_JE	LAG3	Insula4	6.897900e-01	4.028086e-01
014_JE	LAG3	RInsula1	5.430945e-01	3.415850e-01
014_JE	LAG3	SPL1	2.914995e-02	-1.555664e-01
014_JE	LAG3	SPL2	1.957292e-02	3.985628e-02
015_JE	LAG3	Insula	6.158049e-02	3.918662e-01
015_JE	LAG3	Insula1	3.341453e-01	1.329118e-01
015_JE	LAG3	Insula2	5.770601e-01	4.614597e-01
015_JE	LAG3	dACC	6.229065e-01	8.316366e-01
015_JE	LAG3	RInsula	1.008456e-01	3.340774e-01
015_JE	LAG3	SPL	2.771352e-01	4.881401e-01
015_JE	LAG3	RMFG	-1.928246e-02	1.681533e-01
015_JE	LAG3	RMFG1	3.739994e-01	6.271248e-01
015_JE	LAG3	RMFG2	1.267798e-01	2.051122e-01
015_JE	LAG3	RTempPole	1.544822e-01	4.791839e-02
015_JE	LAG3	RTempPole1	2.274418e-01	-2.472356e-02
015_JE	LAG3	RPrec	2.323092e-01	-9.695414e-02
015_JE	LAG3	RPrec1	3.300604e-01	-5.902531e-02
015_JE	LAG3	RPrec2	6.656656e-01	1.953148e-02
015_JE	LAG3	MTG	1.977928e-01	1.507436e-01
015_JE	LAG3	MTG1	4.184741e-01	1.181024e-01
015_JE	LAG3	ACing	-4.729644e-01	-2.971599e-01
015_JE	LAG3	ACing1	3.319759e-01	-3.914244e-02
015_JE	LAG3	LAG	2.943561e-01	3.168486e-02
015_JE	LAG3	LAG1	5.923366e-01	1.634643e-01
015_JE	LAG3	LAG2	3.498231e-01	3.133505e-01
015_JE	LAG3	LAG4	7.101024e-01	-1.580626e-01
015_JE	LAG3	RAG	4.329143e-01	-1.029455e-01
015_JE	LAG3	RAG1	4.219266e-01	6.015255e-02
015_JE	LAG3	RAG2	3.152634e-01	2.796254e-01
015_JE	LAG3	Insula3	4.058453e-01	6.252862e-01
015_JE	LAG3	Insula4	1.033952e+00	1.051615e+00
015_JE	LAG3	RInsula1	2.707654e-01	6.124882e-01
015_JE	LAG3	SPL1	3.345376e-01	5.057728e-01
015_JE	LAG3	SPL2	2.844179e-01	4.624634e-01
016_JE	LAG3	Insula	2.431909e-01	4.062869e-01
016_JE	LAG3	Insula1	3.091937e-01	3.271512e-01
016_JE	LAG3	Insula2	2.228969e-01	3.654503e-01
016_JE	LAG3	dACC	2.207152e-01	3.547792e-01
016_JE	LAG3	RInsula	1.287173e-01	3.596766e-01
016_JE	LAG3	SPL	2.082692e-01	3.646114e-01
016_JE	LAG3	RMFG	2.967480e-01	3.712862e-01
016_JE	LAG3	RMFG1	3.553214e-01	4.380264e-01
016_JE	LAG3	RMFG2	1.716019e-01	2.374515e-01
016_JE	LAG3	RTempPole	9.771684e-02	6.179519e-02
016_JE	LAG3	RTempPole1	2.417013e-01	1.596224e-01
016_JE	LAG3	RPrec	2.921439e-01	9.221419e-02
016_JE	LAG3	RPrec1	1.846816e-01	-4.341383e-03
016_JE	LAG3	RPrec2	2.761069e-01	-1.382430e-03
016_JE	LAG3	MTG	1.486944e-01	5.137250e-02
016_JE	LAG3	MTG1	7.792155e-02	3.380836e-02
016_JE	LAG3	ACing	4.664999e-02	8.085682e-02
016_JE	LAG3	ACing1	9.851083e-02	1.738843e-01
016_JE	LAG3	LAG	2.818530e-01	4.281765e-02
016_JE	LAG3	LAG1	2.567174e-01	-2.955562e-02
016_JE	LAG3	LAG2	2.210084e-01	-1.099923e-02
016_JE	LAG3	LAG4	1.845454e-01	-5.399074e-02
016_JE	LAG3	RAG	1.519847e-01	3.750183e-02
016_JE	LAG3	RAG1	1.997160e-01	1.104390e-01
016_JE	LAG3	RAG2	1.982005e-01	1.253965e-01
016_JE	LAG3	Insula3	3.024865e-01	2.943318e-01
016_JE	LAG3	Insula4	4.958741e-01	6.353778e-01
016_JE	LAG3	RInsula1	1.992881e-02	1.035833e-01
016_JE	LAG3	SPL1	2.604029e-01	4.844864e-01
016_JE	LAG3	SPL2	2.592675e-01	4.384379e-01
017_JE	LAG3	Insula	6.710699e-01	5.411476e-01
017_JE	LAG3	Insula1	3.512564e-01	2.413328e-01
017_JE	LAG3	Insula2	6.341525e-02	-1.115102e-01
017_JE	LAG3	dACC	1.445561e-01	1.912971e-01
017_JE	LAG3	RInsula	2.141055e-01	-4.172744e-02
017_JE	LAG3	SPL	1.111800e-01	1.097588e-01
017_JE	LAG3	RMFG	-1.571916e-01	-4.945749e-02
017_JE	LAG3	RMFG1	2.608852e-01	4.989658e-01
017_JE	LAG3	RMFG2	-4.563621e-02	1.306444e-01
017_JE	LAG3	RTempPole	1.829204e-01	9.354769e-02
017_JE	LAG3	RTempPole1	9.638813e-02	2.285952e-01
017_JE	LAG3	RPrec	2.861406e-01	6.507552e-02
017_JE	LAG3	RPrec1	3.762419e-01	5.206806e-02
017_JE	LAG3	RPrec2	4.516590e-01	1.615181e-01
017_JE	LAG3	MTG	2.090202e-01	1.120999e-01
017_JE	LAG3	MTG1	-8.107579e-02	-6.455797e-02
017_JE	LAG3	ACing	3.824770e-02	4.540137e-01
017_JE	LAG3	ACing1	9.883023e-01	9.990616e-01
017_JE	LAG3	LAG	1.855643e-01	9.827191e-03
017_JE	LAG3	LAG1	2.727213e-01	-4.547606e-02
017_JE	LAG3	LAG2	2.993597e-01	1.023022e-01
017_JE	LAG3	LAG4	9.465984e-02	-1.456614e-01
017_JE	LAG3	RAG	2.990880e-01	4.607106e-02
017_JE	LAG3	RAG1	3.678932e-01	-3.970711e-02
017_JE	LAG3	RAG2	1.061669e-01	-7.117481e-02
017_JE	LAG3	Insula3	3.065604e-01	2.538409e-01
017_JE	LAG3	Insula4	4.931601e-01	5.811348e-01
017_JE	LAG3	RInsula1	5.656613e-01	5.656036e-01
017_JE	LAG3	SPL1	2.261358e-01	1.747892e-01
017_JE	LAG3	SPL2	3.286362e-01	1.559479e-01
018_JE	LAG3	Insula	4.651771e-01	2.374621e-01
018_JE	LAG3	Insula1	5.130007e-01	2.524878e-01
018_JE	LAG3	Insula2	5.171033e-01	2.372164e-01
018_JE	LAG3	dACC	1.436104e-01	4.276061e-02
018_JE	LAG3	RInsula	4.766157e-01	2.439062e-01
018_JE	LAG3	SPL	2.355346e-01	7.408059e-02
018_JE	LAG3	RMFG	2.935164e-01	1.051114e-01
018_JE	LAG3	RMFG1	6.049846e-01	3.436793e-01
018_JE	LAG3	RMFG2	1.401442e-01	3.495601e-02
018_JE	LAG3	RTempPole	2.771051e-01	9.348114e-02
018_JE	LAG3	RTempPole1	1.350578e-01	1.931527e-02
018_JE	LAG3	RPrec	3.355917e-01	8.440256e-03
018_JE	LAG3	RPrec1	3.584449e-01	5.356752e-02
018_JE	LAG3	RPrec2	4.203632e-01	5.909409e-02
018_JE	LAG3	MTG	1.428003e-01	6.455244e-02
018_JE	LAG3	MTG1	1.217087e-01	7.267963e-03
018_JE	LAG3	ACing	1.616739e-01	-6.933973e-02
018_JE	LAG3	ACing1	2.413140e-01	1.281749e-02
018_JE	LAG3	LAG	3.365572e-01	1.070503e-01
018_JE	LAG3	LAG1	2.124051e-01	1.147856e-02
018_JE	LAG3	LAG2	3.040284e-01	1.581931e-01
018_JE	LAG3	LAG4	3.650292e-01	6.412924e-02
018_JE	LAG3	RAG	2.386060e-01	-2.287709e-02
018_JE	LAG3	RAG1	4.289249e-01	1.135178e-01
018_JE	LAG3	RAG2	2.113822e-01	6.657116e-02
018_JE	LAG3	Insula3	4.179589e-01	1.930500e-01
018_JE	LAG3	Insula4	3.428649e-01	1.834641e-01
018_JE	LAG3	RInsula1	4.061805e-01	2.536836e-01
018_JE	LAG3	SPL1	1.824952e-01	1.726240e-02
018_JE	LAG3	SPL2	5.266162e-02	-4.562704e-03
019_JE	LAG3	Insula	-7.079681e-02	2.211944e-01
019_JE	LAG3	Insula1	9.250338e-02	-2.220904e-02
019_JE	LAG3	Insula2	9.326750e-02	1.839904e-01
019_JE	LAG3	dACC	-3.905907e-02	-3.450629e-02
019_JE	LAG3	RInsula	-3.473548e-02	1.151620e-01
019_JE	LAG3	SPL	1.234781e-01	2.154053e-01
019_JE	LAG3	RMFG	1.464910e-01	1.586862e-01
019_JE	LAG3	RMFG1	3.305596e-01	3.366879e-01
019_JE	LAG3	RMFG2	8.501350e-02	4.864867e-02
019_JE	LAG3	RTempPole	1.099374e-01	1.161514e-01
019_JE	LAG3	RTempPole1	7.396283e-02	1.136979e-01
019_JE	LAG3	RPrec	2.795973e-01	6.540174e-02
019_JE	LAG3	RPrec1	1.313985e-01	1.652995e-02
019_JE	LAG3	RPrec2	3.430815e-01	2.535779e-02
019_JE	LAG3	MTG	1.883446e-01	2.316766e-01
019_JE	LAG3	MTG1	9.191700e-02	2.975143e-01
019_JE	LAG3	ACing	-5.186359e-02	1.056406e-02
019_JE	LAG3	ACing1	-6.335758e-02	-1.023068e-01
019_JE	LAG3	LAG	1.822505e-01	2.544872e-02
019_JE	LAG3	LAG1	2.309058e-01	1.059074e-01
019_JE	LAG3	LAG2	2.233703e-01	1.787787e-01
019_JE	LAG3	LAG4	4.507512e-01	1.480517e-01
019_JE	LAG3	RAG	4.326408e-02	1.090291e-01
019_JE	LAG3	RAG1	1.122958e-01	-6.496311e-03
019_JE	LAG3	RAG2	8.754500e-02	-6.656083e-03
019_JE	LAG3	Insula3	7.979521e-03	1.354612e-01
019_JE	LAG3	Insula4	2.562122e-01	1.090688e-01
019_JE	LAG3	RInsula1	1.056158e-01	2.132758e-01
019_JE	LAG3	SPL1	1.726902e-01	7.544778e-02
019_JE	LAG3	SPL2	1.005113e-01	1.785550e-01
020_JE	LAG3	Insula	4.165704e-01	3.859542e-01
020_JE	LAG3	Insula1	6.465040e-01	8.289494e-01
020_JE	LAG3	Insula2	5.314225e-01	5.271021e-01
020_JE	LAG3	dACC	4.372929e-01	3.721841e-01
020_JE	LAG3	RInsula	4.065516e-01	4.514157e-01
020_JE	LAG3	SPL	1.738636e-01	2.542725e-01
020_JE	LAG3	RMFG	4.790412e-01	5.430263e-01
020_JE	LAG3	RMFG1	2.561329e-01	4.306249e-01
020_JE	LAG3	RMFG2	2.800010e-01	3.611738e-01
020_JE	LAG3	RTempPole	3.012338e-02	2.653017e-01
020_JE	LAG3	RTempPole1	2.572212e-01	1.917593e-01
020_JE	LAG3	RPrec	3.951933e-01	2.286670e-01
020_JE	LAG3	RPrec1	1.900609e-01	-1.268336e-01
020_JE	LAG3	RPrec2	3.137946e-01	-2.646600e-02
020_JE	LAG3	MTG	3.646051e-01	2.044309e-01
020_JE	LAG3	MTG1	2.080111e-01	2.599979e-01
020_JE	LAG3	ACing	-6.960966e-02	1.711770e-01
020_JE	LAG3	ACing1	2.951886e-01	1.936877e-01
020_JE	LAG3	LAG	1.764864e-01	7.694670e-02
020_JE	LAG3	LAG1	2.627950e-01	7.690915e-02
020_JE	LAG3	LAG2	2.401387e-01	2.221862e-01
020_JE	LAG3	LAG4	2.552632e-01	-7.028022e-02
020_JE	LAG3	RAG	1.542932e-01	4.378687e-02
020_JE	LAG3	RAG1	1.496765e-01	-8.284105e-02
020_JE	LAG3	RAG2	4.076847e-01	-1.641483e-02
020_JE	LAG3	Insula3	2.660539e-01	2.138180e-01
020_JE	LAG3	Insula4	7.182233e-01	7.367826e-01
020_JE	LAG3	RInsula1	3.547940e-01	5.301184e-01
020_JE	LAG3	SPL1	7.101108e-01	3.608257e-01
020_JE	LAG3	SPL2	4.402001e-01	4.381175e-01
021_JE	LAG3	Insula	2.219684e-01	5.735327e-03
021_JE	LAG3	Insula1	3.183280e-01	-4.739985e-02
021_JE	LAG3	Insula2	1.560137e-02	3.921209e-02
021_JE	LAG3	dACC	1.130643e-01	-6.292307e-02
021_JE	LAG3	RInsula	2.211649e-01	1.138959e-01
021_JE	LAG3	SPL	1.848475e-02	1.779137e-02
021_JE	LAG3	RMFG	-7.734799e-02	-2.027773e-01
021_JE	LAG3	RMFG1	5.590059e-02	-2.201637e-01
021_JE	LAG3	RMFG2	8.289388e-02	2.467541e-02
021_JE	LAG3	RTempPole	2.000525e-01	3.938270e-02
021_JE	LAG3	RTempPole1	1.473469e-01	1.963578e-01
021_JE	LAG3	RPrec	1.816734e-01	-8.648607e-02
021_JE	LAG3	RPrec1	1.298676e-01	-2.171637e-01
021_JE	LAG3	RPrec2	3.963899e-01	-1.368218e-01
021_JE	LAG3	MTG	1.635556e-01	7.366523e-02
021_JE	LAG3	MTG1	1.228485e-01	6.623877e-02
021_JE	LAG3	ACing	3.068497e-01	4.340433e-01
021_JE	LAG3	ACing1	4.013331e-01	4.511850e-02
021_JE	LAG3	LAG	3.498546e-01	1.679833e-02
021_JE	LAG3	LAG1	1.208816e-01	5.041418e-02
021_JE	LAG3	LAG2	3.358715e-02	1.884632e-02
021_JE	LAG3	LAG4	3.940705e-01	-7.174330e-02
021_JE	LAG3	RAG	1.953978e-01	-8.574911e-02
021_JE	LAG3	RAG1	3.465952e-01	-1.354166e-01
021_JE	LAG3	RAG2	4.439920e-01	1.611253e-02
021_JE	LAG3	Insula3	1.975426e-01	6.607035e-02
021_JE	LAG3	Insula4	2.610732e-01	-5.128383e-02
021_JE	LAG3	RInsula1	2.799034e-01	5.371961e-02
021_JE	LAG3	SPL1	2.919103e-02	-2.185913e-02
021_JE	LAG3	SPL2	9.143117e-02	-6.012616e-02
022_JE	LAG3	Insula	-5.335215e-02	1.526497e-01
022_JE	LAG3	Insula1	1.199873e-01	1.314836e-01
022_JE	LAG3	Insula2	-5.863851e-02	1.171948e-01
022_JE	LAG3	dACC	1.682169e-01	9.383097e-02
022_JE	LAG3	RInsula	5.521714e-02	2.305589e-01
022_JE	LAG3	SPL	2.516669e-02	3.942524e-02
022_JE	LAG3	RMFG	2.327010e-01	3.453792e-01
022_JE	LAG3	RMFG1	1.955688e-01	1.895766e-01
022_JE	LAG3	RMFG2	1.474944e-01	1.348268e-01
022_JE	LAG3	RTempPole	1.104800e-01	2.532449e-02
022_JE	LAG3	RTempPole1	-2.241688e-02	-1.085116e-01
022_JE	LAG3	RPrec	-8.561575e-02	-2.443974e-01
022_JE	LAG3	RPrec1	3.239946e-01	-4.243170e-02
022_JE	LAG3	RPrec2	5.624796e-01	5.603852e-02
022_JE	LAG3	MTG	1.340585e-01	-3.518666e-02
022_JE	LAG3	MTG1	9.120751e-02	-2.270841e-01
022_JE	LAG3	ACing	-1.629408e-01	-6.222219e-02
022_JE	LAG3	ACing1	1.904334e-01	2.594695e-01
022_JE	LAG3	LAG	5.050712e-01	8.381186e-03
022_JE	LAG3	LAG1	2.587283e-01	-2.471720e-01
022_JE	LAG3	LAG2	1.106691e-01	-1.818290e-01
022_JE	LAG3	LAG4	5.396631e-01	1.550072e-01
022_JE	LAG3	RAG	3.509166e-01	-6.917611e-02
022_JE	LAG3	RAG1	4.216132e-01	2.106362e-01
022_JE	LAG3	RAG2	3.605845e-01	1.146514e-01
022_JE	LAG3	Insula3	5.539737e-02	2.027403e-01
022_JE	LAG3	Insula4	4.214272e-01	5.434734e-01
022_JE	LAG3	RInsula1	1.425540e-01	2.370136e-01
022_JE	LAG3	SPL1	2.618892e-02	2.396498e-01
022_JE	LAG3	SPL2	-1.686575e-01	-4.344357e-02
023_JE	LAG3	Insula	1.561953e-01	5.763660e-02
023_JE	LAG3	Insula1	3.840165e-01	3.360040e-01
023_JE	LAG3	Insula2	1.782087e-01	1.694288e-01
023_JE	LAG3	dACC	2.781110e-02	1.016789e-01
023_JE	LAG3	RInsula	2.234530e-01	2.992714e-01
023_JE	LAG3	SPL	1.449167e-01	1.030897e-01
023_JE	LAG3	RMFG	1.662784e-01	4.321389e-01
023_JE	LAG3	RMFG1	2.686374e-01	5.047634e-01
023_JE	LAG3	RMFG2	3.900805e-02	1.948490e-01
023_JE	LAG3	RTempPole	6.507042e-02	-3.203207e-02
023_JE	LAG3	RTempPole1	1.398027e-01	1.804452e-01
023_JE	LAG3	RPrec	3.194501e-01	2.694882e-01
023_JE	LAG3	RPrec1	2.449576e-01	2.606083e-01
023_JE	LAG3	RPrec2	2.517800e-01	6.718398e-02
023_JE	LAG3	MTG	9.427292e-02	6.932838e-02
023_JE	LAG3	MTG1	1.140984e-01	-7.030280e-03
023_JE	LAG3	ACing	-6.092569e-04	-9.906248e-02
023_JE	LAG3	ACing1	2.568775e-01	2.592330e-01
023_JE	LAG3	LAG	1.676078e-01	8.604582e-02
023_JE	LAG3	LAG1	1.626602e-01	-1.619378e-02
023_JE	LAG3	LAG2	1.852204e-01	5.712509e-02
023_JE	LAG3	LAG4	4.737097e-01	9.119435e-02
023_JE	LAG3	RAG	2.875573e-01	1.161495e-01
023_JE	LAG3	RAG1	2.135206e-01	8.192710e-02
023_JE	LAG3	RAG2	1.326565e-01	3.241460e-01
023_JE	LAG3	Insula3	4.032899e-02	1.156956e-01
023_JE	LAG3	Insula4	4.607082e-01	6.509632e-01
023_JE	LAG3	RInsula1	3.107872e-01	3.631912e-01
023_JE	LAG3	SPL1	1.850865e-01	1.039174e-01
023_JE	LAG3	SPL2	1.994090e-01	1.548432e-01
024_JE	LAG3	Insula	3.985069e-01	2.692734e-01
024_JE	LAG3	Insula1	8.186936e-01	3.961493e-01
024_JE	LAG3	Insula2	6.025228e-01	2.441252e-01
024_JE	LAG3	dACC	6.604380e-01	1.560446e-01
024_JE	LAG3	RInsula	4.735467e-01	3.269553e-01
024_JE	LAG3	SPL	3.732641e-01	1.463156e-01
024_JE	LAG3	RMFG	5.750216e-01	4.441507e-01
024_JE	LAG3	RMFG1	7.668359e-01	3.816550e-01
024_JE	LAG3	RMFG2	1.061156e-01	1.448026e-01
024_JE	LAG3	RTempPole	4.194897e-01	2.171744e-01
024_JE	LAG3	RTempPole1	3.466570e-01	3.363924e-01
024_JE	LAG3	RPrec	8.190091e-01	3.403601e-01
024_JE	LAG3	RPrec1	5.472798e-01	2.082216e-01
024_JE	LAG3	RPrec2	8.617512e-01	3.779679e-01
024_JE	LAG3	MTG	2.407912e-01	2.014245e-01
024_JE	LAG3	MTG1	3.148773e-01	1.573544e-01
024_JE	LAG3	ACing	1.227965e-01	2.200578e-01
024_JE	LAG3	ACing1	5.728878e-01	4.142699e-01
024_JE	LAG3	LAG	6.707780e-01	1.580931e-01
024_JE	LAG3	LAG1	5.480465e-01	2.284224e-01
024_JE	LAG3	LAG2	1.748860e-01	5.893148e-02
024_JE	LAG3	LAG4	6.359905e-01	1.209608e-01
024_JE	LAG3	RAG	4.514730e-01	2.706710e-01
024_JE	LAG3	RAG1	3.968656e-01	2.272533e-01
024_JE	LAG3	RAG2	5.250779e-01	2.243871e-01
024_JE	LAG3	Insula3	2.973081e-01	2.450447e-01
024_JE	LAG3	Insula4	1.045845e+00	6.897075e-01
024_JE	LAG3	RInsula1	3.674910e-01	3.072181e-01
024_JE	LAG3	SPL1	3.172430e-01	9.550551e-02
024_JE	LAG3	SPL2	6.714247e-01	2.148467e-01
025_JE	LAG3	Insula	3.244155e-01	6.543035e-01
025_JE	LAG3	Insula1	4.221997e-01	5.057305e-01
025_JE	LAG3	Insula2	3.218454e-01	5.694003e-01
025_JE	LAG3	dACC	1.730898e-01	2.479885e-01
025_JE	LAG3	RInsula	3.633924e-01	7.948034e-01
025_JE	LAG3	SPL	3.926810e-02	1.338377e-01
025_JE	LAG3	RMFG	2.439095e-01	7.256848e-01
025_JE	LAG3	RMFG1	3.974322e-01	2.873093e-01
025_JE	LAG3	RMFG2	9.462862e-02	2.351768e-01
025_JE	LAG3	RTempPole	8.938468e-02	1.785474e-01
025_JE	LAG3	RTempPole1	1.140420e-01	3.067209e-01
025_JE	LAG3	RPrec	4.007071e-01	-5.291276e-01
025_JE	LAG3	RPrec1	5.670588e-01	1.615510e-01
025_JE	LAG3	RPrec2	2.593906e-01	-1.758086e-01
025_JE	LAG3	MTG	1.182785e-01	6.782965e-02
025_JE	LAG3	MTG1	2.542030e-01	2.692528e-01
025_JE	LAG3	ACing	-6.329516e-02	-1.440022e-01
025_JE	LAG3	ACing1	3.198263e-01	2.060519e-01
025_JE	LAG3	LAG	5.446302e-01	9.658496e-02
025_JE	LAG3	LAG1	1.418330e-01	-7.929322e-02
025_JE	LAG3	LAG2	1.442499e-01	-2.248969e-01
025_JE	LAG3	LAG4	7.116349e-01	-1.369988e-01
025_JE	LAG3	RAG	2.449046e-01	-2.220512e-01
025_JE	LAG3	RAG1	4.480243e-01	-1.110522e-01
025_JE	LAG3	RAG2	2.984473e-01	-3.616962e-02
025_JE	LAG3	Insula3	2.023613e-01	4.952247e-01
025_JE	LAG3	Insula4	6.413092e-01	9.106972e-01
025_JE	LAG3	RInsula1	3.610897e-01	3.730776e-01
025_JE	LAG3	SPL1	2.042417e-01	2.791730e-01
025_JE	LAG3	SPL2	1.825473e-01	9.114191e-02
011_JE	LAG3	Insula	3.355215e-01	3.196725e-01
011_JE	LAG3	Insula1	1.881663e-01	-3.114124e-02
011_JE	LAG3	Insula2	5.287979e-01	2.445062e-01
011_JE	LAG3	dACC	3.788569e-01	1.114616e-01
011_JE	LAG3	RInsula	5.919766e-01	5.778179e-01
011_JE	LAG3	SPL	1.747816e-01	8.756323e-02
011_JE	LAG3	RMFG	3.725994e-01	5.738467e-01
011_JE	LAG3	RMFG1	5.945897e-01	5.903365e-01
011_JE	LAG3	RMFG2	2.732694e-01	3.253856e-01
011_JE	LAG3	RTempPole	2.019311e-02	-9.475723e-02
011_JE	LAG3	RTempPole1	1.494767e-01	-1.605874e-01
011_JE	LAG3	RPrec	4.919317e-01	4.106776e-01
011_JE	LAG3	RPrec1	5.723937e-01	2.491214e-01
011_JE	LAG3	RPrec2	5.353491e-01	-2.998046e-02
011_JE	LAG3	MTG	3.046096e-01	2.793727e-01
011_JE	LAG3	MTG1	2.848358e-01	2.069256e-01
011_JE	LAG3	ACing	1.822040e-01	1.494200e-01
011_JE	LAG3	ACing1	8.547375e-01	5.919069e-01
011_JE	LAG3	LAG	1.041531e+00	4.785173e-01
011_JE	LAG3	LAG1	3.939880e-01	2.892500e-01
011_JE	LAG3	LAG2	4.071044e-01	3.225229e-01
011_JE	LAG3	LAG4	6.566547e-01	-4.670346e-02
011_JE	LAG3	RAG	3.408865e-01	2.705594e-01
011_JE	LAG3	RAG1	7.205070e-01	6.352038e-01
011_JE	LAG3	RAG2	5.238183e-01	1.710380e-01
011_JE	LAG3	Insula3	4.701127e-01	4.196873e-01
011_JE	LAG3	Insula4	4.446743e-01	4.788861e-01
011_JE	LAG3	RInsula1	6.490849e-01	6.518936e-01
011_JE	LAG3	SPL1	3.107515e-01	4.539935e-02
011_JE	LAG3	SPL2	2.291485e-01	-3.445389e-02
026_JE	LAG3	Insula	9.212615e-02	1.434437e-01
026_JE	LAG3	Insula1	3.738979e-01	2.984427e-01
026_JE	LAG3	Insula2	2.330464e-01	2.788167e-01
026_JE	LAG3	dACC	6.338287e-02	4.841509e-02
026_JE	LAG3	RInsula	2.649309e-01	3.926004e-01
026_JE	LAG3	SPL	2.760773e-02	1.704087e-01
026_JE	LAG3	RMFG	2.539261e-01	3.122458e-01
026_JE	LAG3	RMFG1	5.789570e-01	5.106815e-01
026_JE	LAG3	RMFG2	2.048946e-01	2.242052e-01
026_JE	LAG3	RTempPole	3.693014e-01	3.657302e-01
026_JE	LAG3	RTempPole1	1.299244e-01	1.565035e-01
026_JE	LAG3	RPrec	2.616730e-01	2.026056e-01
026_JE	LAG3	RPrec1	2.096941e-01	2.483230e-01
026_JE	LAG3	RPrec2	2.589976e-01	2.484041e-01
026_JE	LAG3	MTG	2.835141e-01	2.358625e-01
026_JE	LAG3	MTG1	1.682262e-01	1.303703e-01
026_JE	LAG3	ACing	-2.600597e-02	-8.051098e-02
026_JE	LAG3	ACing1	9.787506e-02	7.901688e-02
026_JE	LAG3	LAG	2.425911e-01	1.192799e-01
026_JE	LAG3	LAG1	2.135692e-01	2.523817e-02
026_JE	LAG3	LAG2	1.365932e-01	7.121388e-02
026_JE	LAG3	LAG4	3.842476e-01	7.390040e-02
026_JE	LAG3	RAG	2.269699e-01	1.195423e-01
026_JE	LAG3	RAG1	2.206001e-01	2.367535e-01
026_JE	LAG3	RAG2	2.499309e-01	2.875152e-01
026_JE	LAG3	Insula3	2.392535e-01	2.202209e-01
026_JE	LAG3	Insula4	4.879684e-01	5.629514e-01
026_JE	LAG3	RInsula1	3.087538e-01	3.171000e-01
026_JE	LAG3	SPL1	1.427901e-01	1.783257e-01
026_JE	LAG3	SPL2	1.525427e-02	1.409490e-01
027_JE	LAG3	Insula	1.011142e-01	3.730565e-01
027_JE	LAG3	Insula1	3.964446e-01	6.022237e-01
027_JE	LAG3	Insula2	3.205953e-01	4.391359e-01
027_JE	LAG3	dACC	4.053246e-01	6.549708e-01
027_JE	LAG3	RInsula	1.384732e-01	4.446877e-01
027_JE	LAG3	SPL	5.357159e-02	2.168757e-01
027_JE	LAG3	RMFG	1.606614e-01	5.709254e-01
027_JE	LAG3	RMFG1	3.594675e-01	6.507362e-01
027_JE	LAG3	RMFG2	1.922359e-01	5.246292e-01
027_JE	LAG3	RTempPole	3.428801e-01	2.907978e-01
027_JE	LAG3	RTempPole1	3.641386e-01	4.003333e-01
027_JE	LAG3	RPrec	2.935362e-01	3.170784e-01
027_JE	LAG3	RPrec1	3.641626e-01	2.781564e-01
027_JE	LAG3	RPrec2	4.627811e-01	1.112574e-01
027_JE	LAG3	MTG	-5.874010e-02	1.461040e-01
027_JE	LAG3	MTG1	1.109871e-01	5.283159e-02
027_JE	LAG3	ACing	5.934209e-03	8.768187e-02
027_JE	LAG3	ACing1	3.442571e-01	3.676279e-01
027_JE	LAG3	LAG	1.853993e-01	1.779262e-01
027_JE	LAG3	LAG1	2.362768e-01	5.758014e-02
027_JE	LAG3	LAG2	2.600264e-01	9.359654e-02
027_JE	LAG3	LAG4	3.300489e-01	8.430072e-02
027_JE	LAG3	RAG	1.288911e-01	1.116123e-01
027_JE	LAG3	RAG1	2.870943e-01	3.557017e-01
027_JE	LAG3	RAG2	4.353141e-01	3.400512e-01
027_JE	LAG3	Insula3	6.385212e-02	2.435137e-01
027_JE	LAG3	Insula4	3.418891e-01	5.277178e-01
027_JE	LAG3	RInsula1	2.801634e-01	5.131895e-01
027_JE	LAG3	SPL1	1.905847e-01	2.692977e-01
027_JE	LAG3	SPL2	8.531052e-02	1.080943e-01
028_JE	LAG3	Insula	3.759298e-01	6.263066e-01
028_JE	LAG3	Insula1	4.518613e-01	1.813213e-01
028_JE	LAG3	Insula2	2.735980e-01	5.174716e-01
028_JE	LAG3	dACC	1.520181e-01	3.461826e-01
028_JE	LAG3	RInsula	3.611608e-01	5.468758e-01
028_JE	LAG3	SPL	1.566523e-01	2.464365e-01
028_JE	LAG3	RMFG	4.255221e-01	7.560928e-01
028_JE	LAG3	RMFG1	5.954100e-01	1.031273e+00
028_JE	LAG3	RMFG2	1.239940e-01	2.204729e-01
028_JE	LAG3	RTempPole	1.812882e-01	1.236946e-01
028_JE	LAG3	RTempPole1	4.755333e-01	6.776032e-01
028_JE	LAG3	RPrec	5.561256e-01	4.896040e-01
028_JE	LAG3	RPrec1	3.013456e-01	2.055200e-01
028_JE	LAG3	RPrec2	6.779690e-01	2.512603e-01
028_JE	LAG3	MTG	2.647834e-01	3.030388e-01
028_JE	LAG3	MTG1	1.966129e-01	1.432993e-01
028_JE	LAG3	ACing	1.305535e-01	-6.107697e-02
028_JE	LAG3	ACing1	4.614856e-01	2.017152e-01
028_JE	LAG3	LAG	4.197345e-01	1.801520e-01
028_JE	LAG3	LAG1	8.144019e-01	5.382407e-02
028_JE	LAG3	LAG2	5.053575e-01	2.853762e-02
028_JE	LAG3	LAG4	8.711705e-01	-5.845780e-02
028_JE	LAG3	RAG	3.730102e-01	1.043653e-01
028_JE	LAG3	RAG1	2.903311e-01	2.671533e-01
028_JE	LAG3	RAG2	5.177053e-01	2.523683e-01
028_JE	LAG3	Insula3	2.946915e-01	2.077896e-01
028_JE	LAG3	Insula4	4.064419e-01	5.871536e-01
028_JE	LAG3	RInsula1	2.210352e-01	5.500530e-01
028_JE	LAG3	SPL1	2.245399e-01	3.800212e-01
028_JE	LAG3	SPL2	2.210583e-01	1.616379e-01
029_JE	LAG3	Insula	3.983784e-01	4.735484e-01
029_JE	LAG3	Insula1	5.590091e-01	5.315891e-01
029_JE	LAG3	Insula2	1.992965e-01	4.484158e-01
029_JE	LAG3	dACC	1.513296e-01	2.787639e-01
029_JE	LAG3	RInsula	3.416720e-01	4.225557e-01
029_JE	LAG3	SPL	3.003669e-01	5.304794e-01
029_JE	LAG3	RMFG	2.162031e-01	3.098060e-01
029_JE	LAG3	RMFG1	2.857420e-01	4.019279e-01
029_JE	LAG3	RMFG2	-8.043966e-02	1.439611e-01
029_JE	LAG3	RTempPole	1.789867e-01	2.565812e-01
029_JE	LAG3	RTempPole1	-2.377348e-01	1.902809e-01
029_JE	LAG3	RPrec	4.389712e-01	3.100432e-01
029_JE	LAG3	RPrec1	1.628605e-01	1.074514e-01
029_JE	LAG3	RPrec2	2.195996e-01	1.443870e-01
029_JE	LAG3	MTG	2.802285e-01	2.262580e-01
029_JE	LAG3	MTG1	2.122745e-01	1.572663e-01
029_JE	LAG3	ACing	-3.034463e-01	6.342337e-02
029_JE	LAG3	ACing1	1.969974e-01	8.849079e-02
029_JE	LAG3	LAG	2.472342e-01	5.595973e-02
029_JE	LAG3	LAG1	2.479042e-01	1.853988e-01
029_JE	LAG3	LAG2	2.184363e-01	3.936420e-01
029_JE	LAG3	LAG4	3.619818e-01	4.523121e-03
029_JE	LAG3	RAG	2.096716e-01	1.215555e-01
029_JE	LAG3	RAG1	2.195260e-01	2.219081e-01
029_JE	LAG3	RAG2	1.272392e-01	7.110013e-02
029_JE	LAG3	Insula3	2.576543e-01	3.303902e-01
029_JE	LAG3	Insula4	3.311330e-01	4.744774e-01
029_JE	LAG3	RInsula1	3.942261e-01	6.888303e-01
029_JE	LAG3	SPL1	1.858711e-01	3.591267e-01
029_JE	LAG3	SPL2	1.839195e-02	3.500918e-01
030_JE	LAG3	Insula	5.380292e-01	5.443640e-01
030_JE	LAG3	Insula1	6.495099e-01	5.499571e-01
030_JE	LAG3	Insula2	4.823368e-01	4.510573e-01
030_JE	LAG3	dACC	7.197733e-01	5.636499e-01
030_JE	LAG3	RInsula	4.641885e-01	4.723426e-01
030_JE	LAG3	SPL	2.570453e-01	2.363351e-01
030_JE	LAG3	RMFG	3.874530e-01	5.878167e-01
030_JE	LAG3	RMFG1	7.341688e-01	9.210439e-01
030_JE	LAG3	RMFG2	2.689856e-01	2.926031e-01
030_JE	LAG3	RTempPole	3.280512e-01	8.171408e-02
030_JE	LAG3	RTempPole1	4.128895e-01	1.118696e-01
030_JE	LAG3	RPrec	2.269826e-01	2.723486e-01
030_JE	LAG3	RPrec1	4.434824e-01	1.440070e-01
030_JE	LAG3	RPrec2	5.326630e-01	1.362576e-01
030_JE	LAG3	MTG	2.501436e-01	1.345326e-01
030_JE	LAG3	MTG1	1.508469e-01	1.098638e-02
030_JE	LAG3	ACing	3.396919e-02	1.814685e-01
030_JE	LAG3	ACing1	3.505196e-01	2.890066e-01
030_JE	LAG3	LAG	3.916458e-01	6.195393e-02
030_JE	LAG3	LAG1	2.946367e-01	-3.336579e-03
030_JE	LAG3	LAG2	2.684046e-01	1.190113e-01
030_JE	LAG3	LAG4	2.978787e-01	8.104652e-02
030_JE	LAG3	RAG	1.719554e-01	9.063795e-02
030_JE	LAG3	RAG1	3.530470e-01	2.353475e-02
030_JE	LAG3	RAG2	1.585666e-01	2.366428e-01
030_JE	LAG3	Insula3	4.517792e-01	5.099320e-01
030_JE	LAG3	Insula4	7.234621e-01	8.034714e-01
030_JE	LAG3	RInsula1	5.909269e-01	5.079091e-01
030_JE	LAG3	SPL1	2.456839e-01	2.405014e-01
030_JE	LAG3	SPL2	5.884187e-02	1.872123e-02
