Subject	ROI_seed	ROI_target	Cats_rest	Cats_Counting
002	ACing	Insula	9.370331e-03	1.455597e-01
002	ACing	Insula1	3.811445e-04	8.011363e-02
002	ACing	Insula2	3.860289e-02	1.014217e-01
002	ACing	Insula3	3.417540e-02	8.522084e-02
002	ACing	Insula4	1.339888e-01	1.190786e-01
002	ACing	dACC	7.718669e-02	1.433466e-01
002	ACing	RInsula	8.318158e-02	1.822789e-01
002	ACing	RInsula1	5.569787e-02	4.985021e-02
002	ACing	SPL	4.738684e-02	7.657430e-02
002	ACing	SPL1	6.717986e-02	2.010790e-01
002	ACing	SPL2	6.956637e-02	1.513329e-01
002	ACing	RMFG	3.729278e-02	8.587484e-02
002	ACing	RMFG1	1.718103e-01	1.624123e-01
002	ACing	RMFG2	2.482569e-02	9.515749e-02
002	ACing	RTempPole	8.653514e-02	6.089415e-02
002	ACing	RTempPole1	2.201922e-01	1.378821e-01
002	ACing	RPrec	7.561731e-02	-2.803792e-03
002	ACing	RPrec1	1.752837e-02	4.698517e-02
002	ACing	RPrec2	3.441016e-02	3.663624e-02
002	ACing	MTG	6.462980e-02	1.706739e-02
002	ACing	MTG1	6.389429e-02	1.662857e-03
002	ACing	ACing1	1.677132e-01	7.455399e-02
002	ACing	LAG	2.481910e-02	5.192501e-02
002	ACing	LAG1	1.531975e-01	1.353654e-01
002	ACing	LAG2	4.949192e-02	7.898411e-02
002	ACing	LAG3	8.219967e-02	7.408495e-02
002	ACing	LAG4	8.128320e-02	1.235209e-01
002	ACing	RAG	5.754007e-02	-3.897058e-02
002	ACing	RAG1	-1.330161e-02	6.788917e-02
002	ACing	RAG2	1.418339e-01	6.883209e-02
006	ACing	Insula	-1.084231e-01	-1.124880e-01
006	ACing	Insula1	-6.707466e-02	3.068200e-02
006	ACing	Insula2	-3.355732e-02	-4.568679e-02
006	ACing	Insula3	-1.020686e-01	-9.209479e-02
006	ACing	Insula4	-9.797741e-02	-1.398468e-02
006	ACing	dACC	8.867445e-02	7.563032e-02
006	ACing	RInsula	-2.663060e-01	-8.581485e-02
006	ACing	RInsula1	-1.580183e-01	-2.562001e-02
006	ACing	SPL	-4.453311e-02	1.564554e-03
006	ACing	SPL1	9.048673e-02	-6.667561e-03
006	ACing	SPL2	-1.482716e-01	-1.930687e-01
006	ACing	RMFG	-1.731953e-01	-9.922418e-02
006	ACing	RMFG1	7.610475e-02	-5.976967e-02
006	ACing	RMFG2	-1.368909e-02	-6.180129e-02
006	ACing	RTempPole	-5.605609e-02	-5.865586e-03
006	ACing	RTempPole1	-6.374773e-02	-1.489830e-01
006	ACing	RPrec	-2.672716e-02	-9.899943e-02
006	ACing	RPrec1	-3.490364e-02	-7.424538e-02
006	ACing	RPrec2	-1.134726e-02	-2.585103e-02
006	ACing	MTG	-2.661774e-02	-8.705045e-02
006	ACing	MTG1	-3.008525e-02	-2.253420e-03
006	ACing	ACing1	9.345356e-02	1.142385e-01
006	ACing	LAG	1.161689e-02	5.373039e-02
006	ACing	LAG1	-2.971388e-02	5.275769e-02
006	ACing	LAG2	3.717587e-02	1.416922e-02
006	ACing	LAG3	-6.257247e-02	8.519262e-03
006	ACing	LAG4	4.752659e-02	-4.757262e-02
006	ACing	RAG	-5.724138e-04	-1.201262e-01
006	ACing	RAG1	4.212954e-02	3.451000e-02
006	ACing	RAG2	-3.883997e-02	-9.435896e-02
007	ACing	Insula	3.793304e-02	9.192271e-02
007	ACing	Insula1	4.426424e-02	4.064987e-04
007	ACing	Insula2	1.889885e-01	1.287733e-01
007	ACing	Insula3	7.525270e-02	1.537080e-01
007	ACing	Insula4	2.444186e-01	1.668691e-01
007	ACing	dACC	6.670283e-02	4.085696e-02
007	ACing	RInsula	-5.579959e-02	1.385134e-01
007	ACing	RInsula1	-2.539855e-02	3.017206e-02
007	ACing	SPL	1.090179e-01	2.764779e-01
007	ACing	SPL1	7.423256e-02	4.125731e-01
007	ACing	SPL2	8.621102e-02	1.959649e-01
007	ACing	RMFG	5.501959e-02	1.024805e-01
007	ACing	RMFG1	1.374867e-01	1.103175e-01
007	ACing	RMFG2	5.659753e-03	5.212568e-02
007	ACing	RTempPole	-5.120195e-02	-5.700387e-02
007	ACing	RTempPole1	3.611800e-02	1.417610e-01
007	ACing	RPrec	-8.021203e-02	1.182268e-01
007	ACing	RPrec1	-4.015374e-02	1.111164e-01
007	ACing	RPrec2	6.285961e-02	2.235355e-02
007	ACing	MTG	9.226891e-02	-2.960355e-02
007	ACing	MTG1	8.725239e-03	8.943995e-03
007	ACing	ACing1	5.266699e-02	1.039720e-01
007	ACing	LAG	-1.312216e-01	7.942734e-03
007	ACing	LAG1	1.675976e-01	7.135756e-03
007	ACing	LAG2	-8.068104e-03	-1.838223e-02
007	ACing	LAG3	-5.100998e-02	-3.882307e-03
007	ACing	LAG4	6.228909e-02	-1.202919e-02
007	ACing	RAG	-7.900466e-02	1.074641e-01
007	ACing	RAG1	-4.126246e-02	3.028088e-01
007	ACing	RAG2	1.755827e-01	3.898625e-01
008	ACing	Insula	2.552603e-01	9.274623e-02
008	ACing	Insula1	4.847435e-02	-1.086775e-01
008	ACing	Insula2	1.778448e-01	7.105887e-02
008	ACing	Insula3	2.190947e-01	1.002540e-02
008	ACing	Insula4	4.141882e-02	-7.434962e-02
008	ACing	dACC	7.530727e-01	5.649199e-01
008	ACing	RInsula	4.055797e-01	1.561513e-01
008	ACing	RInsula1	3.556348e-01	1.299624e-01
008	ACing	SPL	3.455491e-01	2.841886e-01
008	ACing	SPL1	3.458490e-01	1.565674e-01
008	ACing	SPL2	1.731173e-01	1.617665e-01
008	ACing	RMFG	2.774540e-01	7.938051e-02
008	ACing	RMFG1	4.306073e-01	4.886885e-01
008	ACing	RMFG2	3.792939e-02	-8.536685e-03
008	ACing	RTempPole	4.273576e-02	1.211897e-01
008	ACing	RTempPole1	3.334670e-01	2.516929e-01
008	ACing	RPrec	3.713661e-01	9.056512e-02
008	ACing	RPrec1	2.422042e-01	8.906679e-02
008	ACing	RPrec2	2.848052e-01	4.471636e-02
008	ACing	MTG	1.380842e-01	1.462853e-01
008	ACing	MTG1	-2.969820e-02	-1.418391e-01
008	ACing	ACing1	-1.461547e-02	-9.300480e-03
008	ACing	LAG	2.033675e-01	2.203500e-01
008	ACing	LAG1	3.498511e-01	1.501717e-01
008	ACing	LAG2	2.216734e-01	1.227345e-01
008	ACing	LAG3	4.485950e-01	1.709059e-01
008	ACing	LAG4	5.115251e-01	3.155393e-01
008	ACing	RAG	1.340600e-01	1.334925e-01
008	ACing	RAG1	2.190040e-01	1.474597e-01
008	ACing	RAG2	3.274577e-01	1.649395e-01
009	ACing	Insula	-1.327591e-01	-2.591401e-02
009	ACing	Insula1	-1.831336e-01	-1.508309e-01
009	ACing	Insula2	-2.484887e-02	-7.814215e-02
009	ACing	Insula3	-8.458579e-02	-1.373875e-01
009	ACing	Insula4	-3.692100e-02	-1.107090e-01
009	ACing	dACC	-2.383029e-01	-1.495766e-01
009	ACing	RInsula	-2.106413e-02	-2.507584e-02
009	ACing	RInsula1	-9.747815e-02	-1.362295e-01
009	ACing	SPL	-5.149448e-02	-1.598849e-01
009	ACing	SPL1	-8.488472e-02	-1.756064e-01
009	ACing	SPL2	-5.936673e-02	-1.492665e-01
009	ACing	RMFG	1.404190e-02	4.821790e-04
009	ACing	RMFG1	-3.023252e-02	-8.254121e-02
009	ACing	RMFG2	-3.544385e-02	-6.889813e-02
009	ACing	RTempPole	4.184323e-02	-1.171243e-01
009	ACing	RTempPole1	-3.040751e-02	-1.063372e-01
009	ACing	RPrec	-8.781567e-02	-2.575441e-01
009	ACing	RPrec1	-2.794656e-02	-1.756808e-01
009	ACing	RPrec2	1.058669e-02	-1.321579e-01
009	ACing	MTG	-7.102004e-03	-1.441940e-02
009	ACing	MTG1	-1.097529e-01	-5.850929e-02
009	ACing	ACing1	1.345221e-01	3.994916e-02
009	ACing	LAG	-5.669945e-02	-6.361838e-02
009	ACing	LAG1	1.394122e-02	-9.747122e-02
009	ACing	LAG2	-3.620199e-03	-1.017081e-01
009	ACing	LAG3	6.568883e-04	-1.307829e-01
009	ACing	LAG4	1.131621e-03	-1.383956e-01
009	ACing	RAG	-6.474726e-04	-1.475829e-01
009	ACing	RAG1	-4.812596e-02	-1.229523e-01
009	ACing	RAG2	-2.487372e-02	-1.665101e-01
011	ACing	Insula	5.508724e-02	1.324132e-01
011	ACing	Insula1	-1.008735e-01	7.602922e-02
011	ACing	Insula2	-8.293722e-02	1.592023e-01
011	ACing	Insula3	1.926550e-01	2.236766e-01
011	ACing	Insula4	1.332267e-01	9.898850e-02
011	ACing	dACC	9.897489e-02	2.098745e-01
011	ACing	RInsula	1.696847e-01	2.251895e-01
011	ACing	RInsula1	-5.247620e-02	7.945548e-02
011	ACing	SPL	1.427230e-01	9.247824e-02
011	ACing	SPL1	6.581694e-02	1.015906e-01
011	ACing	SPL2	1.983599e-01	2.690493e-01
011	ACing	RMFG	1.601508e-01	1.593455e-01
011	ACing	RMFG1	7.927617e-02	1.362457e-01
011	ACing	RMFG2	1.696522e-03	8.322580e-02
011	ACing	RTempPole	2.366767e-01	8.926607e-02
011	ACing	RTempPole1	1.685522e-02	1.786474e-01
011	ACing	RPrec	-1.236910e-01	-4.462681e-02
011	ACing	RPrec1	1.612836e-01	1.330874e-01
011	ACing	RPrec2	1.139836e-01	3.762046e-02
011	ACing	MTG	1.158661e-02	1.425908e-02
011	ACing	MTG1	1.272696e-01	3.987928e-02
011	ACing	ACing1	-1.849966e-01	9.684106e-02
011	ACing	LAG	1.746844e-01	1.689521e-01
011	ACing	LAG1	4.197220e-02	6.739125e-02
011	ACing	LAG2	1.621887e-01	1.410119e-01
011	ACing	LAG3	1.653071e-01	1.221080e-01
011	ACing	LAG4	5.402591e-02	4.119408e-02
011	ACing	RAG	1.343762e-01	8.191545e-02
011	ACing	RAG1	-4.082487e-02	-1.550420e-02
011	ACing	RAG2	-4.674443e-02	5.529256e-03
017	ACing	Insula	-7.292702e-02	1.255567e-01
017	ACing	Insula1	-1.132368e-01	-5.860192e-02
017	ACing	Insula2	1.433741e-01	-7.849148e-02
017	ACing	Insula3	-9.998972e-03	-3.717708e-02
017	ACing	Insula4	3.888051e-03	-1.613321e-01
017	ACing	dACC	7.773402e-02	-1.492963e-02
017	ACing	RInsula	-1.182417e-01	-2.380463e-02
017	ACing	RInsula1	-8.888673e-02	-3.853682e-02
017	ACing	SPL	-1.663358e-03	-6.623650e-02
017	ACing	SPL1	-2.521868e-02	-5.442762e-02
017	ACing	SPL2	9.215155e-03	4.033973e-03
017	ACing	RMFG	3.987945e-02	-4.594788e-02
017	ACing	RMFG1	1.542281e-01	-1.116642e-01
017	ACing	RMFG2	1.761788e-01	3.586761e-02
017	ACing	RTempPole	2.163027e-03	1.057120e-01
017	ACing	RTempPole1	3.553591e-02	1.117494e-02
017	ACing	RPrec	-5.963945e-02	-1.075315e-01
017	ACing	RPrec1	-8.978066e-02	-1.200268e-01
017	ACing	RPrec2	-1.700757e-02	-6.387042e-02
017	ACing	MTG	-1.674908e-01	-2.579558e-02
017	ACing	MTG1	5.771309e-02	8.096748e-02
017	ACing	ACing1	-1.513738e-01	-3.011021e-02
017	ACing	LAG	4.994251e-02	-6.581047e-02
017	ACing	LAG1	3.763264e-02	-1.848472e-02
017	ACing	LAG2	8.296625e-02	-7.446638e-02
017	ACing	LAG3	6.437610e-02	-4.070878e-03
017	ACing	LAG4	1.280687e-01	3.519086e-02
017	ACing	RAG	-4.172625e-02	-1.491135e-01
017	ACing	RAG1	-1.833471e-02	-1.077616e-01
017	ACing	RAG2	-1.394583e-01	-1.428473e-01
012	ACing	Insula	1.646653e-01	9.097917e-02
012	ACing	Insula1	1.304866e-01	1.260821e-01
012	ACing	Insula2	2.537009e-01	1.071120e-01
012	ACing	Insula3	6.366356e-02	-7.093955e-02
012	ACing	Insula4	2.125327e-01	8.062956e-02
012	ACing	dACC	1.761248e-02	-4.680518e-02
012	ACing	RInsula	6.918429e-02	8.009526e-02
012	ACing	RInsula1	2.126160e-01	9.951293e-02
012	ACing	SPL	5.440510e-02	-6.805970e-02
012	ACing	SPL1	8.230344e-02	7.366699e-02
012	ACing	SPL2	-1.979035e-02	-2.225435e-02
012	ACing	RMFG	1.765862e-02	3.440209e-02
012	ACing	RMFG1	1.935917e-01	1.001573e-03
012	ACing	RMFG2	1.834749e-01	5.089007e-02
012	ACing	RTempPole	1.236909e-01	1.393091e-02
012	ACing	RTempPole1	-1.282013e-01	-2.775691e-02
012	ACing	RPrec	6.313276e-02	-3.166383e-02
012	ACing	RPrec1	1.938669e-01	-5.548426e-02
012	ACing	RPrec2	2.310447e-01	-3.569495e-02
012	ACing	MTG	6.815825e-02	4.415592e-02
012	ACing	MTG1	9.887981e-02	-4.309599e-02
012	ACing	ACing1	2.690012e-01	2.738806e-01
012	ACing	LAG	7.194673e-02	5.435624e-03
012	ACing	LAG1	1.372663e-01	2.047224e-02
012	ACing	LAG2	8.701797e-02	5.686541e-03
012	ACing	LAG3	7.857136e-02	-9.215619e-03
012	ACing	LAG4	6.837766e-02	2.693071e-02
012	ACing	RAG	3.293837e-02	1.610183e-02
012	ACing	RAG1	9.766050e-02	8.440539e-03
012	ACing	RAG2	1.112292e-01	2.854227e-02
013	ACing	Insula	2.031251e-01	2.890383e-01
013	ACing	Insula1	9.658429e-02	-9.656102e-02
013	ACing	Insula2	1.502298e-01	6.223608e-02
013	ACing	Insula3	6.523287e-02	6.204386e-02
013	ACing	Insula4	1.251979e-01	3.460616e-02
013	ACing	dACC	-3.245368e-02	3.781170e-03
013	ACing	RInsula	9.273027e-02	1.653357e-01
013	ACing	RInsula1	6.602004e-02	1.401155e-01
013	ACing	SPL	1.847686e-01	6.575855e-02
013	ACing	SPL1	5.276061e-02	1.174693e-01
013	ACing	SPL2	6.133289e-02	6.161252e-02
013	ACing	RMFG	1.518775e-01	2.062716e-01
013	ACing	RMFG1	1.197886e-01	1.963629e-01
013	ACing	RMFG2	5.661019e-02	1.106347e-01
013	ACing	RTempPole	3.453546e-02	1.074981e-01
013	ACing	RTempPole1	7.786457e-02	1.515122e-01
013	ACing	RPrec	1.008418e-01	3.355120e-02
013	ACing	RPrec1	1.190617e-01	3.665055e-02
013	ACing	RPrec2	1.210182e-01	-4.410935e-02
013	ACing	MTG	2.043357e-01	2.839685e-02
013	ACing	MTG1	8.444893e-02	8.335289e-02
013	ACing	ACing1	2.101542e-02	-8.602689e-02
013	ACing	LAG	1.241410e-01	1.328567e-01
013	ACing	LAG1	3.504357e-02	-2.655342e-03
013	ACing	LAG2	5.889962e-02	1.444796e-02
013	ACing	LAG3	8.438717e-02	7.533954e-02
013	ACing	LAG4	9.221532e-02	1.436131e-01
013	ACing	RAG	4.258813e-02	-1.209392e-02
013	ACing	RAG1	9.890749e-02	2.221056e-01
013	ACing	RAG2	1.615192e-01	3.334676e-01
014	ACing	Insula	1.963702e-01	-1.096404e-02
014	ACing	Insula1	3.456934e-01	1.268360e-01
014	ACing	Insula2	2.005115e-01	3.094002e-02
014	ACing	Insula3	9.997859e-02	-4.283886e-02
014	ACing	Insula4	2.897287e-01	1.198934e-01
014	ACing	dACC	2.095752e-01	1.173883e-01
014	ACing	RInsula	1.249736e-01	1.172116e-01
014	ACing	RInsula1	1.849618e-01	1.507593e-01
014	ACing	SPL	3.622552e-02	6.549025e-02
014	ACing	SPL1	7.773642e-02	8.650989e-04
014	ACing	SPL2	1.282156e-01	5.801331e-02
014	ACing	RMFG	3.580094e-02	-5.739017e-02
014	ACing	RMFG1	6.471216e-02	2.801312e-02
014	ACing	RMFG2	9.804539e-03	2.007518e-02
014	ACing	RTempPole	1.480334e-01	1.195405e-01
014	ACing	RTempPole1	1.063719e-01	1.160659e-01
014	ACing	RPrec	1.756054e-01	1.235094e-01
014	ACing	RPrec1	1.290324e-01	9.527088e-02
014	ACing	RPrec2	2.179608e-01	2.060132e-01
014	ACing	MTG	1.099232e-02	5.955582e-02
014	ACing	MTG1	9.324699e-02	8.910250e-04
014	ACing	ACing1	2.975873e-01	4.315605e-01
014	ACing	LAG	2.110778e-01	7.919687e-02
014	ACing	LAG1	1.762450e-01	1.887535e-01
014	ACing	LAG2	9.519776e-02	1.226327e-01
014	ACing	LAG3	1.492979e-01	1.332395e-01
014	ACing	LAG4	1.551695e-01	1.453212e-01
014	ACing	RAG	1.442850e-01	7.675028e-02
014	ACing	RAG1	2.032843e-01	1.168317e-01
014	ACing	RAG2	2.481201e-01	8.054608e-02
015	ACing	Insula	-4.142106e-02	-1.308151e-01
015	ACing	Insula1	-2.035638e-01	-3.442891e-01
015	ACing	Insula2	8.087837e-02	-6.589217e-02
015	ACing	Insula3	2.654024e-01	9.135758e-02
015	ACing	Insula4	2.773877e-03	-2.091796e-01
015	ACing	dACC	1.712502e-01	6.213737e-02
015	ACing	RInsula	8.664807e-03	-9.779608e-02
015	ACing	RInsula1	-2.188788e-01	-2.695365e-01
015	ACing	SPL	8.710177e-03	-1.551972e-01
015	ACing	SPL1	-1.166530e-01	-3.011602e-01
015	ACing	SPL2	-1.979549e-02	-1.821734e-01
015	ACing	RMFG	1.326143e-02	-5.014055e-02
015	ACing	RMFG1	-2.582647e-02	-9.730910e-02
015	ACing	RMFG2	1.282127e-01	6.911788e-03
015	ACing	RTempPole	6.568780e-02	-3.184690e-02
015	ACing	RTempPole1	1.516388e-01	1.413991e-02
015	ACing	RPrec	-8.388012e-02	-1.197914e-01
015	ACing	RPrec1	1.139885e-02	-1.064893e-01
015	ACing	RPrec2	8.639152e-02	-2.942084e-02
015	ACing	MTG	3.954934e-02	-7.116241e-02
015	ACing	MTG1	1.199973e-01	1.197683e-01
015	ACing	ACing1	-2.532908e-01	-5.460064e-01
015	ACing	LAG	3.561454e-02	-5.601612e-02
015	ACing	LAG1	-9.176574e-02	-2.775714e-01
015	ACing	LAG2	-2.273287e-02	-1.685966e-01
015	ACing	LAG3	-6.274704e-02	-1.661017e-01
015	ACing	LAG4	-1.222289e-01	-1.806411e-01
015	ACing	RAG	1.044270e-01	-3.387416e-02
015	ACing	RAG1	-2.343843e-02	-7.455556e-02
015	ACing	RAG2	-9.194120e-03	-1.573515e-01
016	ACing	Insula	1.567389e-01	1.806912e-01
016	ACing	Insula1	1.449712e-01	2.261810e-01
016	ACing	Insula2	-9.416075e-02	1.039557e-03
016	ACing	Insula3	5.769809e-02	-1.321593e-03
016	ACing	Insula4	9.888978e-02	1.213424e-01
016	ACing	dACC	1.179304e-02	-1.158779e-02
016	ACing	RInsula	1.244550e-01	1.605817e-01
016	ACing	RInsula1	-3.632545e-02	-4.459947e-02
016	ACing	SPL	-3.815091e-02	2.773541e-02
016	ACing	SPL1	1.312176e-01	2.007528e-01
016	ACing	SPL2	1.553407e-01	1.948646e-01
016	ACing	RMFG	9.245453e-02	2.439016e-02
016	ACing	RMFG1	8.036792e-02	2.412634e-01
016	ACing	RMFG2	6.459060e-02	1.210918e-01
016	ACing	RTempPole	-3.993731e-02	1.420013e-01
016	ACing	RTempPole1	-1.959036e-01	-2.072014e-03
016	ACing	RPrec	1.610919e-01	-2.191580e-02
016	ACing	RPrec1	1.445840e-01	1.101146e-01
016	ACing	RPrec2	1.408894e-01	1.321015e-01
016	ACing	MTG	9.740581e-02	3.228690e-02
016	ACing	MTG1	1.933582e-02	3.777763e-02
016	ACing	ACing1	-3.888466e-02	-1.897592e-01
016	ACing	LAG	3.830252e-02	7.514713e-02
016	ACing	LAG1	9.948293e-02	3.518947e-04
016	ACing	LAG2	1.647091e-01	2.504529e-01
016	ACing	LAG3	1.851531e-01	6.964036e-02
016	ACing	LAG4	1.527226e-01	3.755485e-03
016	ACing	RAG	8.191102e-02	1.619777e-01
016	ACing	RAG1	1.445189e-02	1.833128e-01
016	ACing	RAG2	1.703912e-01	3.583506e-01
018	ACing	Insula	-9.871266e-02	-1.031187e-01
018	ACing	Insula1	-6.778314e-02	-1.218503e-01
018	ACing	Insula2	-2.791904e-02	-7.260928e-02
018	ACing	Insula3	2.356137e-02	2.029469e-02
018	ACing	Insula4	-1.415887e-01	-1.180432e-02
018	ACing	dACC	-2.660684e-01	9.434328e-02
018	ACing	RInsula	-4.269392e-02	-1.598167e-01
018	ACing	RInsula1	1.587155e-02	-2.395514e-01
018	ACing	SPL	-8.859955e-02	-1.326280e-01
018	ACing	SPL1	-4.147959e-02	-3.794929e-02
018	ACing	SPL2	-1.713256e-01	5.427618e-02
018	ACing	RMFG	4.627277e-02	-4.457580e-02
018	ACing	RMFG1	-1.213819e-02	8.243371e-02
018	ACing	RMFG2	-7.128690e-02	-4.029231e-02
018	ACing	RTempPole	9.152125e-02	1.378976e-01
018	ACing	RTempPole1	-1.038030e-01	-8.139819e-02
018	ACing	RPrec	-6.341873e-02	-1.387281e-01
018	ACing	RPrec1	2.393324e-01	1.504348e-01
018	ACing	RPrec2	7.564851e-02	1.520334e-02
018	ACing	MTG	3.404808e-02	-1.365240e-01
018	ACing	MTG1	-1.941936e-02	1.274182e-01
018	ACing	ACing1	-8.009369e-02	2.437570e-03
018	ACing	LAG	4.172596e-02	5.595024e-02
018	ACing	LAG1	-5.223102e-03	1.652356e-02
018	ACing	LAG2	-1.778360e-01	-1.043308e-01
018	ACing	LAG3	-1.302133e-01	-1.842903e-01
018	ACing	LAG4	4.302500e-02	1.169833e-01
018	ACing	RAG	-9.444944e-02	-5.145393e-02
018	ACing	RAG1	2.066119e-01	8.117520e-02
018	ACing	RAG2	1.592011e-01	5.207184e-02
019	ACing	Insula	1.013919e-01	-4.348755e-02
019	ACing	Insula1	1.094969e-01	1.294583e-02
019	ACing	Insula2	1.743595e-01	9.060536e-02
019	ACing	Insula3	-2.610423e-03	-4.651816e-02
019	ACing	Insula4	1.078132e-01	-1.041995e-01
019	ACing	dACC	6.663127e-03	9.498139e-02
019	ACing	RInsula	2.942955e-02	-2.423046e-02
019	ACing	RInsula1	1.031439e-01	-8.719055e-03
019	ACing	SPL	7.919170e-02	2.497234e-03
019	ACing	SPL1	8.884989e-02	-9.390755e-02
019	ACing	SPL2	1.140588e-01	3.309114e-02
019	ACing	RMFG	1.002175e-01	3.616624e-02
019	ACing	RMFG1	1.086511e-01	-4.766257e-02
019	ACing	RMFG2	8.318509e-03	2.646278e-02
019	ACing	RTempPole	-1.026971e-01	-1.760250e-01
019	ACing	RTempPole1	5.968369e-02	2.603365e-02
019	ACing	RPrec	-3.592248e-03	-1.011633e-01
019	ACing	RPrec1	2.994123e-02	-8.923446e-02
019	ACing	RPrec2	3.133040e-02	-1.236056e-01
019	ACing	MTG	-3.827527e-02	-9.289252e-02
019	ACing	MTG1	-5.425762e-02	-1.027140e-01
019	ACing	ACing1	-2.982897e-02	1.722799e-01
019	ACing	LAG	6.733420e-03	-5.089093e-02
019	ACing	LAG1	-3.815128e-02	-1.288177e-01
019	ACing	LAG2	-1.607714e-02	-1.226480e-01
019	ACing	LAG3	3.802937e-02	-9.568878e-02
019	ACing	LAG4	3.300679e-02	-1.183403e-01
019	ACing	RAG	9.704663e-02	-1.031754e-01
019	ACing	RAG1	9.115424e-02	-1.146667e-02
019	ACing	RAG2	7.293471e-02	-6.047990e-02
020	ACing	Insula	4.486594e-02	7.505278e-02
020	ACing	Insula1	2.244510e-01	2.791641e-01
020	ACing	Insula2	-5.455249e-02	1.644960e-02
020	ACing	Insula3	6.332305e-03	6.865104e-02
020	ACing	Insula4	2.545096e-01	2.682529e-01
020	ACing	dACC	-1.766694e-02	-9.110239e-02
020	ACing	RInsula	8.487566e-03	-7.164724e-02
020	ACing	RInsula1	8.851886e-02	1.771691e-01
020	ACing	SPL	-2.408351e-01	-1.227537e-01
020	ACing	SPL1	1.049156e-01	4.474740e-02
020	ACing	SPL2	-3.302841e-02	-7.538155e-02
020	ACing	RMFG	2.464438e-02	1.529113e-01
020	ACing	RMFG1	-3.893086e-02	2.581926e-02
020	ACing	RMFG2	-1.027989e-02	3.677817e-02
020	ACing	RTempPole	2.210437e-01	2.888431e-02
020	ACing	RTempPole1	6.640294e-02	-1.159306e-01
020	ACing	RPrec	7.199602e-02	-2.061016e-01
020	ACing	RPrec1	4.627105e-02	-1.717218e-01
020	ACing	RPrec2	2.556530e-01	-7.487121e-02
020	ACing	MTG	2.049392e-02	-1.190426e-01
020	ACing	MTG1	7.960787e-02	-1.573343e-02
020	ACing	ACing1	2.643120e-01	-2.386817e-02
020	ACing	LAG	1.231615e-01	8.893621e-02
020	ACing	LAG1	7.504500e-02	-9.526720e-02
020	ACing	LAG2	1.959976e-01	2.608776e-02
020	ACing	LAG3	-5.243279e-02	-1.563296e-01
020	ACing	LAG4	1.259182e-01	-8.789583e-02
020	ACing	RAG	-2.462126e-03	-9.126029e-03
020	ACing	RAG1	6.789206e-02	3.659537e-02
020	ACing	RAG2	-1.310229e-01	-2.643946e-01
021	ACing	Insula	9.212945e-02	1.400147e-01
021	ACing	Insula1	1.554364e-01	6.431339e-02
021	ACing	Insula2	1.104245e-01	1.406340e-01
021	ACing	Insula3	8.788698e-02	6.014563e-03
021	ACing	Insula4	2.593356e-01	5.390820e-02
021	ACing	dACC	2.019510e-01	2.745792e-01
021	ACing	RInsula	1.850667e-01	1.303127e-01
021	ACing	RInsula1	1.251789e-01	-3.511054e-02
021	ACing	SPL	2.125121e-01	2.140180e-01
021	ACing	SPL1	2.441718e-01	1.827552e-01
021	ACing	SPL2	1.341382e-01	3.815058e-02
021	ACing	RMFG	2.961604e-02	6.597364e-02
021	ACing	RMFG1	1.260002e-01	-4.710065e-02
021	ACing	RMFG2	-1.227035e-02	1.558125e-01
021	ACing	RTempPole	1.396800e-01	9.241943e-02
021	ACing	RTempPole1	9.480823e-02	4.498407e-02
021	ACing	RPrec	8.907261e-02	1.698762e-02
021	ACing	RPrec1	2.650862e-01	6.393941e-02
021	ACing	RPrec2	3.627169e-01	9.141699e-03
021	ACing	MTG	1.028871e-01	9.804333e-02
021	ACing	MTG1	1.779153e-01	1.086119e-01
021	ACing	ACing1	-1.886250e-02	-3.090035e-01
021	ACing	LAG	6.186847e-02	3.589398e-02
021	ACing	LAG1	2.599764e-01	7.108013e-02
021	ACing	LAG2	1.502846e-01	4.452773e-02
021	ACing	LAG3	1.400097e-01	3.007983e-02
021	ACing	LAG4	2.384204e-01	5.569986e-02
021	ACing	RAG	2.145121e-01	7.103041e-02
021	ACing	RAG1	1.539277e-01	8.904223e-02
021	ACing	RAG2	2.541498e-01	1.924390e-01
022	ACing	Insula	1.718845e-01	1.264214e-01
022	ACing	Insula1	1.078480e-01	2.213558e-02
022	ACing	Insula2	1.794242e-01	1.200815e-01
022	ACing	Insula3	1.233051e-01	7.318918e-04
022	ACing	Insula4	1.512497e-01	-4.292662e-02
022	ACing	dACC	2.902095e-01	2.662099e-01
022	ACing	RInsula	1.201673e-01	-5.149753e-02
022	ACing	RInsula1	3.297478e-02	3.718730e-02
022	ACing	SPL	1.221467e-01	3.793369e-03
022	ACing	SPL1	2.854825e-01	2.215798e-01
022	ACing	SPL2	1.124244e-01	1.451757e-01
022	ACing	RMFG	1.358044e-01	1.227101e-02
022	ACing	RMFG1	1.843180e-01	-1.785696e-02
022	ACing	RMFG2	1.616580e-01	1.337617e-01
022	ACing	RTempPole	7.536252e-02	-2.100036e-02
022	ACing	RTempPole1	2.277815e-01	1.609071e-01
022	ACing	RPrec	1.974586e-01	-3.451386e-02
022	ACing	RPrec1	1.254201e-01	-1.332988e-01
022	ACing	RPrec2	9.040404e-02	-1.464209e-02
022	ACing	MTG	1.456295e-01	2.395200e-02
022	ACing	MTG1	1.323630e-01	-2.224172e-02
022	ACing	ACing1	4.927450e-02	-2.310499e-01
022	ACing	LAG	9.741872e-03	-9.550713e-02
022	ACing	LAG1	1.921064e-01	-2.063266e-02
022	ACing	LAG2	8.997611e-02	-1.189223e-02
022	ACing	LAG3	2.282192e-01	1.443924e-01
022	ACing	LAG4	3.096100e-01	4.439463e-02
022	ACing	RAG	1.739189e-01	-9.106956e-03
022	ACing	RAG1	2.609576e-01	1.363381e-01
022	ACing	RAG2	8.712211e-02	1.098183e-01
023	ACing	Insula	-3.269594e-01	-2.797192e-01
023	ACing	Insula1	-9.120380e-02	-4.017929e-01
023	ACing	Insula2	-7.324038e-02	-1.748628e-01
023	ACing	Insula3	-8.853092e-02	-1.820958e-01
023	ACing	Insula4	-2.481590e-01	-3.360046e-01
023	ACing	dACC	-4.103614e-01	-9.242815e-01
023	ACing	RInsula	-1.016974e-01	-4.894980e-02
023	ACing	RInsula1	-2.484782e-01	-2.593488e-01
023	ACing	SPL	3.274674e-02	6.060462e-02
023	ACing	SPL1	7.946393e-02	-1.093131e-01
023	ACing	SPL2	-3.634900e-02	6.462624e-03
023	ACing	RMFG	-6.082553e-02	-1.119761e-01
023	ACing	RMFG1	-1.703391e-01	-3.032602e-01
023	ACing	RMFG2	-6.978933e-04	-6.323143e-02
023	ACing	RTempPole	-6.807552e-03	-2.989907e-01
023	ACing	RTempPole1	-9.466364e-03	-1.863901e-01
023	ACing	RPrec	2.155337e-02	-4.282642e-01
023	ACing	RPrec1	4.187138e-02	-3.669758e-01
023	ACing	RPrec2	7.565511e-02	-2.957731e-01
023	ACing	MTG	-1.600210e-02	-1.220221e-01
023	ACing	MTG1	-8.166620e-02	-3.001810e-01
023	ACing	ACing1	8.258823e-02	-3.992660e-01
023	ACing	LAG	3.521911e-02	-2.402874e-01
023	ACing	LAG1	6.236016e-02	-1.458392e-01
023	ACing	LAG2	-8.141891e-03	-3.635130e-01
023	ACing	LAG3	-2.331562e-02	-5.678452e-01
023	ACing	LAG4	3.246133e-02	-3.710929e-01
023	ACing	RAG	-2.314329e-02	-2.622816e-01
023	ACing	RAG1	-1.603747e-02	-2.806994e-01
023	ACing	RAG2	-2.580198e-02	-4.650490e-01
024	ACing	Insula	8.349978e-02	2.205727e-01
024	ACing	Insula1	2.421116e-01	4.091030e-01
024	ACing	Insula2	1.758513e-02	1.401816e-01
024	ACing	Insula3	2.858836e-02	1.362124e-01
024	ACing	Insula4	5.773900e-02	3.394735e-01
024	ACing	dACC	1.663853e-01	2.209114e-01
024	ACing	RInsula	-2.885869e-02	1.962267e-01
024	ACing	RInsula1	3.966502e-01	6.012507e-01
024	ACing	SPL	-2.266675e-02	2.069238e-01
024	ACing	SPL1	-1.236354e-01	4.653163e-02
024	ACing	SPL2	-9.827171e-02	3.415808e-02
024	ACing	RMFG	1.320635e-01	3.029417e-01
024	ACing	RMFG1	-1.536788e-01	2.814263e-01
024	ACing	RMFG2	-1.926921e-01	7.637776e-02
024	ACing	RTempPole	-5.140778e-02	6.080559e-02
024	ACing	RTempPole1	-2.089354e-02	1.887163e-01
024	ACing	RPrec	-7.915064e-02	-1.285740e-01
024	ACing	RPrec1	-2.158615e-01	-1.795199e-02
024	ACing	RPrec2	1.453271e-02	8.438384e-02
024	ACing	MTG	-3.506274e-02	1.954571e-01
024	ACing	MTG1	-7.911662e-02	1.205378e-01
024	ACing	ACing1	-4.925918e-01	-2.039723e-01
024	ACing	LAG	-2.171604e-01	-1.754543e-01
024	ACing	LAG1	-9.038915e-02	-1.107220e-01
024	ACing	LAG2	2.769708e-02	-5.243543e-02
024	ACing	LAG3	-7.310183e-02	1.074666e-01
024	ACing	LAG4	-1.053106e-02	3.061098e-02
024	ACing	RAG	-1.236873e-01	7.309466e-03
024	ACing	RAG1	-1.468994e-01	-1.145021e-01
024	ACing	RAG2	-6.492574e-02	9.732127e-03
025	ACing	Insula	-1.641378e-01	2.685039e-03
025	ACing	Insula1	-5.726679e-03	9.623454e-02
025	ACing	Insula2	-1.291062e-01	-1.195768e-02
025	ACing	Insula3	1.273213e-01	9.808794e-02
025	ACing	Insula4	1.143580e-01	1.314699e-01
025	ACing	dACC	-5.498477e-02	1.852425e-01
025	ACing	RInsula	1.333916e-01	3.360371e-02
025	ACing	RInsula1	2.426672e-01	-4.810897e-02
025	ACing	SPL	-1.129279e-02	9.941288e-02
025	ACing	SPL1	1.728718e-01	6.214423e-04
025	ACing	SPL2	-1.817240e-01	1.981876e-02
025	ACing	RMFG	-2.728995e-02	2.818072e-02
025	ACing	RMFG1	-7.371183e-02	3.534215e-02
025	ACing	RMFG2	-2.397737e-02	6.646294e-03
025	ACing	RTempPole	-5.081098e-02	-1.480924e-01
025	ACing	RTempPole1	3.136726e-02	-4.175488e-02
025	ACing	RPrec	2.405097e-01	-1.059370e-01
025	ACing	RPrec1	-1.643954e-01	-4.464970e-02
025	ACing	RPrec2	-3.036621e-02	-1.499615e-01
025	ACing	MTG	-1.009333e-01	-1.317491e-03
025	ACing	MTG1	-4.222987e-02	-7.791528e-02
025	ACing	ACing1	2.383075e-01	-2.895976e-01
025	ACing	LAG	-1.076157e-03	-1.808271e-01
025	ACing	LAG1	-7.067755e-03	-3.711097e-02
025	ACing	LAG2	-1.569638e-01	-1.516524e-01
025	ACing	LAG3	8.501050e-03	-4.957966e-02
025	ACing	LAG4	-2.754748e-03	5.904787e-02
025	ACing	RAG	3.231025e-02	-3.731466e-02
025	ACing	RAG1	1.239136e-02	1.212380e-01
025	ACing	RAG2	-4.328269e-02	1.759312e-01
027	ACing	Insula	-4.476759e-02	-3.130205e-02
027	ACing	Insula1	4.128198e-02	2.890486e-02
027	ACing	Insula2	1.740916e-01	1.880409e-01
027	ACing	Insula3	2.797356e-01	2.328256e-01
027	ACing	Insula4	9.979408e-02	1.797029e-01
027	ACing	dACC	6.792300e-01	2.361027e-01
027	ACing	RInsula	1.935317e-01	2.077419e-01
027	ACing	RInsula1	3.223637e-01	1.684135e-01
027	ACing	SPL	1.560616e-01	7.281482e-02
027	ACing	SPL1	1.210535e-01	3.421926e-02
027	ACing	SPL2	1.747061e-01	1.267918e-01
027	ACing	RMFG	2.734951e-01	2.226398e-01
027	ACing	RMFG1	1.962255e-01	2.094583e-01
027	ACing	RMFG2	1.869964e-01	1.379846e-01
027	ACing	RTempPole	2.809287e-01	3.359231e-01
027	ACing	RTempPole1	2.712892e-01	1.424021e-01
027	ACing	RPrec	4.072089e-01	2.535783e-01
027	ACing	RPrec1	5.008836e-01	1.464682e-01
027	ACing	RPrec2	3.624353e-01	2.585354e-01
027	ACing	MTG	1.350887e-01	1.170841e-01
027	ACing	MTG1	1.802841e-01	1.692181e-01
027	ACing	ACing1	1.666336e-01	-1.663921e-01
027	ACing	LAG	2.334322e-01	2.600942e-01
027	ACing	LAG1	3.710659e-01	2.986592e-01
027	ACing	LAG2	2.727404e-01	1.839399e-01
027	ACing	LAG3	1.973433e-01	2.243364e-01
027	ACing	LAG4	5.001411e-02	1.420654e-01
027	ACing	RAG	3.081179e-01	1.873877e-01
027	ACing	RAG1	5.024748e-01	2.994733e-01
027	ACing	RAG2	2.449601e-01	1.572083e-01
028	ACing	Insula	-1.711151e-01	-1.911961e-02
028	ACing	Insula1	1.494173e-01	-3.939708e-02
028	ACing	Insula2	-8.261545e-02	-7.329143e-02
028	ACing	Insula3	-2.661710e-02	-8.812855e-02
028	ACing	Insula4	-3.446951e-02	-1.660916e-01
028	ACing	dACC	3.605843e-01	-2.752450e-02
028	ACing	RInsula	-6.863120e-02	-3.655783e-02
028	ACing	RInsula1	-1.787308e-02	-2.672888e-02
028	ACing	SPL	2.090870e-02	2.090975e-02
028	ACing	SPL1	-5.756840e-02	1.552383e-02
028	ACing	SPL2	1.161015e-01	1.636288e-02
028	ACing	RMFG	8.847110e-02	7.504644e-02
028	ACing	RMFG1	1.275446e-01	1.331890e-01
028	ACing	RMFG2	-1.287901e-01	-2.346036e-02
028	ACing	RTempPole	1.194612e-02	1.447059e-01
028	ACing	RTempPole1	1.596520e-01	3.160903e-02
028	ACing	RPrec	7.638021e-02	-6.103968e-02
028	ACing	RPrec1	3.606532e-02	1.881812e-02
028	ACing	RPrec2	-3.363587e-02	-5.902272e-02
028	ACing	MTG	3.416368e-02	3.270057e-02
028	ACing	MTG1	-1.110004e-01	8.142164e-04
028	ACing	ACing1	-3.733829e-01	-4.627225e-01
028	ACing	LAG	1.419686e-02	-1.285750e-01
028	ACing	LAG1	-1.436820e-01	-2.734796e-02
028	ACing	LAG2	1.427785e-02	7.030081e-02
028	ACing	LAG3	1.058739e-01	-2.857507e-02
028	ACing	LAG4	-1.039103e-02	-1.260343e-01
028	ACing	RAG	-6.127981e-02	1.426295e-02
028	ACing	RAG1	-1.229809e-02	1.008707e-01
028	ACing	RAG2	7.455164e-02	6.411768e-02
029	ACing	Insula	1.881405e-01	1.398656e-01
029	ACing	Insula1	2.324170e-01	3.502074e-03
029	ACing	Insula2	1.395158e-01	-1.259346e-01
029	ACing	Insula3	7.762744e-02	7.307634e-02
029	ACing	Insula4	1.181947e-01	-4.594342e-02
029	ACing	dACC	2.891440e-01	3.075316e-01
029	ACing	RInsula	6.233012e-02	1.439891e-02
029	ACing	RInsula1	-3.444453e-02	1.437392e-01
029	ACing	SPL	1.877134e-01	1.421514e-01
029	ACing	SPL1	1.232118e-01	-4.539630e-02
029	ACing	SPL2	1.455341e-01	2.436778e-02
029	ACing	RMFG	1.094395e-01	1.006044e-01
029	ACing	RMFG1	1.500419e-01	5.383388e-02
029	ACing	RMFG2	4.419850e-02	1.545411e-01
029	ACing	RTempPole	2.160974e-01	2.574479e-02
029	ACing	RTempPole1	6.558345e-02	4.647906e-02
029	ACing	RPrec	-4.104740e-02	-8.927317e-02
029	ACing	RPrec1	2.057476e-01	1.120734e-01
029	ACing	RPrec2	3.014577e-01	1.245486e-01
029	ACing	MTG	7.153247e-02	7.250025e-02
029	ACing	MTG1	-3.074750e-02	-2.927023e-02
029	ACing	ACing1	1.759016e-01	1.685985e-01
029	ACing	LAG	2.062946e-02	3.295919e-04
029	ACing	LAG1	6.165189e-02	6.890882e-02
029	ACing	LAG2	1.008151e-01	-3.276943e-02
029	ACing	LAG3	1.707886e-01	6.998942e-02
029	ACing	LAG4	1.754621e-01	-1.405624e-02
029	ACing	RAG	1.639390e-01	5.073952e-03
029	ACing	RAG1	1.389943e-01	4.602640e-02
029	ACing	RAG2	1.728712e-01	5.183437e-02
030	ACing	Insula	3.699322e-01	2.974457e-01
030	ACing	Insula1	3.364536e-01	2.299938e-01
030	ACing	Insula2	3.310963e-01	3.221447e-01
030	ACing	Insula3	3.403817e-01	-2.252765e-02
030	ACing	Insula4	2.485708e-01	1.453520e-01
030	ACing	dACC	2.305284e-01	1.285768e-01
030	ACing	RInsula	3.807008e-01	2.744648e-01
030	ACing	RInsula1	2.289971e-01	1.893929e-01
030	ACing	SPL	1.804580e-01	2.638466e-01
030	ACing	SPL1	1.860928e-01	2.972379e-01
030	ACing	SPL2	2.570721e-01	2.455538e-01
030	ACing	RMFG	1.754480e-01	1.590557e-01
030	ACing	RMFG1	2.259982e-01	2.540780e-01
030	ACing	RMFG2	9.973587e-02	3.895081e-02
030	ACing	RTempPole	2.163178e-01	8.189082e-02
030	ACing	RTempPole1	1.653323e-01	1.429619e-01
030	ACing	RPrec	5.142146e-02	-1.006445e-01
030	ACing	RPrec1	1.367511e-01	1.499972e-01
030	ACing	RPrec2	5.745990e-02	3.153653e-02
030	ACing	MTG	2.146017e-01	4.337397e-02
030	ACing	MTG1	2.027672e-01	7.559367e-02
030	ACing	ACing1	5.025936e-01	8.628269e-03
030	ACing	LAG	7.500243e-02	4.034780e-02
030	ACing	LAG1	9.701359e-02	9.169035e-04
030	ACing	LAG2	6.839152e-02	4.657858e-02
030	ACing	LAG3	1.196341e-01	2.714934e-02
030	ACing	LAG4	1.557553e-01	9.895758e-02
030	ACing	RAG	7.730881e-02	3.671519e-02
030	ACing	RAG1	1.644301e-01	5.578862e-02
030	ACing	RAG2	2.407424e-01	1.801984e-01
031	ACing	Insula	-4.110727e-01	-7.585871e-02
031	ACing	Insula1	-2.158399e-01	-4.896040e-02
031	ACing	Insula2	-2.200613e-01	-1.101524e-01
031	ACing	Insula3	-1.639957e-01	-5.355223e-02
031	ACing	Insula4	-2.266012e-01	-1.078292e-01
031	ACing	dACC	-8.280752e-02	8.072605e-02
031	ACing	RInsula	-5.811443e-02	6.507628e-02
031	ACing	RInsula1	-2.235813e-01	-5.939107e-02
031	ACing	SPL	-7.606608e-03	-1.018341e-02
031	ACing	SPL1	-4.881638e-02	6.852592e-02
031	ACing	SPL2	-1.841312e-01	8.213722e-02
031	ACing	RMFG	-5.578927e-02	-9.557072e-02
031	ACing	RMFG1	-2.146335e-01	-5.617785e-02
031	ACing	RMFG2	-1.989725e-01	-4.588217e-02
031	ACing	RTempPole	-1.644761e-01	-1.243246e-02
031	ACing	RTempPole1	-1.729822e-01	5.503491e-03
031	ACing	RPrec	-2.542793e-01	4.286970e-04
031	ACing	RPrec1	-1.465558e-02	-2.369086e-02
031	ACing	RPrec2	-4.366932e-02	-2.136757e-01
031	ACing	MTG	5.892097e-03	-7.013271e-02
031	ACing	MTG1	-1.568581e-01	-1.895869e-01
031	ACing	ACing1	-3.419884e-01	-2.398637e-02
031	ACing	LAG	-2.258322e-02	-1.211643e-01
031	ACing	LAG1	-1.244840e-01	-1.221937e-01
031	ACing	LAG2	-1.750388e-01	-2.737483e-03
031	ACing	LAG3	-6.277535e-02	-1.155955e-01
031	ACing	LAG4	-8.369966e-02	-9.332009e-02
031	ACing	RAG	-2.956770e-01	-2.694995e-02
031	ACing	RAG1	-9.377086e-02	-2.429686e-02
031	ACing	RAG2	-2.094044e-01	-1.710097e-01
